Id	Weibull Discovery Time	Discovery Time	Fraction Discovery	Information Time	Fraction Information
21	30357.0	20265.0	0.9125	2661.0	1.0
5	28759.0	18631.0	0.8937	2910.0	1.0
29	32640.0	21375.0	0.8875	3196.0	1.0
6	27551.0	19919.0	0.9063	2980.0	1.0
35	26651.0	19579.0	0.925	2830.0	1.0
28	27099.0	22038.0	0.9313	2566.0	1.0
39	32230.0	21676.0	0.8875	2791.0	1.0
12	30928.0	19849.0	0.9063	3507.0	1.0
31	29719.0	20003.0	0.875	3640.0	1.0
29	29576.0	18585.0	0.8875	2261.0	1.0
5	28824.0	19734.0	0.9	2082.0	1.0
0	33503.0	20404.0	0.875	2869.0	1.0
25	27176.0	18713.0	0.8875	3601.0	1.0
25	23384.0	17421.0	0.9	3072.0	1.0
0	23482.0	18927.0	0.9187	2887.0	1.0
31	33897.0	22104.0	0.8813	4160.0	1.0
37	32316.0	19442.0	0.8937	3651.0	1.0
15	31934.0	18969.0	0.85	2797.0	1.0
12	33064.0	22945.0	0.8812	3172.0	1.0
6	25044.0	19370.0	0.9187	3658.0	1.0
22	37493.0	23309.0	0.8563	3100.0	1.0
32	34318.0	22895.0	0.8938	2889.0	1.0
3	28845.0	18904.0	0.8688	2528.0	1.0
20	27719.0	23903.0	0.95	2920.0	1.0
38	26649.0	20296.0	0.9313	3718.0	1.0
14	27900.0	19382.0	0.9	2780.0	1.0
5	24472.0	16930.0	0.8938	2523.0	1.0
35	33605.0	19452.0	0.8625	2953.0	1.0
25	25736.0	18813.0	0.9125	2703.0	1.0
27	27958.0	21776.0	0.8938	3422.0	1.0
4	28148.0	19504.0	0.8875	2873.0	1.0
34	30299.0	18938.0	0.8563	3406.0	1.0
30	32925.0	20649.0	0.8875	2504.0	1.0
4	25179.0	17946.0	0.9187	2128.0	1.0
39	24645.0	20108.0	0.9375	2961.0	1.0
26	25637.0	19276.0	0.9187	2913.0	1.0
23	26969.0	18782.0	0.9125	2493.0	1.0
9	27532.0	20442.0	0.9125	3140.0	1.0
25	22317.0	17603.0	0.9437	2141.0	1.0
25	28202.0	20941.0	0.9062	2404.0	1.0
11	23284.0	18976.0	0.925	3320.0	1.0
5	20187.0	18318.0	0.95	2604.0	1.0
39	24038.0	18138.0	0.9062	2465.0	1.0
30	25458.0	18024.0	0.9	2363.0	1.0
17	20469.0	15405.0	0.9188	2134.0	1.0
8	28052.0	22219.0	0.9125	3346.0	1.0
25	31619.0	19339.0	0.8438	2970.0	1.0
22	28247.0	19706.0	0.9	2383.0	1.0
23	21198.0	17099.0	0.9438	2151.0	1.0
39	33320.0	20571.0	0.8625	2504.0	1.0
5	23038.0	16705.0	0.9	2873.0	1.0
3	35135.0	22265.0	0.875	3110.0	1.0
26	28755.0	18816.0	0.8688	2569.0	1.0
31	24111.0	16207.0	0.8875	2100.0	1.0
3	28952.0	21266.0	0.8938	3797.0	1.0
6	22162.0	18270.0	0.9063	2980.0	1.0
24	36634.0	22742.0	0.875	2986.0	1.0
6	28994.0	17919.0	0.85	2588.0	1.0
10	28062.0	18875.0	0.8688	2938.0	1.0
18	38356.0	23989.0	0.875	2798.0	1.0
15	26134.0	20402.0	0.9437	2527.0	1.0
17	30635.0	21453.0	0.8937	3163.0	1.0
16	24287.0	16760.0	0.8938	2182.0	1.0
10	39332.0	21547.0	0.8	3687.0	1.0
6	30577.0	20224.0	0.875	2813.0	1.0
11	22316.0	14993.0	0.8938	1995.0	1.0
10	32208.0	19006.0	0.8688	2540.0	1.0
38	36484.0	25903.0	0.9	4424.0	1.0
19	37755.0	25881.0	0.8938	5178.0	1.0
30	31889.0	19006.0	0.8625	2708.0	1.0
3	23380.0	18937.0	0.9062	2354.0	1.0
10	24534.0	18151.0	0.9	2891.0	1.0
27	31989.0	21108.0	0.9	2596.0	1.0
36	23947.0	17805.0	0.8938	2584.0	1.0
12	26402.0	18480.0	0.9	2644.0	1.0
6	30403.0	22185.0	0.9313	2570.0	1.0
24	25580.0	17596.0	0.9313	2354.0	1.0
26	21568.0	18038.0	0.95	2323.0	1.0
39	29714.0	19838.0	0.8875	2647.0	1.0
39	25093.0	19008.0	0.9375	2165.0	1.0
19	21254.0	18074.0	0.95	2374.0	1.0
14	24585.0	15605.0	0.8812	2363.0	1.0
11	23226.0	17879.0	0.9125	2862.0	1.0
7	26258.0	21906.0	0.9188	3054.0	1.0
34	31427.0	20319.0	0.875	2606.0	1.0
5	26582.0	18892.0	0.9	2536.0	1.0
2	31169.0	20932.0	0.8688	3185.0	1.0
13	23830.0	18527.0	0.925	2449.0	1.0
14	24567.0	16411.0	0.8937	2803.0	1.0
5	26229.0	17213.0	0.8875	2868.0	1.0
21	25117.0	18388.0	0.9062	3111.0	1.0
21	24166.0	17397.0	0.8875	2405.0	1.0
33	24699.0	20438.0	0.9438	2940.0	1.0
6	28430.0	21452.0	0.9062	3044.0	1.0
5	33520.0	20683.0	0.8562	4199.0	1.0
31	31907.0	18001.0	0.85	2319.0	1.0
26	25164.0	19332.0	0.9063	3342.0	1.0
30	28778.0	21981.0	0.925	2784.0	1.0
36	20662.0	15953.0	0.9125	2066.0	1.0
25	34657.0	21698.0	0.875	3163.0	1.0
25	30534.0	20794.0	0.9	3106.0	1.0
6	26282.0	19592.0	0.9	3335.0	1.0
14	29782.0	19558.0	0.9	2338.0	1.0
36	35690.0	21608.0	0.8438	2648.0	1.0
37	32922.0	18332.0	0.8625	2150.0	1.0
28	19940.0	16652.0	0.9688	1677.0	1.0
9	34538.0	21694.0	0.8813	2242.0	1.0
22	31516.0	19387.0	0.8563	2617.0	1.0
11	26281.0	20387.0	0.9375	3304.0	1.0
17	25730.0	19322.0	0.9125	2569.0	1.0
36	32054.0	21300.0	0.8812	2840.0	1.0
30	20481.0	15425.0	0.9125	2771.0	1.0
7	27741.0	17999.0	0.8938	2567.0	1.0
20	23676.0	17128.0	0.9125	2404.0	1.0
3	32049.0	24265.0	0.9063	4272.0	1.0
23	22436.0	16439.0	0.9125	2740.0	1.0
34	19887.0	16430.0	0.9813	2106.0	1.0
37	24955.0	18999.0	0.9062	2617.0	1.0
14	27743.0	20154.0	0.9187	3034.0	1.0
27	23856.0	18915.0	0.9062	3276.0	1.0
31	22072.0	17864.0	0.9625	2133.0	1.0
5	22742.0	16623.0	0.925	2952.0	1.0
15	28059.0	17907.0	0.8875	3116.0	1.0
30	32886.0	21405.0	0.8562	3895.0	1.0
6	17202.0	14542.0	0.9313	2373.0	1.0
10	27188.0	23436.0	0.9375	4491.0	1.0
11	25472.0	21377.0	0.9375	3523.0	1.0
17	24711.0	16098.0	0.8938	2091.0	1.0
14	27996.0	21718.0	0.9313	2864.0	1.0
6	29621.0	19330.0	0.875	2686.0	1.0
27	25370.0	19286.0	0.9062	3458.0	1.0
36	26190.0	20263.0	0.9188	3255.0	1.0
34	20850.0	18107.0	0.9625	2688.0	1.0
25	24126.0	16322.0	0.9062	2191.0	1.0
23	20980.0	17473.0	0.9313	2655.0	1.0
14	20343.0	16792.0	0.9313	2925.0	1.0
13	18862.0	14370.0	0.9437	1625.0	1.0
27	23500.0	20644.0	0.9563	3883.0	1.0
29	27976.0	20550.0	0.9	2929.0	1.0
17	30255.0	23189.0	0.9375	3091.0	1.0
37	20372.0	17785.0	0.975	2303.0	1.0
30	28060.0	19252.0	0.8938	3218.0	1.0
2	26589.0	23111.0	0.9312	4032.0	1.0
2	30571.0	22547.0	0.8875	3904.0	1.0
15	23588.0	19764.0	0.9125	3410.0	1.0
14	32310.0	23336.0	0.9062	3825.0	1.0
6	22509.0	18886.0	0.925	3333.0	1.0
37	27036.0	20954.0	0.9375	2948.0	1.0
9	21022.0	18204.0	0.9438	2336.0	1.0
12	26604.0	20372.0	0.9313	2802.0	1.0
36	28632.0	20745.0	0.9188	2508.0	1.0
21	32493.0	21117.0	0.8563	2623.0	1.0
34	22266.0	19828.0	0.9688	2489.0	1.0
27	26246.0	18524.0	0.9062	2686.0	1.0
17	28680.0	21612.0	0.9125	4030.0	1.0
33	18544.0	15056.0	0.9438	2003.0	1.0
23	24333.0	19607.0	0.9437	2332.0	1.0
36	25013.0	17925.0	0.9062	2702.0	1.0
29	22680.0	17905.0	0.925	2732.0	1.0
36	29437.0	20644.0	0.9	3678.0	1.0
5	21974.0	17726.0	0.95	2543.0	1.0
14	22752.0	17839.0	0.9062	3171.0	1.0
9	23252.0	18835.0	0.95	2100.0	1.0
36	22602.0	16583.0	0.9	2500.0	1.0
8	23128.0	17126.0	0.925	2388.0	1.0
35	24941.0	17993.0	0.9187	3141.0	1.0
21	24939.0	20087.0	0.9438	2972.0	1.0
6	25676.0	18957.0	0.9313	2866.0	1.0
6	27172.0	19993.0	0.9125	4292.0	1.0
5	24194.0	18787.0	0.9188	2535.0	1.0
10	24075.0	17590.0	0.9375	2416.0	1.0
27	24792.0	20650.0	0.9313	3087.0	1.0
26	22726.0	17562.0	0.9313	2170.0	1.0
12	22355.0	17759.0	0.925	3100.0	1.0
12	17872.0	16842.0	0.9813	2760.0	1.0
18	30795.0	19754.0	0.875	2853.0	1.0
24	24300.0	20828.0	0.9375	2200.0	1.0
0	26116.0	20048.0	0.925	2021.0	1.0
2	36010.0	23983.0	0.8813	3535.0	1.0
1	20706.0	17405.0	0.9313	3480.0	1.0
36	21881.0	18010.0	0.9375	3094.0	1.0
17	24175.0	18400.0	0.9312	2509.0	1.0
8	29408.0	20012.0	0.8875	2975.0	1.0
2	31063.0	23454.0	0.925	2435.0	1.0
26	27742.0	21090.0	0.8938	3108.0	1.0
7	24532.0	20096.0	0.9062	5524.0	1.0
5	22090.0	17445.0	0.9438	2274.0	1.0
22	25302.0	19250.0	0.9062	3771.0	1.0
2	18755.0	17040.0	0.9688	2838.0	1.0
11	23443.0	16358.0	0.9	2311.0	1.0
18	21047.0	17128.0	0.95	2070.0	1.0
23	23333.0	17177.0	0.9188	3200.0	1.0
26	27892.0	19895.0	0.9187	2523.0	1.0
35	24814.0	20721.0	0.9313	3671.0	1.0
23	22712.0	19038.0	0.975	2949.0	1.0
8	20357.0	17740.0	0.9563	2174.0	1.0
31	30633.0	23694.0	0.9188	4028.0	1.0
0	23747.0	18825.0	0.9313	3236.0	1.0
37	23477.0	17814.0	0.925	2602.0	1.0
10	23212.0	20198.0	0.9688	2523.0	1.0
25	27474.0	20988.0	0.9375	2982.0	1.0
2	26126.0	20626.0	0.95	2360.0	1.0
12	23086.0	17341.0	0.9	2813.0	1.0
6	29405.0	21948.0	0.9187	3411.0	1.0
29	21609.0	16730.0	0.9437	2415.0	1.0
19	25538.0	21293.0	0.9437	2726.0	1.0
36	25982.0	18782.0	0.9187	2560.0	1.0
17	20642.0	18793.0	0.9812	3121.0	1.0
31	21490.0	18641.0	0.95	2276.0	1.0
3	21166.0	17979.0	0.9313	3095.0	1.0
15	23011.0	19227.0	0.9313	2348.0	1.0
19	26386.0	19548.0	0.9187	3332.0	1.0
38	19732.0	17789.0	0.9813	2190.0	1.0
4	24374.0	21762.0	0.9688	2679.0	1.0
8	23585.0	17311.0	0.925	2929.0	1.0
0	21906.0	18982.0	0.9562	2715.0	1.0
27	20372.0	17869.0	0.95	2760.0	1.0
26	24938.0	20418.0	0.9563	3140.0	1.0
23	20707.0	18123.0	0.9437	2916.0	1.0
0	26156.0	19287.0	0.9187	3516.0	1.0
27	21755.0	18328.0	0.9437	2558.0	1.0
4	21812.0	19171.0	0.9625	3338.0	1.0
13	19633.0	15713.0	0.925	3218.0	1.0
11	24048.0	20258.0	0.9437	3012.0	1.0
8	28921.0	21685.0	0.925	2951.0	1.0
16	20431.0	16958.0	0.95	2340.0	1.0
7	24115.0	20327.0	0.95	3067.0	1.0
9	20365.0	16650.0	0.9375	2932.0	1.0
11	23096.0	17515.0	0.9187	2827.0	1.0
14	20516.0	16047.0	0.9313	2514.0	1.0
10	26295.0	19012.0	0.8938	3250.0	1.0
22	19632.0	17493.0	0.95	2753.0	1.0
26	17677.0	16043.0	0.975	2022.0	1.0
34	19832.0	18875.0	0.9563	3408.0	1.0
6	20264.0	17718.0	0.9438	2275.0	1.0
39	21530.0	18524.0	0.925	3054.0	1.0
30	25089.0	21937.0	0.9563	2940.0	1.0
36	23116.0	19880.0	0.9625	3278.0	1.0
34	22225.0	20050.0	0.9313	3495.0	1.0
20	18440.0	14727.0	0.9375	2415.0	1.0
10	30535.0	22619.0	0.9125	3957.0	1.0
4	28000.0	19236.0	0.9062	2836.0	1.0
1	23454.0	19172.0	0.9375	2681.0	1.0
18	20795.0	16666.0	0.95	2465.0	1.0
22	29822.0	21122.0	0.8812	2840.0	1.0
36	20569.0	16704.0	0.9437	2231.0	1.0
30	24195.0	19227.0	0.9125	3983.0	1.0
0	21338.0	17337.0	0.9375	2470.0	1.0
7	24853.0	19362.0	0.9187	3075.0	1.0
5	25678.0	19761.0	0.9125	3302.0	1.0
7	17055.0	15530.0	0.9625	2011.0	1.0
1	21492.0	18568.0	0.9625	3494.0	1.0
4	20500.0	17812.0	0.9438	2172.0	1.0
5	17862.0	16453.0	0.9625	1965.0	1.0
10	23817.0	17760.0	0.9188	2571.0	1.0
23	18605.0	14911.0	0.9375	2568.0	1.0
5	23465.0	18862.0	0.9187	3299.0	1.0
2	18707.0	15114.0	0.925	1751.0	1.0
27	20664.0	16960.0	0.9438	3403.0	1.0
23	22932.0	18283.0	0.925	4259.0	1.0
0	27606.0	22272.0	0.9313	3125.0	1.0
19	28405.0	22388.0	0.9313	2990.0	1.0
9	21074.0	17196.0	0.9313	2688.0	1.0
1	17127.0	16701.0	0.9625	2239.0	1.0
1	24007.0	20133.0	0.9313	2837.0	1.0
38	24459.0	20111.0	0.95	3276.0	1.0
12	22570.0	16258.0	0.8938	2587.0	1.0
3	19640.0	16575.0	0.9438	3029.0	1.0
27	27411.0	21655.0	0.925	3946.0	1.0
1	18666.0	15504.0	0.95	2183.0	1.0
22	22873.0	19208.0	0.9437	2709.0	1.0
2	24331.0	16195.0	0.8813	2540.0	1.0
12	27172.0	18418.0	0.9062	2296.0	1.0
21	26876.0	18392.0	0.8812	3215.0	1.0
17	26118.0	20349.0	0.925	3711.0	1.0
36	19172.0	16736.0	0.9625	2312.0	1.0
1	20702.0	17632.0	0.9563	2374.0	1.0
6	23035.0	18412.0	0.9375	2396.0	1.0
16	20292.0	18116.0	0.9437	3543.0	1.0
19	23775.0	17181.0	0.9313	2602.0	1.0
22	25875.0	18568.0	0.925	2666.0	1.0
35	22488.0	17032.0	0.925	2251.0	1.0
38	22200.0	15687.0	0.925	2100.0	1.0
30	30388.0	20777.0	0.9063	3424.0	1.0
32	22211.0	19063.0	0.9563	3499.0	1.0
5	20561.0	18644.0	0.95	3120.0	1.0
12	20761.0	18018.0	0.9563	2625.0	1.0
13	24428.0	18808.0	0.9375	2444.0	1.0
9	23056.0	18149.0	0.9188	2597.0	1.0
34	22771.0	21546.0	0.9625	3799.0	1.0
29	21845.0	17720.0	0.9625	2132.0	1.0
13	28251.0	21220.0	0.9187	4369.0	1.0
36	22942.0	18679.0	0.925	2306.0	1.0
18	22857.0	19777.0	0.9438	3265.0	1.0
23	19265.0	15532.0	0.9125	2770.0	1.0
36	21985.0	16354.0	0.9188	2238.0	1.0
19	18469.0	15926.0	0.9563	2490.0	1.0
22	26848.0	19799.0	0.9125	3111.0	1.0
15	21064.0	16760.0	0.9	3466.0	1.0
23	22648.0	18319.0	0.9625	2643.0	1.0
7	22941.0	18798.0	0.925	3432.0	1.0
17	27885.0	23248.0	0.95	4246.0	1.0
20	19135.0	16146.0	0.9375	2754.0	1.0
14	22844.0	17244.0	0.9188	3561.0	1.0
33	29802.0	22902.0	0.9187	3526.0	1.0
30	21099.0	17405.0	0.95	2428.0	1.0
32	21868.0	17792.0	0.9062	3248.0	1.0
32	24003.0	20471.0	0.9438	3045.0	1.0
12	26034.0	19193.0	0.9188	2675.0	1.0
35	20266.0	17439.0	0.9563	3063.0	1.0
38	21490.0	18609.0	0.9688	2608.0	1.0
14	24740.0	19682.0	0.9313	3501.0	1.0
32	20055.0	18253.0	0.975	2677.0	1.0
10	20613.0	15984.0	0.9062	2643.0	1.0
14	23348.0	19529.0	0.9313	3700.0	1.0
9	20757.0	16342.0	0.925	2605.0	1.0
2	21777.0	18735.0	0.9625	2501.0	1.0
9	24322.0	19381.0	0.9313	2847.0	1.0
25	24106.0	21029.0	0.9438	3107.0	1.0
9	22601.0	17655.0	0.9	3699.0	1.0
11	24497.0	19479.0	0.9188	4008.0	1.0
21	26714.0	19240.0	0.8875	3590.0	1.0
21	24844.0	19134.0	0.9375	2342.0	1.0
33	19314.0	15441.0	0.925	1974.0	1.0
2	21020.0	18554.0	0.95	2550.0	1.0
35	23839.0	19665.0	0.9313	2642.0	1.0
0	19465.0	16173.0	0.9437	1931.0	1.0
24	27309.0	21016.0	0.9188	3297.0	1.0
29	18507.0	15811.0	0.9688	2837.0	1.0
2	26367.0	21660.0	0.9375	3258.0	1.0
13	25311.0	19160.0	0.9	2953.0	1.0
35	27776.0	21515.0	0.9125	3684.0	1.0
39	20399.0	16126.0	0.9188	2529.0	1.0
30	23159.0	18390.0	0.9438	3562.0	1.0
34	20375.0	16791.0	0.9312	2932.0	1.0
6	21169.0	17964.0	0.9563	2464.0	1.0
5	24110.0	18918.0	0.9313	2578.0	1.0
17	24407.0	19246.0	0.9313	2592.0	1.0
14	18680.0	15655.0	0.9437	1995.0	1.0
25	24221.0	18712.0	0.9187	2674.0	1.0
34	29232.0	19509.0	0.9	3092.0	1.0
30	25539.0	19956.0	0.9312	2628.0	1.0
11	27515.0	20989.0	0.925	2891.0	1.0
4	18741.0	15245.0	0.925	2525.0	1.0
17	21861.0	18761.0	0.9438	2873.0	1.0
0	21842.0	17778.0	0.9188	3051.0	1.0
11	21003.0	17810.0	0.9375	3696.0	1.0
7	21633.0	15935.0	0.9187	2430.0	1.0
24	23586.0	20440.0	0.9688	3773.0	1.0
16	21969.0	16809.0	0.9125	2916.0	1.0
4	26988.0	22262.0	0.9188	4070.0	1.0
4	18898.0	15741.0	0.9313	2275.0	1.0
13	22933.0	15694.0	0.9062	2018.0	1.0
35	27370.0	22347.0	0.9313	3847.0	1.0
12	24366.0	18190.0	0.9062	2434.0	1.0
2	24669.0	21094.0	0.9438	3436.0	1.0
12	20165.0	16777.0	0.925	3301.0	1.0
27	22108.0	20267.0	0.9813	2940.0	1.0
30	21702.0	18727.0	0.95	2587.0	1.0
20	20109.0	17592.0	0.9375	3809.0	1.0
15	20113.0	17077.0	0.9625	2412.0	1.0
13	17846.0	14985.0	0.95	2446.0	1.0
24	30066.0	22066.0	0.8875	4138.0	1.0
36	20426.0	17148.0	0.9438	3298.0	1.0
10	21948.0	19263.0	0.95	3607.0	1.0
10	21716.0	15867.0	0.9	2524.0	1.0
19	24374.0	20461.0	0.925	3246.0	1.0
33	28635.0	19693.0	0.9125	2695.0	1.0
5	21363.0	17230.0	0.9563	2328.0	1.0
9	19225.0	14773.0	0.95	2595.0	1.0
38	18682.0	16803.0	0.975	1906.0	1.0
14	20893.0	18813.0	0.9625	2662.0	1.0
35	22361.0	16787.0	0.8812	3220.0	1.0
12	24699.0	20332.0	0.9375	2864.0	1.0
34	19983.0	16296.0	0.9313	2114.0	1.0
29	21055.0	17642.0	0.9375	2881.0	1.0
21	25557.0	21444.0	0.9625	3564.0	1.0
4	28676.0	23339.0	0.925	5263.0	1.0
16	28862.0	24445.0	0.9437	3523.0	1.0
39	26891.0	20116.0	0.9	3394.0	1.0
26	23464.0	21408.0	0.9625	3493.0	1.0
14	24256.0	19240.0	0.9187	3378.0	1.0
17	22999.0	18786.0	0.9438	3066.0	1.0
2	24277.0	18658.0	0.9187	2060.0	1.0
31	23331.0	20015.0	0.9688	2503.0	1.0
32	25039.0	20110.0	0.9375	2588.0	1.0
35	19334.0	16738.0	0.9563	2083.0	1.0
14	25211.0	18135.0	0.9	2854.0	1.0
0	22634.0	17719.0	0.9188	2570.0	1.0
10	27266.0	18246.0	0.9	2842.0	1.0
6	19563.0	17862.0	0.95	3241.0	1.0
0	21511.0	18912.0	0.9688	2643.0	1.0
14	26269.0	21283.0	0.925	3136.0	1.0
21	24262.0	19054.0	0.9312	3109.0	1.0
4	19085.0	16439.0	0.9625	2104.0	1.0
35	22871.0	18243.0	0.9313	2471.0	1.0
13	20651.0	16921.0	0.925	2431.0	1.0
22	21205.0	16828.0	0.9187	2498.0	1.0
9	25634.0	19348.0	0.9	2946.0	1.0
10	24016.0	18788.0	0.9437	2460.0	1.0
21	27764.0	18944.0	0.9	3153.0	1.0
13	20343.0	15333.0	0.925	2614.0	1.0
38	19844.0	16198.0	0.9313	2060.0	1.0
0	27030.0	22440.0	0.9313	3357.0	1.0
36	29648.0	21571.0	0.9187	2993.0	1.0
32	30794.0	20119.0	0.8875	2960.0	1.0
13	21435.0	18116.0	0.95	3292.0	1.0
13	20931.0	17557.0	0.9312	3123.0	1.0
27	26586.0	21744.0	0.9125	3006.0	1.0
0	20318.0	17195.0	0.9437	2640.0	1.0
17	28010.0	18948.0	0.8812	3648.0	1.0
20	25925.0	17836.0	0.875	2914.0	1.0
36	23857.0	20313.0	0.9563	2874.0	1.0
16	29588.0	19317.0	0.8875	4203.0	1.0
34	25676.0	20115.0	0.925	3002.0	1.0
16	22945.0	18364.0	0.9063	3745.0	1.0
1	27525.0	20851.0	0.9375	2777.0	1.0
15	21218.0	16499.0	0.9375	2764.0	1.0
36	21509.0	19330.0	0.9375	2427.0	1.0
14	24339.0	18639.0	0.9125	2845.0	1.0
31	21083.0	18703.0	0.95	3367.0	1.0
2	18388.0	15688.0	0.95	2232.0	1.0
24	21163.0	16270.0	0.9438	2013.0	1.0
32	19931.0	18381.0	0.9688	3285.0	1.0
38	24259.0	20096.0	0.9563	2846.0	1.0
25	21356.0	18389.0	0.9437	2854.0	1.0
32	20612.0	16475.0	0.9438	2203.0	1.0
0	20611.0	16734.0	0.9313	2977.0	1.0
11	22956.0	18384.0	0.925	2868.0	1.0
31	22285.0	17428.0	0.9125	2161.0	1.0
35	18176.0	15789.0	0.9188	2564.0	1.0
29	26697.0	17961.0	0.8875	2348.0	1.0
31	20835.0	18124.0	0.9188	2945.0	1.0
39	17916.0	15023.0	0.9187	3364.0	1.0
2	22334.0	17098.0	0.9313	2865.0	1.0
31	28485.0	20907.0	0.925	2832.0	1.0
24	19853.0	16209.0	0.95	2650.0	1.0
4	23894.0	19631.0	0.9438	2986.0	1.0
9	21111.0	17053.0	0.9313	3001.0	1.0
10	23386.0	19097.0	0.9313	3164.0	1.0
1	21169.0	20895.0	0.9875	3051.0	1.0
26	21879.0	19604.0	0.9563	3011.0	1.0
39	25011.0	20293.0	0.9438	2915.0	1.0
24	24141.0	20232.0	0.9375	2754.0	1.0
22	23479.0	19114.0	0.9312	3143.0	1.0
6	24070.0	18502.0	0.925	2930.0	1.0
24	24545.0	17560.0	0.8937	2828.0	1.0
0	19950.0	17310.0	0.9625	1899.0	1.0
16	19852.0	18019.0	0.95	2080.0	1.0
22	22162.0	18698.0	0.9438	3296.0	1.0
25	21760.0	18042.0	0.9312	3094.0	1.0
11	19927.0	17390.0	0.95	2464.0	1.0
1	25092.0	20155.0	0.9312	2839.0	1.0
1	26589.0	19773.0	0.8875	3001.0	1.0
28	24750.0	19669.0	0.925	3003.0	1.0
27	24625.0	20714.0	0.95	2830.0	1.0
30	23095.0	17850.0	0.9063	2035.0	1.0
6	19743.0	16974.0	0.95	2282.0	1.0
11	20008.0	17025.0	0.9563	2591.0	1.0
34	20506.0	17767.0	0.9625	2762.0	1.0
24	19434.0	17340.0	0.9625	2457.0	1.0
8	25193.0	18218.0	0.9188	2387.0	1.0
20	17757.0	15177.0	0.9563	1924.0	1.0
11	23731.0	20568.0	0.9563	3452.0	1.0
2	26610.0	20081.0	0.9438	2291.0	1.0
10	26040.0	20249.0	0.9188	3238.0	1.0
31	19005.0	18082.0	0.975	3655.0	1.0
16	21261.0	17730.0	0.9312	3048.0	1.0
29	24618.0	19325.0	0.9313	2845.0	1.0
34	24297.0	20090.0	0.9313	3034.0	1.0
16	21207.0	17514.0	0.9313	2871.0	1.0
24	21054.0	17683.0	0.95	2590.0	1.0
13	23850.0	17683.0	0.9188	2789.0	1.0
30	20812.0	18076.0	0.9438	2494.0	1.0
34	23099.0	18676.0	0.9375	2773.0	1.0
2	21978.0	17673.0	0.9313	2496.0	1.0
27	21274.0	15401.0	0.9188	2649.0	1.0
1	20090.0	19129.0	0.9563	3867.0	1.0
25	25292.0	20182.0	0.9375	3095.0	1.0
20	22749.0	19392.0	0.95	4161.0	1.0
38	24044.0	19998.0	0.9312	3156.0	1.0
0	26505.0	19781.0	0.925	2517.0	1.0
12	22879.0	17523.0	0.9375	2366.0	1.0
17	20956.0	18728.0	0.9688	2855.0	1.0
14	14950.0	14672.0	0.9625	3160.0	1.0
21	25794.0	19446.0	0.925	2894.0	1.0
22	18981.0	16025.0	0.95	2482.0	1.0
11	23300.0	18753.0	0.9375	2724.0	1.0
17	27082.0	19287.0	0.925	2602.0	1.0
8	21120.0	17960.0	0.9187	3550.0	1.0
0	22770.0	21282.0	0.9625	3552.0	1.0
25	20940.0	16090.0	0.925	2701.0	1.0
16	20412.0	17126.0	0.9625	2277.0	1.0
35	18900.0	16208.0	0.9437	2964.0	1.0
8	26319.0	20797.0	0.9125	2828.0	1.0
29	26557.0	20665.0	0.9125	3482.0	1.0
32	21596.0	18420.0	0.9437	2964.0	1.0
32	19130.0	16107.0	0.9438	2374.0	1.0
8	21851.0	15802.0	0.9188	2662.0	1.0
5	24147.0	17728.0	0.9187	2690.0	1.0
23	30619.0	22391.0	0.8812	3260.0	1.0
26	22749.0	18204.0	0.9312	2474.0	1.0
22	22691.0	17403.0	0.925	2793.0	1.0
10	26330.0	15462.0	0.85	2728.0	1.0
19	19061.0	16719.0	0.9813	2333.0	1.0
28	21653.0	17812.0	0.925	2690.0	1.0
19	22350.0	17050.0	0.9062	2894.0	1.0
31	18542.0	15654.0	0.9437	2264.0	1.0
34	25193.0	19396.0	0.9313	2871.0	1.0
30	21220.0	18577.0	0.9313	2500.0	1.0
7	20962.0	18013.0	0.95	2543.0	1.0
3	18962.0	18175.0	0.9813	1831.0	1.0
34	21273.0	16794.0	0.9438	2254.0	1.0
6	23561.0	20792.0	0.9563	4009.0	1.0
30	26743.0	21444.0	0.9375	4503.0	1.0
1	27833.0	20701.0	0.8938	4174.0	1.0
31	21856.0	18483.0	0.9375	2950.0	1.0
39	20538.0	15116.0	0.8938	2897.0	1.0
19	23571.0	18789.0	0.9438	2787.0	1.0
30	25161.0	19347.0	0.9313	2545.0	1.0
37	22912.0	18108.0	0.9187	3356.0	1.0
22	29095.0	22612.0	0.9313	3166.0	1.0
38	27114.0	19173.0	0.8938	2774.0	1.0
35	32449.0	24588.0	0.9	3070.0	1.0
33	22464.0	16636.0	0.9313	2153.0	1.0
29	19649.0	16703.0	0.9375	3413.0	1.0
11	26545.0	21139.0	0.9187	2675.0	1.0
10	21867.0	18125.0	0.9625	2872.0	1.0
31	23087.0	17809.0	0.9	3408.0	1.0
5	20989.0	18379.0	0.9375	2926.0	1.0
34	18116.0	15935.0	0.9563	2028.0	1.0
6	21396.0	18158.0	0.95	3263.0	1.0
10	25775.0	19976.0	0.925	3323.0	1.0
37	22200.0	19269.0	0.9438	2796.0	1.0
1	25099.0	21010.0	0.9313	3252.0	1.0
16	20335.0	15966.0	0.9313	2610.0	1.0
29	22746.0	18705.0	0.9375	3420.0	1.0
24	22577.0	18744.0	0.9313	4159.0	1.0
9	22795.0	17415.0	0.9	3249.0	1.0
22	21713.0	17722.0	0.9375	2884.0	1.0
27	31251.0	21717.0	0.8938	3241.0	1.0
32	26754.0	21351.0	0.925	3508.0	1.0
18	21397.0	18588.0	0.9625	2858.0	1.0
39	21013.0	16913.0	0.9187	2289.0	1.0
33	30429.0	20265.0	0.875	4075.0	1.0
13	26344.0	19536.0	0.925	2896.0	1.0
11	17936.0	15330.0	0.9563	2816.0	1.0
27	22557.0	19277.0	0.9625	2349.0	1.0
16	25349.0	19147.0	0.9313	2669.0	1.0
23	15143.0	15447.0	0.9688	2464.0	1.0
16	20302.0	17818.0	0.9625	2143.0	1.0
34	23631.0	15254.0	0.9062	1724.0	1.0
7	19112.0	18089.0	0.9563	2727.0	1.0
24	20335.0	16015.0	0.9312	2377.0	1.0
4	18765.0	14963.0	0.9313	2650.0	1.0
33	23740.0	19531.0	0.9313	2893.0	1.0
5	21264.0	19166.0	0.9563	2969.0	1.0
33	20916.0	16558.0	0.925	2165.0	1.0
2	23140.0	18008.0	0.9313	3091.0	1.0
25	18334.0	14829.0	0.9563	2158.0	1.0
28	25275.0	19245.0	0.9125	3290.0	1.0
24	26738.0	20285.0	0.9125	3863.0	1.0
35	29512.0	21023.0	0.9125	2369.0	1.0
18	16911.0	16111.0	0.9688	2802.0	1.0
37	22815.0	18090.0	0.925	2602.0	1.0
18	23962.0	19214.0	0.9313	3351.0	1.0
19	23380.0	19393.0	0.9375	2683.0	1.0
36	20888.0	19372.0	0.975	2834.0	1.0
12	25343.0	19902.0	0.9062	3058.0	1.0
21	21483.0	16777.0	0.925	2520.0	1.0
13	28969.0	22997.0	0.9188	3549.0	1.0
18	21210.0	17866.0	0.9438	2927.0	1.0
28	21238.0	17876.0	0.9563	2507.0	1.0
36	22852.0	17435.0	0.925	3539.0	1.0
26	19469.0	17781.0	0.9563	3112.0	1.0
20	20880.0	15948.0	0.9187	2563.0	1.0
5	21759.0	18010.0	0.9313	3053.0	1.0
35	17970.0	14725.0	0.95	2224.0	1.0
32	17810.0	15290.0	0.9438	2452.0	1.0
10	22413.0	18070.0	0.9313	2676.0	1.0
39	25509.0	19354.0	0.9375	2621.0	1.0
10	23881.0	20524.0	0.9438	3078.0	1.0
34	26860.0	20444.0	0.9062	3800.0	1.0
13	19693.0	16047.0	0.925	2128.0	1.0
7	22874.0	17968.0	0.9375	2905.0	1.0
1	21594.0	17766.0	0.9313	2717.0	1.0
5	24917.0	18820.0	0.9	2741.0	1.0
27	24372.0	20006.0	0.9125	2828.0	1.0
8	28712.0	19257.0	0.8813	3090.0	1.0
1	22637.0	18546.0	0.9188	2676.0	1.0
25	26358.0	22345.0	0.9313	3534.0	1.0
19	22810.0	18443.0	0.925	2692.0	1.0
34	20073.0	17220.0	0.9562	2467.0	1.0
27	17111.0	16466.0	0.9688	2219.0	1.0
31	20999.0	18411.0	0.9437	3143.0	1.0
30	18184.0	16043.0	0.9625	1983.0	1.0
17	18288.0	16958.0	0.95	2515.0	1.0
16	22557.0	18065.0	0.9313	3130.0	1.0
13	19039.0	16096.0	0.9625	2595.0	1.0
17	21941.0	17189.0	0.9313	3140.0	1.0
34	23314.0	19286.0	0.9188	4069.0	1.0
18	22524.0	17648.0	0.9188	3327.0	1.0
29	29061.0	21926.0	0.9125	2685.0	1.0
18	19596.0	15874.0	0.9438	2522.0	1.0
36	22239.0	19449.0	0.9562	2992.0	1.0
1	27701.0	18552.0	0.8813	3002.0	1.0
11	19456.0	15940.0	0.9438	2298.0	1.0
26	28245.0	20454.0	0.9062	3200.0	1.0
21	20980.0	17391.0	0.9563	2872.0	1.0
6	20431.0	17189.0	0.9187	2598.0	1.0
34	23895.0	17847.0	0.925	2268.0	1.0
6	25038.0	19792.0	0.9062	3826.0	1.0
25	26199.0	20060.0	0.9125	3808.0	1.0
11	22691.0	16510.0	0.8937	2444.0	1.0
25	19052.0	16786.0	0.9625	2064.0	1.0
38	21028.0	15911.0	0.9187	2586.0	1.0
8	16191.0	13712.0	0.9438	2074.0	1.0
34	25777.0	19597.0	0.8875	2733.0	1.0
16	23914.0	19128.0	0.9313	3158.0	1.0
34	22870.0	20055.0	0.9688	3252.0	1.0
31	19037.0	16583.0	0.95	2660.0	1.0
20	22812.0	20082.0	0.9625	2125.0	1.0
11	22667.0	20189.0	0.9563	2730.0	1.0
23	22658.0	18194.0	0.9625	2143.0	1.0
22	19510.0	17209.0	0.95	2660.0	1.0
35	22712.0	20096.0	0.9562	3353.0	1.0
6	17218.0	16205.0	0.9625	2185.0	1.0
22	23500.0	20606.0	0.95	3942.0	1.0
37	24340.0	19143.0	0.925	3366.0	1.0
32	23219.0	16454.0	0.9	3035.0	1.0
31	19716.0	16606.0	0.9375	2721.0	1.0
28	18610.0	15713.0	0.9438	2945.0	1.0
24	21435.0	19651.0	0.975	2997.0	1.0
31	25898.0	22208.0	0.95	3327.0	1.0
10	24842.0	20068.0	0.9313	3260.0	1.0
16	22490.0	18290.0	0.9438	2540.0	1.0
15	18855.0	17570.0	0.9625	2831.0	1.0
22	21265.0	17964.0	0.9438	2327.0	1.0
35	23330.0	18528.0	0.925	2781.0	1.0
15	20224.0	16947.0	0.9375	2814.0	1.0
31	20448.0	15320.0	0.8938	2923.0	1.0
7	21451.0	18518.0	0.95	2298.0	1.0
1	18541.0	16238.0	0.9563	2089.0	1.0
4	21992.0	19870.0	0.9438	3548.0	1.0
14	23020.0	17431.0	0.925	2706.0	1.0
18	21693.0	17610.0	0.9438	2349.0	1.0
10	24056.0	20644.0	0.9438	3596.0	1.0
1	24896.0	19694.0	0.8938	3105.0	1.0
20	24559.0	19713.0	0.9375	2758.0	1.0
32	21057.0	16078.0	0.925	2317.0	1.0
11	21260.0	18131.0	0.9375	2812.0	1.0
13	23560.0	18174.0	0.9125	2753.0	1.0
2	26580.0	21147.0	0.925	3431.0	1.0
27	25497.0	20114.0	0.9562	1991.0	1.0
11	21539.0	19676.0	0.975	2428.0	1.0
4	28540.0	21905.0	0.9313	2924.0	1.0
17	20564.0	16523.0	0.9375	2549.0	1.0
25	21529.0	16374.0	0.8937	3736.0	1.0
9	19094.0	15948.0	0.9438	2102.0	1.0
11	28922.0	19724.0	0.875	3638.0	1.0
24	24942.0	19752.0	0.9125	3594.0	1.0
7	24860.0	19324.0	0.9188	3964.0	1.0
16	24576.0	17412.0	0.9062	2559.0	1.0
11	23144.0	19871.0	0.9625	2540.0	1.0
37	28685.0	18750.0	0.9062	2479.0	1.0
9	24622.0	19024.0	0.925	2212.0	1.0
25	17187.0	15968.0	0.9875	2118.0	1.0
5	22342.0	16564.0	0.9062	2987.0	1.0
30	21636.0	19429.0	0.95	2734.0	1.0
32	24386.0	20363.0	0.9125	2998.0	1.0
25	24798.0	20360.0	0.9062	4230.0	1.0
37	26061.0	19770.0	0.9313	2828.0	1.0
2	19663.0	17304.0	0.9625	2876.0	1.0
14	25070.0	19002.0	0.925	2514.0	1.0
23	20276.0	16329.0	0.95	2154.0	1.0
34	18874.0	17026.0	0.9625	2942.0	1.0
19	19476.0	17133.0	0.9375	1835.0	1.0
23	19087.0	16999.0	0.9625	3024.0	1.0
24	23913.0	18925.0	0.9187	3202.0	1.0
21	23024.0	19109.0	0.9313	3647.0	1.0
33	22086.0	16932.0	0.9187	3428.0	1.0
21	24675.0	21053.0	0.9563	2870.0	1.0
15	19463.0	15294.0	0.95	2218.0	1.0
30	22241.0	17922.0	0.9313	2337.0	1.0
37	26945.0	19569.0	0.9063	2768.0	1.0
39	20470.0	17286.0	0.9563	2766.0	1.0
8	21088.0	17652.0	0.9438	3104.0	1.0
25	29016.0	21637.0	0.9062	2943.0	1.0
13	18873.0	15861.0	0.9375	2405.0	1.0
13	20991.0	18385.0	0.95	3114.0	1.0
22	20552.0	17590.0	0.9313	2831.0	1.0
34	26279.0	19755.0	0.9187	3537.0	1.0
23	24032.0	19822.0	0.9313	3528.0	1.0
3	21190.0	16614.0	0.9187	2633.0	1.0
21	23048.0	17464.0	0.9125	3260.0	1.0
36	23891.0	18235.0	0.9062	2596.0	1.0
39	24363.0	16572.0	0.8875	3166.0	1.0
5	20366.0	15622.0	0.925	2324.0	1.0
37	21732.0	19380.0	0.9563	2207.0	1.0
34	24440.0	21394.0	0.9438	3980.0	1.0
