fitness: 43709 23545 0.86 3149 1.00 Gen: 106
002100101100010000000011001010
021001011000100000000110010101
210010110001000000001100101010
100101100010000000011001010100
001011000100000000110010101001
010110001000000001100101010012
101100010000000011001010100121
011000100000000110010101001210
110001000000001100101010012100
100010000000011001010100121000
000100000000110010101001210000
001000000001100101010012100001
010000000011001010100121000011
100000000110010101001210000110
000000001100101010012100001100
000000011001010100121000011000
000000110010101001210000110000
000001100101010012100001100000
000011001010100121000011000000
000110010101001210000110000000
001100101010012100001100000001
011001010100121000011000000010
110010101001210000110000000100
100101010012100001100000001001
001010100121000011000000010010
010101001210000110000000100101
101010012100001100000001001011
010100121000011000000010010110
101001210000110000000100101100
010012100001100000001001011000
00100101100100000101011110210
01001011001000001010111102100
10010110010000010101111021000
00101100100000101011110210000
01011001000001010111102100001
10110010000010101111021000010
01100100000101011110210000101
11001000001010111102100001011
10010000010101111021000010110
00100000101011110210000101100
01000001010111102100001011000
10000010101111021000010110000
00000101011110210000101100000
00001010111102100001011000000
00010101111021000010110000000
00101011110210000101100000000
01010111102100001011000000000
10101111021000010110000000000
01011110210000101100000000001
10111102100001011000000000010
01111021000010110000000000100
11110210000101100000000001001
11102100001011000000000010011
11021000010110000000000100110
10210000101100000000001001100
02100001011000000000010011000
21000010110000000000100110000
10000101100000000001001100000
00001011000000000010011000000
00010110000000000100110000000

fitness: 37836 21651 0.87 2894 1.00 Gen: 143
002110101100010000200011001010
021101011000100002000110010101
211010110001000020001100101010
110101100010000200011001010100
101011000100002000110010101001
010110001000020001100101010012
101100010000200011001010100121
011000100002000110010101001210
110001000020001100101010012100
100010000200011001010100121000
000100002000110010101001210000
001000020001100101010012100001
010000200011001010100121000011
100002000110010101001210000110
000020001100101010012100001100
000200011001010100121000011000
002000110010101001210000110000
020001100101010012100001100000
200011001010100121000011000000
000110010101001210000110000000
001100101010012100001100000001
011001010100121000011000000011
110010101001210000110000000110
100101010012100001100000001101
001010100121000011000000011010
010101001210000110000000110101
101010012100001100000001101012
010100121000011000000011010120
101001210000110000000110101201
010012100001100000001101012010
00100101100000000101211110210
01001011000000001012111102101
10010110000000010121111021010
00101100000000101211110210100
01011000000001012111102101001
10110000000010121111021010010
01100000000101211110210100101
11000000001012111102101001011
10000000010121111021010010110
00000000101211110210100101100
00000001012111102101001011000
00000010121111021010010110000
00000101211110210100101100000
00001012111102101001011000000
00010121111021010010110000000
00101211110210100101100000000
01012111102101001011000000000
10121111021010010110000000000
01211110210100101100000000000
12111102101001011000000000000
21111021010010110000000000000
11110210100101100000000000001
11102101001011000000000000011
11021010010110000000000000111
10210100101100000000000001110
02101001011000000000000011101
21010010110000000000000111010
10100101100000000000001110100
01001011000000000000011101000
10010110000000000000111010000

fitness: 36584 22033 0.88 2971 1.00 Gen: 186
002100101100010000200011001010
021001011000100002000110010101
210010110001000020001100101010
100101100010000200011001010100
001011000100002000110010101001
010110001000020001100101010012
101100010000200011001010100121
011000100002000110010101001210
110001000020001100101010012100
100010000200011001010100121000
000100002000110010101001210000
001000020001100101010012100001
010000200011001010100121000011
100002000110010101001210000111
000020001100101010012100001110
000200011001010100121000011100
002000110010101001210000111000
020001100101010012100001110000
200011001010100121000011100000
000110010101001210000111000000
001100101010012100001110000000
011001010100121000011100000001
110010101001210000111000000010
100101010012100001110000000101
001010100121000011100000001010
010101001210000111000000010101
101010012100001110000000101012
010100121000011100000001010120
101001210000111000000010101200
010012100001110000000101012000
00100101100000000101211110110
01001011000000001012111101100
10010110000000010121111011000
00101100000000101211110110000
01011000000001012111101100001
10110000000010121111011000010
01100000000101211110110000101
11000000001012111101100001011
10000000010121111011000010110
00000000101211110110000101100
00000001012111101100001011000
00000010121111011000010110000
00000101211110110000101100000
00001012111101100001011000000
00010121111011000010110000000
00101211110110000101100000000
01012111101100001011000000000
10121111011000010110000000000
01211110110000101100000000001
12111101100001011000000000010
21111011000010110000000000100
11110110000101100000000001001
11101100001011000000000010011
11011000010110000000000100111
10110000101100000000001001110
01100001011000000000010011101
11000010110000000000100111011
10000101100000000001001110110
00001011000000000010011101100
00010110000000000100111011000

fitness: 39633 22425 0.87 2715 1.00 Gen: 232
002100101100010000200011001010
021001011000100002000110010101
210010110001000020001100101010
100101100010000200011001010100
001011000100002000110010101001
010110001000020001100101010012
101100010000200011001010100121
011000100002000110010101001210
110001000020001100101010012100
100010000200011001010100121000
000100002000110010101001210000
001000020001100101010012100001
010000200011001010100121000011
100002000110010101001210000111
000020001100101010012100001110
000200011001010100121000011100
002000110010101001210000111000
020001100101010012100001110000
200011001010100121000011100000
000110010101001210000111000000
001100101010012100001110000000
011001010100121000011100000001
110010101001210000111000000010
100101010012100001110000000101
001010100121000011100000001010
010101001210000111000000010101
101010012100001110000000101012
010100121000011100000001010120
101001210000111000000010101200
010012100001110000000101012000
00100101100000000101211110110
01001011000000001012111101100
10010110000000010121111011000
00101100000000101211110110000
01011000000001012111101100001
10110000000010121111011000010
01100000000101211110110000101
11000000001012111101100001011
10000000010121111011000010110
00000000101211110110000101100
00000001012111101100001011000
00000010121111011000010110000
00000101211110110000101100000
00001012111101100001011000000
00010121111011000010110000000
00101211110110000101100000000
01012111101100001011000000000
10121111011000010110000000000
01211110110000101100000000000
12111101100001011000000000000
21111011000010110000000000000
11110110000101100000000000001
11101100001011000000000000011
11011000010110000000000000111
10110000101100000000000001110
01100001011000000000000011101
11000010110000000000000111010
10000101100000000000001110100
00001011000000000000011101000
00010110000000000000111010000

fitness: 41063 22831 0.87 2950 1.00 Gen: 237
002110101100010000200011001010
021101011000100002000110010101
211010110001000020001100101010
110101100010000200011001010100
101011000100002000110010101001
010110001000020001100101010012
101100010000200011001010100121
011000100002000110010101001210
110001000020001100101010012100
100010000200011001010100121000
000100002000110010101001210000
001000020001100101010012100001
010000200011001010100121000011
100002000110010101001210000111
000020001100101010012100001110
000200011001010100121000011100
002000110010101001210000111000
020001100101010012100001110000
200011001010100121000011100000
000110010101001210000111000000
001100101010012100001110000000
011001010100121000011100000001
110010101001210000111000000010
100101010012100001110000000101
001010100121000011100000001010
010101001210000111000000010101
101010012100001110000000101012
010100121000011100000001010120
101001210000111000000010101200
010012100001110000000101012000
00100101100000000101211110110
01001011000000001012111101100
10010110000000010121111011000
00101100000000101211110110000
01011000000001012111101100001
10110000000010121111011000010
01100000000101211110110000101
11000000001012111101100001011
10000000010121111011000010110
00000000101211110110000101100
00000001012111101100001011000
00000010121111011000010110000
00000101211110110000101100000
00001012111101100001011000000
00010121111011000010110000000
00101211110110000101100000000
01012111101100001011000000000
10121111011000010110000000000
01211110110000101100000000000
12111101100001011000000000000
21111011000010110000000000000
11110110000101100000000000001
11101100001011000000000000011
11011000010110000000000000111
10110000101100000000000001110
01100001011000000000000011101
11000010110000000000000111010
10000101100000000000001110100
00001011000000000000011101000
00010110000000000000111010000

fitness: 37099 22229 0.87 3102 1.00 Gen: 252
002100101100010000200011001010
021001011000100002000110010101
210010110001000020001100101010
100101100010000200011001010100
001011000100002000110010101001
010110001000020001100101010012
101100010000200011001010100121
011000100002000110010101001210
110001000020001100101010012100
100010000200011001010100121000
000100002000110010101001210000
001000020001100101010012100001
010000200011001010100121000011
100002000110010101001210000111
000020001100101010012100001110
000200011001010100121000011100
002000110010101001210000111000
020001100101010012100001110000
200011001010100121000011100000
000110010101001210000111000000
001100101010012100001110000000
011001010100121000011100000001
110010101001210000111000000010
100101010012100001110000000101
001010100121000011100000001010
010101001210000111000000010101
101010012100001110000000101012
010100121000011100000001010120
101001210000111000000010101200
010012100001110000000101012000
00100101100000000101211110010
01001011000000001012111100100
10010110000000010121111001000
00101100000000101211110010000
01011000000001012111100100001
10110000000010121111001000010
01100000000101211110010000101
11000000001012111100100001011
10000000010121111001000010110
00000000101211110010000101100
00000001012111100100001011000
00000010121111001000010110000
00000101211110010000101100000
00001012111100100001011000000
00010121111001000010110000000
00101211110010000101100000000
01012111100100001011000000000
10121111001000010110000000000
01211110010000101100000000001
12111100100001011000000000010
21111001000010110000000000100
11110010000101100000000001001
11100100001011000000000010011
11001000010110000000000100111
10010000101100000000001001110
00100001011000000000010011101
01000010110000000000100111011
10000101100000000001001110110
00001011000000000010011101100
00010110000000000100111011000

fitness: 38329 22319 0.87 2767 1.00 Gen: 261
002110101100010000200011001010
021101011000100002000110010101
211010110001000020001100101010
110101100010000200011001010100
101011000100002000110010101001
010110001000020001100101010012
101100010000200011001010100121
011000100002000110010101001210
110001000020001100101010012100
100010000200011001010100121000
000100002000110010101001210000
001000020001100101010012100001
010000200011001010100121000011
100002000110010101001210000111
000020001100101010012100001110
000200011001010100121000011100
002000110010101001210000111000
020001100101010012100001110000
200011001010100121000011100000
000110010101001210000111000000
001100101010012100001110000000
011001010100121000011100000001
110010101001210000111000000010
100101010012100001110000000101
001010100121000011100000001010
010101001210000111000000010101
101010012100001110000000101012
010100121000011100000001010120
101001210000111000000010101200
010012100001110000000101012000
00100101100000000101211110110
01001011000000001012111101100
10010110000000010121111011000
00101100000000101211110110000
01011000000001012111101100001
10110000000010121111011000010
01100000000101211110110000101
11000000001012111101100001011
10000000010121111011000010110
00000000101211110110000101100
00000001012111101100001011000
00000010121111011000010110000
00000101211110110000101100000
00001012111101100001011000000
00010121111011000010110000000
00101211110110000101100000000
01012111101100001011000000000
10121111011000010110000000000
01211110110000101100000000000
12111101100001011000000000000
21111011000010110000000000000
11110110000101100000000000001
11101100001011000000000000011
11011000010110000000000000111
10110000101100000000000001110
01100001011000000000000011101
11000010110000000000000111010
10000101100000000000001110100
00001011000000000000011101000
00010110000000000000111010000

fitness: 38216 22435 0.87 3045 1.00 Gen: 264
002110101100010000200011001010
021101011000100002000110010101
211010110001000020001100101010
110101100010000200011001010100
101011000100002000110010101001
010110001000020001100101010012
101100010000200011001010100121
011000100002000110010101001210
110001000020001100101010012100
100010000200011001010100121000
000100002000110010101001210000
001000020001100101010012100001
010000200011001010100121000011
100002000110010101001210000111
000020001100101010012100001110
000200011001010100121000011100
002000110010101001210000111000
020001100101010012100001110000
200011001010100121000011100000
000110010101001210000111000000
001100101010012100001110000000
011001010100121000011100000001
110010101001210000111000000010
100101010012100001110000000101
001010100121000011100000001010
010101001210000111000000010101
101010012100001110000000101012
010100121000011100000001010120
101001210000111000000010101200
010012100001110000000101012000
00100101100000000101211110110
01001011000000001012111101100
10010110000000010121111011000
00101100000000101211110110000
01011000000001012111101100001
10110000000010121111011000010
01100000000101211110110000101
11000000001012111101100001011
10000000010121111011000010110
00000000101211110110000101100
00000001012111101100001011000
00000010121111011000010110000
00000101211110110000101100000
00001012111101100001011000000
00010121111011000010110000000
00101211110110000101100000000
01012111101100001011000000000
10121111011000010110000000000
01211110110000101100000000000
12111101100001011000000000000
21111011000010110000000000000
11110110000101100000000000001
11101100001011000000000000011
11011000010110000000000000111
10110000101100000000000001110
01100001011000000000000011101
11000010110000000000000111010
10000101100000000000001110100
00001011000000000000011101000
00010110000000000000111010000

fitness: 41690 22408 0.85 3009 1.00 Gen: 294
002100101100010000200011001010
021001011000100002000110010101
210010110001000020001100101010
100101100010000200011001010100
001011000100002000110010101001
010110001000020001100101010012
101100010000200011001010100121
011000100002000110010101001210
110001000020001100101010012100
100010000200011001010100121000
000100002000110010101001210000
001000020001100101010012100001
010000200011001010100121000011
100002000110010101001210000111
000020001100101010012100001110
000200011001010100121000011100
002000110010101001210000111000
020001100101010012100001110000
200011001010100121000011100000
000110010101001210000111000000
001100101010012100001110000000
011001010100121000011100000001
110010101001210000111000000010
100101010012100001110000000101
001010100121000011100000001010
010101001210000111000000010101
101010012100001110000000101012
010100121000011100000001010120
101001210000111000000010101200
010012100001110000000101012000
00100101100000000101211110110
01001011000000001012111101100
10010110000000010121111011000
00101100000000101211110110000
01011000000001012111101100001
10110000000010121111011000010
01100000000101211110110000101
11000000001012111101100001011
10000000010121111011000010110
00000000101211110110000101100
00000001012111101100001011000
00000010121111011000010110000
00000101211110110000101100000
00001012111101100001011000000
00010121111011000010110000000
00101211110110000101100000000
01012111101100001011000000000
10121111011000010110000000000
01211110110000101100000000001
12111101100001011000000000010
21111011000010110000000000100
11110110000101100000000001001
11101100001011000000000010011
11011000010110000000000100111
10110000101100000000001001110
01100001011000000000010011101
11000010110000000000100111011
10000101100000000001001110110
00001011000000000010011101100
00010110000000000100111011000

fitness: 39555 23126 0.87 3022 1.00 Gen: 306
002100101100010000200011001010
021001011000100002000110010101
210010110001000020001100101010
100101100010000200011001010100
001011000100002000110010101001
010110001000020001100101010012
101100010000200011001010100121
011000100002000110010101001210
110001000020001100101010012100
100010000200011001010100121000
000100002000110010101001210000
001000020001100101010012100001
010000200011001010100121000011
100002000110010101001210000111
000020001100101010012100001110
000200011001010100121000011100
002000110010101001210000111000
020001100101010012100001110000
200011001010100121000011100000
000110010101001210000111000000
001100101010012100001110000000
011001010100121000011100000001
110010101001210000111000000010
100101010012100001110000000101
001010100121000011100000001010
010101001210000111000000010101
101010012100001110000000101012
010100121000011100000001010120
101001210000111000000010101200
010012100001110000000101012000
00100101100000000101211110110
01001011000000001012111101100
10010110000000010121111011000
00101100000000101211110110000
01011000000001012111101100001
10110000000010121111011000010
01100000000101211110110000101
11000000001012111101100001011
10000000010121111011000010110
00000000101211110110000101100
00000001012111101100001011000
00000010121111011000010110000
00000101211110110000101100000
00001012111101100001011000000
00010121111011000010110000000
00101211110110000101100000000
01012111101100001011000000000
10121111011000010110000000000
01211110110000101100000000000
12111101100001011000000000000
21111011000010110000000000000
11110110000101100000000000001
11101100001011000000000000011
11011000010110000000000000111
10110000101100000000000001110
01100001011000000000000011101
11000010110000000000000111010
10000101100000000000001110100
00001011000000000000011101000
00010110000000000000111010000

fitness: 38298 22230 0.87 2879 1.00 Gen: 313
002110101100010000200011001010
021101011000100002000110010101
211010110001000020001100101010
110101100010000200011001010100
101011000100002000110010101001
010110001000020001100101010012
101100010000200011001010100121
011000100002000110010101001210
110001000020001100101010012100
100010000200011001010100121000
000100002000110010101001210000
001000020001100101010012100001
010000200011001010100121000011
100002000110010101001210000111
000020001100101010012100001110
000200011001010100121000011100
002000110010101001210000111000
020001100101010012100001110000
200011001010100121000011100000
000110010101001210000111000000
001100101010012100001110000000
011001010100121000011100000001
110010101001210000111000000010
100101010012100001110000000101
001010100121000011100000001010
010101001210000111000000010101
101010012100001110000000101012
010100121000011100000001010120
101001210000111000000010101200
010012100001110000000101012000
00100101100000000101211110110
01001011000000001012111101100
10010110000000010121111011000
00101100000000101211110110000
01011000000001012111101100001
10110000000010121111011000010
01100000000101211110110000101
11000000001012111101100001011
10000000010121111011000010110
00000000101211110110000101100
00000001012111101100001011000
00000010121111011000010110000
00000101211110110000101100000
00001012111101100001011000000
00010121111011000010110000000
00101211110110000101100000000
01012111101100001011000000000
10121111011000010110000000000
01211110110000101100000000000
12111101100001011000000000000
21111011000010110000000000000
11110110000101100000000000001
11101100001011000000000000011
11011000010110000000000000111
10110000101100000000000001110
01100001011000000000000011101
11000010110000000000000111010
10000101100000000000001110100
00001011000000000000011101000
00010110000000000000111010000

fitness: 38570 22508 0.88 2941 1.00 Gen: 351
002100101100010000200011001010
021001011000100002000110010101
210010110001000020001100101010
100101100010000200011001010100
001011000100002000110010101001
010110001000020001100101010012
101100010000200011001010100121
011000100002000110010101001210
110001000020001100101010012100
100010000200011001010100121000
000100002000110010101001210000
001000020001100101010012100001
010000200011001010100121000011
100002000110010101001210000111
000020001100101010012100001110
000200011001010100121000011100
002000110010101001210000111000
020001100101010012100001110000
200011001010100121000011100000
000110010101001210000111000000
001100101010012100001110000000
011001010100121000011100000001
110010101001210000111000000010
100101010012100001110000000101
001010100121000011100000001010
010101001210000111000000010101
101010012100001110000000101012
010100121000011100000001010120
101001210000111000000010101200
010012100001110000000101012000
00100101100000000101211110110
01001011000000001012111101100
10010110000000010121111011000
00101100000000101211110110000
01011000000001012111101100001
10110000000010121111011000010
01100000000101211110110000101
11000000001012111101100001011
10000000010121111011000010110
00000000101211110110000101100
00000001012111101100001011000
00000010121111011000010110000
00000101211110110000101100000
00001012111101100001011000000
00010121111011000010110000000
00101211110110000101100000000
01012111101100001011000000000
10121111011000010110000000000
01211110110000101100000000001
12111101100001011000000000010
21111011000010110000000000100
11110110000101100000000001001
11101100001011000000000010011
11011000010110000000000100111
10110000101100000000001001110
01100001011000000000010011101
11000010110000000000100111011
10000101100000000001001110110
00001011000000000010011101100
00010110000000000100111011000

fitness: 36972 21554 0.87 3014 1.00 Gen: 376
002110101100010000200011001010
021101011000100002000110010101
211010110001000020001100101010
110101100010000200011001010100
101011000100002000110010101001
010110001000020001100101010012
101100010000200011001010100121
011000100002000110010101001210
110001000020001100101010012100
100010000200011001010100121000
000100002000110010101001210000
001000020001100101010012100001
010000200011001010100121000011
100002000110010101001210000111
000020001100101010012100001110
000200011001010100121000011100
002000110010101001210000111000
020001100101010012100001110000
200011001010100121000011100000
000110010101001210000111000000
001100101010012100001110000000
011001010100121000011100000001
110010101001210000111000000010
100101010012100001110000000101
001010100121000011100000001010
010101001210000111000000010101
101010012100001110000000101012
010100121000011100000001010120
101001210000111000000010101200
010012100001110000000101012000
00100101100000000101211110110
01001011000000001012111101100
10010110000000010121111011000
00101100000000101211110110000
01011000000001012111101100001
10110000000010121111011000010
01100000000101211110110000101
11000000001012111101100001011
10000000010121111011000010110
00000000101211110110000101100
00000001012111101100001011000
00000010121111011000010110000
00000101211110110000101100000
00001012111101100001011000000
00010121111011000010110000000
00101211110110000101100000000
01012111101100001011000000000
10121111011000010110000000000
01211110110000101100000000000
12111101100001011000000000000
21111011000010110000000000000
11110110000101100000000000001
11101100001011000000000000011
11011000010110000000000000111
10110000101100000000000001110
01100001011000000000000011101
11000010110000000000000111010
10000101100000000000001110100
00001011000000000000011101000
00010110000000000000111010000

fitness: 43778 23212 0.86 3121 1.00 Gen: 380
002100101100010000200011001010
021001011000100002000110010101
210010110001000020001100101010
100101100010000200011001010100
001011000100002000110010101001
010110001000020001100101010012
101100010000200011001010100121
011000100002000110010101001210
110001000020001100101010012100
100010000200011001010100121000
000100002000110010101001210000
001000020001100101010012100001
010000200011001010100121000011
100002000110010101001210000111
000020001100101010012100001110
000200011001010100121000011100
002000110010101001210000111000
020001100101010012100001110000
200011001010100121000011100000
000110010101001210000111000000
001100101010012100001110000000
011001010100121000011100000001
110010101001210000111000000010
100101010012100001110000000101
001010100121000011100000001010
010101001210000111000000010101
101010012100001110000000101012
010100121000011100000001010120
101001210000111000000010101200
010012100001110000000101012000
00100101100000000101211110010
01001011000000001012111100100
10010110000000010121111001000
00101100000000101211110010000
01011000000001012111100100001
10110000000010121111001000010
01100000000101211110010000101
11000000001012111100100001011
10000000010121111001000010110
00000000101211110010000101100
00000001012111100100001011000
00000010121111001000010110000
00000101211110010000101100000
00001012111100100001011000000
00010121111001000010110000000
00101211110010000101100000000
01012111100100001011000000000
10121111001000010110000000000
01211110010000101100000000000
12111100100001011000000000000
21111001000010110000000000000
11110010000101100000000000001
11100100001011000000000000011
11001000010110000000000000111
10010000101100000000000001110
00100001011000000000000011101
01000010110000000000000111011
10000101100000000000001110110
00001011000000000000011101100
00010110000000000000111011000

fitness: 38410 22696 0.87 2858 1.00 Gen: 392
002110101100010000200011001010
021101011000100002000110010101
211010110001000020001100101010
110101100010000200011001010100
101011000100002000110010101001
010110001000020001100101010012
101100010000200011001010100121
011000100002000110010101001210
110001000020001100101010012100
100010000200011001010100121000
000100002000110010101001210000
001000020001100101010012100001
010000200011001010100121000011
100002000110010101001210000111
000020001100101010012100001110
000200011001010100121000011100
002000110010101001210000111000
020001100101010012100001110000
200011001010100121000011100000
000110010101001210000111000000
001100101010012100001110000000
011001010100121000011100000001
110010101001210000111000000010
100101010012100001110000000101
001010100121000011100000001010
010101001210000111000000010101
101010012100001110000000101012
010100121000011100000001010120
101001210000111000000010101200
010012100001110000000101012000
00100101100000000101211110010
01001011000000001012111100100
10010110000000010121111001000
00101100000000101211110010000
01011000000001012111100100001
10110000000010121111001000010
01100000000101211110010000101
11000000001012111100100001011
10000000010121111001000010110
00000000101211110010000101100
00000001012111100100001011000
00000010121111001000010110000
00000101211110010000101100000
00001012111100100001011000000
00010121111001000010110000000
00101211110010000101100000000
01012111100100001011000000000
10121111001000010110000000000
01211110010000101100000000000
12111100100001011000000000000
21111001000010110000000000000
11110010000101100000000000001
11100100001011000000000000011
11001000010110000000000000111
10010000101100000000000001110
00100001011000000000000011101
01000010110000000000000111011
10000101100000000000001110110
00001011000000000000011101100
00010110000000000000111011000

fitness: 39321 22659 0.87 3050 1.00 Gen: 402
002100101100010000200011001010
021001011000100002000110010101
210010110001000020001100101010
100101100010000200011001010100
001011000100002000110010101001
010110001000020001100101010012
101100010000200011001010100121
011000100002000110010101001210
110001000020001100101010012100
100010000200011001010100121000
000100002000110010101001210000
001000020001100101010012100001
010000200011001010100121000011
100002000110010101001210000111
000020001100101010012100001110
000200011001010100121000011100
002000110010101001210000111000
020001100101010012100001110000
200011001010100121000011100000
000110010101001210000111000000
001100101010012100001110000000
011001010100121000011100000001
110010101001210000111000000010
100101010012100001110000000101
001010100121000011100000001010
010101001210000111000000010101
101010012100001110000000101012
010100121000011100000001010120
101001210000111000000010101200
010012100001110000000101012000
00100101100000000101211110010
01001011000000001012111100100
10010110000000010121111001000
00101100000000101211110010000
01011000000001012111100100001
10110000000010121111001000010
01100000000101211110010000101
11000000001012111100100001011
10000000010121111001000010110
00000000101211110010000101100
00000001012111100100001011000
00000010121111001000010110000
00000101211110010000101100000
00001012111100100001011000000
00010121111001000010110000000
00101211110010000101100000000
01012111100100001011000000000
10121111001000010110000000000
01211110010000101100000000000
12111100100001011000000000000
21111001000010110000000000000
11110010000101100000000000001
11100100001011000000000000011
11001000010110000000000000111
10010000101100000000000001110
00100001011000000000000011101
01000010110000000000000111011
10000101100000000000001110110
00001011000000000000011101100
00010110000000000000111011000

fitness: 37399 21959 0.87 2856 1.00 Gen: 422
002100101100010000200011001010
021001011000100002000110010101
210010110001000020001100101010
100101100010000200011001010100
001011000100002000110010101001
010110001000020001100101010012
101100010000200011001010100121
011000100002000110010101001210
110001000020001100101010012100
100010000200011001010100121000
000100002000110010101001210000
001000020001100101010012100001
010000200011001010100121000011
100002000110010101001210000111
000020001100101010012100001110
000200011001010100121000011100
002000110010101001210000111000
020001100101010012100001110000
200011001010100121000011100000
000110010101001210000111000000
001100101010012100001110000000
011001010100121000011100000001
110010101001210000111000000010
100101010012100001110000000101
001010100121000011100000001010
010101001210000111000000010101
101010012100001110000000101012
010100121000011100000001010120
101001210000111000000010101200
010012100001110000000101012000
00100101100000000101211110110
01001011000000001012111101100
10010110000000010121111011000
00101100000000101211110110000
01011000000001012111101100001
10110000000010121111011000010
01100000000101211110110000101
11000000001012111101100001011
10000000010121111011000010110
00000000101211110110000101100
00000001012111101100001011000
00000010121111011000010110000
00000101211110110000101100000
00001012111101100001011000000
00010121111011000010110000000
00101211110110000101100000000
01012111101100001011000000000
10121111011000010110000000000
01211110110000101100000000001
12111101100001011000000000010
21111011000010110000000000100
11110110000101100000000001001
11101100001011000000000010011
11011000010110000000000100111
10110000101100000000001001110
01100001011000000000010011101
11000010110000000000100111010
10000101100000000001001110100
00001011000000000010011101000
00010110000000000100111010000

fitness: 41136 23514 0.87 2982 1.00 Gen: 465
002110101100010000200011001010
021101011000100002000110010101
211010110001000020001100101010
110101100010000200011001010100
101011000100002000110010101001
010110001000020001100101010012
101100010000200011001010100121
011000100002000110010101001210
110001000020001100101010012100
100010000200011001010100121000
000100002000110010101001210000
001000020001100101010012100001
010000200011001010100121000011
100002000110010101001210000111
000020001100101010012100001110
000200011001010100121000011100
002000110010101001210000111000
020001100101010012100001110000
200011001010100121000011100000
000110010101001210000111000000
001100101010012100001110000000
011001010100121000011100000001
110010101001210000111000000010
100101010012100001110000000101
001010100121000011100000001010
010101001210000111000000010101
101010012100001110000000101012
010100121000011100000001010120
101001210000111000000010101200
010012100001110000000101012000
00100101100000000101211110110
01001011000000001012111101100
10010110000000010121111011000
00101100000000101211110110000
01011000000001012111101100001
10110000000010121111011000010
01100000000101211110110000101
11000000001012111101100001011
10000000010121111011000010110
00000000101211110110000101100
00000001012111101100001011000
00000010121111011000010110000
00000101211110110000101100000
00001012111101100001011000000
00010121111011000010110000000
00101211110110000101100000000
01012111101100001011000000000
10121111011000010110000000000
01211110110000101100000000000
12111101100001011000000000000
21111011000010110000000000000
11110110000101100000000000001
11101100001011000000000000011
11011000010110000000000000111
10110000101100000000000001110
01100001011000000000000011101
11000010110000000000000111010
10000101100000000000001110100
00001011000000000000011101000
00010110000000000000111010000

fitness: 39740 22830 0.87 2914 1.00 Gen: 491
002110101100010000200011001010
021101011000100002000110010101
211010110001000020001100101010
110101100010000200011001010100
101011000100002000110010101001
010110001000020001100101010012
101100010000200011001010100121
011000100002000110010101001210
110001000020001100101010012100
100010000200011001010100121000
000100002000110010101001210000
001000020001100101010012100001
010000200011001010100121000011
100002000110010101001210000111
000020001100101010012100001110
000200011001010100121000011100
002000110010101001210000111000
020001100101010012100001110000
200011001010100121000011100000
000110010101001210000111000000
001100101010012100001110000000
011001010100121000011100000001
110010101001210000111000000010
100101010012100001110000000101
001010100121000011100000001010
010101001210000111000000010101
101010012100001110000000101012
010100121000011100000001010120
101001210000111000000010101200
010012100001110000000101012000
00100101100000000101211110110
01001011000000001012111101100
10010110000000010121111011000
00101100000000101211110110000
01011000000001012111101100001
10110000000010121111011000010
01100000000101211110110000101
11000000001012111101100001011
10000000010121111011000010110
00000000101211110110000101100
00000001012111101100001011000
00000010121111011000010110000
00000101211110110000101100000
00001012111101100001011000000
00010121111011000010110000000
00101211110110000101100000000
01012111101100001011000000000
10121111011000010110000000000
01211110110000101100000000000
12111101100001011000000000000
21111011000010110000000000000
11110110000101100000000000001
11101100001011000000000000011
11011000010110000000000000111
10110000101100000000000001110
01100001011000000000000011101
11000010110000000000000111010
10000101100000000000001110100
00001011000000000000011101000
00010110000000000000111010000

fitness: 41202 23204 0.86 2828 1.00 Gen: 517
002110101100010000200011001010
021101011000100002000110010101
211010110001000020001100101010
110101100010000200011001010100
101011000100002000110010101001
010110001000020001100101010012
101100010000200011001010100121
011000100002000110010101001210
110001000020001100101010012100
100010000200011001010100121000
000100002000110010101001210000
001000020001100101010012100001
010000200011001010100121000011
100002000110010101001210000111
000020001100101010012100001110
000200011001010100121000011100
002000110010101001210000111000
020001100101010012100001110000
200011001010100121000011100000
000110010101001210000111000000
001100101010012100001110000000
011001010100121000011100000001
110010101001210000111000000010
100101010012100001110000000101
001010100121000011100000001010
010101001210000111000000010101
101010012100001110000000101012
010100121000011100000001010120
101001210000111000000010101200
010012100001110000000101012000
00100101100000000101211110110
01001011000000001012111101100
10010110000000010121111011000
00101100000000101211110110000
01011000000001012111101100001
10110000000010121111011000010
01100000000101211110110000101
11000000001012111101100001011
10000000010121111011000010110
00000000101211110110000101100
00000001012111101100001011000
00000010121111011000010110000
00000101211110110000101100000
00001012111101100001011000000
00010121111011000010110000000
00101211110110000101100000000
01012111101100001011000000000
10121111011000010110000000000
01211110110000101100000000000
12111101100001011000000000000
21111011000010110000000000000
11110110000101100000000000001
11101100001011000000000000011
11011000010110000000000000111
10110000101100000000000001110
01100001011000000000000011101
11000010110000000000000111010
10000101100000000000001110100
00001011000000000000011101000
00010110000000000000111010000

fitness: 40129 21678 0.86 2847 1.00 Gen: 524
002100101100010000200011001010
021001011000100002000110010101
210010110001000020001100101010
100101100010000200011001010100
001011000100002000110010101001
010110001000020001100101010012
101100010000200011001010100121
011000100002000110010101001210
110001000020001100101010012100
100010000200011001010100121000
000100002000110010101001210000
001000020001100101010012100001
010000200011001010100121000011
100002000110010101001210000111
000020001100101010012100001110
000200011001010100121000011100
002000110010101001210000111000
020001100101010012100001110000
200011001010100121000011100000
000110010101001210000111000000
001100101010012100001110000000
011001010100121000011100000001
110010101001210000111000000010
100101010012100001110000000101
001010100121000011100000001010
010101001210000111000000010101
101010012100001110000000101012
010100121000011100000001010120
101001210000111000000010101200
010012100001110000000101012000
00100101100000000101211110110
01001011000000001012111101100
10010110000000010121111011000
00101100000000101211110110000
01011000000001012111101100001
10110000000010121111011000010
01100000000101211110110000101
11000000001012111101100001011
10000000010121111011000010110
00000000101211110110000101100
00000001012111101100001011000
00000010121111011000010110000
00000101211110110000101100000
00001012111101100001011000000
00010121111011000010110000000
00101211110110000101100000000
01012111101100001011000000000
10121111011000010110000000000
01211110110000101100000000000
12111101100001011000000000000
21111011000010110000000000000
11110110000101100000000000001
11101100001011000000000000011
11011000010110000000000000111
10110000101100000000000001110
01100001011000000000000011101
11000010110000000000000111010
10000101100000000000001110100
00001011000000000000011101000
00010110000000000000111010000

fitness: 40336 21500 0.86 2913 1.00 Gen: 525
002110101100010000200011001010
021101011000100002000110010101
211010110001000020001100101010
110101100010000200011001010100
101011000100002000110010101001
010110001000020001100101010012
101100010000200011001010100121
011000100002000110010101001210
110001000020001100101010012100
100010000200011001010100121000
000100002000110010101001210000
001000020001100101010012100001
010000200011001010100121000011
100002000110010101001210000111
000020001100101010012100001110
000200011001010100121000011100
002000110010101001210000111000
020001100101010012100001110000
200011001010100121000011100000
000110010101001210000111000000
001100101010012100001110000000
011001010100121000011100000001
110010101001210000111000000010
100101010012100001110000000101
001010100121000011100000001010
010101001210000111000000010101
101010012100001110000000101012
010100121000011100000001010120
101001210000111000000010101200
010012100001110000000101012000
00100101100000000101211110110
01001011000000001012111101100
10010110000000010121111011000
00101100000000101211110110000
01011000000001012111101100001
10110000000010121111011000010
01100000000101211110110000101
11000000001012111101100001011
10000000010121111011000010110
00000000101211110110000101100
00000001012111101100001011000
00000010121111011000010110000
00000101211110110000101100000
00001012111101100001011000000
00010121111011000010110000000
00101211110110000101100000000
01012111101100001011000000000
10121111011000010110000000000
01211110110000101100000000000
12111101100001011000000000000
21111011000010110000000000000
11110110000101100000000000001
11101100001011000000000000011
11011000010110000000000000111
10110000101100000000000001110
01100001011000000000000011101
11000010110000000000000111010
10000101100000000000001110100
00001011000000000000011101000
00010110000000000000111010000

fitness: 40009 23473 0.87 3326 1.00 Gen: 658
002100101100010000200011001010
021001011000100002000110010101
210010110001000020001100101010
100101100010000200011001010100
001011000100002000110010101001
010110001000020001100101010012
101100010000200011001010100121
011000100002000110010101001210
110001000020001100101010012100
100010000200011001010100121000
000100002000110010101001210000
001000020001100101010012100001
010000200011001010100121000011
100002000110010101001210000111
000020001100101010012100001110
000200011001010100121000011100
002000110010101001210000111000
020001100101010012100001110000
200011001010100121000011100000
000110010101001210000111000000
001100101010012100001110000000
011001010100121000011100000001
110010101001210000111000000010
100101010012100001110000000101
001010100121000011100000001010
010101001210000111000000010101
101010012100001110000000101012
010100121000011100000001010120
101001210000111000000010101200
010012100001110000000101012000
00100101100000000101211110010
01001011000000001012111100100
10010110000000010121111001000
00101100000000101211110010000
01011000000001012111100100001
10110000000010121111001000010
01100000000101211110010000101
11000000001012111100100001011
10000000010121111001000010110
00000000101211110010000101100
00000001012111100100001011000
00000010121111001000010110000
00000101211110010000101100000
00001012111100100001011000000
00010121111001000010110000000
00101211110010000101100000000
01012111100100001011000000000
10121111001000010110000000000
01211110010000101100000000001
12111100100001011000000000010
21111001000010110000000000100
11110010000101100000000001001
11100100001011000000000010011
11001000010110000000000100111
10010000101100000000001001110
00100001011000000000010011101
01000010110000000000100111010
10000101100000000001001110100
00001011000000000010011101000
00010110000000000100111010000

fitness: 40285 23627 0.88 2837 1.00 Gen: 685
002110101100010000200011001010
021101011000100002000110010101
211010110001000020001100101010
110101100010000200011001010100
101011000100002000110010101001
010110001000020001100101010012
101100010000200011001010100121
011000100002000110010101001210
110001000020001100101010012100
100010000200011001010100121000
000100002000110010101001210000
001000020001100101010012100001
010000200011001010100121000011
100002000110010101001210000111
000020001100101010012100001110
000200011001010100121000011100
002000110010101001210000111000
020001100101010012100001110000
200011001010100121000011100000
000110010101001210000111000000
001100101010012100001110000000
011001010100121000011100000001
110010101001210000111000000010
100101010012100001110000000101
001010100121000011100000001010
010101001210000111000000010101
101010012100001110000000101012
010100121000011100000001010120
101001210000111000000010101200
010012100001110000000101012000
00100101100000000101211110010
01001011000000001012111100100
10010110000000010121111001000
00101100000000101211110010000
01011000000001012111100100001
10110000000010121111001000010
01100000000101211110010000101
11000000001012111100100001011
10000000010121111001000010110
00000000101211110010000101100
00000001012111100100001011000
00000010121111001000010110000
00000101211110010000101100000
00001012111100100001011000000
00010121111001000010110000000
00101211110010000101100000000
01012111100100001011000000000
10121111001000010110000000000
01211110010000101100000000000
12111100100001011000000000000
21111001000010110000000000000
11110010000101100000000000001
11100100001011000000000000011
11001000010110000000000000111
10010000101100000000000001110
00100001011000000000000011101
01000010110000000000000111010
10000101100000000000001110100
00001011000000000000011101000
00010110000000000000111010000

fitness: 38362 22663 0.88 2979 1.00 Gen: 686
002100101100010000200011001010
021001011000100002000110010101
210010110001000020001100101010
100101100010000200011001010100
001011000100002000110010101001
010110001000020001100101010012
101100010000200011001010100121
011000100002000110010101001210
110001000020001100101010012100
100010000200011001010100121000
000100002000110010101001210000
001000020001100101010012100001
010000200011001010100121000011
100002000110010101001210000111
000020001100101010012100001110
000200011001010100121000011100
002000110010101001210000111000
020001100101010012100001110000
200011001010100121000011100000
000110010101001210000111000000
001100101010012100001110000000
011001010100121000011100000001
110010101001210000111000000010
100101010012100001110000000101
001010100121000011100000001010
010101001210000111000000010101
101010012100001110000000101012
010100121000011100000001010120
101001210000111000000010101200
010012100001110000000101012000
00100101100000000101211110110
01001011000000001012111101100
10010110000000010121111011000
00101100000000101211110110000
01011000000001012111101100001
10110000000010121111011000010
01100000000101211110110000101
11000000001012111101100001011
10000000010121111011000010110
00000000101211110110000101100
00000001012111101100001011000
00000010121111011000010110000
00000101211110110000101100000
00001012111101100001011000000
00010121111011000010110000000
00101211110110000101100000000
01012111101100001011000000000
10121111011000010110000000000
01211110110000101100000000001
12111101100001011000000000010
21111011000010110000000000100
11110110000101100000000001001
11101100001011000000000010011
11011000010110000000000100111
10110000101100000000001001110
01100001011000000000010011101
11000010110000000000100111011
10000101100000000001001110110
00001011000000000010011101100
00010110000000000100111011000

