00110110110010000110
11000111100000001010
11010000100110010001
11110000011001111000
11101111010001011100
11100111001001011101
01011101000110100111
00101010000001000100
11011010111101001101
10001010100110011001
00011100010001000100
01100011001100111111
00001010010000010110
01010011110000010000
10100101001111011101
11110111010001010000
00101110100001011000
01110011101000001001
00110111101100100000
00100111100000111011
