fitness: 66436 2968 0.12 1480 0.32 Gen: 195
011110001010100010
111100010101000101
111000101010001010
110001010100010100
100010101000101001
000101010001010010
001010100010100101
010101000101001010
101010001010010101
010100010100101011
101000101001010110
010001010010101100
100010100101011000
000101001010110000
001010010101100000
010100101011000001
101001010110000010
010010101100000102
10010000001001200
00100000010012000
01000000100120001
10000001001200010
00000010012000100
00000100120001001
00001001200010011
00010012000100111
00100120001001110
01001200010011100
10012000100111000
00120001001110000
01200010011100001
12000100111000010
20001001110000101
00010011100001011
00100111000010111
01001110000101110

fitness: 82987 3246 0.10 1439 0.29 Gen: 293
001110001110100010
011100011101000101
111000111010001010
110001110100010100
100011101000101000
000111010001010000
001110100010100001
011101000101000011
111010001010000111
110100010100001111
101000101000011110
010001010000111100
100010100001111000
000101000011110000
001010000111100000
010100001111000000
101000011110000001
010000111100000012
10010100000011200
00101000000112000
01010000001120001
10100000011200010
01000000112000100
10000001120001001
00000011200010011
00000112000100111
00001120001001110
00011200010011100
00112000100111000
01120001001110000
11200010011100001
12000100111000010
20001001110000101
00010011100001011
00100111000010110
01001110000101100

fitness: 90895 2535 0.12 1061 0.30 Gen: 300
011110000110110011
111100001101100111
111000011011001110
110000110110011100
100001101100111000
000011011001110001
000110110011100011
001101100111000111
011011001110001111
110110011100011111
101100111000111110
011001110001111100
110011100011111000
100111000111110000
001110001111100000
011100011111000000
111000111110000000
110001111100000002
10010011000001200
00100110000012001
01001100000120011
10011000001200110
00110000012001100
01100000120011001
11000001200110011
10000012001100111
00000120011001110
00001200110011100
00012001100111000
00120011001110000
01200110011100001
12001100111000010
20011001110000101
00110011100001010
01100111000010100
11001110000101000

fitness: 68108 2589 0.09 1868 0.24 Gen: 323
011110001110100011
111100011101000111
111000111010001110
110001110100011100
100011101000111000
000111010001110000
001110100011100001
011101000111000011
111010001110000111
110100011100001111
101000111000011110
010001110000111100
100011100001111000
000111000011110000
001110000111100000
011100001111000000
111000011110000000
110000111100000002
10010000000001200
00100000000012000
01000000000120001
10000000001200010
00000000012000100
00000000120001001
00000001200010011
00000012000100111
00000120001001110
00001200010011100
00012000100111000
00120001001110000
01200010011100001
12000100111000010
20001001110000101
00010011100001010
00100111000010101
01001110000101010

fitness: 67542 2450 0.12 2382 0.31 Gen: 331
001110001110100010
011100011101000101
111000111010001010
110001110100010100
100011101000101001
000111010001010010
001110100010100101
011101000101001011
111010001010010111
110100010100101111
101000101001011110
010001010010111100
100010100101111000
000101001011110000
001010010111100000
010100101111000000
101001011110000001
010010111100000012
10010010000011200
00100100000112000
01001000001120001
10010000011200010
00100000112000100
01000001120001001
10000011200010011
00000112000100111
00001120001001110
00011200010011100
00112000100111000
01120001001110000
11200010011100001
12000100111000010
20001001110000101
00010011100001010
00100111000010100
01001110000101000

fitness: 69602 3869 0.11 1765 0.26 Gen: 341
011110001010100011
111100010101000111
111000101010001110
110001010100011100
100010101000111000
000101010001110000
001010100011100001
010101000111000011
101010001110000111
010100011100001111
101000111000011110
010001110000111100
100011100001111000
000111000011110000
001110000111100000
011100001111000000
111000011110000000
110000111100000002
10010100001001200
00101000010012001
01010000100120011
10100001001200110
01000010012001100
10000100120011001
00001001200110011
00010012001100111
00100120011001110
01001200110011100
10012001100111000
00120011001110000
01200110011100001
12001100111000010
20011001110000101
00110011100001010
01100111000010101
11001110000101010

fitness: 71351 3659 0.10 2446 0.29 Gen: 357
011110001010100011
111100010101000111
111000101010001110
110001010100011100
100010101000111000
000101010001110000
001010100011100001
010101000111000011
101010001110000111
010100011100001111
101000111000011110
010001110000111100
100011100001111000
000111000011110000
001110000111100000
011100001111000000
111000011110000000
110000111100000002
10010100001001200
00101000010012001
01010000100120011
10100001001200110
01000010012001100
10000100120011001
00001001200110011
00010012001100111
00100120011001110
01001200110011100
10012001100111000
00120011001110000
01200110011100001
12001100111000010
20011001110000101
00110011100001010
01100111000010101
11001110000101010

fitness: 68693 4093 0.12 2294 0.31 Gen: 362
011110001010100010
111100010101000101
111000101010001010
110001010100010100
100010101000101001
000101010001010010
001010100010100101
010101000101001011
101010001010010111
010100010100101111
101000101001011110
010001010010111100
100010100101111000
000101001011110000
001010010111100000
010100101111000001
101001011110000010
010010111100000102
10010000001001200
00100000010012000
01000000100120001
10000001001200010
00000010012000100
00000100120001001
00001001200010011
00010012000100111
00100120001001110
01001200010011100
10012000100111000
00120001001110000
01200010011100001
12000100111000010
20001001110000101
00010011100001011
00100111000010111
01001110000101110

fitness: 66899 3206 0.10 1804 0.29 Gen: 391
001110001010100011
011100010101000111
111000101010001110
110001010100011100
100010101000111000
000101010001110000
001010100011100001
010101000111000011
101010001110000111
010100011100001111
101000111000011110
010001110000111100
100011100001111000
000111000011110000
001110000111100000
011100001111000000
111000011110000000
110000111100000002
10010100001001200
00101000010012001
01010000100120011
10100001001200110
01000010012001100
10000100120011001
00001001200110011
00010012001100111
00100120011001110
01001200110011100
10012001100111000
00120011001110000
01200110011100001
12001100111000010
20011001110000101
00110011100001010
01100111000010101
11001110000101010

fitness: 66806 3718 0.12 1376 0.32 Gen: 414
001110001110100010
011100011101000101
111000111010001010
110001110100010100
100011101000101000
000111010001010000
001110100010100001
011101000101000011
111010001010000111
110100010100001111
101000101000011110
010001010000111100
100010100001111000
000101000011110000
001010000111100000
010100001111000000
101000011110000001
010000111100000012
10010000000001200
00100000000012001
01000000000120011
10000000001200110
00000000012001100
00000000120011001
00000001200110011
00000012001100111
00000120011001110
00001200110011100
00012001100111000
00120011001110000
01200110011100001
12001100111000010
20011001110000101
00110011100001010
01100111000010100
11001110000101000

fitness: 67827 3544 0.11 2497 0.29 Gen: 429
011110001010100010
111100010101000101
111000101010001010
110001010100010100
100010101000101001
000101010001010010
001010100010100101
010101000101001011
101010001010010111
010100010100101111
101000101001011110
010001010010111100
100010100101111000
000101001011110000
001010010111100000
010100101111000001
101001011110000010
010010111100000102
10010000001001200
00100000010012000
01000000100120001
10000001001200010
00000010012000100
00000100120001001
00001001200010011
00010012000100111
00100120001001110
01001200010011100
10012000100111000
00120001001110000
01200010011100001
12000100111000010
20001001110000101
00010011100001011
00100111000010111
01001110000101110

fitness: 66901 2761 0.11 1602 0.31 Gen: 439
001110001110100010
011100011101000101
111000111010001010
110001110100010100
100011101000101000
000111010001010000
001110100010100001
011101000101000011
111010001010000111
110100010100001111
101000101000011110
010001010000111100
100010100001111000
000101000011110000
001010000111100000
010100001111000000
101000011110000001
010000111100000012
10010100000011200
00101000000112000
01010000001120001
10100000011200010
01000000112000100
10000001120001001
00000011200010011
00000112000100111
00001120001001110
00011200010011100
00112000100111000
01120001001110000
11200010011100001
12000100111000010
20001001110000101
00010011100001011
00100111000010110
01001110000101100

fitness: 66509 1824 0.09 1501 0.23 Gen: 440
011110001110100011
111100011101000111
111000111010001110
110001110100011100
100011101000111000
000111010001110000
001110100011100001
011101000111000011
111010001110000111
110100011100001111
101000111000011110
010001110000111100
100011100001111000
000111000011110000
001110000111100000
011100001111000000
111000011110000000
110000111100000002
10010110000001200
00101100000012000
01011000000120001
10110000001200010
01100000012000100
11000000120001001
10000001200010011
00000012000100111
00000120001001110
00001200010011100
00012000100111000
00120001001110000
01200010011100001
12000100111000010
20001001110000101
00010011100001010
00100111000010101
01001110000101010

fitness: 68196 3407 0.09 1768 0.23 Gen: 443
011110001110100011
111100011101000111
111000111010001110
110001110100011100
100011101000111000
000111010001110000
001110100011100001
011101000111000011
111010001110000111
110100011100001111
101000111000011110
010001110000111100
100011100001111000
000111000011110000
001110000111100000
011100001111000000
111000011110000000
110000111100000002
10010000000001200
00100000000012000
01000000000120001
10000000001200010
00000000012000100
00000000120001001
00000001200010011
00000012000100111
00000120001001110
00001200010011100
00012000100111000
00120001001110000
01200010011100001
12000100111000010
20001001110000101
00010011100001010
00100111000010101
01001110000101010

fitness: 67085 3888 0.11 2209 0.28 Gen: 462
001110001010100011
011100010101000111
111000101010001110
110001010100011100
100010101000111000
000101010001110000
001010100011100001
010101000111000011
101010001110000111
010100011100001111
101000111000011110
010001110000111100
100011100001111000
000111000011110000
001110000111100000
011100001111000000
111000011110000000
110000111100000002
10010100001001200
00101000010012001
01010000100120011
10100001001200110
01000010012001100
10000100120011001
00001001200110011
00010012001100111
00100120011001110
01001200110011100
10012001100111000
00120011001110000
01200110011100001
12001100111000010
20011001110000101
00110011100001010
01100111000010101
11001110000101010

fitness: 66437 3449 0.07 1367 0.22 Gen: 485
001110001010100010
011100010101000101
111000101010001010
110001010100010100
100010101000101000
000101010001010000
001010100010100001
010101000101000010
101010001010000101
010100010100001011
101000101000010110
010001010000101100
100010100001011000
000101000010110000
001010000101100000
010100001011000000
101000010110000001
010000101100000012
10010000000001200
00100000000012000
01000000000120001
10000000001200010
00000000012000100
00000000120001001
00000001200010011
00000012000100111
00000120001001110
00001200010011100
00012000100111000
00120001001110000
01200010011100001
12000100111000010
20001001110000101
00010011100001011
00100111000010110
01001110000101100

fitness: 67725 2700 0.10 2321 0.25 Gen: 504
011110001010100010
111100010101000101
111000101010001010
110001010100010100
100010101000101001
000101010001010010
001010100010100101
010101000101001010
101010001010010101
010100010100101011
101000101001010110
010001010010101100
100010100101011000
000101001010110000
001010010101100000
010100101011000001
101001010110000010
010010101100000102
10010000001001200
00100000010012000
01000000100120001
10000001001200010
00000010012000100
00000100120001001
00001001200010011
00010012000100111
00100120001001110
01001200010011100
10012000100111000
00120001001110000
01200010011100001
12000100111000010
20001001110000101
00010011100001011
00100111000010111
01001110000101110

fitness: 71351 3387 0.12 2018 0.29 Gen: 518
001110001110100011
011100011101000111
111000111010001110
110001110100011100
100011101000111000
000111010001110000
001110100011100001
011101000111000011
111010001110000111
110100011100001111
101000111000011110
010001110000111100
100011100001111000
000111000011110001
001110000111100010
011100001111000100
111000011110001000
110000111100010002
10010100000001200
00101000000012000
01010000000120001
10100000001200010
01000000012000100
10000000120001001
00000001200010011
00000012000100111
00000120001001110
00001200010011100
00012000100111000
00120001001110000
01200010011100001
12000100111000010
20001001110000101
00010011100001011
00100111000010111
01001110000101110

fitness: 71351 2789 0.09 1415 0.23 Gen: 535
011110001110100011
111100011101000111
111000111010001110
110001110100011100
100011101000111000
000111010001110000
001110100011100001
011101000111000011
111010001110000111
110100011100001111
101000111000011110
010001110000111100
100011100001111000
000111000011110000
001110000111100000
011100001111000000
111000011110000000
110000111100000002
10010010000001200
00100100000012000
01001000000120001
10010000001200010
00100000012000100
01000000120001001
10000001200010011
00000012000100111
00000120001001110
00001200010011100
00012000100111000
00120001001110000
01200010011100001
12000100111000010
20001001110000101
00010011100001010
00100111000010101
01001110000101010

fitness: 67709 2516 0.10 1549 0.30 Gen: 586
011110001010100011
111100010101000111
111000101010001110
110001010100011100
100010101000111000
000101010001110000
001010100011100001
010101000111000011
101010001110000111
010100011100001111
101000111000011110
010001110000111100
100011100001111000
000111000011110000
001110000111100000
011100001111000000
111000011110000001
110000111100000012
10010100001001200
00101000010012000
01010000100120001
10100001001200010
01000010012000100
10000100120001001
00001001200010011
00010012000100111
00100120001001110
01001200010011100
10012000100111000
00120001001110000
01200010011100001
12000100111000010
20001001110000101
00010011100001010
00100111000010100
01001110000101000

fitness: 66985 5054 0.08 1881 0.20 Gen: 587
011110001110100011
111100011101000111
111000111010001110
110001110100011100
100011101000111000
000111010001110000
001110100011100001
011101000111000011
111010001110000111
110100011100001111
101000111000011110
010001110000111100
100011100001111000
000111000011110000
001110000111100000
011100001111000000
111000011110000000
110000111100000002
10010000000001200
00100000000012000
01000000000120001
10000000001200010
00000000012000100
00000000120001001
00000001200010011
00000012000100111
00000120001001110
00001200010011100
00012000100111000
00120001001110000
01200010011100001
12000100111000010
20001001110000101
00010011100001010
00100111000010101
01001110000101010

fitness: 69946 2038 0.10 2345 0.29 Gen: 658
011110001010100011
111100010101000111
111000101010001110
110001010100011100
100010101000111000
000101010001110000
001010100011100001
010101000111000011
101010001110000111
010100011100001111
101000111000011110
010001110000111100
100011100001111000
000111000011110000
001110000111100000
011100001111000000
111000011110000000
110000111100000002
10010000000001200
00100000000012001
01000000000120011
10000000001200110
00000000012001100
00000000120011001
00000001200110011
00000012001100111
00000120011001110
00001200110011100
00012001100111000
00120011001110000
01200110011100001
12001100111000010
20011001110000101
00110011100001010
01100111000010101
11001110000101010

fitness: 67782 4225 0.09 1785 0.25 Gen: 662
001110001010100011
011100010101000111
111000101010001110
110001010100011100
100010101000111000
000101010001110000
001010100011100001
010101000111000011
101010001110000111
010100011100001111
101000111000011110
010001110000111100
100011100001111000
000111000011110000
001110000111100000
011100001111000000
111000011110000000
110000111100000002
10010000001001200
00100000010012000
01000000100120001
10000001001200010
00000010012000100
00000100120001001
00001001200010011
00010012000100111
00100120001001110
01001200010011100
10012000100111000
00120001001110000
01200010011100001
12000100111000010
20001001110000101
00010011100001010
00100111000010101
01001110000101010

fitness: 77569 2514 0.11 2314 0.31 Gen: 672
001110001010100010
011100010101000101
111000101010001010
110001010100010100
100010101000101000
000101010001010000
001010100010100001
010101000101000011
101010001010000111
010100010100001111
101000101000011110
010001010000111100
100010100001111000
000101000011110000
001010000111100000
010100001111000000
101000011110000001
010000111100000012
10010100000001200
00101000000012001
01010000000120011
10100000001200110
01000000012001100
10000000120011001
00000001200110011
00000012001100111
00000120011001110
00001200110011100
00012001100111000
00120011001110000
01200110011100001
12001100111000010
20011001110000101
00110011100001010
01100111000010100
11001110000101000

fitness: 71351 4608 0.10 2509 0.23 Gen: 696
001110001110100010
011100011101000101
111000111010001010
110001110100010100
100011101000101000
000111010001010000
001110100010100001
011101000101000011
111010001010000111
110100010100001111
101000101000011110
010001010000111100
100010100001111000
000101000011110000
001010000111100000
010100001111000000
101000011110000000
010000111100000002
10010100000001200
00101000000012001
01010000000120011
10100000001200110
01000000012001100
10000000120011001
00000001200110011
00000012001100111
00000120011001110
00001200110011100
00012001100111000
00120011001110000
01200110011100001
12001100111000010
20011001110000101
00110011100001011
01100111000010110
11001110000101100

