fitness: 37254 20316 0.86 3026 1.00 Gen: 19
101010100100001000110102
010101001000010001101020
101010010000100011010200
010100100001000110102001
101001000010001101020011
010010000100011010200111
100100001000110102001110
001000010001101020011102
010000100011010200111020
100001000110102001110201
000010001101020011102011
000100011010200111020110
001000110102001110201100
010001101020011102011000
100011010200111020110000
000110102001110201100001
001101020011102011000010
011010200111020110000100
110102001110201100001001
101020011102011000010011
010200111020110000100111
102001110201100001001110
020011102011000010011102
200111020110000100111021
11011001111011021111111
10110011110110211111111
01100111101102111111111
11001111011021111111110
10011110110211111111101
00111101102111111111011
01111011021111111110110
11110110211111111101101
11101102111111111011011
11011021111111110110110
10110211111111101101100
01102111111111011011000
11021111111110110110000
10211111111101101100002
02111111111011011000020
21111111110110110000201
11111111101101100002011
11111111011011000020111
11111110110110000201111
11111101101100002011110
11111011011000020111100
11110110110000201111000
11101101100002011110001
11011011000020111100010

fitness: 36982 20909 0.86 2962 1.00 Gen: 71
101010000100000010110110
010100001000000101101100
101000010000001011011000
010000100000010110110001
100001000000101101100011
000010000001011011000111
000100000010110110001110
001000000101101100011102
010000001011011000111020
100000010110110001110201
000000101101100011102011
000001011011000111020110
000010110110001110201100
000101101100011102011000
001011011000111020110000
010110110001110201100000
101101100011102011000000
011011000111020110000000
110110001110201100000001
101100011102011000000011
011000111020110000000111
110001110201100000001110
100011102011000000011102
000111020110000000111021
11011001110011021110111
10110011100110211101111
01100111001102111011111
11001110011021110111110
10011100110211101111100
00111001102111011111001
01110011021110111110010
11100110211101111100101
11001102111011111001010
10011021110111110010100
00110211101111100101000
01102111011111001010001
11021110111110010100010
10211101111100101000101
02111011111001010001010
21110111110010100010101
11101111100101000101011
11011111001010001010111
10111110010100010101111
01111100101000101011110
11111001010001010111100
11110010100010101111000
11100101000101011110001
11001010001010111100010

fitness: 38002 20458 0.86 2889 1.00 Gen: 116
101010100100101010010102
010101001001010100101020
101010010010101001010200
010100100101010010102001
101001001010100101020011
010010010101001010200111
100100101010010102001110
001001010100101020011101
010010101001010200111010
100101010010102001110101
001010100101020011101011
010101001010200111010110
101010010102001110101100
010100101020011101011000
101001010200111010110000
010010102001110101100000
100101020011101011000001
001010200111010110000010
010102001110101100000101
101020011101011000001011
010200111010110000010111
102001110101100000101110
020011101011000001011100
200111010110000010111001
01011001011001121101101
10110010110011211011011
01100101100112110110111
11001011001121101101110
10010110011211011011101
00101100112110110111010
01011001121101101110100
10110011211011011101001
01100112110110111010011
11001121101101110100110
10011211011011101001100
00112110110111010011000
01121101101110100110000
11211011011101001100002
12110110111010011000020
21101101110100110000201
11011011101001100002011
10110111010011000020110
01101110100110000201100
11011101001100002011000
10111010011000020110000
01110100110000201100000
11101001100002011000001
11010011000020110000010

fitness: 36711 20662 0.86 3110 1.00 Gen: 120
101010000100001010110102
010100001000010101101020
101000010000101011010200
010000100001010110102001
100001000010101101020011
000010000101011010200111
000100001010110102001110
001000010101101020011102
010000101011010200111020
100001010110102001110200
000010101101020011102001
000101011010200111020010
001010110102001110200100
010101101020011102001000
101011010200111020010000
010110102001110200100001
101101020011102001000010
011010200111020010000100
110102001110200100001000
101020011102001000010001
010200111020010000100011
102001110200100001000110
020011102001000010001101
200111020010000100011011
11011001111011010110111
10110011110110101101110
01100111101101011011101
11001111011010110111010
10011110110101101110101
00111101101011011101011
01111011010110111010110
11110110101101110101101
11101101011011101011011
11011010110111010110110
10110101101110101101100
01101011011101011011000
11010110111010110110000
10101101110101101100002
01011011101011011000020
10110111010110110000201
01101110101101100002011
11011101011011000020110
10111010110110000201100
01110101101100002011000
11101011011000020110000
11010110110000201100000
10101101100002011000001
01011011000020110000010

fitness: 38117 20876 0.85 3036 1.00 Gen: 147
101010100100100000110010
010101001001000001100100
101010010010000011001001
010100100100000110010011
101001001000001100100110
010010010000011001001101
100100100000110010011010
001001000001100100110102
010010000011001001101020
100100000110010011010200
001000001100100110102001
010000011001001101020010
100000110010011010200100
000001100100110102001000
000011001001101020010000
000110010011010200100001
001100100110102001000010
011001001101020010000100
110010011010200100001000
100100110102001000010001
001001101020010000100011
010011010200100001000111
100110102001000010001111
001101020010000100011111
11011001011021021111111
10110010110210211111111
01100101102102111111111
11001011021021111111110
10010110210211111111101
00101102102111111111011
01011021021111111110110
10110210211111111101101
01102102111111111011011
11021021111111110110110
10210211111111101101100
02102111111111011011001
21021111111110110110010
10211111111101101100101
02111111111011011001010
21111111110110110010101
11111111101101100101011
11111111011011001010110
11111110110110010101101
11111101101100101011010
11111011011001010110100
11110110110010101101000
11101101100101011010001
11011011001010110100010

fitness: 35165 19239 0.85 3099 1.00 Gen: 157
101010100100001000110012
010101001000010001100120
101010010000100011001201
010100100001000110012011
101001000010001100120110
010010000100011001201101
100100001000110012011010
001000010001100120110102
010000100011001201101020
100001000110012011010201
000010001100120110102011
000100011001201101020110
001000110012011010201100
010001100120110102011000
100011001201101020110000
000110012011010201100001
001100120110102011000010
011001201101020110000100
110012011010201100001000
100120110102011000010001
001201101020110000100011
012011010201100001000110
120110102011000010001101
201101020110000100011011
11011001111020021111111
10110011110200211111111
01100111102002111111111
11001111020021111111110
10011110200211111111101
00111102002111111111011
01111020021111111110110
11110200211111111101101
11102002111111111011011
11020021111111110110110
10200211111111101101100
02002111111111011011000
20021111111110110110000
00211111111101101100001
02111111111011011000010
21111111110110110000101
11111111101101100001011
11111111011011000010110
11111110110110000101100
11111101101100001011000
11111011011000010110000
11110110110000101100000
11101101100001011000001
11011011000010110000010

fitness: 34787 20234 0.86 3252 1.00 Gen: 178
101010100100101010010102
010101001001010100101020
101010010010101001010200
010100100101010010102001
101001001010100101020011
010010010101001010200111
100100101010010102001110
001001010100101020011101
010010101001010200111010
100101010010102001110100
001010100101020011101001
010101001010200111010010
101010010102001110100100
010100101020011101001000
101001010200111010010000
010010102001110100100000
100101020011101001000001
001010200111010010000010
010102001110100100000101
101020011101001000001011
010200111010010000010111
102001110100100000101110
020011101001000001011100
200111010010000010111001
01011001010000121101101
10110010100001211011011
01100101000012110110111
11001010000121101101110
10010100001211011011101
00101000012110110111010
01010000121101101110100
10100001211011011101001
01000012110110111010011
10000121101101110100110
00001211011011101001100
00012110110111010011000
00121101101110100110000
01211011011101001100002
12110110111010011000020
21101101110100110000201
11011011101001100002011
10110111010011000020110
01101110100110000201100
11011101001100002011000
10111010011000020110000
01110100110000201100000
11101001100002011000001
11010011000020110000010

fitness: 36155 20420 0.86 2908 1.00 Gen: 194
011021111100001000110111
110211111000010001101110
102111110000100011011101
021111100001000110111011
211111000010001101110110
111110000100011011101101
111100001000110111011010
111000010001101110110100
110000100011011101101000
100001000110111011010001
000010001101110110100011
000100011011101101000112
001000110111011010001122
010001101110110100011220
100011011101101000112200
000110111011010001122001
001101110110100011220010
011011101101000112200101
110111011010001122001010
101110110100011220010101
011101101000112200101011
111011010001122001010110
110110100011220010101101
101101000112200101011011
11011001110010121110101
10110011100101211101010
01100111001012111010101
11001110010121110101011
10011100101211101010111
00111001012111010101110
01110010121110101011102
11100101211101010111021
11001012111010101110211
10010121110101011102110
00101211101010111021101
01012111010101110211012
10121110101011102110120
01211101010111021101200
12111010101110211012000
21110101011102110120001
11101010111021101200011
11010101110211012000110
10101011102110120001100
01010111021101200011000
10101110211012000110000
01011102110120001100000
10111021101200011000001
01110211012000110000010

fitness: 40811 21355 0.85 3101 1.00 Gen: 197
011021101100001000110111
110211011000010001101110
102110110000100011011101
021101100001000110111011
211011000010001101110110
110110000100011011101101
101100001000110111011010
011000010001101110110100
110000100011011101101000
100001000110111011010001
000010001101110110100011
000100011011101101000112
001000110111011010001122
010001101110110100011220
100011011101101000112200
000110111011010001122001
001101110110100011220010
011011101101000112200101
110111011010001122001010
101110110100011220010101
011101101000112200101011
111011010001122001010110
110110100011220010101101
101101000112200101011011
11011001110010121110101
10110011100101211101010
01100111001012111010101
11001110010121110101010
10011100101211101010101
00111001012111010101010
01110010121110101010102
11100101211101010101021
11001012111010101010211
10010121110101010102110
00101211101010101021100
01012111010101010211002
10121110101010102110020
01211101010101021100200
12111010101010211002000
21110101010102110020001
11101010101021100200011
11010101010211002000110
10101010102110020001100
01010101021100200011000
10101010211002000110000
01010102110020001100000
10101021100200011000001
01010211002000110000010

fitness: 42109 21319 0.85 2995 1.00 Gen: 217
001010101100000000110110
010101011000000001101100
101010110000000011011001
010101100000000110110011
101011000000001101100110
010110000000011011001101
101100000000110110011010
011000000001101100110102
110000000011011001101020
100000000110110011010200
000000001101100110102001
000000011011001101020010
000000110110011010200100
000001101100110102001000
000011011001101020010000
000110110011010200100001
001101100110102001000010
011011001101020010000100
110110011010200100001000
101100110102001000010001
011001101020010000100011
110011010200100001000111
100110102001000010001111
001101020010000100011111
11011001110002021111101
10110011100020211111011
01100111000202111110111
11001110002021111101110
10011100020211111011101
00111000202111110111011
01110002021111101110110
11100020211111011101101
11000202111110111011011
10002021111101110110110
00020211111011101101100
00202111110111011011001
02021111101110110110010
20211111011101101100101
02111110111011011001010
21111101110110110010101
11111011101101100101011
11110111011011001010110
11101110110110010101100
11011101101100101011000
10111011011001010110000
01110110110010101100000
11101101100101011000001
11011011001010110000010

fitness: 31956 20676 0.89 3145 1.00 Gen: 221
001010100100001000110012
010101001000010001100120
101010010000100011001201
010100100001000110012011
101001000010001100120110
010010000100011001201101
100100001000110012011010
001000010001100120110102
010000100011001201101020
100001000110012011010201
000010001100120110102011
000100011001201101020110
001000110012011010201100
010001100120110102011000
100011001201101020110000
000110012011010201100001
001100120110102011000010
011001201101020110000101
110012011010201100001011
100120110102011000010111
001201101020110000101111
012011010201100001011111
120110102011000010111111
201101020110000101111111
11011001111022021112101
10110011110220211121011
01100111102202111210111
11001111022021112101110
10011110220211121011101
00111102202111210111011
01111022021112101110110
11110220211121011101101
11102202111210111011011
11022021112101110110110
10220211121011101101100
02202111210111011011000
22021112101110110110000
20211121011101101100002
02111210111011011000020
21112101110110110000201
11121011101101100002011
11210111011011000020110
12101110110110000201100
21011101101100002011000
10111011011000020110000
01110110110000201100000
11101101100002011000001
11011011000020110000010

fitness: 38519 20938 0.86 3020 1.00 Gen: 316
101010100100001000110112
010101001000010001101120
101010010000100011011200
010100100001000110112001
101001000010001101120011
010010000100011011200111
100100001000110112001110
001000010001101120011100
010000100011011200111000
100001000110112001110001
000010001101120011100011
000100011011200111000110
001000110112001110001100
010001101120011100011000
100011011200111000110000
000110112001110001100000
001101120011100011000000
011011200111000110000001
110112001110001100000011
101120011100011000000111
011200111000110000001111
112001110001100000011110
120011100011000000111101
200111000110000001111011
01011001011011021101111
10110010110110211011111
01100101101102110111111
11001011011021101111110
10010110110211011111101
00101101102110111111011
01011011021101111110110
10110110211011111101101
01101102110111111011011
11011021101111110110110
10110211011111101101100
01102110111111011011000
11021101111110110110000
10211011111101101100002
02110111111011011000020
21101111110110110000201
11011111101101100002011
10111111011011000020110
01111110110110000201100
11111101101100002011000
11111011011000020110000
11110110110000201100000
11101101100002011000001
11011011000020110000010

fitness: 36564 20922 0.87 3085 1.00 Gen: 351
101010000100001000110112
010100001000010001101120
101000010000100011011200
010000100001000110112001
100001000010001101120011
000010000100011011200111
000100001000110112001110
001000010001101120011100
010000100011011200111000
100001000110112001110001
000010001101120011100011
000100011011200111000110
001000110112001110001100
010001101120011100011000
100011011200111000110000
000110112001110001100000
001101120011100011000000
011011200111000110000001
110112001110001100000011
101120011100011000000111
011200111000110000001111
112001110001100000011110
120011100011000000111101
200111000110000001111011
01011001011011021110111
10110010110110211101111
01100101101102111011111
11001011011021110111110
10010110110211101111101
00101101102111011111011
01011011021110111110110
10110110211101111101101
01101102111011111011011
11011021110111110110110
10110211101111101101100
01102111011111011011000
11021110111110110110000
10211101111101101100001
02111011111011011000010
21110111110110110000101
11101111101101100001011
11011111011011000010110
10111110110110000101100
01111101101100001011000
11111011011000010110000
11110110110000101100000
11101101100001011000001
11011011000010110000010

fitness: 44003 22672 0.85 2924 1.00 Gen: 371
101010000100001010110102
010100001000010101101020
101000010000101011010200
010000100001010110102001
100001000010101101020011
000010000101011010200111
000100001010110102001110
001000010101101020011101
010000101011010200111010
100001010110102001110100
000010101101020011101001
000101011010200111010010
001010110102001110100100
010101101020011101001000
101011010200111010010000
010110102001110100100000
101101020011101001000000
011010200111010010000000
110102001110100100000000
101020011101001000000001
010200111010010000000011
102001110100100000000110
020011101001000000001101
200111010010000000011011
01011001011011010110111
10110010110110101101110
01100101101101011011101
11001011011010110111010
10010110110101101110101
00101101101011011101011
01011011010110111010110
10110110101101110101101
01101101011011101011011
11011010110111010110110
10110101101110101101100
01101011011101011011000
11010110111010110110000
10101101110101101100002
01011011101011011000020
10110111010110110000201
01101110101101100002011
11011101011011000020110
10111010110110000201100
01110101101100002011000
11101011011000020110000
11010110110000201100000
10101101100002011000001
01011011000020110000010

fitness: 35384 20193 0.86 3035 1.00 Gen: 398
001010100100101010010101
010101001001010100101010
101010010010101001010100
010100100101010010101001
101001001010100101010011
010010010101001010100111
100100101010010101001110
001001010100101010011101
010010101001010100111010
100101010010101001110100
001010100101010011101001
010101001010100111010010
101010010101001110100101
010100101010011101001010
101001010100111010010100
010010101001110100101000
100101010011101001010001
001010100111010010100010
010101001110100101000101
101010011101001010001011
010100111010010100010111
101001110100101000101110
010011101001010001011100
100111010010100010111001
11011001010000121101101
10110010100001211011011
01100101000012110110111
11001010000121101101110
10010100001211011011101
00101000012110110111010
01010000121101101110100
10100001211011011101001
01000012110110111010011
10000121101101110100110
00001211011011101001100
00012110110111010011000
00121101101110100110000
01211011011101001100002
12110110111010011000020
21101101110100110000201
11011011101001100002011
10110111010011000020110
01101110100110000201100
11011101001100002011000
10111010011000020110000
01110100110000201100000
11101001100002011000001
11010011000020110000010

fitness: 38090 19659 0.84 2982 1.00 Gen: 423
101010100100001000110111
010101001000010001101110
101010010000100011011100
010100100001000110111001
101001000010001101110011
010010000100011011100111
100100001000110111001110
001000010001101110011100
010000100011011100111000
100001000110111001110001
000010001101110011100011
000100011011100111000110
001000110111001110001100
010001101110011100011000
100011011100111000110000
000110111001110001100000
001101110011100011000000
011011100111000110000001
110111001110001100000011
101110011100011000000111
011100111000110000001111
111001110001100000011110
110011100011000000111101
100111000110000001111011
01011001011010021111101
10110010110100211111010
01100101101002111110101
11001011010021111101010
10010110100211111010101
00101101002111110101011
01011010021111101010110
10110100211111010101101
01101002111110101011011
11010021111101010110110
10100211111010101101100
01002111110101011011000
10021111101010110110000
00211111010101101100000
02111110101011011000000
21111101010110110000001
11111010101101100000011
11110101011011000000110
11101010110110000001100
11010101101100000011000
10101011011000000110000
01010110110000001100000
10101101100000011000001
01011011000000110000010

fitness: 35229 19859 0.86 2865 1.00 Gen: 429
101010000100001000110111
010100001000010001101110
101000010000100011011100
010000100001000110111001
100001000010001101110011
000010000100011011100111
000100001000110111001110
001000010001101110011100
010000100011011100111000
100001000110111001110001
000010001101110011100011
000100011011100111000110
001000110111001110001100
010001101110011100011000
100011011100111000110000
000110111001110001100000
001101110011100011000000
011011100111000110000001
110111001110001100000011
101110011100011000000111
011100111000110000001111
111001110001100000011110
110011100011000000111101
100111000110000001111011
01011001011010021111101
10110010110100211111010
01100101101002111110101
11001011010021111101010
10010110100211111010101
00101101002111110101011
01011010021111101010110
10110100211111010101101
01101002111110101011011
11010021111101010110110
10100211111010101101100
01002111110101011011000
10021111101010110110000
00211111010101101100000
02111110101011011000000
21111101010110110000001
11111010101101100000011
11110101011011000000110
11101010110110000001100
11010101101100000011000
10101011011000000110000
01010110110000001100000
10101101100000011000001
01011011000000110000010

fitness: 34075 21148 0.88 3182 1.00 Gen: 436
001010100100001000110102
010101001000010001101020
101010010000100011010200
010100100001000110102001
101001000010001101020010
010010000100011010200101
100100001000110102001010
001000010001101020010101
010000100011010200101010
100001000110102001010101
000010001101020010101011
000100011010200101010111
001000110102001010101110
010001101020010101011100
100011010200101010111000
000110102001010101110001
001101020010101011100010
011010200101010111000100
110102001010101110001001
101020010101011100010011
010200101010111000100111
102001010101110001001110
020010101011100010011102
200101010111000100111021
11011001111011021111101
10110011110110211111011
01100111101102111110111
11001111011021111101110
10011110110211111011101
00111101102111110111011
01111011021111101110110
11110110211111011101101
11101102111110111011011
11011021111101110110110
10110211111011101101100
01102111110111011011001
11021111101110110110010
10211111011101101100102
02111110111011011001020
21111101110110110010201
11111011101101100102011
11110111011011001020110
11101110110110010201100
11011101101100102011000
10111011011001020110000
01110110110010201100000
11101101100102011000001
11011011001020110000010

fitness: 38653 20871 0.86 3076 1.00 Gen: 469
001010100100001000110102
010101001000010001101020
101010010000100011010201
010100100001000110102011
101001000010001101020110
010010000100011010201101
100100001000110102011010
001000010001101020110101
010000100011010201101010
100001000110102011010101
000010001101020110101011
000100011010201101010111
001000110102011010101110
010001101020110101011100
100011010201101010111000
000110102011010101110001
001101020110101011100010
011010201101010111000100
110102011010101110001001
101020110101011100010011
010201101010111000100111
102011010101110001001110
020110101011100010011101
201101010111000100111011
11011001111011021111101
10110011110110211111011
01100111101102111110111
11001111011021111101110
10011110110211111011101
00111101102111110111011
01111011021111101110110
11110110211111011101101
11101102111110111011011
11011021111101110110110
10110211111011101101100
01102111110111011011000
11021111101110110110000
10211111011101101100002
02111110111011011000020
21111101110110110000201
11111011101101100002011
11110111011011000020110
11101110110110000201100
11011101101100002011000
10111011011000020110000
01110110110000201100000
11101101100002011000001
11011011000020110000010

fitness: 36937 20209 0.86 3203 1.00 Gen: 493
101010100100001000110012
010101001000010001100120
101010010000100011001201
010100100001000110012011
101001000010001100120110
010010000100011001201101
100100001000110012011010
001000010001100120110101
010000100011001201101010
100001000110012011010101
000010001100120110101011
000100011001201101010110
001000110012011010101100
010001100120110101011000
100011001201101010110000
000110012011010101100001
001100120110101011000010
011001201101010110000100
110012011010101100001000
100120110101011000010001
001201101010110000100011
012011010101100001000110
120110101011000010001101
201101010110000100011011
11011001110000021111101
10110011100000211111011
01100111000002111110111
11001110000021111101110
10011100000211111011101
00111000002111110111011
01110000021111101110110
11100000211111011101101
11000002111110111011011
10000021111101110110110
00000211111011101101100
00002111110111011011000
00021111101110110110000
00211111011101101100001
02111110111011011000010
21111101110110110000101
11111011101101100001011
11110111011011000010110
11101110110110000101100
11011101101100001011000
10111011011000010110000
01110110110000101100000
11101101100001011000001
11011011000010110000010

fitness: 36458 20403 0.86 2802 1.00 Gen: 524
101010100100001000010102
010101001000010000101020
101010010000100001010200
010100100001000010102001
101001000010000101020011
010010000100001010200111
100100001000010102001110
001000010000101020011101
010000100001010200111010
100001000010102001110101
000010000101020011101011
000100001010200111010110
001000010102001110101100
010000101020011101011000
100001010200111010110000
000010102001110101100000
000101020011101011000001
001010200111010110000010
010102001110101100000101
101020011101011000001011
010200111010110000010111
102001110101100000101110
020011101011000001011100
200111010110000010111001
01011001011001121101101
10110010110011211011011
01100101100112110110111
11001011001121101101110
10010110011211011011101
00101100112110110111010
01011001121101101110100
10110011211011011101001
01100112110110111010011
11001121101101110100110
10011211011011101001100
00112110110111010011000
01121101101110100110000
11211011011101001100002
12110110111010011000020
21101101110100110000201
11011011101001100002011
10110111010011000020110
01101110100110000201100
11011101001100002011000
10111010011000020110000
01110100110000201100000
11101001100002011000001
11010011000020110000010

fitness: 34101 18757 0.85 3111 1.00 Gen: 530
101000000100000010110101
010000001000000101101010
100000010000001011010100
000000100000010110101001
000001000000101101010011
000010000001011010100111
000100000010110101001110
001000000101101010011102
010000001011010100111020
100000010110101001110200
000000101101010011102001
000001011010100111020011
000010110101001110200110
000101101010011102001100
001011010100111020011000
010110101001110200110001
101101010011102001100010
011010100111020011000100
110101001110200110001000
101010011102001100010001
010100111020011000100011
101001110200110001000110
010011102001100010001101
100111020011000100011011
11011001110111010111111
10110011101110101111110
01100111011101011111101
11001110111010111111010
10011101110101111110100
00111011101011111101001
01110111010111111010010
11101110101111110100101
11011101011111101001011
10111010111111010010110
01110101111110100101100
11101011111101001011000
11010111111010010110000
10101111110100101100000
01011111101001011000000
10111111010010110000001
01111110100101100000011
11111101001011000000110
11111010010110000001100
11110100101100000011000
11101001011000000110000
11010010110000001100000
10100101100000011000001
01001011000000110000010

fitness: 38441 20120 0.84 3024 1.00 Gen: 546
001011110100000100000101
010111101000001000001010
101111010000010000010100
011110100000100000101001
111101000001000001010010
111010000010000010100100
110100000100000101001000
101000001000001010010001
010000010000010100100010
100000100000101001000101
000001000001010010001011
000010000010100100010111
000100000101001000101111
001000001010010001011111
010000010100100010111110
100000101001000101111100
000001010010001011111001
000010100100010111110010
000101001000101111100100
001010010001011111001000
010100100010111110010001
101001000101111100100010
010010001011111001000100
100100010111110010001002
01011001210110121101101
10110012101101211011010
01100121011012110110101
11001210110121101101010
10012101101211011010101
00121011012110110101012
01210110121101101010120
12101101211011010101201
21011012110110101012010
10110121101101010120100
01101211011010101201000
11012110110101012010002
10121101101010120100020
01211011010101201000201
12110110101012010002010
21101101010120100020101
11011010101201000201010
10110101012010002010100
01101010120100020101000
11010101201000201010000
10101012010002010100000
01010120100020101000000
10101201000201010000001
01012010002010100000011

fitness: 37940 20379 0.85 3207 1.00 Gen: 559
001011100100001000110101
010111001000010001101010
101110010000100011010100
011100100001000110101001
111001000010001101010011
110010000100011010100111
100100001000110101001110
001000010001101010011101
010000100011010100111010
100001000110101001110101
000010001101010011101011
000100011010100111010110
001000110101001110101100
010001101010011101011000
100011010100111010110000
000110101001110101100001
001101010011101011000011
011010100111010110000110
110101001110101100001100
101010011101011000011000
010100111010110000110001
101001110101100001100010
010011101011000011000100
100111010110000110001001
01011001010001111101111
10110010100011111011111
01100101000111110111111
11001010001111101111110
10010100011111011111101
00101000111110111111010
01010001111101111110100
10100011111011111101001
01000111110111111010011
10001111101111110100110
00011111011111101001100
00111110111111010011001
01111101111110100110010
11111011111101001100101
11110111111010011001010
11101111110100110010101
11011111101001100101011
10111111010011001010110
01111110100110010101100
11111101001100101011000
11111010011001010110000
11110100110010101100000
11101001100101011000001
11010011001010110000010

fitness: 37184 19813 0.85 2968 1.00 Gen: 576
101010100100101010010012
010101001001010100100120
101010010010101001001200
010100100101010010012001
101001001010100100120010
010010010101001001200101
100100101010010012001010
001001010100100120010101
010010101001001200101010
100101010010012001010101
001010100100120010101011
010101001001200101010110
101010010012001010101100
010100100120010101011000
101001001200101010110000
010010012001010101100000
100100120010101011000001
001001200101010110000010
010012001010101100000100
100120010101011000001001
001200101010110000010011
012001010101100000100110
120010101011000001001101
200101010110000010011011
01011001011011121101101
10110010110111211011011
01100101101112110110111
11001011011121101101110
10010110111211011011101
00101101112110110111010
01011011121101101110100
10110111211011011101001
01101112110110111010011
11011121101101110100110
10111211011011101001100
01112110110111010011000
11121101101110100110000
11211011011101001100002
12110110111010011000020
21101101110100110000201
11011011101001100002011
10110111010011000020110
01101110100110000201100
11011101001100002011000
10111010011000020110000
01110100110000201100000
11101001100002011000001
11010011000020110000010

