Id	Weibull Discovery Time	Discovery Time	Fraction Discovery	Information Time	Fraction Information
21	30048.0	21524.0	0.9125	4018.0	1.0
8	35437.0	22607.0	0.8563	4181.0	1.0
34	20754.0	17061.0	0.9313	2531.0	1.0
6	30274.0	20796.0	0.8875	3602.0	1.0
17	30997.0	19049.0	0.8688	3162.0	1.0
28	28476.0	20764.0	0.9	3535.0	1.0
22	25943.0	16485.0	0.9063	2412.0	1.0
34	33742.0	20371.0	0.8875	2888.0	1.0
14	24155.0	17803.0	0.9125	3459.0	1.0
11	26899.0	19548.0	0.8812	3400.0	1.0
11	29396.0	21050.0	0.925	2539.0	1.0
17	27597.0	18668.0	0.9062	2602.0	1.0
22	34934.0	20757.0	0.85	2708.0	1.0
17	38013.0	16394.0	0.7875	2620.0	1.0
35	33981.0	22117.0	0.8688	3395.0	1.0
9	25551.0	19001.0	0.9187	2518.0	1.0
31	23354.0	16815.0	0.9	2347.0	1.0
2	22584.0	17793.0	0.9063	2987.0	1.0
27	22950.0	16421.0	0.9	2720.0	1.0
1	28308.0	18271.0	0.875	2693.0	1.0
15	31589.0	20233.0	0.8875	2841.0	1.0
10	31404.0	19396.0	0.8625	3536.0	1.0
39	23131.0	18703.0	0.9375	2326.0	1.0
10	28427.0	19654.0	0.8812	3930.0	1.0
9	29988.0	20777.0	0.8813	3081.0	1.0
7	22147.0	17054.0	0.9313	1882.0	1.0
21	26763.0	17587.0	0.8938	2218.0	1.0
10	27658.0	19465.0	0.8875	2651.0	1.0
26	24573.0	15398.0	0.8563	3112.0	1.0
7	23350.0	18543.0	0.925	2262.0	1.0
23	21485.0	13299.0	0.8812	2114.0	1.0
22	22810.0	18135.0	0.9125	3696.0	1.0
21	25948.0	16931.0	0.8875	2926.0	1.0
35	25834.0	17305.0	0.9125	3150.0	1.0
39	21406.0	15963.0	0.9187	2225.0	1.0
12	23372.0	17153.0	0.9187	2269.0	1.0
28	25844.0	17493.0	0.8938	2886.0	1.0
14	33203.0	21740.0	0.8938	2522.0	1.0
37	22147.0	17074.0	0.9125	2426.0	1.0
33	35866.0	26206.0	0.9063	3105.0	1.0
13	27888.0	17560.0	0.9063	2671.0	1.0
28	29162.0	19866.0	0.8875	2665.0	1.0
2	33280.0	19847.0	0.875	2829.0	1.0
0	26088.0	19125.0	0.9125	2996.0	1.0
18	18338.0	13201.0	0.9	2267.0	1.0
18	30011.0	19021.0	0.8875	3022.0	1.0
6	32223.0	19905.0	0.8438	3110.0	1.0
20	26806.0	18867.0	0.8938	3023.0	1.0
17	33222.0	21296.0	0.8812	2734.0	1.0
17	26221.0	18134.0	0.9125	2582.0	1.0
18	27381.0	17713.0	0.8875	3044.0	1.0
10	23063.0	19322.0	0.9312	3241.0	1.0
34	24734.0	17528.0	0.8812	2919.0	1.0
8	28780.0	18840.0	0.8938	2966.0	1.0
13	30350.0	18800.0	0.8813	2083.0	1.0
32	25273.0	19922.0	0.9313	2733.0	1.0
8	20539.0	17092.0	0.95	2843.0	1.0
14	24419.0	15013.0	0.8875	1940.0	1.0
30	34572.0	22045.0	0.8687	3148.0	1.0
17	24610.0	19298.0	0.9313	4018.0	1.0
26	28754.0	22321.0	0.9188	3124.0	1.0
22	27679.0	18206.0	0.9062	2192.0	1.0
8	29462.0	20810.0	0.8937	3500.0	1.0
37	18884.0	16492.0	0.9375	2675.0	1.0
14	23870.0	17602.0	0.9125	2233.0	1.0
37	24086.0	15919.0	0.9063	2288.0	1.0
10	23456.0	19114.0	0.9563	2548.0	1.0
3	23657.0	17739.0	0.8937	2730.0	1.0
31	20863.0	16611.0	0.9125	2382.0	1.0
25	22641.0	16376.0	0.9063	2781.0	1.0
6	22451.0	18268.0	0.925	2583.0	1.0
1	22608.0	17332.0	0.925	2646.0	1.0
33	21995.0	16779.0	0.9187	2557.0	1.0
32	29190.0	21000.0	0.9	2998.0	1.0
15	27707.0	19073.0	0.9	2660.0	1.0
16	26643.0	19521.0	0.9125	3254.0	1.0
34	21554.0	16782.0	0.9313	3072.0	1.0
11	25848.0	19551.0	0.9188	2898.0	1.0
24	24502.0	18444.0	0.8938	3944.0	1.0
26	24808.0	19009.0	0.9062	3059.0	1.0
14	29628.0	22269.0	0.9188	3454.0	1.0
38	28867.0	19190.0	0.875	2997.0	1.0
7	23355.0	16982.0	0.9062	2171.0	1.0
34	26621.0	18096.0	0.8938	3329.0	1.0
11	28153.0	18683.0	0.8875	3241.0	1.0
1	39064.0	23707.0	0.8437	4587.0	1.0
20	23635.0	19792.0	0.9625	2551.0	1.0
7	28512.0	19271.0	0.9062	2380.0	1.0
12	32279.0	23659.0	0.9	4440.0	1.0
20	30875.0	20076.0	0.8688	2814.0	1.0
6	24902.0	20035.0	0.95	2622.0	1.0
28	22104.0	17118.0	0.9188	2795.0	1.0
28	22404.0	17657.0	0.9313	2429.0	1.0
7	31940.0	20408.0	0.875	2561.0	1.0
2	27929.0	20694.0	0.9187	2380.0	1.0
25	28433.0	17340.0	0.8688	1947.0	1.0
35	23222.0	16440.0	0.8688	3173.0	1.0
19	21656.0	16210.0	0.925	2664.0	1.0
30	25635.0	20562.0	0.9375	2537.0	1.0
34	22497.0	16605.0	0.8938	3127.0	1.0
30	30031.0	22155.0	0.9125	3151.0	1.0
29	20855.0	17244.0	0.9062	2946.0	1.0
1	23314.0	20226.0	0.9625	2389.0	1.0
29	22138.0	17140.0	0.9313	2739.0	1.0
30	23943.0	17971.0	0.9188	2759.0	1.0
17	27414.0	17320.0	0.9187	2025.0	1.0
30	18868.0	16722.0	0.9563	2654.0	1.0
31	23617.0	17620.0	0.925	2451.0	1.0
39	25425.0	18365.0	0.9062	2989.0	1.0
35	26068.0	20642.0	0.9188	3222.0	1.0
30	29878.0	21271.0	0.9	3537.0	1.0
8	29405.0	18956.0	0.8812	3300.0	1.0
21	23887.0	18793.0	0.9188	2689.0	1.0
28	25803.0	18823.0	0.9062	2920.0	1.0
26	32149.0	23515.0	0.9125	3210.0	1.0
6	19918.0	16968.0	0.9437	2829.0	1.0
39	24601.0	17567.0	0.9063	2543.0	1.0
0	27237.0	19958.0	0.9062	2426.0	1.0
3	21460.0	19458.0	0.95	3267.0	1.0
29	26228.0	18831.0	0.8875	3101.0	1.0
9	24963.0	17178.0	0.8875	2351.0	1.0
11	24878.0	19438.0	0.925	2152.0	1.0
6	26799.0	20799.0	0.9062	2928.0	1.0
18	22400.0	15753.0	0.9125	2386.0	1.0
4	26628.0	19785.0	0.9125	2713.0	1.0
4	22492.0	18415.0	0.9188	3607.0	1.0
34	23295.0	18392.0	0.9187	4091.0	1.0
35	27053.0	19692.0	0.9187	2991.0	1.0
32	27548.0	21772.0	0.9062	2896.0	1.0
13	24291.0	16394.0	0.875	2979.0	1.0
28	25481.0	18410.0	0.9313	2618.0	1.0
6	22992.0	19055.0	0.9313	2869.0	1.0
20	25870.0	16461.0	0.8438	3155.0	1.0
0	23069.0	18284.0	0.9187	2575.0	1.0
5	27876.0	18882.0	0.8687	3320.0	1.0
37	22190.0	16343.0	0.9	2282.0	1.0
4	22384.0	17702.0	0.9187	3089.0	1.0
32	21386.0	17261.0	0.9187	2684.0	1.0
16	27034.0	18153.0	0.9062	2491.0	1.0
32	25213.0	20306.0	0.9438	3122.0	1.0
33	25182.0	19381.0	0.8937	3490.0	1.0
27	33148.0	19125.0	0.85	3636.0	1.0
28	29440.0	19218.0	0.8625	3150.0	1.0
12	31605.0	19047.0	0.8562	3167.0	1.0
17	27646.0	18250.0	0.875	2661.0	1.0
12	24835.0	18170.0	0.9125	2744.0	1.0
30	30641.0	20865.0	0.8938	2908.0	1.0
37	24252.0	17537.0	0.925	2666.0	1.0
13	29490.0	20389.0	0.9125	2921.0	1.0
9	25689.0	21121.0	0.9375	2711.0	1.0
2	23791.0	19159.0	0.925	2560.0	1.0
22	32159.0	19659.0	0.8687	2772.0	1.0
29	22207.0	17645.0	0.8938	3444.0	1.0
31	22323.0	18878.0	0.9187	3029.0	1.0
27	20037.0	14631.0	0.8938	2101.0	1.0
39	23368.0	18086.0	0.9313	3233.0	1.0
4	24491.0	17424.0	0.9	2815.0	1.0
12	30273.0	22224.0	0.9312	2964.0	1.0
39	18341.0	16032.0	0.9438	2142.0	1.0
14	24968.0	17402.0	0.9125	2815.0	1.0
15	26718.0	19576.0	0.925	2676.0	1.0
24	21837.0	16957.0	0.8937	3182.0	1.0
18	17259.0	15591.0	0.95	2509.0	1.0
26	24847.0	20456.0	0.9313	2709.0	1.0
23	22998.0	16157.0	0.9062	2661.0	1.0
11	27361.0	15762.0	0.8563	3169.0	1.0
16	26010.0	19778.0	0.9062	3057.0	1.0
28	27587.0	19260.0	0.8813	3785.0	1.0
35	26393.0	18224.0	0.8687	2943.0	1.0
23	23668.0	18564.0	0.9187	3215.0	1.0
0	28660.0	21174.0	0.9062	2896.0	1.0
22	21288.0	17371.0	0.9187	2785.0	1.0
25	18690.0	15282.0	0.9438	1628.0	1.0
2	26220.0	21124.0	0.9313	3995.0	1.0
33	26927.0	23188.0	0.925	3723.0	1.0
7	29011.0	19120.0	0.8938	2600.0	1.0
29	26679.0	19002.0	0.9	2842.0	1.0
7	23886.0	16265.0	0.9	2824.0	1.0
9	23913.0	16686.0	0.9313	2276.0	1.0
26	31120.0	18188.0	0.8438	3113.0	1.0
34	29006.0	18720.0	0.85	3523.0	1.0
38	26793.0	17276.0	0.8812	2955.0	1.0
17	28196.0	16004.0	0.8625	3073.0	1.0
29	26003.0	18826.0	0.9188	2367.0	1.0
3	17380.0	14293.0	0.9187	3120.0	1.0
34	22541.0	18257.0	0.9375	2680.0	1.0
36	21665.0	17138.0	0.9375	2709.0	1.0
34	22320.0	16206.0	0.9125	2391.0	1.0
39	30246.0	18376.0	0.8688	2816.0	1.0
4	23599.0	19783.0	0.9188	3216.0	1.0
11	21911.0	18043.0	0.9062	3376.0	1.0
8	26943.0	19093.0	0.875	4156.0	1.0
11	19761.0	16267.0	0.925	2737.0	1.0
17	19618.0	17270.0	0.9688	1749.0	1.0
4	25042.0	17514.0	0.9	2301.0	1.0
36	34850.0	22923.0	0.8625	3878.0	1.0
15	22969.0	18628.0	0.9187	2837.0	1.0
10	24022.0	20934.0	0.9375	3103.0	1.0
1	27124.0	19855.0	0.9	3332.0	1.0
7	24423.0	18097.0	0.9188	2592.0	1.0
38	22979.0	16600.0	0.9062	2803.0	1.0
24	21847.0	16822.0	0.9188	2140.0	1.0
26	24994.0	20031.0	0.9188	3644.0	1.0
39	24122.0	19969.0	0.9438	3282.0	1.0
24	23257.0	18201.0	0.9125	2768.0	1.0
15	24137.0	19805.0	0.9563	2746.0	1.0
29	23663.0	20154.0	0.9563	2867.0	1.0
38	26000.0	18395.0	0.8938	2983.0	1.0
39	22836.0	16932.0	0.8938	3903.0	1.0
34	24959.0	20927.0	0.9625	2848.0	1.0
37	25533.0	20472.0	0.9313	2719.0	1.0
20	21838.0	17916.0	0.9437	2450.0	1.0
18	27672.0	20917.0	0.8875	4080.0	1.0
17	21447.0	18223.0	0.95	2434.0	1.0
10	35035.0	22734.0	0.8812	3910.0	1.0
15	18328.0	17525.0	0.9625	2339.0	1.0
0	20556.0	14533.0	0.9063	2321.0	1.0
24	24079.0	15732.0	0.85	3110.0	1.0
21	28158.0	21038.0	0.9125	3610.0	1.0
28	27335.0	21490.0	0.9438	2891.0	1.0
10	22260.0	19843.0	0.9437	3179.0	1.0
6	28837.0	18984.0	0.8875	2552.0	1.0
18	21528.0	18323.0	0.95	2965.0	1.0
10	21462.0	18467.0	0.95	2464.0	1.0
29	29521.0	20832.0	0.8937	3880.0	1.0
16	28029.0	17341.0	0.875	3004.0	1.0
33	27067.0	19773.0	0.9187	2418.0	1.0
26	27185.0	19383.0	0.8937	3168.0	1.0
27	24419.0	19085.0	0.9125	2800.0	1.0
18	25514.0	18563.0	0.8812	3340.0	1.0
6	21309.0	17349.0	0.925	2618.0	1.0
9	21623.0	16863.0	0.9125	2758.0	1.0
8	19638.0	15942.0	0.9375	2294.0	1.0
10	17583.0	15392.0	0.9437	2320.0	1.0
18	19626.0	16521.0	0.9625	2581.0	1.0
9	21341.0	21052.0	0.9813	3176.0	1.0
13	18571.0	14799.0	0.9438	2169.0	1.0
28	23382.0	19079.0	0.925	3012.0	1.0
35	20477.0	15354.0	0.9188	2081.0	1.0
23	19018.0	16377.0	0.9563	2645.0	1.0
2	29935.0	21563.0	0.9313	3387.0	1.0
20	20661.0	18291.0	0.975	2332.0	1.0
16	21464.0	17310.0	0.9313	2675.0	1.0
21	24855.0	20013.0	0.95	2075.0	1.0
23	21787.0	18613.0	0.95	2344.0	1.0
10	18212.0	15807.0	0.9438	2144.0	1.0
33	19852.0	18114.0	0.9688	2801.0	1.0
28	23193.0	17308.0	0.9	3136.0	1.0
9	20880.0	15417.0	0.9	2832.0	1.0
15	21105.0	15524.0	0.8875	2590.0	1.0
35	22190.0	16895.0	0.9438	2421.0	1.0
27	21555.0	16447.0	0.8875	2946.0	1.0
22	16148.0	13801.0	0.9437	2309.0	1.0
12	19640.0	17070.0	0.9563	2770.0	1.0
1	24524.0	17856.0	0.9	2914.0	1.0
5	22048.0	17084.0	0.9	2984.0	1.0
2	22343.0	16689.0	0.9062	2928.0	1.0
20	29246.0	18190.0	0.8562	3593.0	1.0
23	21826.0	18626.0	0.9375	2617.0	1.0
34	21553.0	17596.0	0.9375	2708.0	1.0
6	22452.0	16757.0	0.9062	3273.0	1.0
8	21156.0	17728.0	0.9438	3211.0	1.0
9	18562.0	16468.0	0.95	2351.0	1.0
33	16461.0	15123.0	0.9563	2496.0	1.0
4	28215.0	21082.0	0.9125	3345.0	1.0
28	18759.0	15741.0	0.95	2264.0	1.0
18	23771.0	17788.0	0.925	4021.0	1.0
3	19279.0	15836.0	0.95	1707.0	1.0
36	21406.0	18001.0	0.9313	2879.0	1.0
1	24232.0	19216.0	0.9062	3853.0	1.0
7	21914.0	16807.0	0.9375	2281.0	1.0
11	22205.0	16174.0	0.8625	3238.0	1.0
17	27639.0	20569.0	0.9188	3359.0	1.0
10	25492.0	18086.0	0.9188	2897.0	1.0
10	30153.0	19658.0	0.8813	3637.0	1.0
21	26112.0	18544.0	0.9188	3016.0	1.0
11	25185.0	18546.0	0.9125	3006.0	1.0
29	22764.0	16314.0	0.9	2851.0	1.0
17	20782.0	19452.0	0.975	3115.0	1.0
9	21687.0	16994.0	0.9313	2386.0	1.0
9	23165.0	19510.0	0.9375	3272.0	1.0
16	22872.0	16951.0	0.9125	2413.0	1.0
0	18102.0	16616.0	0.9563	2730.0	1.0
4	21119.0	17434.0	0.9187	3149.0	1.0
9	21136.0	17607.0	0.9563	1922.0	1.0
19	27316.0	19706.0	0.9	2553.0	1.0
39	22600.0	18192.0	0.9437	2783.0	1.0
0	23057.0	19281.0	0.9375	3122.0	1.0
12	21229.0	17712.0	0.9125	3539.0	1.0
25	24046.0	15725.0	0.9	2139.0	1.0
10	22459.0	17687.0	0.9437	2886.0	1.0
13	22508.0	19202.0	0.9625	2600.0	1.0
25	23550.0	19231.0	0.9375	2390.0	1.0
35	20960.0	19762.0	0.95	3667.0	1.0
18	24731.0	20251.0	0.925	3608.0	1.0
36	19814.0	15245.0	0.925	2309.0	1.0
13	20981.0	17914.0	0.9313	3187.0	1.0
0	20515.0	18886.0	0.9625	3761.0	1.0
8	19398.0	17014.0	0.95	2301.0	1.0
5	26397.0	19644.0	0.9125	3018.0	1.0
35	31647.0	20712.0	0.8687	2947.0	1.0
14	24066.0	16170.0	0.8875	2852.0	1.0
24	24191.0	18578.0	0.9313	3118.0	1.0
17	30187.0	20257.0	0.8875	3432.0	1.0
11	22644.0	18316.0	0.9313	2755.0	1.0
31	23266.0	15585.0	0.875	2705.0	1.0
7	16887.0	14150.0	0.9375	2600.0	1.0
24	25551.0	19781.0	0.9313	3022.0	1.0
13	24375.0	19019.0	0.925	3048.0	1.0
24	21242.0	18468.0	0.9625	2582.0	1.0
39	22409.0	18908.0	0.9437	3427.0	1.0
25	19681.0	17232.0	0.975	2137.0	1.0
8	25061.0	17602.0	0.8937	2803.0	1.0
39	19950.0	14488.0	0.8938	3074.0	1.0
36	23518.0	17523.0	0.9125	2506.0	1.0
6	21121.0	16855.0	0.925	2474.0	1.0
8	24359.0	15436.0	0.8687	3050.0	1.0
12	20984.0	18274.0	0.9563	2130.0	1.0
2	23089.0	19129.0	0.9563	2726.0	1.0
14	23032.0	18573.0	0.9375	2775.0	1.0
4	20354.0	17152.0	0.9313	2916.0	1.0
24	23928.0	18608.0	0.925	2897.0	1.0
37	25061.0	20362.0	0.9437	3698.0	1.0
20	26965.0	18965.0	0.9	2328.0	1.0
16	20933.0	14791.0	0.925	2324.0	1.0
1	21120.0	17730.0	0.925	2527.0	1.0
37	19207.0	14909.0	0.925	2466.0	1.0
5	24967.0	20011.0	0.9125	2964.0	1.0
22	20940.0	16200.0	0.9187	2574.0	1.0
20	23016.0	19091.0	0.9187	2796.0	1.0
2	23877.0	20543.0	0.9563	3405.0	1.0
16	27155.0	22913.0	0.9437	3150.0	1.0
30	25231.0	16743.0	0.8875	2948.0	1.0
35	27336.0	19755.0	0.8938	2779.0	1.0
23	23075.0	17644.0	0.9188	3255.0	1.0
6	21219.0	18131.0	0.9313	2356.0	1.0
21	24048.0	18504.0	0.9	2795.0	1.0
25	22962.0	18674.0	0.9375	2628.0	1.0
7	21761.0	16852.0	0.9125	3352.0	1.0
38	22461.0	15346.0	0.9062	2605.0	1.0
15	19853.0	17209.0	0.95	2366.0	1.0
28	23836.0	17861.0	0.8938	2952.0	1.0
23	19934.0	16322.0	0.9625	2225.0	1.0
7	29774.0	20651.0	0.9188	2802.0	1.0
24	26142.0	18196.0	0.9	3047.0	1.0
7	20216.0	15819.0	0.9063	3214.0	1.0
33	19928.0	16265.0	0.9188	2455.0	1.0
37	22881.0	17874.0	0.9	2962.0	1.0
9	22584.0	17155.0	0.925	2123.0	1.0
22	20761.0	16018.0	0.95	2244.0	1.0
15	24527.0	18210.0	0.8938	3030.0	1.0
21	22602.0	20058.0	0.9563	2893.0	1.0
30	26153.0	21208.0	0.95	2965.0	1.0
13	21056.0	18951.0	0.95	2390.0	1.0
14	23189.0	18066.0	0.9063	2566.0	1.0
16	28338.0	22468.0	0.9188	3863.0	1.0
35	21654.0	17929.0	0.95	2251.0	1.0
27	22136.0	16359.0	0.9188	2590.0	1.0
18	22501.0	17505.0	0.9313	2019.0	1.0
2	25775.0	18684.0	0.8937	2814.0	1.0
19	21249.0	18139.0	0.9563	3470.0	1.0
2	18820.0	16930.0	0.975	1968.0	1.0
29	20856.0	15581.0	0.9062	2061.0	1.0
7	23711.0	18606.0	0.9563	2435.0	1.0
30	25338.0	18414.0	0.9188	2217.0	1.0
36	26170.0	20698.0	0.9125	3748.0	1.0
10	19949.0	17210.0	0.95	3351.0	1.0
6	25152.0	21810.0	0.9375	4171.0	1.0
36	21344.0	17796.0	0.9375	3444.0	1.0
26	22936.0	17041.0	0.9063	2449.0	1.0
12	27147.0	16561.0	0.8812	2505.0	1.0
21	26987.0	19110.0	0.9	3076.0	1.0
1	24951.0	19333.0	0.9125	3749.0	1.0
27	23942.0	18230.0	0.9062	3163.0	1.0
27	20393.0	16389.0	0.925	3213.0	1.0
15	24017.0	16740.0	0.8938	2850.0	1.0
1	25014.0	19642.0	0.9125	3466.0	1.0
18	28442.0	20347.0	0.9125	3586.0	1.0
21	26969.0	17598.0	0.8563	3086.0	1.0
30	23207.0	18702.0	0.8937	3621.0	1.0
39	21951.0	16342.0	0.925	2612.0	1.0
10	21092.0	17775.0	0.9437	2777.0	1.0
18	19165.0	18690.0	0.975	2793.0	1.0
15	18903.0	16213.0	0.9563	2750.0	1.0
27	23344.0	18819.0	0.9188	2702.0	1.0
34	29310.0	22977.0	0.9125	4378.0	1.0
17	23794.0	18415.0	0.9437	2288.0	1.0
22	21134.0	17744.0	0.9375	3343.0	1.0
32	26100.0	19056.0	0.8938	3703.0	1.0
13	24701.0	16463.0	0.8688	2651.0	1.0
26	17470.0	15554.0	0.9437	2350.0	1.0
4	23141.0	15952.0	0.9	2420.0	1.0
9	15167.0	14181.0	0.9313	2774.0	1.0
34	18315.0	16436.0	0.9625	2714.0	1.0
14	23687.0	18088.0	0.9125	3314.0	1.0
2	23601.0	19564.0	0.9313	3034.0	1.0
28	20064.0	15995.0	0.9437	2230.0	1.0
28	22146.0	19221.0	0.9625	2536.0	1.0
11	21493.0	17490.0	0.9375	2348.0	1.0
38	25448.0	19536.0	0.9188	3449.0	1.0
5	30043.0	21798.0	0.8875	3801.0	1.0
26	28200.0	19284.0	0.8938	3484.0	1.0
39	24428.0	17827.0	0.8875	2920.0	1.0
3	22173.0	18707.0	0.9375	1785.0	1.0
39	20545.0	16551.0	0.9063	2239.0	1.0
6	21087.0	19248.0	0.9688	3171.0	1.0
39	19758.0	15916.0	0.95	2183.0	1.0
23	20591.0	16683.0	0.8938	2654.0	1.0
35	35753.0	22683.0	0.8687	3623.0	1.0
30	25985.0	22165.0	0.9437	2961.0	1.0
9	21145.0	17590.0	0.9438	2444.0	1.0
36	20361.0	18143.0	0.9563	2700.0	1.0
14	15431.0	15014.0	0.9875	3350.0	1.0
26	32200.0	21356.0	0.875	3376.0	1.0
26	19820.0	17483.0	0.925	2937.0	1.0
18	29628.0	21461.0	0.9125	3184.0	1.0
6	24006.0	19310.0	0.9313	2787.0	1.0
22	26756.0	20236.0	0.9125	3827.0	1.0
14	22837.0	16888.0	0.9187	1935.0	1.0
33	27310.0	19542.0	0.8937	2649.0	1.0
20	29361.0	22498.0	0.9188	3637.0	1.0
25	21142.0	17443.0	0.9563	2520.0	1.0
25	17473.0	14561.0	0.9437	2363.0	1.0
16	25377.0	21882.0	0.9375	3528.0	1.0
33	20068.0	16568.0	0.9437	1927.0	1.0
31	26526.0	20171.0	0.9062	3715.0	1.0
17	30448.0	21837.0	0.9063	3657.0	1.0
13	21094.0	17607.0	0.925	3508.0	1.0
39	18987.0	16196.0	0.9438	2577.0	1.0
21	16516.0	15295.0	0.9438	2511.0	1.0
24	24752.0	18920.0	0.9125	2978.0	1.0
21	22628.0	17404.0	0.9125	2852.0	1.0
10	20323.0	14813.0	0.8875	2380.0	1.0
5	35011.0	24855.0	0.8938	4762.0	1.0
9	18619.0	17745.0	0.9375	2805.0	1.0
24	24573.0	18855.0	0.925	2327.0	1.0
38	18360.0	16192.0	0.95	2587.0	1.0
23	26139.0	18522.0	0.9	3262.0	1.0
19	21717.0	16208.0	0.9187	2290.0	1.0
24	20998.0	16442.0	0.9313	2799.0	1.0
29	23496.0	18166.0	0.9188	2818.0	1.0
35	21876.0	16149.0	0.9188	3078.0	1.0
32	18898.0	14154.0	0.925	2750.0	1.0
27	20022.0	15962.0	0.9	3148.0	1.0
34	17342.0	16280.0	0.9375	2334.0	1.0
7	23612.0	19308.0	0.9313	3005.0	1.0
25	21020.0	18110.0	0.9375	2249.0	1.0
20	20389.0	17734.0	0.9437	2572.0	1.0
27	26169.0	17182.0	0.8688	2959.0	1.0
27	22745.0	16782.0	0.8875	3261.0	1.0
7	18488.0	17439.0	0.9625	2485.0	1.0
35	21620.0	17000.0	0.925	2205.0	1.0
19	23284.0	17617.0	0.9375	1984.0	1.0
5	16460.0	15245.0	0.925	3646.0	1.0
9	19391.0	15536.0	0.925	2668.0	1.0
26	22335.0	15453.0	0.875	2706.0	1.0
18	19087.0	16286.0	0.9625	2554.0	1.0
18	20304.0	16136.0	0.9125	3473.0	1.0
33	26851.0	18227.0	0.9063	2258.0	1.0
8	27489.0	20992.0	0.9125	3694.0	1.0
34	23401.0	16530.0	0.9313	2347.0	1.0
15	24850.0	19590.0	0.9188	3027.0	1.0
12	22653.0	17445.0	0.925	2388.0	1.0
35	19833.0	16295.0	0.9	2773.0	1.0
32	23499.0	18390.0	0.9313	2761.0	1.0
30	25991.0	19549.0	0.9062	3318.0	1.0
12	28076.0	18932.0	0.8813	2640.0	1.0
33	21903.0	18226.0	0.9313	3430.0	1.0
7	22097.0	17527.0	0.925	2731.0	1.0
28	26410.0	18631.0	0.9125	2541.0	1.0
6	20426.0	17751.0	0.9375	2856.0	1.0
19	24086.0	16924.0	0.9063	2715.0	1.0
23	24591.0	19740.0	0.925	2880.0	1.0
7	19975.0	17458.0	0.9563	2637.0	1.0
33	21381.0	17698.0	0.9375	2369.0	1.0
34	29577.0	20202.0	0.8688	3478.0	1.0
6	28409.0	22804.0	0.9313	3691.0	1.0
31	25212.0	20003.0	0.9187	3069.0	1.0
7	29441.0	21387.0	0.9	3266.0	1.0
5	21133.0	14994.0	0.925	2206.0	1.0
1	25116.0	19822.0	0.9375	2411.0	1.0
4	25219.0	20565.0	0.9313	3067.0	1.0
18	23519.0	18941.0	0.9313	2934.0	1.0
16	28259.0	21770.0	0.9125	3616.0	1.0
1	19768.0	15398.0	0.8875	3408.0	1.0
33	26850.0	18888.0	0.8938	3270.0	1.0
15	20638.0	16898.0	0.925	2842.0	1.0
34	23218.0	16368.0	0.875	3901.0	1.0
27	21424.0	16304.0	0.8938	2830.0	1.0
18	25749.0	18524.0	0.925	2380.0	1.0
3	18666.0	15147.0	0.9188	2309.0	1.0
30	27437.0	18802.0	0.9125	2866.0	1.0
28	21731.0	15788.0	0.8938	3359.0	1.0
29	23530.0	17946.0	0.9125	2885.0	1.0
18	25319.0	17989.0	0.9063	3333.0	1.0
18	21004.0	17364.0	0.9375	2901.0	1.0
1	23340.0	18598.0	0.925	3076.0	1.0
11	21444.0	15132.0	0.8812	2194.0	1.0
13	27526.0	18657.0	0.875	3625.0	1.0
0	24212.0	21749.0	0.9437	3741.0	1.0
1	25446.0	19690.0	0.9437	3080.0	1.0
22	18470.0	15224.0	0.9625	1926.0	1.0
38	29436.0	19656.0	0.8875	3364.0	1.0
32	26565.0	18585.0	0.875	3462.0	1.0
30	27169.0	18877.0	0.875	3336.0	1.0
1	27024.0	18890.0	0.8812	3060.0	1.0
5	25922.0	17809.0	0.9062	2432.0	1.0
19	21411.0	17988.0	0.9375	3195.0	1.0
3	25421.0	18332.0	0.9125	2389.0	1.0
5	20345.0	16711.0	0.9187	2312.0	1.0
24	21566.0	16134.0	0.9375	2199.0	1.0
8	22569.0	17850.0	0.925	2448.0	1.0
25	19811.0	15314.0	0.9313	2737.0	1.0
20	19949.0	15024.0	0.8937	2335.0	1.0
10	19255.0	15575.0	0.9313	2251.0	1.0
24	20238.0	16870.0	0.95	2091.0	1.0
8	22886.0	15902.0	0.9062	2329.0	1.0
27	30788.0	23636.0	0.9125	3580.0	1.0
17	23924.0	19312.0	0.9125	3384.0	1.0
7	24486.0	19432.0	0.9062	3628.0	1.0
9	20937.0	18575.0	0.9625	3102.0	1.0
16	23557.0	19874.0	0.925	2606.0	1.0
35	25379.0	18440.0	0.9062	3396.0	1.0
21	19307.0	15346.0	0.9125	2172.0	1.0
1	23324.0	18336.0	0.9375	2385.0	1.0
24	30017.0	22473.0	0.9188	4350.0	1.0
28	25249.0	17195.0	0.875	3190.0	1.0
23	23981.0	17530.0	0.9188	2408.0	1.0
25	21249.0	16844.0	0.925	2649.0	1.0
36	24152.0	19319.0	0.9375	2908.0	1.0
34	18942.0	16730.0	0.9563	2998.0	1.0
32	24293.0	20623.0	0.9375	3695.0	1.0
38	18684.0	16678.0	0.975	2313.0	1.0
23	22771.0	18254.0	0.925	2690.0	1.0
27	21407.0	17356.0	0.9437	2689.0	1.0
33	22816.0	20107.0	0.9562	3542.0	1.0
34	27721.0	19509.0	0.9188	3234.0	1.0
18	19621.0	15974.0	0.9125	3217.0	1.0
34	23634.0	16540.0	0.875	2828.0	1.0
17	22436.0	17864.0	0.9563	2546.0	1.0
12	26220.0	19911.0	0.9188	2778.0	1.0
3	33077.0	21178.0	0.8688	3175.0	1.0
12	17443.0	15854.0	0.9625	2240.0	1.0
19	27687.0	19738.0	0.8938	3393.0	1.0
30	21880.0	20215.0	0.95	3405.0	1.0
32	23785.0	17378.0	0.9	3667.0	1.0
38	23011.0	17198.0	0.9375	2190.0	1.0
33	17948.0	15996.0	0.9563	2358.0	1.0
34	21156.0	15965.0	0.9063	2670.0	1.0
22	21115.0	16881.0	0.925	2329.0	1.0
24	22767.0	16792.0	0.925	2448.0	1.0
15	25650.0	19224.0	0.8937	3052.0	1.0
35	23408.0	18520.0	0.9188	2367.0	1.0
19	22761.0	17751.0	0.9563	2680.0	1.0
37	24131.0	18831.0	0.925	2592.0	1.0
4	25393.0	20729.0	0.9188	3201.0	1.0
22	27218.0	21305.0	0.925	3740.0	1.0
34	25584.0	19066.0	0.8812	3538.0	1.0
6	26842.0	20446.0	0.9313	3166.0	1.0
7	21848.0	17394.0	0.9188	3082.0	1.0
4	27120.0	19061.0	0.8688	3913.0	1.0
13	22483.0	17375.0	0.925	3137.0	1.0
26	18461.0	15264.0	0.925	3761.0	1.0
16	21722.0	18630.0	0.9437	2529.0	1.0
29	23474.0	16891.0	0.8938	2715.0	1.0
22	18146.0	16528.0	0.9688	2128.0	1.0
17	20473.0	16269.0	0.925	2254.0	1.0
12	23129.0	18812.0	0.9375	2831.0	1.0
12	21102.0	17266.0	0.925	3002.0	1.0
35	25623.0	19246.0	0.9125	3743.0	1.0
17	27236.0	20961.0	0.8938	3302.0	1.0
38	20315.0	16889.0	0.9563	2440.0	1.0
39	18509.0	16590.0	0.9375	2641.0	1.0
37	27318.0	20289.0	0.925	2565.0	1.0
8	19385.0	17292.0	0.9375	3216.0	1.0
2	15941.0	14218.0	0.95	2732.0	1.0
5	30770.0	22038.0	0.9062	3478.0	1.0
19	16992.0	15501.0	0.9563	2586.0	1.0
3	20858.0	15995.0	0.925	2367.0	1.0
22	21175.0	17660.0	0.9375	2762.0	1.0
27	22872.0	18326.0	0.95	2132.0	1.0
26	21140.0	18033.0	0.9437	3278.0	1.0
18	22535.0	16257.0	0.8875	3116.0	1.0
26	23535.0	18227.0	0.9062	2683.0	1.0
38	21454.0	17602.0	0.9375	2678.0	1.0
2	28000.0	24101.0	0.95	3665.0	1.0
2	20539.0	16769.0	0.9125	2512.0	1.0
31	20391.0	15102.0	0.9188	2394.0	1.0
39	24913.0	19830.0	0.9187	3373.0	1.0
33	21194.0	16186.0	0.9	2349.0	1.0
35	25650.0	19034.0	0.9313	3034.0	1.0
11	24329.0	18693.0	0.925	3051.0	1.0
27	24371.0	18882.0	0.9187	2655.0	1.0
14	26196.0	19298.0	0.9062	4737.0	1.0
38	16407.0	13700.0	0.95	2046.0	1.0
0	22508.0	16552.0	0.9187	2408.0	1.0
23	27374.0	20909.0	0.9	4679.0	1.0
21	17239.0	16492.0	0.9438	2036.0	1.0
14	25695.0	20550.0	0.9125	3361.0	1.0
3	17790.0	16390.0	0.9563	2406.0	1.0
39	19987.0	16870.0	0.9188	2741.0	1.0
6	26237.0	19212.0	0.9188	2833.0	1.0
25	22570.0	16578.0	0.9	3129.0	1.0
20	26248.0	19202.0	0.9062	3159.0	1.0
36	20353.0	19515.0	0.9688	3363.0	1.0
33	19391.0	15496.0	0.9313	3241.0	1.0
2	28508.0	20918.0	0.9063	3230.0	1.0
12	19537.0	14500.0	0.8875	2854.0	1.0
32	18069.0	15976.0	0.9187	2627.0	1.0
21	27582.0	20343.0	0.9062	2998.0	1.0
18	23769.0	20882.0	0.9563	2818.0	1.0
29	23834.0	19582.0	0.95	2668.0	1.0
2	22167.0	16409.0	0.9	2329.0	1.0
32	21186.0	17897.0	0.9313	2621.0	1.0
8	19445.0	15965.0	0.925	2669.0	1.0
34	21763.0	16603.0	0.9062	3538.0	1.0
5	18279.0	15274.0	0.95	2386.0	1.0
3	23947.0	19343.0	0.9375	3656.0	1.0
32	23707.0	19062.0	0.9063	4138.0	1.0
15	20873.0	15890.0	0.9063	3294.0	1.0
30	18841.0	15928.0	0.9188	2538.0	1.0
4	28938.0	20032.0	0.8937	3931.0	1.0
12	25898.0	18395.0	0.9	2720.0	1.0
27	26988.0	19484.0	0.9125	3284.0	1.0
0	24028.0	17774.0	0.9	3281.0	1.0
35	23576.0	18045.0	0.9062	3056.0	1.0
16	22300.0	17426.0	0.925	3015.0	1.0
13	20212.0	14742.0	0.9062	2646.0	1.0
1	21450.0	15783.0	0.9062	3125.0	1.0
32	24837.0	19553.0	0.9125	3712.0	1.0
30	23421.0	18839.0	0.9375	2286.0	1.0
3	21408.0	18647.0	0.9625	2067.0	1.0
37	23469.0	18433.0	0.9125	3193.0	1.0
9	26302.0	19096.0	0.9	3204.0	1.0
38	25453.0	18350.0	0.9125	2723.0	1.0
27	16045.0	11636.0	0.925	1780.0	1.0
1	28378.0	21222.0	0.9313	2901.0	1.0
9	22331.0	17870.0	0.9312	2574.0	1.0
30	18329.0	15508.0	0.95	2117.0	1.0
12	24069.0	18010.0	0.9062	2748.0	1.0
24	18106.0	13442.0	0.9125	1931.0	1.0
28	21338.0	17303.0	0.9125	2682.0	1.0
5	24042.0	19581.0	0.9188	3637.0	1.0
11	23587.0	18408.0	0.925	2708.0	1.0
8	18811.0	16310.0	0.925	2220.0	1.0
3	25581.0	19935.0	0.9188	3015.0	1.0
31	22984.0	20241.0	0.9437	3441.0	1.0
2	18089.0	15841.0	0.9313	2301.0	1.0
31	23183.0	17937.0	0.9062	2940.0	1.0
4	21137.0	17436.0	0.925	2935.0	1.0
14	17387.0	15187.0	0.9375	2480.0	1.0
11	24459.0	17270.0	0.9125	2414.0	1.0
26	23735.0	20280.0	0.9313	2544.0	1.0
32	30948.0	20325.0	0.875	3176.0	1.0
3	20829.0	17300.0	0.9375	2550.0	1.0
9	19876.0	16301.0	0.9375	2452.0	1.0
27	23085.0	17968.0	0.9062	2521.0	1.0
13	21466.0	17135.0	0.9062	3362.0	1.0
18	21368.0	15736.0	0.9	2875.0	1.0
13	25270.0	20121.0	0.9125	2899.0	1.0
8	27518.0	17999.0	0.8937	2956.0	1.0
1	27062.0	21277.0	0.9375	3810.0	1.0
12	20069.0	15704.0	0.9188	1950.0	1.0
16	20660.0	17685.0	0.9375	2562.0	1.0
2	26266.0	18390.0	0.9125	2654.0	1.0
31	28903.0	20569.0	0.9125	2845.0	1.0
36	26243.0	18950.0	0.9125	2818.0	1.0
11	26240.0	19554.0	0.8938	3779.0	1.0
38	21096.0	17042.0	0.9562	2221.0	1.0
19	23361.0	19758.0	0.9313	2858.0	1.0
3	17612.0	14592.0	0.95	2285.0	1.0
0	20581.0	16220.0	0.9313	2320.0	1.0
37	18748.0	17892.0	0.9688	2729.0	1.0
39	25635.0	17729.0	0.8813	2525.0	1.0
25	21581.0	20436.0	0.95	3146.0	1.0
38	19874.0	16927.0	0.9313	2452.0	1.0
16	19633.0	16522.0	0.95	1880.0	1.0
30	24327.0	18509.0	0.925	3404.0	1.0
21	24403.0	18207.0	0.9312	2324.0	1.0
39	28156.0	18630.0	0.8625	3379.0	1.0
26	22723.0	18514.0	0.9375	2610.0	1.0
14	21886.0	17821.0	0.9313	2328.0	1.0
6	22199.0	18844.0	0.9188	3738.0	1.0
3	27730.0	20320.0	0.8937	3074.0	1.0
30	31732.0	18224.0	0.8562	2650.0	1.0
32	20580.0	16858.0	0.925	3472.0	1.0
28	22750.0	16692.0	0.9063	2335.0	1.0
23	16730.0	14885.0	0.9313	2056.0	1.0
10	25830.0	20462.0	0.9313	2501.0	1.0
38	24406.0	18205.0	0.9062	2637.0	1.0
36	23595.0	18142.0	0.8938	4949.0	1.0
11	19635.0	17080.0	0.9437	2283.0	1.0
39	26582.0	21398.0	0.9188	3451.0	1.0
37	18466.0	15531.0	0.9313	2297.0	1.0
0	20796.0	16250.0	0.9125	2800.0	1.0
22	20383.0	16571.0	0.9375	3259.0	1.0
20	26473.0	18090.0	0.9	3713.0	1.0
17	29817.0	20238.0	0.8688	3825.0	1.0
24	18974.0	15252.0	0.9313	2777.0	1.0
11	22412.0	19266.0	0.9437	4460.0	1.0
