41778 19188 0.806250 2907 1.000000
47404 23598 0.812500 4010 1.000000
51484 23181 0.793750 3198 1.000000
48989 20524 0.781250 3064 1.000000
36992 23141 0.850000 3340 1.000000
51682 25159 0.825000 3333 1.000000
45206 22599 0.825000 3637 1.000000
46470 21669 0.837500 2917 1.000000
50458 25999 0.837500 3588 1.000000
45614 23127 0.818750 3674 1.000000
48126 25903 0.831250 3303 1.000000
46582 21689 0.781250 4299 1.000000
41871 20183 0.800000 3798 1.000000
50159 20982 0.793750 3152 1.000000
47229 24363 0.793750 4139 1.000000
42799 20451 0.818750 2577 1.000000
49872 24930 0.825000 3818 1.000000
43851 23205 0.843750 3147 1.000000
41836 20534 0.800000 3534 1.000000
49098 21579 0.800000 3136 1.000000
49887 27126 0.850000 3177 1.000000
40413 22013 0.850000 3487 1.000000
48824 27966 0.837500 4165 1.000000
37738 20570 0.825000 3326 1.000000
40495 20637 0.843750 3028 1.000000
44760 23523 0.843750 2687 1.000000
40855 25144 0.868750 3835 1.000000
44593 25416 0.843750 2705 1.000000
45803 26265 0.856250 2805 1.000000
41419 24938 0.837500 3102 1.000000
42520 21650 0.825000 3048 1.000000
45867 23479 0.793750 3097 1.000000
49432 26140 0.831250 3294 1.000000
40046 23131 0.837500 3996 1.000000
48917 25254 0.831250 2879 1.000000
50733 23162 0.812500 3084 1.000000
49357 23378 0.768750 4360 1.000000
47649 19713 0.800000 2830 1.000000
43837 22928 0.856250 3133 1.000000
54596 28376 0.812500 4761 1.000000
53754 24786 0.825000 3474 1.000000
45198 21884 0.825000 2868 1.000000
40481 20943 0.837500 2683 1.000000
44455 21316 0.818750 3201 1.000000
35745 21338 0.875000 2875 1.000000
42429 20541 0.843750 2686 1.000000
46998 22007 0.781250 3981 1.000000
36787 18773 0.825000 2656 1.000000
48447 25213 0.806250 4953 1.000000
45595 25227 0.831250 3062 1.000000
50098 19523 0.781250 3230 1.000000
44940 23291 0.825000 3066 1.000000
42455 23802 0.837500 3633 1.000000
45411 20883 0.831250 2874 1.000000
48764 21974 0.806250 2542 1.000000
49192 24969 0.837500 2844 1.000000
37989 22559 0.850000 2725 1.000000
46139 23106 0.818750 3183 1.000000
45297 25202 0.831250 5298 1.000000
48921 23102 0.818750 3069 1.000000
45224 22630 0.837500 2346 1.000000
46871 25240 0.843750 3261 1.000000
41925 21840 0.806250 2910 1.000000
44618 26443 0.850000 4294 1.000000
45884 20736 0.787500 3201 1.000000
44426 21887 0.850000 3045 1.000000
38848 21341 0.837500 2928 1.000000
40894 23255 0.812500 4160 1.000000
41506 22924 0.856250 3473 1.000000
42461 27470 0.856250 3473 1.000000
44623 23305 0.856250 2100 1.000000
43251 27352 0.868750 2956 1.000000
43738 24194 0.850000 2131 1.000000
45705 26317 0.868750 2428 1.000000
41244 20784 0.812500 3432 1.000000
37434 24110 0.887500 3122 1.000000
41403 21139 0.806250 4243 1.000000
42049 22674 0.831250 4026 1.000000
39576 26403 0.881250 3361 1.000000
47164 21215 0.806250 3441 1.000000
33263 25612 0.925000 2707 1.000000
43503 25030 0.862500 3191 1.000000
43645 29370 0.887500 3636 1.000000
42761 22993 0.825000 3436 1.000000
43830 27246 0.831250 4433 1.000000
42088 19310 0.812500 3172 1.000000
37775 23844 0.862500 3908 1.000000
43237 25746 0.862500 2737 1.000000
35341 26222 0.925000 3391 1.000000
44996 24079 0.831250 3392 1.000000
44890 24761 0.862500 4237 1.000000
41920 24204 0.862500 3008 1.000000
45274 24210 0.837500 3148 1.000000
42836 23443 0.856250 4600 1.000000
36485 23894 0.893750 3155 1.000000
34375 23594 0.931250 3378 1.000000
40235 23763 0.862500 3622 1.000000
39235 25651 0.875000 3748 1.000000
37337 23174 0.887500 2630 1.000000
41415 21947 0.818750 3263 1.000000
34597 25186 0.900000 3248 1.000000
35748 22589 0.868750 4458 1.000000
37077 24462 0.881250 3697 1.000000
37231 23882 0.887500 3296 1.000000
38277 21870 0.875000 3181 1.000000
36603 24445 0.900000 3691 1.000000
36202 25174 0.906250 3069 1.000000
35233 23179 0.868750 3487 1.000000
38593 28535 0.881250 4311 1.000000
36830 23142 0.900000 2502 1.000000
36556 24964 0.900000 2850 1.000000
34732 22338 0.868750 3715 1.000000
39816 26799 0.893750 2951 1.000000
35214 24053 0.900000 2784 1.000000
35354 20890 0.868750 3527 1.000000
33766 24362 0.912500 2925 1.000000
36742 24996 0.912500 3797 1.000000
38690 24919 0.875000 3595 1.000000
35086 21972 0.900000 2325 1.000000
37559 25736 0.887500 3050 1.000000
33978 23576 0.912500 2921 1.000000
35184 25819 0.918750 2403 1.000000
36086 27123 0.906250 4458 1.000000
35926 21441 0.875000 3426 1.000000
38669 23000 0.875000 2731 1.000000
34247 22926 0.887500 3074 1.000000
38017 22653 0.887500 2619 1.000000
36520 27695 0.918750 4475 1.000000
36529 25842 0.893750 3171 1.000000
36473 24983 0.875000 3650 1.000000
34049 22825 0.893750 2818 1.000000
31520 23637 0.906250 2727 1.000000
31710 22087 0.900000 2769 1.000000
34401 26012 0.937500 2910 1.000000
32176 22137 0.881250 3317 1.000000
31501 22300 0.931250 2782 1.000000
31577 24902 0.937500 2895 1.000000
35161 21271 0.868750 2705 1.000000
39142 22989 0.881250 3398 1.000000
35898 22950 0.868750 2547 1.000000
34185 25456 0.925000 3230 1.000000
36867 21749 0.881250 2846 1.000000
33753 23481 0.906250 2825 1.000000
32626 22766 0.925000 3364 1.000000
33887 24806 0.912500 3033 1.000000
36147 22384 0.868750 3299 1.000000
31720 23007 0.918750 3573 1.000000
35934 26089 0.925000 3094 1.000000
32853 24285 0.931250 3080 1.000000
33602 21506 0.875000 3192 1.000000
36559 24943 0.887500 3664 1.000000
33802 25772 0.918750 3223 1.000000
35215 23745 0.900000 3992 1.000000
31391 22311 0.900000 3465 1.000000
30469 24245 0.931250 3354 1.000000
32249 24120 0.931250 2573 1.000000
29272 19546 0.900000 2358 1.000000
35929 26626 0.875000 3534 1.000000
30651 18975 0.856250 3289 1.000000
31782 21880 0.893750 2703 1.000000
35853 23655 0.906250 2848 1.000000
34232 24627 0.900000 3348 1.000000
34184 22844 0.893750 2972 1.000000
35705 21351 0.881250 3321 1.000000
35518 24967 0.900000 3161 1.000000
35555 24023 0.918750 3942 1.000000
33952 22168 0.906250 2608 1.000000
35253 24467 0.893750 3348 1.000000
32704 21104 0.893750 2680 1.000000
33290 20429 0.868750 3181 1.000000
32696 23146 0.862500 3956 1.000000
29382 23109 0.906250 3085 1.000000
35951 25509 0.918750 2677 1.000000
35762 24550 0.875000 3330 1.000000
32757 23799 0.925000 3188 1.000000
34700 22723 0.868750 3499 1.000000
33325 19869 0.868750 3100 1.000000
31760 22218 0.893750 2933 1.000000
35950 26992 0.925000 3877 1.000000
35395 25389 0.937500 2950 1.000000
34997 25013 0.893750 3407 1.000000
36859 23060 0.875000 3088 1.000000
30409 24016 0.943750 3106 1.000000
35584 23394 0.900000 2529 1.000000
32653 21587 0.887500 2517 1.000000
30802 24759 0.918750 3504 1.000000
32411 24597 0.943750 2901 1.000000
32150 23252 0.925000 2763 1.000000
33719 22311 0.912500 2652 1.000000
33471 22690 0.893750 3289 1.000000
33793 24946 0.906250 4209 1.000000
33257 25167 0.906250 2512 1.000000
32250 22127 0.918750 3032 1.000000
31727 22467 0.906250 2859 1.000000
32090 23666 0.912500 2997 1.000000
32497 24947 0.943750 3946 1.000000
33049 21860 0.900000 3537 1.000000
35108 25804 0.900000 4428 1.000000
34348 25467 0.906250 3530 1.000000
30782 22560 0.918750 3165 1.000000
32896 21800 0.881250 2787 1.000000
29357 22712 0.937500 2240 1.000000
37056 25446 0.906250 2762 1.000000
34130 25790 0.918750 3989 1.000000
35323 23219 0.900000 3019 1.000000
34445 24179 0.906250 3555 1.000000
35189 23423 0.912500 3195 1.000000
33136 23126 0.893750 3768 1.000000
32423 19560 0.875000 3199 1.000000
31578 24265 0.912500 2947 1.000000
33719 24324 0.906250 2823 1.000000
34485 24361 0.906250 3077 1.000000
31878 25292 0.931250 3647 1.000000
34244 24721 0.893750 3167 1.000000
32601 22991 0.893750 2626 1.000000
31098 23557 0.918750 3452 1.000000
33545 22217 0.900000 3177 1.000000
34108 27386 0.943750 3341 1.000000
34061 25427 0.906250 3514 1.000000
30858 20752 0.906250 3564 1.000000
33444 23611 0.893750 3042 1.000000
31784 23816 0.931250 3258 1.000000
33915 26858 0.931250 4157 1.000000
35307 26428 0.931250 2796 1.000000
31527 24642 0.925000 3305 1.000000
31937 22462 0.912500 3121 1.000000
32077 21564 0.887500 2961 1.000000
36334 23575 0.900000 2432 1.000000
34474 23983 0.900000 3577 1.000000
30765 21612 0.887500 4646 1.000000
32807 25063 0.925000 2624 1.000000
33638 21509 0.912500 2575 1.000000
33777 24331 0.906250 3512 1.000000
25822 18567 0.906250 2854 1.000000
33954 25743 0.931250 3012 1.000000
37374 28062 0.912500 4462 1.000000
34705 24162 0.912500 3415 1.000000
31230 21351 0.912500 2928 1.000000
33110 22877 0.937500 2365 1.000000
32731 24566 0.931250 3007 1.000000
31777 24000 0.925000 2951 1.000000
30009 23103 0.918750 3549 1.000000
33255 25781 0.925000 3210 1.000000
38234 22613 0.881250 2211 1.000000
37629 24536 0.868750 3982 1.000000
33319 23667 0.906250 3637 1.000000
36851 23171 0.881250 3017 1.000000
33430 25973 0.956250 3020 1.000000
34932 21443 0.887500 2473 1.000000
31729 21896 0.893750 3092 1.000000
33738 23848 0.887500 3715 1.000000
31075 23551 0.912500 2414 1.000000
34636 24155 0.881250 3087 1.000000
31718 23258 0.925000 2942 1.000000
32998 23758 0.925000 3559 1.000000
33083 22088 0.893750 2740 1.000000
31627 22309 0.912500 3190 1.000000
30166 22394 0.906250 3989 1.000000
33755 20820 0.887500 3232 1.000000
30601 23087 0.931250 3539 1.000000
27897 21161 0.912500 3185 1.000000
33083 21320 0.875000 4231 1.000000
29508 22130 0.912500 3822 1.000000
29541 21515 0.925000 2899 1.000000
33955 23325 0.862500 3683 1.000000
31648 25153 0.943750 3064 1.000000
33770 26528 0.925000 3840 1.000000
35972 22435 0.887500 3259 1.000000
30731 23421 0.925000 3056 1.000000
35127 23364 0.900000 3619 1.000000
36346 22543 0.881250 2621 1.000000
32760 22914 0.900000 2736 1.000000
33349 24724 0.918750 3700 1.000000
31500 23212 0.900000 3174 1.000000
35676 27096 0.912500 2921 1.000000
29653 22006 0.900000 2717 1.000000
32769 21026 0.887500 2636 1.000000
32806 23226 0.918750 3189 1.000000
34548 23993 0.887500 2901 1.000000
32095 21659 0.875000 3786 1.000000
31852 22051 0.887500 2883 1.000000
34712 24151 0.931250 3043 1.000000
34617 25776 0.912500 2606 1.000000
34070 21961 0.893750 2673 1.000000
31983 25077 0.925000 4391 1.000000
33543 23296 0.918750 3580 1.000000
35999 25240 0.887500 3639 1.000000
34867 24462 0.925000 3120 1.000000
30499 22404 0.912500 2421 1.000000
29734 22160 0.893750 2718 1.000000
28857 23602 0.943750 2946 1.000000
32656 23510 0.918750 3511 1.000000
34390 24749 0.887500 3820 1.000000
35393 25066 0.893750 2798 1.000000
33542 25787 0.943750 2816 1.000000
34722 23441 0.912500 2849 1.000000
34156 21918 0.881250 3137 1.000000
34426 22846 0.912500 2810 1.000000
32062 24146 0.925000 2561 1.000000
34298 22245 0.912500 2779 1.000000
33557 25217 0.893750 5521 1.000000
34574 25001 0.887500 2507 1.000000
33791 22851 0.918750 2339 1.000000
32494 23194 0.906250 3681 1.000000
32495 24923 0.931250 3442 1.000000
34807 21276 0.875000 2929 1.000000
34479 23428 0.918750 2193 1.000000
34628 26048 0.912500 2869 1.000000
35356 25154 0.881250 3086 1.000000
32903 23760 0.925000 3150 1.000000
35729 26951 0.912500 2774 1.000000
31670 22561 0.900000 2949 1.000000
33964 24416 0.887500 3350 1.000000
35505 25194 0.893750 4612 1.000000
34176 24723 0.918750 3738 1.000000
35036 23783 0.893750 2619 1.000000
37771 23744 0.893750 3042 1.000000
34875 23933 0.900000 3177 1.000000
32335 23304 0.912500 3303 1.000000
35737 22303 0.862500 2946 1.000000
36553 22158 0.887500 2725 1.000000
33244 24298 0.887500 3979 1.000000
34395 23508 0.925000 2452 1.000000
31937 24638 0.937500 2892 1.000000
32801 22827 0.912500 3017 1.000000
36045 25348 0.931250 3068 1.000000
37079 24457 0.893750 2850 1.000000
33109 24545 0.918750 2728 1.000000
30873 19145 0.881250 2810 1.000000
35146 24217 0.912500 2835 1.000000
34641 24686 0.900000 3566 1.000000
33592 23464 0.900000 3087 1.000000
33721 24702 0.887500 3043 1.000000
30335 21142 0.881250 3817 1.000000
33682 25484 0.887500 4629 1.000000
31496 24300 0.906250 3525 1.000000
35611 25219 0.912500 3291 1.000000
33644 24345 0.900000 4104 1.000000
35754 24981 0.893750 3138 1.000000
33773 21014 0.900000 2603 1.000000
34794 25819 0.906250 3841 1.000000
33274 21898 0.912500 2483 1.000000
30906 21991 0.912500 3354 1.000000
35340 22989 0.887500 2977 1.000000
31723 21942 0.887500 2540 1.000000
33063 23853 0.912500 3494 1.000000
34559 21649 0.893750 2657 1.000000
35093 23010 0.906250 3105 1.000000
32760 25338 0.943750 3408 1.000000
34140 26576 0.931250 3351 1.000000
33931 23030 0.906250 3116 1.000000
33123 22095 0.906250 2739 1.000000
32062 24387 0.900000 3233 1.000000
33787 23962 0.893750 3313 1.000000
34228 23584 0.912500 2573 1.000000
30081 24132 0.931250 3989 1.000000
32917 24101 0.925000 3032 1.000000
34845 22155 0.887500 2722 1.000000
29260 24131 0.918750 3648 1.000000
33163 25223 0.925000 3143 1.000000
28528 19965 0.906250 2696 1.000000
29332 22115 0.925000 2204 1.000000
33592 23489 0.918750 2640 1.000000
34587 25134 0.900000 4465 1.000000
34825 25012 0.925000 2740 1.000000
30062 21340 0.906250 3639 1.000000
33300 22710 0.887500 3161 1.000000
34026 23532 0.887500 3490 1.000000
33955 24735 0.900000 3605 1.000000
33161 22880 0.912500 3370 1.000000
34576 22752 0.862500 3687 1.000000
33649 23861 0.906250 3696 1.000000
31722 21114 0.893750 3116 1.000000
33800 25982 0.906250 3821 1.000000
35165 22372 0.906250 2299 1.000000
33708 23757 0.887500 3666 1.000000
28971 21831 0.912500 4102 1.000000
29474 21583 0.912500 3473 1.000000
30653 22703 0.918750 3740 1.000000
33518 24027 0.931250 4735 1.000000
36398 24176 0.881250 3786 1.000000
34664 23602 0.887500 3701 1.000000
32612 19783 0.900000 3235 1.000000
31645 26178 0.943750 3051 1.000000
32473 26322 0.962500 3080 1.000000
30622 23473 0.912500 4009 1.000000
31374 24418 0.925000 3766 1.000000
35478 24439 0.881250 4196 1.000000
32993 23550 0.912500 3617 1.000000
32726 23593 0.912500 3210 1.000000
27401 20670 0.937500 2928 1.000000
31810 22101 0.906250 2872 1.000000
32800 22487 0.881250 3570 1.000000
33548 24154 0.918750 3260 1.000000
34922 24543 0.893750 2839 1.000000
32837 21814 0.893750 2942 1.000000
35454 24565 0.881250 3440 1.000000
30544 22938 0.956250 3006 1.000000
33117 24312 0.943750 3115 1.000000
33841 26546 0.937500 3060 1.000000
29631 22850 0.937500 2364 1.000000
32547 24679 0.900000 5875 1.000000
34583 26059 0.912500 3045 1.000000
30063 26359 0.950000 3537 1.000000
32091 22845 0.912500 2639 1.000000
33175 24919 0.925000 3457 1.000000
35497 23480 0.887500 3434 1.000000
34240 24043 0.906250 3211 1.000000
30175 22799 0.918750 3056 1.000000
34906 22786 0.912500 2581 1.000000
32015 25400 0.912500 3515 1.000000
35223 23860 0.893750 3134 1.000000
33955 22832 0.881250 3189 1.000000
36811 23624 0.875000 2881 1.000000
32666 22966 0.912500 3269 1.000000
32687 20977 0.875000 4297 1.000000
34684 23055 0.887500 4256 1.000000
35735 24458 0.900000 2705 1.000000
30930 20637 0.912500 2823 1.000000
34042 23510 0.918750 2873 1.000000
35978 23678 0.893750 3568 1.000000
33002 22961 0.893750 3698 1.000000
31303 25215 0.925000 3403 1.000000
34491 24310 0.881250 3542 1.000000
31378 23434 0.925000 2825 1.000000
34046 21395 0.887500 2805 1.000000
34970 24455 0.900000 3477 1.000000
33847 25750 0.912500 3373 1.000000
35843 22696 0.893750 3120 1.000000
31761 23884 0.906250 2955 1.000000
30389 21995 0.906250 2550 1.000000
30297 24149 0.943750 3779 1.000000
34349 21629 0.856250 3914 1.000000
32615 25246 0.912500 3820 1.000000
34637 23707 0.887500 3141 1.000000
32387 22492 0.906250 2915 1.000000
33303 24844 0.931250 3198 1.000000
36425 25249 0.887500 3411 1.000000
34115 23184 0.893750 3040 1.000000
32761 23162 0.912500 3175 1.000000
33594 21684 0.887500 3326 1.000000
34161 23582 0.900000 2652 1.000000
29831 21612 0.912500 2425 1.000000
30941 22163 0.893750 3362 1.000000
34274 22685 0.893750 3347 1.000000
33900 23898 0.925000 3603 1.000000
29350 22328 0.950000 2911 1.000000
33511 21714 0.881250 2790 1.000000
31412 20796 0.893750 3164 1.000000
34823 24994 0.925000 2685 1.000000
31032 24244 0.937500 3001 1.000000
36420 24690 0.906250 4657 1.000000
33221 25068 0.906250 3163 1.000000
35858 24499 0.862500 2752 1.000000
30818 21353 0.912500 3240 1.000000
35825 25043 0.900000 3203 1.000000
30761 22802 0.900000 3783 1.000000
31465 23241 0.925000 3302 1.000000
32290 24148 0.931250 2934 1.000000
33043 24154 0.893750 3414 1.000000
30959 21098 0.887500 4157 1.000000
35028 22563 0.893750 2951 1.000000
33052 20202 0.881250 2596 1.000000
30624 19974 0.912500 2351 1.000000
33288 25409 0.925000 4084 1.000000
35455 27653 0.925000 3853 1.000000
32955 25662 0.937500 2358 1.000000
29742 21373 0.906250 2706 1.000000
34055 24872 0.937500 3557 1.000000
32886 23460 0.887500 3429 1.000000
33781 23273 0.900000 2584 1.000000
30951 21492 0.912500 2829 1.000000
34494 25841 0.925000 2981 1.000000
31780 21309 0.912500 2653 1.000000
37427 23709 0.875000 3321 1.000000
31488 24453 0.912500 3789 1.000000
34904 23889 0.906250 3323 1.000000
32018 23758 0.918750 3084 1.000000
34964 26487 0.937500 3918 1.000000
34203 24308 0.925000 2303 1.000000
35138 25795 0.906250 3430 1.000000
31439 21986 0.881250 4599 1.000000
32222 22513 0.887500 3525 1.000000
31829 22797 0.906250 3209 1.000000
31464 23945 0.912500 2906 1.000000
35748 23552 0.868750 2992 1.000000
31336 22682 0.893750 2531 1.000000
32735 21207 0.906250 3142 1.000000
34784 21267 0.887500 3049 1.000000
30459 23133 0.931250 2947 1.000000
32132 22610 0.900000 3041 1.000000
32767 24747 0.900000 2917 1.000000
31388 23444 0.931250 3514 1.000000
36511 26375 0.887500 4236 1.000000
30744 22948 0.900000 3648 1.000000
29343 23295 0.925000 2758 1.000000
34963 25348 0.925000 2294 1.000000
32056 25450 0.912500 5297 1.000000
33221 22926 0.931250 3414 1.000000
31871 23572 0.912500 3245 1.000000
33418 26296 0.950000 3144 1.000000
36130 25974 0.918750 3513 1.000000
32713 22072 0.925000 2556 1.000000
32269 23602 0.906250 3021 1.000000
31135 24009 0.943750 3330 1.000000
30582 21591 0.925000 2672 1.000000
36819 26364 0.925000 2836 1.000000
34446 22447 0.887500 4039 1.000000
36498 25352 0.918750 3013 1.000000
30157 23285 0.925000 3142 1.000000
36019 25532 0.893750 3931 1.000000
29396 22113 0.906250 3634 1.000000
33162 23810 0.937500 2991 1.000000
29512 23049 0.931250 2882 1.000000
30179 22396 0.943750 3326 1.000000
35435 25631 0.900000 4033 1.000000
34785 24245 0.912500 2998 1.000000
33450 22202 0.887500 2925 1.000000
32760 23425 0.912500 2802 1.000000
31987 23641 0.918750 2713 1.000000
34494 23656 0.906250 2740 1.000000
32702 23869 0.906250 3108 1.000000
30874 22603 0.900000 4880 1.000000
30982 22913 0.925000 3052 1.000000
33930 25002 0.900000 3578 1.000000
33105 23532 0.906250 3099 1.000000
33005 21310 0.900000 3260 1.000000
34509 23876 0.918750 3158 1.000000
36143 23297 0.893750 3270 1.000000
28818 23338 0.962500 3269 1.000000
32628 23948 0.918750 2866 1.000000
31124 22560 0.912500 2676 1.000000
35408 25869 0.918750 3845 1.000000
34818 24159 0.912500 2437 1.000000
34202 24421 0.950000 3161 1.000000
33848 24303 0.868750 3736 1.000000
34569 24520 0.900000 3642 1.000000
31357 24000 0.943750 2868 1.000000
32583 22504 0.918750 2987 1.000000
28719 22092 0.931250 3047 1.000000
35854 21118 0.887500 2845 1.000000
32771 24378 0.918750 3286 1.000000
33786 24476 0.937500 3349 1.000000
34044 25135 0.893750 2505 1.000000
35651 26916 0.912500 2855 1.000000
30582 22960 0.931250 3323 1.000000
33461 24816 0.900000 3266 1.000000
35542 24058 0.900000 3150 1.000000
34401 22125 0.868750 3119 1.000000
35169 22440 0.881250 3825 1.000000
33938 21758 0.881250 2977 1.000000
33938 23099 0.881250 3874 1.000000
32110 24539 0.900000 2960 1.000000
33494 25069 0.918750 3237 1.000000
32226 25481 0.931250 4063 1.000000
34485 25878 0.937500 4689 1.000000
30478 20665 0.887500 2620 1.000000
30365 22222 0.918750 4670 1.000000
30939 21238 0.900000 3735 1.000000
34560 23291 0.900000 2958 1.000000
31319 20328 0.893750 3186 1.000000
33112 24521 0.925000 2998 1.000000
34232 26383 0.937500 2730 1.000000
30839 21295 0.900000 2218 1.000000
29488 22318 0.931250 3381 1.000000
33302 22550 0.900000 2939 1.000000
30091 24526 0.956250 3356 1.000000
33387 22565 0.856250 2773 1.000000
35356 23783 0.893750 3452 1.000000
34042 24853 0.912500 3401 1.000000
32679 25267 0.925000 3269 1.000000
32394 23563 0.918750 3771 1.000000
34114 25873 0.912500 4557 1.000000
33117 25222 0.906250 4142 1.000000
33940 19903 0.887500 2844 1.000000
33085 22956 0.887500 3679 1.000000
32574 21427 0.900000 3105 1.000000
33943 23202 0.887500 3055 1.000000
34168 22948 0.906250 3017 1.000000
33350 23436 0.906250 3309 1.000000
33242 23379 0.887500 3435 1.000000
31968 22484 0.881250 3792 1.000000
32018 23747 0.893750 4296 1.000000
38357 25534 0.875000 5029 1.000000
32759 23940 0.918750 3845 1.000000
31839 23357 0.912500 3819 1.000000
34449 25785 0.918750 3931 1.000000
33345 23359 0.893750 3426 1.000000
33475 22540 0.900000 3111 1.000000
32334 21754 0.918750 3258 1.000000
34062 22716 0.887500 3162 1.000000
29063 21764 0.887500 2993 1.000000
32292 26100 0.925000 3270 1.000000
33700 23525 0.893750 3042 1.000000
30833 23196 0.931250 4221 1.000000
32584 24456 0.925000 3565 1.000000
27724 22693 0.950000 4440 1.000000
31141 21008 0.912500 2489 1.000000
31857 23755 0.925000 3367 1.000000
36198 27578 0.912500 4332 1.000000
35803 20841 0.887500 2915 1.000000
34872 22492 0.887500 3972 1.000000
34544 24289 0.918750 2589 1.000000
33411 25557 0.918750 2859 1.000000
35696 21843 0.881250 3133 1.000000
33080 25009 0.906250 3735 1.000000
33862 25380 0.912500 2779 1.000000
35454 26859 0.925000 4599 1.000000
33340 25321 0.918750 3463 1.000000
31579 21855 0.881250 3692 1.000000
35120 22745 0.893750 3040 1.000000
28958 22521 0.925000 2891 1.000000
31992 22791 0.918750 2958 1.000000
32737 24992 0.925000 3515 1.000000
30185 22853 0.906250 3231 1.000000
36970 24751 0.900000 3269 1.000000
33802 26092 0.906250 3667 1.000000
33023 21331 0.875000 4363 1.000000
34016 25850 0.912500 3885 1.000000
35257 21523 0.868750 3960 1.000000
29178 20855 0.912500 2326 1.000000
32694 22375 0.900000 3198 1.000000
31452 21350 0.875000 4624 1.000000
35841 25356 0.881250 3028 1.000000
32782 24449 0.925000 3378 1.000000
29090 22463 0.925000 2554 1.000000
36351 29259 0.937500 3285 1.000000
35545 21955 0.893750 3075 1.000000
35322 25614 0.906250 3358 1.000000
31796 24401 0.937500 3401 1.000000
33407 21499 0.881250 2614 1.000000
30190 22592 0.912500 3648 1.000000
31677 23797 0.906250 3460 1.000000
31406 21888 0.912500 3072 1.000000
33942 21167 0.900000 2453 1.000000
35464 22755 0.875000 3224 1.000000
37274 26151 0.906250 3792 1.000000
35472 24769 0.887500 3412 1.000000
32441 21961 0.906250 2442 1.000000
31976 22905 0.900000 2703 1.000000
34054 24599 0.906250 3289 1.000000
33198 23227 0.918750 3111 1.000000
33126 22656 0.925000 2530 1.000000
34929 21858 0.881250 2807 1.000000
30244 23360 0.918750 3991 1.000000
31025 24540 0.950000 3699 1.000000
35251 24811 0.887500 3536 1.000000
35324 23418 0.862500 3477 1.000000
31796 22718 0.912500 2804 1.000000
33205 24458 0.912500 2826 1.000000
37538 28495 0.925000 3652 1.000000
29824 25901 0.956250 4192 1.000000
26999 21400 0.950000 3160 1.000000
36040 23728 0.906250 3366 1.000000
35839 24187 0.893750 3645 1.000000
31828 21893 0.912500 2566 1.000000
30868 24353 0.931250 3486 1.000000
30014 20426 0.900000 2668 1.000000
37608 26738 0.937500 3633 1.000000
34546 25292 0.875000 3815 1.000000
33775 24492 0.887500 3415 1.000000
33131 23026 0.906250 2795 1.000000
32649 22492 0.887500 2685 1.000000
34837 24617 0.925000 3275 1.000000
31087 25230 0.943750 3141 1.000000
33384 24090 0.893750 4022 1.000000
32711 21713 0.900000 2803 1.000000
33982 24197 0.912500 2832 1.000000
30731 21046 0.900000 3772 1.000000
35343 25625 0.906250 3673 1.000000
36478 25814 0.918750 3094 1.000000
32895 25498 0.956250 2715 1.000000
33588 23722 0.912500 3059 1.000000
33930 22812 0.893750 3456 1.000000
34912 23516 0.900000 2636 1.000000
30422 23121 0.912500 3357 1.000000
36310 24242 0.887500 2927 1.000000
32600 26328 0.918750 4114 1.000000
32842 24479 0.918750 3220 1.000000
29698 21409 0.918750 2866 1.000000
33853 24557 0.900000 3495 1.000000
32180 24578 0.906250 3439 1.000000
34556 25542 0.881250 3926 1.000000
33113 23811 0.906250 3303 1.000000
34708 23805 0.906250 3226 1.000000
34063 21857 0.887500 3409 1.000000
32674 22087 0.900000 3322 1.000000
32136 20488 0.881250 3286 1.000000
34730 23295 0.868750 3825 1.000000
30636 21825 0.937500 2123 1.000000
30185 23792 0.918750 3828 1.000000
31606 23066 0.887500 3807 1.000000
34485 23463 0.893750 3913 1.000000
32658 23486 0.912500 3024 1.000000
32508 24511 0.943750 3589 1.000000
34700 22530 0.912500 2790 1.000000
34694 25970 0.918750 3005 1.000000
33793 24143 0.900000 4462 1.000000
34467 24343 0.912500 3019 1.000000
34331 24904 0.918750 3257 1.000000
