011111100100100010000100000011
111011001001100110110011011110
000110110110111101011001110011
001001010110001110010001100011
101100000000110110000010000001
010111111000110101110100011000
011000001001000100100010101001
010001000011100000100001100101
111000000110010000101011111111
111001111100001000100100100111
001111000111000110100101101001
010101100110011010010011000111
100110110110100001011000101011
110011001111101101000110111001
100000111010110101011100011100
100010100100100110110010010101
110010001010110001000100110111
100100111011001110000110011111
100000100101101010000100101110
100001011000011010111101011101
