Id	Weibull Discovery Time	Discovery Time	Fraction Discovery	Information Time	Fraction Information
13	41604.0	17368.0	0.7687	3199.0	1.0
32	33101.0	20060.0	0.8812	2605.0	1.0
4	34436.0	21244.0	0.8938	2075.0	1.0
8	45786.0	22219.0	0.8062	2995.0	1.0
2	29507.0	24466.0	0.95	3806.0	1.0
15	35045.0	22715.0	0.9062	3614.0	1.0
25	20615.0	12577.0	0.8625	2041.0	1.0
26	30674.0	23548.0	0.95	2338.0	1.0
17	28181.0	19283.0	0.9188	2037.0	1.0
26	28328.0	21965.0	0.9188	3104.0	1.0
3	33425.0	23153.0	0.875	3534.0	1.0
31	34472.0	23874.0	0.8812	4106.0	1.0
29	28029.0	18142.0	0.9125	2405.0	1.0
13	37603.0	20547.0	0.8438	3146.0	1.0
12	36162.0	20075.0	0.8625	2813.0	1.0
9	29241.0	17988.0	0.8937	2442.0	1.0
10	28000.0	18681.0	0.8875	2804.0	1.0
19	29360.0	20367.0	0.9125	3244.0	1.0
24	32833.0	21554.0	0.875	2546.0	1.0
34	26342.0	17744.0	0.9062	2334.0	1.0
28	37268.0	19614.0	0.8063	2873.0	1.0
11	23692.0	17204.0	0.9188	2499.0	1.0
0	35720.0	22165.0	0.8625	3130.0	1.0
2	30896.0	18441.0	0.8625	2689.0	1.0
24	41221.0	26197.0	0.8563	3939.0	1.0
18	36401.0	25339.0	0.8625	3709.0	1.0
26	29462.0	20838.0	0.9062	3134.0	1.0
15	26593.0	18831.0	0.9	2563.0	1.0
14	39635.0	25258.0	0.8875	2628.0	1.0
0	26414.0	20152.0	0.9375	2746.0	1.0
16	26270.0	18485.0	0.9062	3315.0	1.0
25	28790.0	19308.0	0.9062	2643.0	1.0
1	38988.0	23873.0	0.8688	3990.0	1.0
35	27748.0	19755.0	0.9	3288.0	1.0
22	33321.0	22850.0	0.9062	2829.0	1.0
14	27152.0	19447.0	0.9125	2686.0	1.0
7	30252.0	20222.0	0.9	2300.0	1.0
33	30375.0	21453.0	0.9063	3429.0	1.0
35	25466.0	18089.0	0.8875	3053.0	1.0
5	30006.0	22473.0	0.9188	2974.0	1.0
15	33347.0	23797.0	0.925	2812.0	1.0
29	25624.0	16938.0	0.9125	2480.0	1.0
38	30500.0	19411.0	0.9	2754.0	1.0
31	26272.0	20162.0	0.925	2782.0	1.0
14	42537.0	21968.0	0.8375	3032.0	1.0
18	28555.0	21067.0	0.925	2204.0	1.0
5	25432.0	21082.0	0.9563	2485.0	1.0
24	31196.0	19648.0	0.875	2946.0	1.0
5	24092.0	19186.0	0.95	2922.0	1.0
4	31877.0	25172.0	0.9187	5370.0	1.0
30	33226.0	25238.0	0.9	3842.0	1.0
38	27871.0	20753.0	0.8938	3870.0	1.0
15	24404.0	18496.0	0.9438	2550.0	1.0
23	34399.0	20832.0	0.8375	2823.0	1.0
26	25247.0	16042.0	0.9187	1855.0	1.0
29	34526.0	18588.0	0.8625	2414.0	1.0
19	39764.0	22228.0	0.8375	2654.0	1.0
10	26976.0	19254.0	0.9313	2378.0	1.0
14	28702.0	18163.0	0.9187	2251.0	1.0
29	32415.0	22680.0	0.9	3698.0	1.0
35	31659.0	18543.0	0.8563	3183.0	1.0
5	22171.0	16902.0	0.9375	2217.0	1.0
25	30719.0	20750.0	0.9	2356.0	1.0
18	31789.0	20698.0	0.9063	2662.0	1.0
17	30768.0	21912.0	0.9	3390.0	1.0
8	32994.0	24326.0	0.8938	4698.0	1.0
15	31201.0	19567.0	0.8875	1877.0	1.0
17	28454.0	18496.0	0.9	3053.0	1.0
10	32933.0	19635.0	0.8688	2569.0	1.0
27	32055.0	23471.0	0.9312	2406.0	1.0
6	30193.0	19602.0	0.9	3179.0	1.0
37	30588.0	23068.0	0.9187	2879.0	1.0
8	27783.0	21777.0	0.9187	2971.0	1.0
9	30621.0	22609.0	0.925	2521.0	1.0
3	30120.0	20097.0	0.8812	2901.0	1.0
2	31790.0	21739.0	0.9125	3025.0	1.0
39	30440.0	20680.0	0.8875	2902.0	1.0
0	29240.0	22207.0	0.9188	3050.0	1.0
13	28593.0	18474.0	0.8813	3352.0	1.0
12	29818.0	24380.0	0.9313	3885.0	1.0
19	25227.0	18723.0	0.9063	2477.0	1.0
13	25153.0	20808.0	0.9375	3046.0	1.0
10	24220.0	17270.0	0.9062	3006.0	1.0
13	32469.0	21238.0	0.8937	3363.0	1.0
20	25788.0	22176.0	0.9375	3184.0	1.0
8	32077.0	21030.0	0.875	3561.0	1.0
21	26958.0	20229.0	0.9188	2527.0	1.0
34	27698.0	19833.0	0.9	4208.0	1.0
31	28664.0	22014.0	0.9313	2910.0	1.0
34	27662.0	19039.0	0.9187	2221.0	1.0
7	32235.0	19944.0	0.8625	3370.0	1.0
35	24810.0	18652.0	0.9062	3557.0	1.0
19	33895.0	24201.0	0.925	2933.0	1.0
18	34269.0	21627.0	0.8875	2907.0	1.0
3	29018.0	21347.0	0.9	3134.0	1.0
8	36204.0	23058.0	0.875	2831.0	1.0
31	24478.0	17899.0	0.9313	2262.0	1.0
15	27140.0	18756.0	0.9125	2327.0	1.0
29	29566.0	19316.0	0.8938	2528.0	1.0
17	42149.0	25182.0	0.8375	4452.0	1.0
33	24832.0	18782.0	0.9	3309.0	1.0
21	35437.0	22986.0	0.9063	3006.0	1.0
35	30571.0	17385.0	0.8688	2622.0	1.0
15	30419.0	20680.0	0.875	3238.0	1.0
31	35195.0	20512.0	0.8563	2926.0	1.0
16	28823.0	18748.0	0.8937	2370.0	1.0
25	29074.0	19534.0	0.8937	2556.0	1.0
23	35311.0	23657.0	0.8875	4086.0	1.0
13	33804.0	22013.0	0.875	3111.0	1.0
16	31643.0	20672.0	0.9313	2399.0	1.0
26	30064.0	19850.0	0.8812	3067.0	1.0
20	29618.0	19200.0	0.8875	3143.0	1.0
35	24763.0	20277.0	0.95	2268.0	1.0
24	30971.0	20854.0	0.8688	2462.0	1.0
35	33651.0	21474.0	0.8875	2625.0	1.0
34	37531.0	23041.0	0.85	3060.0	1.0
19	25083.0	17163.0	0.9187	2390.0	1.0
22	27731.0	20279.0	0.9187	2736.0	1.0
6	28378.0	19496.0	0.9313	2202.0	1.0
23	27992.0	21527.0	0.9375	2644.0	1.0
16	31110.0	21894.0	0.9	3339.0	1.0
7	27919.0	20558.0	0.9063	3070.0	1.0
31	31475.0	17740.0	0.8688	2034.0	1.0
2	33761.0	21490.0	0.8625	3071.0	1.0
31	23717.0	17967.0	0.9313	2441.0	1.0
25	41683.0	25011.0	0.8187	4051.0	1.0
31	29838.0	17817.0	0.8813	2700.0	1.0
21	33958.0	25692.0	0.9187	3218.0	1.0
28	29829.0	18946.0	0.9	2373.0	1.0
3	28095.0	20303.0	0.9188	2298.0	1.0
17	26362.0	18942.0	0.9313	2520.0	1.0
9	26310.0	18299.0	0.9125	2409.0	1.0
6	34785.0	24002.0	0.925	2510.0	1.0
20	25059.0	18868.0	0.925	2719.0	1.0
6	30787.0	20418.0	0.8812	3276.0	1.0
33	23531.0	19065.0	0.95	2543.0	1.0
28	30738.0	22076.0	0.925	2688.0	1.0
18	27545.0	18281.0	0.8875	2511.0	1.0
7	37605.0	20732.0	0.85	2411.0	1.0
38	27454.0	18633.0	0.8937	2422.0	1.0
31	21372.0	16287.0	0.9563	1872.0	1.0
17	26766.0	19350.0	0.9438	2363.0	1.0
14	35412.0	22944.0	0.8562	3948.0	1.0
36	37687.0	24176.0	0.8562	3416.0	1.0
24	34722.0	22908.0	0.8938	3582.0	1.0
18	37100.0	22625.0	0.8813	2949.0	1.0
2	30115.0	21627.0	0.9188	2526.0	1.0
9	31685.0	20094.0	0.875	3212.0	1.0
35	36468.0	20396.0	0.85	2708.0	1.0
17	38247.0	22607.0	0.8812	2253.0	1.0
1	40760.0	21154.0	0.8063	3818.0	1.0
14	25005.0	19030.0	0.9375	2642.0	1.0
37	41944.0	25212.0	0.8688	3083.0	1.0
28	23340.0	18273.0	0.9187	3236.0	1.0
19	30310.0	19666.0	0.85	3399.0	1.0
28	32960.0	22446.0	0.8625	4194.0	1.0
8	27391.0	23767.0	0.9563	2262.0	1.0
12	27268.0	17510.0	0.8937	2278.0	1.0
39	26383.0	18959.0	0.9313	2355.0	1.0
20	31861.0	20696.0	0.8937	2826.0	1.0
35	25296.0	20484.0	0.9563	2771.0	1.0
37	28138.0	21006.0	0.9187	3008.0	1.0
31	27748.0	21542.0	0.925	3016.0	1.0
39	27588.0	17352.0	0.8875	2049.0	1.0
25	24420.0	18118.0	0.9062	2145.0	1.0
18	24853.0	17574.0	0.9313	2519.0	1.0
37	29086.0	19722.0	0.9	2966.0	1.0
30	37032.0	22979.0	0.875	2516.0	1.0
35	26510.0	22028.0	0.9125	3062.0	1.0
28	29012.0	19590.0	0.8688	4075.0	1.0
1	25958.0	19741.0	0.9188	2245.0	1.0
32	34297.0	24011.0	0.8938	3205.0	1.0
37	27271.0	17547.0	0.9125	2385.0	1.0
21	25799.0	19537.0	0.925	3256.0	1.0
14	26656.0	18082.0	0.8938	2250.0	1.0
34	31170.0	20209.0	0.875	3385.0	1.0
15	37475.0	25576.0	0.8812	4278.0	1.0
25	29085.0	23321.0	0.9375	2547.0	1.0
9	26172.0	20762.0	0.975	1650.0	1.0
38	31901.0	19839.0	0.8875	2968.0	1.0
18	32438.0	21335.0	0.8937	2640.0	1.0
18	29012.0	20390.0	0.8875	2729.0	1.0
33	21317.0	17507.0	0.9437	2319.0	1.0
33	28163.0	19248.0	0.9125	2580.0	1.0
9	26239.0	18617.0	0.9	2445.0	1.0
31	26634.0	16920.0	0.875	3080.0	1.0
31	28799.0	22001.0	0.9188	4183.0	1.0
14	33991.0	19442.0	0.825	2686.0	1.0
38	32005.0	21259.0	0.9	2464.0	1.0
30	27463.0	19140.0	0.9	2794.0	1.0
11	30708.0	19360.0	0.8813	2383.0	1.0
16	29420.0	23551.0	0.9313	3582.0	1.0
16	31811.0	21496.0	0.8563	3083.0	1.0
6	30450.0	22778.0	0.9125	2877.0	1.0
18	24829.0	19041.0	0.9125	3932.0	1.0
3	23029.0	17960.0	0.925	2110.0	1.0
7	26194.0	20823.0	0.9313	2443.0	1.0
37	26332.0	18701.0	0.9125	2447.0	1.0
20	34475.0	21729.0	0.875	2844.0	1.0
33	29154.0	20044.0	0.9063	2170.0	1.0
20	33136.0	23904.0	0.9125	2943.0	1.0
29	30023.0	20325.0	0.8563	3364.0	1.0
22	29549.0	21798.0	0.9	2552.0	1.0
21	24466.0	19956.0	0.9625	2339.0	1.0
28	28352.0	18443.0	0.9063	2966.0	1.0
37	22587.0	16801.0	0.925	1943.0	1.0
13	26860.0	20195.0	0.9125	3180.0	1.0
2	34554.0	23392.0	0.8938	2903.0	1.0
9	28427.0	21346.0	0.9125	2967.0	1.0
13	34284.0	23979.0	0.9062	3281.0	1.0
0	36724.0	24893.0	0.9062	2540.0	1.0
34	31934.0	24798.0	0.925	3064.0	1.0
3	27220.0	17788.0	0.9	2880.0	1.0
9	29700.0	21364.0	0.9	2889.0	1.0
31	30016.0	20388.0	0.9	2445.0	1.0
39	26192.0	21140.0	0.9563	2958.0	1.0
9	26068.0	17190.0	0.8937	3208.0	1.0
18	33287.0	21074.0	0.8875	3121.0	1.0
20	33435.0	20138.0	0.8625	2962.0	1.0
14	26917.0	18693.0	0.9125	2892.0	1.0
16	31207.0	21521.0	0.8938	3158.0	1.0
8	26825.0	19016.0	0.9187	2452.0	1.0
34	30492.0	20155.0	0.8812	2868.0	1.0
10	27546.0	16030.0	0.85	2373.0	1.0
15	28539.0	21176.0	0.9062	2952.0	1.0
13	25023.0	18881.0	0.9313	2092.0	1.0
0	41339.0	24584.0	0.8625	4207.0	1.0
0	25862.0	17118.0	0.9	2900.0	1.0
18	33006.0	21187.0	0.875	3072.0	1.0
36	33130.0	20116.0	0.8812	2415.0	1.0
29	31160.0	20250.0	0.8813	2215.0	1.0
11	29844.0	22940.0	0.925	3156.0	1.0
29	29599.0	19617.0	0.8875	2023.0	1.0
6	30570.0	22352.0	0.9063	4536.0	1.0
29	24946.0	19653.0	0.9313	2711.0	1.0
30	30310.0	19106.0	0.875	3005.0	1.0
38	26964.0	19006.0	0.9063	2970.0	1.0
3	33356.0	22570.0	0.9062	2668.0	1.0
25	31238.0	23933.0	0.9062	2957.0	1.0
7	27234.0	20307.0	0.925	3189.0	1.0
31	31487.0	18854.0	0.8312	3478.0	1.0
31	30063.0	22916.0	0.9063	2648.0	1.0
12	32977.0	21399.0	0.8688	2904.0	1.0
12	32738.0	21427.0	0.9187	2803.0	1.0
8	29871.0	23061.0	0.95	3464.0	1.0
19	33551.0	21372.0	0.875	2576.0	1.0
38	37021.0	21335.0	0.8625	2892.0	1.0
23	30944.0	17185.0	0.8688	2466.0	1.0
9	28045.0	19627.0	0.9187	2970.0	1.0
25	27531.0	21099.0	0.9375	2768.0	1.0
39	35523.0	21859.0	0.8688	3060.0	1.0
32	29082.0	17681.0	0.8625	3019.0	1.0
16	27076.0	18956.0	0.925	2289.0	1.0
10	33535.0	21458.0	0.8688	3324.0	1.0
32	27056.0	21232.0	0.9375	2584.0	1.0
4	27543.0	21328.0	0.9375	2551.0	1.0
21	29382.0	20286.0	0.9	3520.0	1.0
3	24581.0	19578.0	0.9313	2477.0	1.0
9	32471.0	19197.0	0.8625	3006.0	1.0
12	35323.0	21779.0	0.8875	3627.0	1.0
23	30148.0	19919.0	0.9	2971.0	1.0
33	30960.0	21504.0	0.8625	3488.0	1.0
17	26668.0	19793.0	0.9313	2583.0	1.0
22	25651.0	20038.0	0.925	2927.0	1.0
19	32701.0	20571.0	0.8625	2674.0	1.0
14	23261.0	18612.0	0.9438	2792.0	1.0
31	27486.0	19475.0	0.9062	2477.0	1.0
37	36268.0	22792.0	0.8875	3354.0	1.0
18	29883.0	22346.0	0.9187	3156.0	1.0
23	25394.0	17535.0	0.9188	2224.0	1.0
27	28929.0	18389.0	0.875	2506.0	1.0
25	32809.0	19448.0	0.8688	2711.0	1.0
15	22957.0	17144.0	0.9062	2172.0	1.0
32	35354.0	18507.0	0.8563	2213.0	1.0
7	35666.0	19587.0	0.8313	3130.0	1.0
33	28522.0	22709.0	0.9375	2985.0	1.0
33	26447.0	18107.0	0.8813	2707.0	1.0
29	33053.0	20948.0	0.8688	3206.0	1.0
26	31934.0	22263.0	0.925	2743.0	1.0
20	31813.0	17703.0	0.8313	2675.0	1.0
36	39459.0	22790.0	0.8625	2894.0	1.0
26	32076.0	21377.0	0.9188	3090.0	1.0
2	38736.0	23006.0	0.8562	2521.0	1.0
2	24912.0	19689.0	0.925	2656.0	1.0
21	25978.0	17610.0	0.8938	2516.0	1.0
13	33439.0	20681.0	0.8375	3882.0	1.0
31	32911.0	19719.0	0.8875	2579.0	1.0
35	25600.0	16934.0	0.8812	2430.0	1.0
39	24317.0	18532.0	0.925	2175.0	1.0
20	32986.0	23727.0	0.9063	2534.0	1.0
26	32524.0	22097.0	0.9	2884.0	1.0
33	25636.0	16031.0	0.8438	3246.0	1.0
34	23804.0	17733.0	0.9375	1848.0	1.0
14	26689.0	18857.0	0.9	2906.0	1.0
30	35538.0	23199.0	0.8812	4711.0	1.0
10	33082.0	21785.0	0.8688	3216.0	1.0
9	30988.0	23945.0	0.925	2545.0	1.0
5	26266.0	20105.0	0.9188	2585.0	1.0
35	33172.0	21847.0	0.8875	2875.0	1.0
6	33883.0	19236.0	0.875	2323.0	1.0
7	30451.0	21839.0	0.8875	3197.0	1.0
15	36789.0	20098.0	0.8625	2834.0	1.0
33	29358.0	18983.0	0.8875	3142.0	1.0
12	28631.0	20647.0	0.9125	3001.0	1.0
26	28371.0	21208.0	0.9	3304.0	1.0
3	22227.0	18412.0	0.925	3458.0	1.0
9	31586.0	19382.0	0.8688	3251.0	1.0
12	24734.0	19221.0	0.8875	3108.0	1.0
15	30540.0	20409.0	0.8875	3177.0	1.0
8	29630.0	18390.0	0.9	2914.0	1.0
2	27899.0	20498.0	0.8875	3076.0	1.0
17	32676.0	20343.0	0.8625	3125.0	1.0
12	36071.0	23345.0	0.8812	2927.0	1.0
22	26318.0	19023.0	0.9125	2730.0	1.0
32	29286.0	18949.0	0.9	2718.0	1.0
6	36363.0	22462.0	0.8438	2889.0	1.0
12	35761.0	21374.0	0.8812	2409.0	1.0
33	36400.0	21910.0	0.85	5045.0	1.0
13	27192.0	18065.0	0.8937	2826.0	1.0
25	28650.0	20489.0	0.8938	3226.0	1.0
18	32942.0	22819.0	0.9188	2460.0	1.0
16	28517.0	19797.0	0.9	2331.0	1.0
36	34354.0	22747.0	0.8875	2965.0	1.0
15	29741.0	22020.0	0.9062	2754.0	1.0
14	24679.0	18984.0	0.9313	2291.0	1.0
3	39042.0	25628.0	0.875	2888.0	1.0
24	32457.0	23004.0	0.9375	2686.0	1.0
22	24619.0	18828.0	0.9313	2452.0	1.0
4	37814.0	23454.0	0.875	3472.0	1.0
21	29263.0	20876.0	0.925	2947.0	1.0
4	30926.0	22341.0	0.9	3770.0	1.0
3	36884.0	24931.0	0.875	3088.0	1.0
7	31374.0	19541.0	0.8937	2699.0	1.0
23	27639.0	21760.0	0.9	3834.0	1.0
24	32757.0	23136.0	0.8688	3007.0	1.0
38	44618.0	24309.0	0.8375	2674.0	1.0
8	24694.0	19122.0	0.9375	2908.0	1.0
27	35442.0	23148.0	0.8812	3651.0	1.0
16	30046.0	20101.0	0.9	3483.0	1.0
19	23176.0	19295.0	0.9563	2288.0	1.0
26	29629.0	20241.0	0.875	3100.0	1.0
13	29248.0	22404.0	0.9313	2985.0	1.0
15	31880.0	22257.0	0.8938	2613.0	1.0
6	27110.0	18437.0	0.8812	3524.0	1.0
10	32052.0	22030.0	0.9062	2374.0	1.0
4	32760.0	23797.0	0.8875	4210.0	1.0
27	30575.0	20587.0	0.9062	2270.0	1.0
33	23710.0	18818.0	0.95	2014.0	1.0
11	34878.0	22196.0	0.875	3199.0	1.0
21	36528.0	21413.0	0.8688	2577.0	1.0
5	32297.0	20199.0	0.8625	3768.0	1.0
27	19948.0	15866.0	0.9375	2239.0	1.0
20	29479.0	17504.0	0.8875	2326.0	1.0
5	27126.0	21738.0	0.9375	2334.0	1.0
22	32602.0	21500.0	0.875	2971.0	1.0
19	28210.0	20595.0	0.9375	2735.0	1.0
9	30240.0	19081.0	0.875	3052.0	1.0
17	26876.0	18340.0	0.925	2468.0	1.0
9	37194.0	23440.0	0.8813	2850.0	1.0
31	26020.0	19335.0	0.9125	2868.0	1.0
13	26622.0	18414.0	0.9	2630.0	1.0
29	30585.0	19006.0	0.875	3052.0	1.0
3	29085.0	20260.0	0.9062	2980.0	1.0
22	28947.0	19776.0	0.9313	2013.0	1.0
21	34157.0	21337.0	0.8562	2903.0	1.0
24	32238.0	19902.0	0.8938	3654.0	1.0
0	27151.0	19584.0	0.9188	2769.0	1.0
18	27613.0	20544.0	0.9	2734.0	1.0
3	27142.0	21715.0	0.925	3349.0	1.0
19	22717.0	16783.0	0.9188	2056.0	1.0
16	29370.0	20230.0	0.9187	2365.0	1.0
9	25480.0	19514.0	0.925	2803.0	1.0
0	24235.0	18423.0	0.9375	2155.0	1.0
5	26336.0	20524.0	0.925	2340.0	1.0
12	31298.0	23141.0	0.9062	3178.0	1.0
7	26104.0	20527.0	0.925	3058.0	1.0
10	30137.0	23983.0	0.9313	4727.0	1.0
5	35356.0	24550.0	0.8875	3490.0	1.0
27	35201.0	21096.0	0.8562	2863.0	1.0
7	33236.0	21122.0	0.8812	3731.0	1.0
4	27806.0	20433.0	0.9188	3278.0	1.0
38	28792.0	20756.0	0.8938	2770.0	1.0
34	28054.0	18519.0	0.8812	3033.0	1.0
20	24684.0	16298.0	0.9125	2234.0	1.0
20	28045.0	21364.0	0.925	3025.0	1.0
19	33632.0	20034.0	0.8625	3364.0	1.0
39	34939.0	20765.0	0.8688	3002.0	1.0
13	33145.0	23825.0	0.9062	3082.0	1.0
14	37584.0	22555.0	0.8187	3156.0	1.0
27	38397.0	24991.0	0.8688	3518.0	1.0
5	36301.0	18802.0	0.8438	2493.0	1.0
14	31440.0	20613.0	0.8937	2626.0	1.0
19	26340.0	19338.0	0.8875	3325.0	1.0
0	36732.0	21466.0	0.8437	2831.0	1.0
22	27076.0	19787.0	0.9062	2991.0	1.0
7	24452.0	18857.0	0.9188	2632.0	1.0
7	28841.0	20369.0	0.9125	3248.0	1.0
25	29302.0	21003.0	0.9125	2694.0	1.0
10	27477.0	20250.0	0.9	2949.0	1.0
3	27594.0	18489.0	0.8875	2561.0	1.0
30	30631.0	21883.0	0.9125	2619.0	1.0
0	27891.0	20686.0	0.8938	2473.0	1.0
0	46111.0	25993.0	0.825	3910.0	1.0
33	38764.0	19737.0	0.8563	2665.0	1.0
36	28667.0	21429.0	0.9438	3127.0	1.0
7	28646.0	20149.0	0.9125	2456.0	1.0
8	36618.0	21274.0	0.9125	2048.0	1.0
1	32780.0	20594.0	0.8688	3359.0	1.0
27	28768.0	20090.0	0.9062	2374.0	1.0
24	37944.0	23314.0	0.85	3513.0	1.0
32	32979.0	20826.0	0.8813	3173.0	1.0
35	28859.0	20404.0	0.9188	2971.0	1.0
12	25314.0	18035.0	0.9	2367.0	1.0
16	28709.0	22493.0	0.9313	3239.0	1.0
1	19037.0	15901.0	0.9563	1931.0	1.0
0	31764.0	22393.0	0.9	2592.0	1.0
16	31655.0	22691.0	0.8938	2971.0	1.0
26	30096.0	18500.0	0.8688	2256.0	1.0
7	30629.0	19971.0	0.8812	3308.0	1.0
31	29549.0	19983.0	0.9125	2944.0	1.0
22	35694.0	22536.0	0.8813	3141.0	1.0
34	27155.0	19750.0	0.9062	2890.0	1.0
26	33383.0	20790.0	0.8562	2945.0	1.0
11	31743.0	23249.0	0.8688	4214.0	1.0
6	27757.0	19167.0	0.9062	2151.0	1.0
1	36528.0	23089.0	0.8813	2846.0	1.0
33	31177.0	22716.0	0.9	3105.0	1.0
4	33249.0	22077.0	0.8813	3227.0	1.0
29	28862.0	20266.0	0.9	2840.0	1.0
21	29451.0	21099.0	0.8875	2824.0	1.0
21	27374.0	20536.0	0.9313	3270.0	1.0
27	25484.0	17379.0	0.9188	2343.0	1.0
33	29569.0	16320.0	0.8688	2226.0	1.0
3	35036.0	21774.0	0.85	3172.0	1.0
32	29035.0	20912.0	0.9125	3358.0	1.0
20	24202.0	19906.0	0.9375	2617.0	1.0
15	27929.0	21209.0	0.9125	3089.0	1.0
17	25660.0	17608.0	0.9188	2148.0	1.0
14	34407.0	19893.0	0.85	2097.0	1.0
0	36488.0	21645.0	0.8875	2682.0	1.0
3	28817.0	22042.0	0.9125	3394.0	1.0
33	25932.0	17729.0	0.9062	2917.0	1.0
20	28674.0	21963.0	0.925	3703.0	1.0
35	38733.0	22888.0	0.8813	3140.0	1.0
28	34640.0	20828.0	0.8688	2627.0	1.0
9	25798.0	18249.0	0.9125	2615.0	1.0
6	23333.0	17696.0	0.9375	2566.0	1.0
20	22915.0	17359.0	0.9313	2238.0	1.0
21	36703.0	23705.0	0.8625	3515.0	1.0
13	36039.0	23384.0	0.8438	3743.0	1.0
29	24085.0	19726.0	0.9375	2476.0	1.0
22	34017.0	23126.0	0.9062	3052.0	1.0
20	41079.0	24080.0	0.8563	3277.0	1.0
6	22428.0	18023.0	0.9563	2094.0	1.0
33	25733.0	18877.0	0.9125	2292.0	1.0
3	40543.0	23530.0	0.8563	3344.0	1.0
21	27794.0	19771.0	0.9062	2710.0	1.0
22	43016.0	27424.0	0.85	3989.0	1.0
14	24213.0	19806.0	0.9375	3143.0	1.0
8	32399.0	23184.0	0.9125	2366.0	1.0
14	29732.0	22182.0	0.8875	4747.0	1.0
27	26042.0	18987.0	0.9125	2953.0	1.0
20	24795.0	19227.0	0.9437	2261.0	1.0
4	31913.0	19625.0	0.875	2334.0	1.0
19	21375.0	17871.0	0.9625	1952.0	1.0
27	27675.0	20871.0	0.8875	3074.0	1.0
15	28511.0	21710.0	0.9375	3107.0	1.0
2	21704.0	19204.0	0.9563	2292.0	1.0
3	26358.0	18705.0	0.9063	3344.0	1.0
18	33729.0	24942.0	0.9062	3610.0	1.0
25	26618.0	18479.0	0.9063	2402.0	1.0
12	29262.0	19400.0	0.9	2558.0	1.0
13	36433.0	23042.0	0.85	3734.0	1.0
5	30760.0	21990.0	0.9125	2514.0	1.0
39	26869.0	19496.0	0.9312	2250.0	1.0
4	25509.0	19014.0	0.8813	3234.0	1.0
0	37893.0	23119.0	0.875	3752.0	1.0
7	30120.0	19640.0	0.9125	2711.0	1.0
13	26997.0	19304.0	0.925	2252.0	1.0
30	28449.0	19225.0	0.9188	2082.0	1.0
16	28526.0	20199.0	0.8937	2897.0	1.0
34	28636.0	20808.0	0.9187	2126.0	1.0
11	27636.0	21612.0	0.9375	3297.0	1.0
34	27458.0	18555.0	0.9	2699.0	1.0
22	32360.0	20640.0	0.8875	2750.0	1.0
2	29911.0	20544.0	0.9	2682.0	1.0
30	28275.0	20256.0	0.9063	2511.0	1.0
7	26962.0	22522.0	0.925	2865.0	1.0
26	26001.0	21331.0	0.9313	2858.0	1.0
33	28364.0	17989.0	0.8875	2494.0	1.0
31	38434.0	21526.0	0.8313	3181.0	1.0
33	32423.0	20991.0	0.8812	3644.0	1.0
29	24286.0	17009.0	0.9	3100.0	1.0
16	26149.0	18822.0	0.9313	2144.0	1.0
35	28720.0	19170.0	0.9	2599.0	1.0
24	29545.0	20178.0	0.9187	2688.0	1.0
21	24911.0	17500.0	0.9125	3087.0	1.0
9	32748.0	20640.0	0.8625	3727.0	1.0
6	29484.0	19641.0	0.9	2373.0	1.0
5	27215.0	21452.0	0.925	2977.0	1.0
6	26040.0	18827.0	0.9188	2400.0	1.0
39	36015.0	23527.0	0.875	3143.0	1.0
23	30794.0	23580.0	0.9125	3258.0	1.0
38	35814.0	22976.0	0.9	2832.0	1.0
34	32373.0	25409.0	0.925	3429.0	1.0
8	21984.0	17601.0	0.925	2504.0	1.0
16	33526.0	19290.0	0.8375	3198.0	1.0
32	35229.0	20967.0	0.8625	2859.0	1.0
6	29149.0	19772.0	0.9125	2829.0	1.0
38	35791.0	21896.0	0.8688	3243.0	1.0
4	22523.0	15533.0	0.8938	2375.0	1.0
36	22911.0	19185.0	0.9063	3096.0	1.0
34	30687.0	21166.0	0.9	2813.0	1.0
17	22139.0	16758.0	0.8875	2898.0	1.0
35	34436.0	21207.0	0.8875	2553.0	1.0
16	26861.0	15303.0	0.875	2584.0	1.0
11	30516.0	18751.0	0.8813	2938.0	1.0
38	32685.0	21747.0	0.8688	3377.0	1.0
0	26938.0	20064.0	0.9313	2716.0	1.0
14	24530.0	17006.0	0.9125	2292.0	1.0
17	25535.0	20194.0	0.9187	2936.0	1.0
6	30411.0	22748.0	0.9	3518.0	1.0
25	27287.0	18810.0	0.8937	2588.0	1.0
3	34761.0	18250.0	0.8125	3124.0	1.0
31	27231.0	19291.0	0.8875	2689.0	1.0
25	36607.0	20992.0	0.875	2434.0	1.0
26	24762.0	18859.0	0.9375	2532.0	1.0
29	31033.0	18786.0	0.8812	2506.0	1.0
29	23247.0	18058.0	0.9375	2729.0	1.0
33	33066.0	23694.0	0.9375	2754.0	1.0
4	40024.0	25123.0	0.8625	3630.0	1.0
20	26524.0	20047.0	0.9063	2997.0	1.0
35	32035.0	20258.0	0.8688	3283.0	1.0
28	35906.0	22391.0	0.8875	2815.0	1.0
17	28735.0	21267.0	0.8937	2376.0	1.0
39	38917.0	21814.0	0.8438	3118.0	1.0
12	32022.0	19751.0	0.8625	2582.0	1.0
3	32935.0	21580.0	0.8812	3372.0	1.0
10	37741.0	22935.0	0.8875	2459.0	1.0
12	24257.0	17177.0	0.925	2909.0	1.0
13	33156.0	22353.0	0.8813	3449.0	1.0
14	24959.0	19432.0	0.9313	3114.0	1.0
13	30784.0	19332.0	0.875	2651.0	1.0
5	31799.0	22557.0	0.9125	2904.0	1.0
5	26226.0	18476.0	0.9187	2401.0	1.0
37	27459.0	18432.0	0.8625	3012.0	1.0
2	31658.0	21977.0	0.8938	2697.0	1.0
33	27310.0	21024.0	0.925	3234.0	1.0
21	34176.0	19710.0	0.85	3064.0	1.0
4	42180.0	22878.0	0.8313	3154.0	1.0
28	40313.0	23110.0	0.85	3630.0	1.0
35	29644.0	21552.0	0.9188	2678.0	1.0
4	37380.0	24607.0	0.9	3131.0	1.0
23	30243.0	19697.0	0.8812	2410.0	1.0
16	28906.0	21911.0	0.9375	2499.0	1.0
24	33685.0	19687.0	0.8313	2683.0	1.0
36	24470.0	17629.0	0.9188	2065.0	1.0
1	33539.0	22380.0	0.8875	3730.0	1.0
21	25643.0	19647.0	0.9125	2959.0	1.0
32	25462.0	18511.0	0.925	2898.0	1.0
15	22983.0	16708.0	0.8937	3075.0	1.0
33	35029.0	20029.0	0.8688	3088.0	1.0
8	31576.0	20970.0	0.8812	2641.0	1.0
5	27581.0	19146.0	0.875	3414.0	1.0
22	23958.0	18777.0	0.9375	3001.0	1.0
9	29980.0	22347.0	0.9125	3209.0	1.0
22	23366.0	18581.0	0.9125	2369.0	1.0
30	33614.0	22960.0	0.925	2628.0	1.0
7	32762.0	23371.0	0.9125	3853.0	1.0
7	32878.0	21890.0	0.8875	3189.0	1.0
5	29603.0	18096.0	0.8438	2980.0	1.0
8	22394.0	17789.0	0.925	2470.0	1.0
32	32209.0	23018.0	0.9	3576.0	1.0
12	31880.0	22794.0	0.9125	3154.0	1.0
12	21785.0	17578.0	0.925	2891.0	1.0
36	26767.0	19702.0	0.9062	3229.0	1.0
26	31871.0	22381.0	0.9188	2998.0	1.0
27	28789.0	19005.0	0.8812	2268.0	1.0
18	32118.0	20584.0	0.8625	2588.0	1.0
32	25424.0	19067.0	0.9063	2720.0	1.0
8	33813.0	22995.0	0.8875	3471.0	1.0
12	31203.0	20695.0	0.8875	2699.0	1.0
34	24535.0	18510.0	0.9437	2475.0	1.0
8	28479.0	22205.0	0.9375	2331.0	1.0
32	26926.0	20244.0	0.925	2219.0	1.0
24	35383.0	20636.0	0.8562	2580.0	1.0
8	35612.0	20921.0	0.8687	3444.0	1.0
4	26752.0	20495.0	0.9063	2563.0	1.0
32	27412.0	17886.0	0.875	2570.0	1.0
23	28237.0	19552.0	0.8688	3703.0	1.0
26	31383.0	19421.0	0.8375	2633.0	1.0
16	36460.0	21730.0	0.8625	3673.0	1.0
12	30689.0	23552.0	0.9125	3149.0	1.0
23	25906.0	19386.0	0.925	2849.0	1.0
24	29625.0	22228.0	0.9125	3457.0	1.0
39	30775.0	20094.0	0.8688	3125.0	1.0
21	31414.0	23062.0	0.9125	2837.0	1.0
35	27650.0	19451.0	0.9	2902.0	1.0
7	25654.0	18884.0	0.9063	3146.0	1.0
6	23542.0	18509.0	0.9438	2290.0	1.0
4	31596.0	21928.0	0.9063	2787.0	1.0
11	38360.0	24520.0	0.875	3109.0	1.0
9	32741.0	22287.0	0.9125	2701.0	1.0
27	32855.0	21858.0	0.9063	2933.0	1.0
21	36755.0	23650.0	0.8875	1906.0	1.0
25	25917.0	17401.0	0.8813	2913.0	1.0
14	29806.0	19430.0	0.8688	3183.0	1.0
4	28428.0	21358.0	0.9125	3162.0	1.0
19	33766.0	23976.0	0.9062	2662.0	1.0
34	29235.0	19962.0	0.8813	3337.0	1.0
24	31423.0	22079.0	0.8688	3890.0	1.0
4	30281.0	22809.0	0.925	3030.0	1.0
12	26775.0	20222.0	0.9	3652.0	1.0
13	33439.0	22962.0	0.8875	2729.0	1.0
25	30876.0	21317.0	0.9	3400.0	1.0
35	25079.0	19867.0	0.9313	2836.0	1.0
33	30425.0	23033.0	0.925	3162.0	1.0
34	27059.0	18856.0	0.9188	2853.0	1.0
6	24529.0	18349.0	0.9	3320.0	1.0
3	30087.0	20348.0	0.9062	2555.0	1.0
11	32451.0	21524.0	0.8625	2626.0	1.0
18	37466.0	22956.0	0.8625	3444.0	1.0
38	32205.0	20844.0	0.9125	2882.0	1.0
30	24466.0	18496.0	0.9125	2811.0	1.0
17	23879.0	18565.0	0.925	2167.0	1.0
4	25131.0	17439.0	0.9062	2316.0	1.0
15	29423.0	19176.0	0.8812	2657.0	1.0
29	26620.0	19748.0	0.9125	2841.0	1.0
0	34723.0	22029.0	0.8688	3449.0	1.0
24	33080.0	24619.0	0.9125	3177.0	1.0
8	25866.0	21480.0	0.9563	2298.0	1.0
11	28118.0	17387.0	0.9063	2247.0	1.0
3	27235.0	19541.0	0.9438	2241.0	1.0
18	21578.0	16842.0	0.9125	2334.0	1.0
15	30807.0	22453.0	0.9125	3355.0	1.0
31	35680.0	21618.0	0.8563	3169.0	1.0
29	28009.0	19737.0	0.9063	2715.0	1.0
10	26555.0	19597.0	0.9062	3731.0	1.0
34	25593.0	17884.0	0.9375	2227.0	1.0
7	27033.0	19535.0	0.925	2805.0	1.0
28	21812.0	18417.0	0.925	2851.0	1.0
22	24670.0	18600.0	0.925	1788.0	1.0
2	27370.0	19618.0	0.9125	2861.0	1.0
5	26836.0	19344.0	0.9312	2034.0	1.0
38	30448.0	21271.0	0.925	2988.0	1.0
17	26656.0	16893.0	0.8875	3063.0	1.0
11	28125.0	19866.0	0.9	2792.0	1.0
28	29917.0	21473.0	0.9125	2604.0	1.0
16	30254.0	19811.0	0.875	2402.0	1.0
30	30114.0	18913.0	0.8937	2472.0	1.0
32	29942.0	19377.0	0.9187	2444.0	1.0
13	29149.0	19292.0	0.8937	2434.0	1.0
33	22394.0	16969.0	0.9062	2984.0	1.0
12	27090.0	20085.0	0.95	2136.0	1.0
27	34084.0	24302.0	0.9063	2617.0	1.0
24	25604.0	17044.0	0.8875	2841.0	1.0
22	34449.0	20853.0	0.8625	3472.0	1.0
29	29828.0	21322.0	0.9	2650.0	1.0
26	33113.0	21826.0	0.875	2666.0	1.0
19	29973.0	18604.0	0.9	2399.0	1.0
22	27745.0	17770.0	0.8938	2284.0	1.0
0	27629.0	19267.0	0.8938	2990.0	1.0
38	32683.0	22122.0	0.9187	2961.0	1.0
29	23514.0	20154.0	0.9563	2916.0	1.0
24	36093.0	20174.0	0.85	3954.0	1.0
36	25547.0	21697.0	0.95	2528.0	1.0
12	29133.0	20003.0	0.9062	3294.0	1.0
35	37777.0	21578.0	0.8625	2434.0	1.0
8	33351.0	22549.0	0.875	4239.0	1.0
3	26032.0	18378.0	0.9125	2364.0	1.0
0	26164.0	19692.0	0.8813	2442.0	1.0
19	31988.0	20552.0	0.8875	3082.0	1.0
28	28106.0	18793.0	0.9063	2670.0	1.0
19	32128.0	22610.0	0.9063	3384.0	1.0
33	36265.0	23838.0	0.8625	3369.0	1.0
18	33565.0	19946.0	0.8563	2952.0	1.0
22	25234.0	21163.0	0.9313	3157.0	1.0
38	35962.0	25393.0	0.875	3735.0	1.0
5	25315.0	18180.0	0.8875	2775.0	1.0
32	28290.0	20925.0	0.9063	2191.0	1.0
14	25665.0	19113.0	0.9	3174.0	1.0
13	29242.0	17336.0	0.8688	2709.0	1.0
35	35843.0	25210.0	0.8813	4452.0	1.0
13	25543.0	15244.0	0.8687	2459.0	1.0
36	28936.0	19861.0	0.9	2439.0	1.0
5	31934.0	25260.0	0.925	3523.0	1.0
39	27124.0	18997.0	0.9313	2562.0	1.0
27	24835.0	18603.0	0.925	2278.0	1.0
35	29755.0	20184.0	0.8875	2772.0	1.0
30	25710.0	19932.0	0.9375	2757.0	1.0
28	30108.0	20980.0	0.9125	2650.0	1.0
1	29804.0	21874.0	0.925	2558.0	1.0
12	25872.0	21516.0	0.9375	2545.0	1.0
8	34800.0	20858.0	0.875	2563.0	1.0
38	24213.0	18454.0	0.9313	2595.0	1.0
28	24624.0	19922.0	0.9375	2535.0	1.0
18	33892.0	21350.0	0.8812	3161.0	1.0
6	28567.0	19680.0	0.875	2133.0	1.0
21	36444.0	23839.0	0.8812	3416.0	1.0
12	40151.0	25736.0	0.875	2563.0	1.0
