Generation 699:
0111010222111200011012
1110102221112000110122
1101022211120001101221
1010222111200011012211
0102221112000110122110
1022211120001101221102
0222111200011012211022
2221112000110122110221
2211120001101221102211
2111200011012211022111
1112000110122110221112
1120001101221102211122
1200011012211022111221
2000110122110221112211
0001101221102211122110
0011012211022111221101
0110122110221112211012
1101221102211122110120
1012211022111221101200
0122110221112211012000
1221102211122110120002
2211022111221101200022
201221220102201121212
012212201022011212121
122122010220112121211
221220102201121212111
212201022011212121111
122010220112121211110
220102201121212111101
201022011212121111011
010220112121211110110
102201121212111101102
022011212121111011022
220112121211110110222
201121212111101102222
011212121111011022222
112121211110110222220
121212111101102222201
212121111011022222011
121211110110222220112
212111101102222201122
121111011022222011220
211110110222220112200
111101102222201122000

1211010221112200011021
2110102211122000110212
1101022111220001102122
1010221112200011021220
0102211122000110212200
1022111220001102122002
0221112200011021220022
2211122000110212200221
2111220001102122002211
1112200011021220022111
1122000110212200221112
1220001102122002211122
2200011021220022111221
2000110212200221112211
0001102122002211122110
0011021220022111221102
0110212200221112211022
1102122002211122110220
1021220022111221102200
0212200221112211022000
2122002211122110220001
1220022111221102200010
101221222102202122202
012212221022021222021
122122210220212220211
221222102202122202111
212221022021222021110
122210220212220211100
222102202122202111001
221022021222021110011
210220212220211100110
102202122202111001101
022021222021110011012
220212220211100110122
202122202111001101222
021222021110011012222
212220211100110122220
122202111001101222201
222021110011012222011
220211100110122220112
202111001101222201122
021110011012222011222
211100110122220112222
111001101222201122220

0111200222122211211222
1112002221222112112222
1120022212221121122221
1200222122211211222211
2002221222112112222111
0022212221121122221112
0222122211211222211122
2221222112112222111220
2212221121122221112201
2122211211222211122010
1222112112222111220100
2221121122221112201001
2211211222211122010012
2112112222111220100122
1121122221112201001222
1211222211122010012221
2112222111220100122210
1122221112201001222102
1222211122010012221020
2222111220100122210200
2221112201001222102002
2211122010012221020020
110212220020011002220
102122200200110022201
021222002001100222010
212220020011002220101
122200200110022201011
222002001100222010110
220020011002220101101
200200110022201011011
002001100222010110112
020011002220101101121
200110022201011011212
001100222010110112122
011002220101101121222
110022201011011212221
100222010110112122212
002220101101121222121
022201011011212221211
222010110112122212112
220101101121222121122
201011011212221211222
010110112122212112220
101101121222121122202

1111010221222200011212
1110102212222000112122
1101022122220001121222
1010221222200011212222
0102212222000112122220
1022122220001121222200
0221222200011212222002
2212222000112122220021
2122220001121222200211
1222200011212222002110
2222000112122220021100
2220001121222200211002
2200011212222002110021
2000112122220021100211
0001121222200211002110
0011212222002110021101
0112122220021100211012
1121222200211002110120
1212222002110021101200
2122220021100211012000
1222200211002110120002
2222002110021101200020
201222222102201122222
012222221022011222221
122222210220112222211
222222102201122222111
222221022011222221111
222210220112222211110
222102201122222111101
221022011222221111011
210220112222211110110
102201122222111101101
022011222221111011012
220112222211110110122
201122222111101101222
011222221111011012222
112222211110110122220
122222111101101222201
222221111011012222011
222211110110122220112
222111101101222201122
221111011012222011222
211110110122220112220
111101101222201122200

1111010122222200221212
1110101222222002212122
1101012222220022121222
1010122222200221212221
0101222222002212122210
1012222220022121222100
0122222200221212221002
1222222002212122210021
2222220022121222100211
2222200221212221002110
2222002212122210021100
2220022121222100211002
2200221212221002110021
2002212122210021100211
0022121222100211002110
0221212221002110021101
2212122210021100211012
2121222100211002110120
1212221002110021101200
2122210021100211012000
1222100211002110120002
2221002110021101200020
201212220102201122222
012122201022011222221
121222010220112222211
212220102201122222111
122201022011222221111
222010220112222211110
220102201122222111101
201022011222221111011
010220112222211110112
102201122222111101121
022011222221111011212
220112222211110112120
201122222111101121202
011222221111011212022
112222211110112120220
122222111101121202201
222221111011212022011
222211110112120220112
222111101121202201122
221111011212022011220
211110112120220112200
111101121202201122000

1110010222211200011011
1100102222112000110112
1001022221120001101122
0010222211200011011221
0102222112000110112210
1022221120001101122100
0222211200011011221002
2222112000110112210021
2221120001101122100211
2211200011011221002110
2112000110112210021100
1120001101122100211002
1200011011221002110021
2000110112210021100211
0001101122100211002110
0011011221002110021101
0110112210021100211012
1101122100211002110120
1011221002110021101200
0112210021100211012000
1122100211002110120002
1221002110021101200020
101122222102202022222
011222221022020222221
112222210220202222211
122222102202022222111
222221022020222221111
222210220202222211110
222102202022222111101
221022020222221111011
210220202222211110110
102202022222111101102
022020222221111011020
220202222211110110202
202022222111101102022
020222221111011020222
202222211110110202220
022222111101102022201
222221111011020222011
222211110110202220112
222111101102022201122
221111011020222011222
211110110202220112222
111101102022201122220

1110010122221210211212
1100101222212102112122
1001012222121021121222
0010122221210211212221
0101222212102112122210
1012222121021121222100
0122221210211212221002
1222212102112122210021
2222121021121222100211
2221210211212221002111
2212102112122210021110
2121021121222100211102
1210211212221002111021
2102112122210021110211
1021121222100211102110
0211212221002111021101
2112122210021110211012
1121222100211102110120
1212221002111021101200
2122210021110211012000
1222100211102110120002
2221002111021101200020
101222222102202122222
012222221022021222221
122222210220212222211
222222102202122222111
222221022021222221111
222210220212222211111
222102202122222111111
221022021222221111111
210220212222211111112
102202122222111111121
022021222221111111212
220212222211111112122
202122222111111121222
021222221111111212222
212222211111112122220
122222111111121222201
222221111111212222011
222211111112122220112
222111111121222201122
221111111212222011222
211111112122220112220
111111121222201122200

1111010221211200011022
1110102212112000110222
1101022121120001102222
1010221211200011022220
0102212112000110222200
1022121120001102222000
0221211200011022220002
2212112000110222200021
2121120001102222000211
1211200011022220002111
2112000110222200021110
1120001102222000211102
1200011022220002111021
2000110222200021110211
0001102222000211102110
0011022220002111021101
0110222200021110211012
1102222000211102110120
1022220002111021101200
0222200021110211012000
2222000211102110120002
2220002111021101200020
201221222102202020122
012212221022020201221
122122210220202012211
221222102202020122111
212221022020201221111
122210220202012211110
222102202020122111101
221022020201221111011
210220202012211110110
102202020122111101101
022020201221111011012
220202012211110110122
202020122111101101222
020201221111011012222
202012211110110122220
020122111101101222201
201221111011012222011
012211110110122220112
122111101101222201122
221111011012222011222
211110110122220112222
111101101222201122220

1211010201112200011011
2110102011122000110112
1101020111220001101122
1010201112200011011220
0102011122000110112200
1020111220001101122002
0201112200011011220022
2011122000110112200221
0111220001101122002211
1112200011011220022110
1122000110112200221102
1220001101122002211022
2200011011220022110221
2000110112200221102211
0001101122002211022110
0011011220022110221102
0110112200221102211022
1101122002211022110220
1011220022110221102200
0112200221102211022000
1122002211022110220001
1220022110221102200012
201221220102202122102
012212201022021221021
122122010220212210211
221220102202122102111
212201022021221021110
122010220212210211100
220102202122102111001
201022021221021110011
010220212210211100110
102202122102111001101
022021221021110011012
220212210211100110122
202122102111001101222
021221021110011012222
212210211100110122220
122102111001101222201
221021110011012222011
210211100110122220112
102111001101222201122
021110011012222011220
211100110122220112200
111001101222201122000

1111010122222200211212
1110101222222002112122
1101012222220021121222
1010122222200211212221
0101222222002112122210
1012222220021121222100
0122222200211212221002
1222222002112122210021
2222220021121222100211
2222200211212221002110
2222002112122210021100
2220021121222100211002
2200211212221002110021
2002112122210021100211
0021121222100211002110
0211212221002110021101
2112122210021100211012
1121222100211002110120
1212221002110021101200
2122210021100211012000
1222100211002110120002
2221002110021101200020
201222222102201120222
012222221022011202221
122222210220112022211
222222102201120222111
222221022011202221111
222210220112022211110
222102201120222111101
221022011202221111011
210220112022211110111
102201120222111101111
022011202221111011112
220112022211110111122
201120222111101111222
011202221111011112222
112022211110111122220
120222111101111222201
202221111011112222011
022211110111122220112
222111101111222201122
221111011112222011222
211110111122220112220
111101111222201122200

0011100122122211222222
0111001221222112222220
1110012212221122222201
1100122122211222222011
1001221222112222220111
0012212221122222201110
0122122211222222011102
1221222112222220111020
2212221122222201110202
2122211222222011102020
1222112222220111020200
2221122222201110202001
2211222222011102020012
2112222220111020200122
1122222201110202001222
1222222011102020012221
2222220111020200122210
2222201110202001222102
2222011102020012221020
2220111020200122210200
2201110202001222102002
2011102020012221020020
110212220020021002220
102122200200210022202
021222002002100222020
212220020021002220201
122200200210022202011
222002002100222020111
220020021002220201111
200200210022202011111
002002100222020111112
020021002220201111121
200210022202011111212
002100222020111112120
021002220201111121202
210022202011111212021
100222020111112120212
002220201111121202121
022202011111212021211
222020111112120212112
220201111121202121120
202011111212021211202
020111112120212112022
201111121202121120222

1110010222121200011012
1100102221212000110122
1001022212120001101221
0010222121200011012211
0102221212000110122110
1022212120001101221102
0222121200011012211022
2221212000110122110221
2212120001101221102211
2121200011012211022111
1212000110122110221112
2120001101221102211121
1200011012211022111211
2000110122110221112111
0001101221102211121110
0011012211022111211101
0110122110221112111012
1101221102211121110120
1012211022111211101200
0122110221112111012000
1221102211121110120002
2211022111211101200022
201222220102202121222
012222201022021212221
122222010220212122211
222220102202121222111
222201022021212221111
222010220212122211110
220102202121222111101
201022021212221111011
010220212122211110110
102202121222111101102
022021212221111011020
220212122211110110202
202121222111101102022
021212221111011020222
212122211110110202220
121222111101102022201
212221111011020222011
122211110110202220112
222111101102022201122
221111011020222011220
211110110202220112200
111101102022201122000

1110010122211200011011
1100101222112000110112
1001012221120001101122
0010122211200011011221
0101222112000110112210
1012221120001101122100
0122211200011011221002
1222112000110112210021
2221120001101122100211
2211200011011221002111
2112000110112210021110
1120001101122100211102
1200011011221002111021
2000110112210021110211
0001101122100211102110
0011011221002111021101
0110112210021110211012
1101122100211102110120
1011221002111021101200
0112210021110211012000
1122100211102110120002
1221002111021101200020
201122220102202122222
011222201022021222221
112222010220212222211
122220102202122222111
222201022021222221111
222010220212222211110
220102202122222111101
201022021222221111011
010220212222211110110
102202122222111101102
022021222221111011022
220212222211110110222
202122222111101102222
021222221111011022222
212222211110110222220
122222111101102222201
222221111011022222011
222211110110222220112
222111101102222201122
221111011022222011222
211110110222220112220
111101102222201122200

1111010122222200011212
1110101222222000112122
1101012222220001121222
1010122222200011212221
0101222222000112122210
1012222220001121222100
0122222200011212221002
1222222000112122210021
2222220001121222100211
2222200011212221002110
2222000112122210021100
2220001121222100211002
2200011212221002110021
2000112122210021100211
0001121222100211002110
0011212221002110021101
0112122210021100211012
1121222100211002110120
1212221002110021101200
2122210021100211012000
1222100211002110120002
2221002110021101200020
201222222102202120220
012222221022021202201
122222210220212022011
222222102202120220111
222221022021202201111
222210220212022011110
222102202120220111101
221022021202201111011
210220212022011110111
102202120220111101111
022021202201111011112
220212022011110111122
202120220111101111222
021202201111011112222
212022011110111122220
120220111101111222201
202201111011112222011
022011110111122220111
220111101111222201112
201111011112222011122
011110111122220111220
111101111222201112200

1120010201221200011011
1200102012212000110112
2001020122120001101122
0010201221200011011220
0102012212000110112200
1020122120001101122000
0201221200011011220002
2012212000110112200021
0122120001101122000211
1221200011011220002111
2212000110112200021112
2120001101122000211121
1200011011220002111211
2000110112200021112111
0001101122000211121110
0011011220002111211102
0110112200021112111022
1101122000211121110220
1011220002111211102200
0112200021112111022000
1122000211121110220001
1220002111211102200012
221122220102202122122
211222201022021221221
112222010220212212211
122220102202122122111
222201022021221221110
222010220212212211100
220102202122122111001
201022021221221110011
010220212212211100110
102202122122111001102
022021221221110011020
220212212211100110202
202122122111001102022
021221221110011020222
212212211100110202220
122122111001102022201
221221110011020222011
212211100110202220112
122111001102022201122
221110011020222011220
211100110202220112200
111001102022201122000

1111010201222200011212
1110102012222000112122
1101020122220001121222
1010201222200011212222
0102012222000112122220
1020122220001121222200
0201222200011212222002
2012222000112122220021
0122220001121222200211
1222200011212222002110
2222000112122220021100
2220001121222200211002
2200011212222002110021
2000112122220021100211
0001121222200211002110
0011212222002110021101
0112122220021100211012
1121222200211002110120
1212222002110021101200
2122220021100211012000
1222200211002110120002
2222002110021101200022
201222220102202120122
012222201022021201221
122222010220212012211
222220102202120122111
222201022021201221111
222010220212012211110
220102202120122111101
201022021201221111011
010220212012211110111
102202120122111101111
022021201221111011112
220212012211110111122
202120122111101111222
021201221111011112222
212012211110111122220
120122111101111222201
201221111011112222011
012211110111122220112
122111101111222201122
221111011112222011220
211110111122220112200
111101111222201122000

0011010122122200022212
0110101221222000222120
1101012212220002221201
1010122122200022212011
0101221222000222120110
1012212220002221201100
0122122200022212011002
1221222000222120110021
2212220002221201100212
2122200022212011002120
1222000222120110021200
2220002221201100212001
2200022212011002120011
2000222120110021200111
0002221201100212001110
0022212011002120011101
0222120110021200111012
2221201100212001110120
2212011002120011101200
2120110021200111012000
1201100212001110120002
2011002120011101200020
121222220102211021222
212222201022110212222
122222010221102122221
222220102211021222211
222201022110212222111
222010221102122221111
220102211021222211111
201022110212222111111
010221102122221111110
102211021222211111101
022110212222111111012
221102122221111110120
211021222211111101202
110212222111111012022
102122221111110120220
021222211111101202201
212222111111012022011
122221111110120220112
222211111101202201120
222111111012022011202
221111110120220112022
211111101202201120220

1111010222222200011222
1110102222222000112222
1101022222220001122222
1010222222200011222221
0102222222000112222210
1022222220001122222100
0222222200011222221002
2222222000112222210021
2222220001122222100211
2222200011222221002110
2222000112222210021100
2220001122222100211002
2200011222221002110021
2000112222210021100211
0001122222100211002110
0011222221002110021101
0112222210021100211012
1122222100211002110120
1222221002110021101200
2222210021100211012000
2222100211002110120002
2221002110021101200020
101221220102202120222
012212201022021202221
122122010220212022211
221220102202120222111
212201022021202221111
122010220212022211110
220102202120222111101
201022021202221111011
010220212022211110111
102202120222111101111
022021202221111011112
220212022211110111122
202120222111101111222
021202221111011112222
212022211110111122220
120222111101111222201
202221111011112222011
022211110111122220112
222111101111222201122
221111011112222011222
211110111122220112222
111101111222201122220

1111010122222210221012
1110101222222102210122
1101012222221022101222
1010122222210221012221
0101222222102210122210
1012222221022101222100
0122222210221012221002
1222222102210122210021
2222221022101222100211
2222210221012221002110
2222102210122210021102
2221022101222100211022
2210221012221002110221
2102210122210021102211
1022101222100211022110
0221012221002110221101
2210122210021102211012
2101222100211022110120
1012221002110221101200
0122210021102211012000
1222100211022110120002
2221002110221101200020
201212220102201122222
012122201022011222221
121222010220112222210
212220102201122222101
122201022011222221011
222010220112222210111
220102201122222101111
201022011222221011111
010220112222210111112
102201122222101111121
022011222221011111212
220112222210111112120
201122222101111121202
011222221011111212022
112222210111112120220
122222101111121202201
222221011111212022011
222210111112120220112
222101111121202201122
221011111212022011222
210111112120220112220
101111121202201122200

1111010222222200011212
1110102222222000112122
1101022222220001121222
1010222222200011212221
0102222222000112122210
1022222220001121222100
0222222200011212221002
2222222000112122210021
2222220001121222100211
2222200011212221002110
2222000112122210021100
2220001121222100211002
2200011212221002110021
2000112122210021100211
0001121222100211002110
0011212221002110021101
0112122210021100211012
1121222100211002110120
1212221002110021101200
2122210021100211012000
1222100211002110120002
2221002110021101200020
201222220102202122222
012222201022021222221
122222010220212222211
222220102202122222111
222201022021222221111
222010220212222211110
220102202122222111101
201022021222221111011
010220212222211110110
102202122222111101101
022021222221111011012
220212222211110110122
202122222111101101222
021222221111011012222
212222211110110122220
122222111101101222201
222221111011012222011
222211110110122220112
222111101101222201122
221111011012222011222
211110110122220112220
111101101222201122200

1111010122212200011222
1110101222122000112222
1101012221220001122222
1010122212200011222221
0101222122000112222210
1012221220001122222100
0122212200011222221002
1222122000112222210021
2221220001122222100211
2212200011222221002111
2122000112222210021110
1220001122222100211102
2200011222221002111021
2000112222210021110211
0001122222100211102110
0011222221002111021101
0112222210021110211012
1122222100211102110120
1222221002111021101200
2222210021110211012000
2222100211102110120002
2221002111021101200020
201222220102202120222
012222201022021202222
122222010220212022221
222220102202120222211
222201022021202222111
222010220212022221110
220102202120222211101
201022021202222111011
010220212022221110110
102202120222211101101
022021202222111011012
220212022221110110122
202120222211101101222
021202222111011012222
212022221110110122220
120222211101101222201
202222111011012222011
022221110110122220112
222211101101222201122
222111011012222011222
221110110122220112220
211101101222201122200

1121010221222200011222
1210102212222000112222
2101022122220001122222
1010221222200011222222
0102212222000112222220
1022122220001122222200
0221222200011222222002
2212222000112222220021
2122220001122222200211
1222200011222222002111
2222000112222220021110
2220001122222200211102
2200011222222002111021
2000112222220021110211
0001122222200211102110
0011222222002111021101
0112222220021110211012
1122222200211102110120
1222222002111021101200
2222220021110211012000
2222200211102110120002
2222002111021101200020
201222220102202120222
012222201022021202221
122222010220212022210
222220102202120222101
222201022021202221011
222010220212022210110
220102202120222101101
201022021202221011011
010220212022210110111
102202120222101101111
022021202221011011112
220212022210110111120
202120222101101111202
021202221011011112022
212022210110111120220
120222101101111202201
202221011011112022011
022210110111120220112
222101101111202201122
221011011112022011222
210110111120220112222
101101111202201122220

1120010102212200011211
1200101022122000112112
2001010221220001121122
0010102212200011211221
0101022122000112112210
1010221220001121122100
0102212200011211221002
1022122000112112210021
0221220001121122100211
2212200011211221002111
2122000112112210021112
1220001121122100211122
2200011211221002111221
2000112112210021112211
0001121122100211122110
0011211221002111221102
0112112210021112211022
1121122100211122110220
1211221002111221102200
2112210021112211022000
1122100211122110220001
1221002111221102200012
101122220102202122202
011222201022021222022
112222010220212220221
122220102202122202211
222201022021222022110
222010220212220221100
220102202122202211001
201022021222022110011
010220212220221100110
102202122202211001102
022021222022110011020
220212220221100110202
202122202211001102022
021222022110011020222
212220221100110202220
122202211001102022201
222022110011020222011
220221100110202220112
202211001102022201122
022110011020222011220
221100110202220112200
211001102022201122000

1111010122222210021212
1110101222222100212122
1101012222221002121222
1010122222210021212221
0101222222100212122210
1012222221002121222100
0122222210021212221002
1222222100212122210021
2222221002121222100211
2222210021212221002110
2222100212122210021100
2221002121222100211002
2210021212221002110021
2100212122210021100211
1002121222100211002110
0021212221002110021101
0212122210021100211012
2121222100211002110120
1212221002110021101200
2122210021100211012000
1222100211002110120002
2221002110021101200020
201212220102202122220
012122201022021222201
121222010220212222011
212220102202122220111
122201022021222201111
222010220212222011111
220102202122220111111
201022021222201111111
010220212222011111111
102202122220111111111
022021222201111111112
220212222011111111120
202122220111111111202
021222201111111112022
212222011111111120220
122220111111111202201
222201111111112022011
222011111111120220111
220111111111202201112
201111111112022011122
011111111120220111220
111111111202201112200

0111010221211200011211
1110102212112000112112
1101022121120001121122
1010221211200011211220
0102212112000112112200
1022121120001121122000
0221211200011211220002
2212112000112112200021
2121120001121122000211
1211200011211220002110
2112000112112200021102
1120001121122000211022
1200011211220002110221
2000112112200021102211
0001121122000211022110
0011211220002110221101
0112112200021102211012
1121122000211022110120
1211220002110221101200
2112200021102211012000
1122000211022110120001
1220002110221101200010
221121220102201122102
211212201022011221021
112122010220112210211
121220102201122102111
212201022011221021110
122010220112210211100
220102201122102111001
201022011221021110011
010220112210211100110
102201122102111001102
022011221021110011022
220112210211100110222
201122102111001102222
011221021110011022222
112210211100110222220
122102111001102222201
221021110011022222011
210211100110222220112
102111001102222201122
021110011022222011220
211100110222220112200
111001102222201122000

1111010221222200011222
1110102212222000112222
1101022122220001122222
1010221222200011222222
0102212222000112222220
1022122220001122222200
0221222200011222222002
2212222000112222220021
2122220001122222200211
1222200011222222002110
2222000112222220021100
2220001122222200211002
2200011222222002110021
2000112222220021100211
0001122222200211002110
0011222222002110021101
0112222220021100211012
1122222200211002110120
1222222002110021101200
2222220021100211012000
2222200211002110120002
2222002110021101200020
201221222102202120222
012212221022021202220
122122210220212022201
221222102202120222011
212221022021202220111
122210220212022201110
222102202120222011101
221022021202220111011
210220212022201110111
102202120222011101111
022021202220111011110
220212022201110111102
202120222011101111022
021202220111011110222
212022201110111102220
120222011101111022201
202220111011110222011
022201110111102220112
222011101111022201122
220111011110222011222
201110111102220112222
011101111022201122220

1111010222112210211211
1110102221122102112112
1101022211221021121122
1010222112210211211220
0102221122102112112200
1022211221021121122000
0222112210211211220002
2221122102112112200021
2211221021121122000211
2112210211211220002110
1122102112112200021102
1221021121122000211022
2210211211220002110221
2102112112200021102211
1021121122000211022110
0211211220002110221101
2112112200021102211012
1121122000211022110120
1211220002110221101200
2112200021102211012000
1122000211022110120002
1220002110221101200020
201211220102201122222
012112201022011222221
121122010220112222211
211220102201122222111
112201022011222221110
122010220112222211101
220102201122222111011
201022011222221110111
010220112222211101112
102201122222111011121
022011222221110111212
220112222211101112120
201122222111011121202
011222221110111212022
112222211101112120220
122222111011121202201
222221110111212022011
222211101112120220112
222111011121202201122
221110111212022011222
211101112120220112220
111011121202201122200

1111010222222200011222
1110102222222000112222
1101022222220001122222
1010222222200011222222
0102222222000112222220
1022222220001122222200
0222222200011222222002
2222222000112222220021
2222220001122222200211
2222200011222222002110
2222000112222220021100
2220001122222200211002
2200011222222002110021
2000112222220021100211
0001122222200211002110
0011222222002110021101
0112222220021100211012
1122222200211002110120
1222222002110021101200
2222220021100211012000
2222200211002110120002
2222002110021101200020
101222222102202120222
012222221022021202221
122222210220212022211
222222102202120222111
222221022021202221111
222210220212022211110
222102202120222111101
221022021202221111011
210220212022211110110
102202120222111101101
022021202221111011012
220212022211110110122
202120222111101101222
021202221111011012222
212022211110110122220
120222111101101222201
202221111011012222011
022211110110122220112
222111101101222201122
221111011012222011222
211110110122220112222
111101101222201122220

1111010222222200021212
1110102222222000212122
1101022222220002121222
1010222222200021212221
0102222222000212122210
1022222220002121222100
0222222200021212221002
2222222000212122210021
2222220002121222100211
2222200021212221002110
2222000212122210021100
2220002121222100211002
2200021212221002110021
2000212122210021100211
0002121222100211002110
0021212221002110021101
0212122210021100211012
2121222100211002110120
1212221002110021101200
2122210021100211012000
1222100211002110120002
2221002110021101200020
201212220102201122222
012122201022011222221
121222010220112222210
212220102201122222101
122201022011222221011
222010220112222210111
220102201122222101111
201022011222221011111
010220112222210111112
102201122222101111121
022011222221011111212
220112222210111112122
201122222101111121222
011222221011111212222
112222210111112122220
122222101111121222201
222221011111212222011
222210111112122220112
222101111121222201122
221011111212222011222
210111112122220112220
101111121222201122200

1111010122222210221212
1110101222222102212122
1101012222221022121222
1010122222210221212221
0101222222102212122210
1012222221022121222100
0122222210221212221002
1222222102212122210021
2222221022121222100211
2222210221212221002110
2222102212122210021100
2221022121222100211002
2210221212221002110021
2102212122210021100211
1022121222100211002110
0221212221002110021101
2212122210021100211012
2121222100211002110120
1212221002110021101200
2122210021100211012000
1222100211002110120002
2221002110021101200020
201212220102202122222
012122201022021222221
121222010220212222211
212220102202122222111
122201022021222221111
222010220212222211111
220102202122222111111
201022021222221111111
010220212222211111111
102202122222111111111
022021222221111111112
220212222211111111120
202122222111111111202
021222221111111112022
212222211111111120220
122222111111111202201
222221111111112022011
222211111111120220112
222111111111202201122
221111111112022011222
211111111120220112220
111111111202201122200

1110010222222200011011
1100102222222000110112
1001022222220001101122
0010222222200011011221
0102222222000110112210
1022222220001101122100
0222222200011011221002
2222222000110112210021
2222220001101122100211
2222200011011221002110
2222000110112210021100
2220001101122100211002
2200011011221002110021
2000110112210021100211
0001101122100211002110
0011011221002110021101
0110112210021100211012
1101122100211002110120
1011221002110021101200
0112210021100211012000
1122100211002110120002
1221002110021101200020
201122220102202122222
011222201022021222221
112222010220212222211
122220102202122222111
222201022021222221111
222010220212222211110
220102202122222111101
201022021222221111011
010220212222211110110
102202122222111101102
022021222221111011020
220212222211110110202
202122222111101102022
021222221111011020222
212222211110110202220
122222111101102022201
222221111011020222011
222211110110202220112
222111101102022201122
221111011020222011222
211110110202220112220
111101102022201122200

1111010122122200011222
1110101221222000112222
1101012212220001122221
1010122122200011222211
0101221222000112222110
1012212220001122221102
0122122200011222211022
1221222000112222110221
2212220001122221102211
2122200011222211022111
1222000112222110221110
2220001122221102211101
2200011222211022111011
2000112222110221110111
0001122221102211101110
0011222211022111011101
0112222110221110111012
1122221102211101110120
1222211022111011101200
2222110221110111012000
2221102211101110120002
2211022111011101200020
101222220102201021222
012222201022010212221
122222010220102122211
222220102201021222111
222201022010212221111
222010220102122211110
220102201021222111101
201022010212221111011
010220102122211110110
102201021222111101101
022010212221111011012
220102122211110110122
201021222111101101222
010212221111011012222
102122211110110122220
021222111101101222201
212221111011012222011
122211110110122220112
222111101101222201122
221111011012222011222
211110110122220112220
111101101222201122200

1211010101222200021012
2110101012222000210122
1101010122220002101222
1010101222200021012221
0101012222000210122210
1010122220002101222102
0101222200021012221022
1012222000210122210221
0122220002101222102211
1222200021012221022110
2222000210122210221100
2220002101222102211002
2200021012221022110021
2000210122210221100211
0002101222102211002110
0021012221022110021102
0210122210221100211022
2101222102211002110220
1012221022110021102200
0122210221100211022000
1222102211002110220001
2221022110021102200012
201222220102202122102
012222201022021221021
122222010220212210210
222220102202122102101
222201022021221021011
222010220212210210110
220102202122102101101
201022021221021011011
010220212210210110110
102202122102101101101
022021221021011011012
220212210210110110122
202122102101101101222
021221021011011012222
212210210110110122220
122102101101101222201
221021011011012222011
210210110110122220112
102101101101222201122
021011011012222011220
210110110122220112200
101101101222201122000

1111010221222200011212
1110102212222000112122
1101022122220001121222
1010221222200011212221
0102212222000112122210
1022122220001121222100
0221222200011212221002
2212222000112122210021
2122220001121222100211
1222200011212221002111
2222000112122210021110
2220001121222100211102
2200011212221002111021
2000112122210021110211
0001121222100211102110
0011212221002111021101
0112122210021110211012
1121222100211102110120
1212221002111021101200
2122210021110211012000
1222100211102110120002
2221002111021101200020
201222220102202122222
012222201022021222221
122222010220212222211
222220102202122222111
222201022021222221111
222010220212222211110
220102202122222111101
201022021222221111011
010220212222211110111
102202122222111101111
022021222221111011112
220212222211110111122
202122222111101111222
021222221111011112222
212222211110111122220
122222111101111222201
222221111011112222011
222211110111122220112
222111101111222201122
221111011112222011222
211110111122220112220
111101111222201122200

1111010122222210211212
1110101222222102112122
1101012222221021121222
1010122222210211212221
0101222222102112122210
1012222221021121222100
0122222210211212221002
1222222102112122210021
2222221021121222100211
2222210211212221002110
2222102112122210021100
2221021121222100211002
2210211212221002110021
2102112122210021100211
1021121222100211002110
0211212221002110021101
2112122210021100211012
1121222100211002110120
1212221002110021101200
2122210021100211012000
1222100211002110120002
2221002110021101200020
201222220102202122222
012222201022021222221
122222010220212222211
222220102202122222111
222201022021222221111
222010220212222211110
220102202122222111101
201022021222221111011
010220212222211110110
102202122222111101101
022021222221111011012
220212222211110110120
202122222111101101202
021222221111011012022
212222211110110120220
122222111101101202201
222221111011012022011
222211110110120220112
222111101101202201122
221111011012022011222
211110110120220112220
111101101202201122200

1111010122222200011212
1110101222222000112122
1101012222220001121222
1010122222200011212221
0101222222000112122210
1012222220001121222100
0122222200011212221002
1222222000112122210021
2222220001121222100211
2222200011212221002110
2222000112122210021100
2220001121222100211002
2200011212221002110021
2000112122210021100211
0001121222100211002110
0011212221002110021101
0112122210021100211012
1121222100211002110120
1212221002110021101200
2122210021100211012000
1222100211002110120002
2221002110021101200020
201222222102202020220
012222221022020202201
122222210220202022011
222222102202020220111
222221022020202201111
222210220202022011110
222102202020220111101
221022020202201111011
210220202022011110111
102202020220111101111
022020202201111011112
220202022011110111122
202020220111101111222
020202201111011112222
202022011110111122220
020220111101111222201
202201111011112222011
022011110111122220111
220111101111222201112
201111011112222011122
011110111122220111220
111101111222201112200

1111010121222200011222
1110101212222000112222
1101012122220001122222
1010121222200011222222
0101212222000112222220
1012122220001122222200
0121222200011222222002
1212222000112222220021
2122220001122222200211
1222200011222222002111
2222000112222220021110
2220001122222200211102
2200011222222002111021
2000112222220021110211
0001122222200211102110
0011222222002111021101
0112222220021110211012
1122222200211102110120
1222222002111021101200
2222220021110211012000
2222200211102110120002
2222002111021101200020
201221222102201120222
012212221022011202221
122122210220112022211
221222102201120222111
212221022011202221111
122210220112022211110
222102201120222111101
221022011202221111011
210220112022211110111
102201120222111101111
022011202221111011112
220112022211110111122
201120222111101111222
011202221111011112222
112022211110111122220
120222111101111222201
202221111011112222011
022211110111122220112
222111101111222201122
221111011112222011222
211110111122220112222
111101111222201122220

1111010222211200011212
1110102222112000112122
1101022221120001121222
1010222211200011212221
0102222112000112122210
1022221120001121222100
0222211200011212221002
2222112000112122210021
2221120001121222100211
2211200011212221002110
2112000112122210021100
1120001121222100211002
1200011212221002110021
2000112122210021100211
0001121222100211002110
0011212221002110021101
0112122210021100211012
1121222100211002110120
1212221002110021101200
2122210021100211012000
1222100211002110120002
2221002110021101200020
101222220102201122222
012222201022011222221
122222010220112222211
222220102201122222111
222201022011222221111
222010220112222211110
220102201122222111101
201022011222221111011
010220112222211110110
102201122222111101101
022011222221111011012
220112222211110110122
201122222111101101222
011222221111011012222
112222211110110122220
122222111101101222201
222221111011012222011
222211110110122220112
222111101101222201122
221111011012222011222
211110110122220112220
111101101222201122200

0111010222212200011212
1110102222122000112122
1101022221220001121222
1010222212200011212221
0102222122000112122210
1022221220001121222100
0222212200011212221002
2222122000112122210021
2221220001121222100211
2212200011212221002110
2122000112122210021100
1220001121222100211002
2200011212221002110021
2000112122210021100211
0001121222100211002110
0011212221002110021101
0112122210021100211012
1121222100211002110120
1212221002110021101200
2122210021100211012000
1222100211002110120002
2221002110021101200020
121222222102202020222
212222221022020202222
122222210220202022221
222222102202020222211
222221022020202222111
222210220202022221110
222102202020222211101
221022020202222111011
210220202022221110110
102202020222211101101
022020202222111011012
220202022221110110122
202020222211101101222
020202222111011012222
202022221110110122220
020222211101101222201
202222111011012222011
022221110110122220112
222211101101222201122
222111011012222011222
221110110122220112222
211101101222201122220

1111010222222200011212
1110102222222000112122
1101022222220001121222
1010222222200011212221
0102222222000112122210
1022222220001121222100
0222222200011212221002
2222222000112122210021
2222220001121222100211
2222200011212221002110
2222000112122210021100
2220001121222100211002
2200011212221002110021
2000112122210021100211
0001121222100211002110
0011212221002110021101
0112122210021100211012
1121222100211002110120
1212221002110021101200
2122210021100211012000
1222100211002110120002
2221002110021101200020
201212220102201122222
012122201022011222221
121222010220112222211
212220102201122222111
122201022011222221111
222010220112222211110
220102201122222111101
201022011222221111011
010220112222211110110
102201122222111101101
022011222221111011012
220112222211110110122
201122222111101101222
011222221111011012222
112222211110110122220
122222111101101222201
222221111011012222011
222211110110122220112
222111101101222201122
221111011012222011222
211110110122220112220
111101101222201122200

