Id	Weibull Discovery Time	Discovery Time	Fraction Discovery	Information Time	Fraction Information
1	37450.0	21959.0	0.8735	3161.0	1.0
1	37806.0	21293.0	0.868	2985.0	1.0
1	36106.0	22048.0	0.881	3157.0	1.0
1	37226.0	22031.0	0.885	3022.0	1.0
1	31756.0	20648.0	0.891	3187.0	1.0
1	37060.0	22643.0	0.8805	3167.0	1.0
1	34638.0	20842.0	0.889	3000.0	1.0
1	38297.0	21812.0	0.874	2915.0	1.0
1	33997.0	21179.0	0.885	3205.0	1.0
1	36667.0	21543.0	0.8805	3014.0	1.0
1	38280.0	21875.0	0.8715	2974.0	1.0
1	37530.0	22337.0	0.867	3292.0	1.0
1	36088.0	21512.0	0.883	2902.0	1.0
1	35822.0	21263.0	0.8775	2884.0	1.0
1	35186.0	21664.0	0.8915	2911.0	1.0
1	37258.0	23107.0	0.8875	2995.0	1.0
1	39396.0	22009.0	0.869	3068.0	1.0
1	38712.0	22108.0	0.8775	2956.0	1.0
1	37523.0	22648.0	0.8835	2944.0	1.0
1	34106.0	22142.0	0.896	2877.0	1.0
