Id	Weibull Discovery Time	Discovery Time	Fraction Discovery	Information Time	Fraction Information
1	34221.0	21951.0	0.8925	3087.0	1.0
1	33454.0	22457.0	0.9065	3283.0	1.0
1	33128.0	22158.0	0.902	3119.0	1.0
1	32791.0	22482.0	0.9115	3100.0	1.0
1	35826.0	22690.0	0.895	3134.0	1.0
1	34532.0	22495.0	0.899	3259.0	1.0
1	32389.0	21565.0	0.905	3266.0	1.0
1	34562.0	22486.0	0.9	3407.0	1.0
1	34744.0	22899.0	0.905	3284.0	1.0
1	33615.0	21889.0	0.901	3205.0	1.0
1	34202.0	22558.0	0.902	3304.0	1.0
1	33081.0	21436.0	0.8915	3296.0	1.0
1	33523.0	21903.0	0.897	3089.0	1.0
1	36801.0	23857.0	0.8965	2984.0	1.0
1	33609.0	22544.0	0.9015	3347.0	1.0
1	37930.0	22915.0	0.885	3317.0	1.0
1	36532.0	22491.0	0.8915	3381.0	1.0
1	34533.0	21930.0	0.8905	3202.0	1.0
1	34999.0	22842.0	0.9045	3050.0	1.0
1	36049.0	22686.0	0.8905	3456.0	1.0
