Id	Weibull Discovery Time	Discovery Time	Fraction Discovery	Information Time	Fraction Information
1	43773.0	25372.0	0.8655	3664.0	1.0
1	42697.0	25555.0	0.88	3895.0	1.0
1	44386.0	25976.0	0.868	3825.0	1.0
1	40056.0	24969.0	0.881	3744.0	1.0
1	41629.0	25522.0	0.8855	3648.0	1.0
1	42388.0	26244.0	0.877	4104.0	1.0
1	41713.0	26015.0	0.883	4657.0	1.0
1	41766.0	25991.0	0.879	3856.0	1.0
1	42550.0	25606.0	0.8765	3881.0	1.0
1	40432.0	25853.0	0.884	3850.0	1.0
1	41080.0	25412.0	0.883	3972.0	1.0
1	42472.0	26289.0	0.877	3935.0	1.0
1	40378.0	24860.0	0.878	3822.0	1.0
1	43053.0	25750.0	0.8715	4157.0	1.0
1	40605.0	25596.0	0.876	3769.0	1.0
1	41192.0	24783.0	0.8755	3916.0	1.0
1	40467.0	25655.0	0.887	4175.0	1.0
1	43026.0	25744.0	0.8725	3987.0	1.0
1	42666.0	25277.0	0.8685	4222.0	1.0
1	43248.0	25373.0	0.8675	3671.0	1.0
