Id	Weibull Discovery Time	Discovery Time	Fraction Discovery	Information Time	Fraction Information
1	40070.0	25234.0	0.8825	3793.0	1.0
1	38721.0	24942.0	0.8935	4022.0	1.0
1	38962.0	24823.0	0.8925	3548.0	1.0
1	39559.0	25241.0	0.883	3611.0	1.0
1	40729.0	25356.0	0.8785	3636.0	1.0
1	39143.0	25099.0	0.8905	3642.0	1.0
1	38371.0	24394.0	0.8895	3804.0	1.0
1	39212.0	24883.0	0.887	3487.0	1.0
1	37691.0	24625.0	0.9	3419.0	1.0
1	40857.0	26253.0	0.886	4001.0	1.0
1	38497.0	25264.0	0.8945	3854.0	1.0
1	41355.0	25450.0	0.882	4033.0	1.0
1	39719.0	25339.0	0.891	3714.0	1.0
1	38189.0	24585.0	0.894	3629.0	1.0
1	39776.0	25279.0	0.8895	3615.0	1.0
1	40655.0	25552.0	0.8845	3794.0	1.0
1	39989.0	25634.0	0.882	3950.0	1.0
1	38670.0	25089.0	0.8925	3451.0	1.0
1	39818.0	25344.0	0.889	3580.0	1.0
1	38459.0	25364.0	0.897	3911.0	1.0
