Id	Weibull Discovery Time	Discovery Time	Fraction Discovery	Information Time	Fraction Information
1	29829.0	21587.0	0.9265	2914.0	1.0
2	30818.0	21936.0	0.919	3246.0	1.0
3	29762.0	21504.0	0.927	2844.0	1.0
4	29385.0	20506.0	0.919	2717.0	1.0
5	30392.0	21475.0	0.925	2920.0	1.0
6	28474.0	19548.0	0.9	3073.0	1.0
1	28865.0	21077.0	0.9275	3104.0	1.0
2	29648.0	21149.0	0.9255	3071.0	1.0
3	30109.0	22129.0	0.9215	3025.0	1.0
4	30859.0	20502.0	0.906	2873.0	1.0
5	30062.0	20460.0	0.9115	2898.0	1.0
6	29655.0	18855.0	0.8935	2795.0	1.0
1	29217.0	21173.0	0.9205	3293.0	1.0
2	27114.0	20668.0	0.9295	3098.0	1.0
3	31745.0	21896.0	0.9115	3067.0	1.0
4	32065.0	21161.0	0.905	3128.0	1.0
5	29106.0	20858.0	0.921	3101.0	1.0
6	27994.0	18776.0	0.899	2848.0	1.0
1	30139.0	20763.0	0.9065	3108.0	1.0
2	31277.0	21355.0	0.916	3021.0	1.0
3	31612.0	22557.0	0.9225	3501.0	1.0
4	31233.0	21617.0	0.913	3134.0	1.0
5	26738.0	19372.0	0.917	3149.0	1.0
6	29044.0	20001.0	0.899	3109.0	1.0
1	29231.0	20831.0	0.9165	3285.0	1.0
2	26893.0	20229.0	0.927	3208.0	1.0
3	28101.0	20951.0	0.9205	3226.0	1.0
4	31085.0	20808.0	0.905	3132.0	1.0
5	28825.0	20435.0	0.918	2897.0	1.0
6	31710.0	19594.0	0.885	3156.0	1.0
1	28810.0	20900.0	0.9215	3108.0	1.0
2	29274.0	21517.0	0.922	3073.0	1.0
3	28070.0	21137.0	0.9275	3412.0	1.0
4	30687.0	21184.0	0.908	3284.0	1.0
5	28706.0	20102.0	0.9185	3035.0	1.0
6	29911.0	20026.0	0.898	2952.0	1.0
1	30377.0	20715.0	0.911	2994.0	1.0
2	28360.0	20167.0	0.9175	2929.0	1.0
3	29409.0	21168.0	0.925	3096.0	1.0
4	30536.0	20887.0	0.913	2830.0	1.0
5	28997.0	19807.0	0.9105	3106.0	1.0
6	30984.0	20078.0	0.894	3033.0	1.0
1	29120.0	20635.0	0.9165	2901.0	1.0
2	29498.0	20809.0	0.928	2782.0	1.0
3	29045.0	21150.0	0.928	2781.0	1.0
4	32772.0	20960.0	0.8955	3143.0	1.0
5	30174.0	20829.0	0.9125	3092.0	1.0
6	30577.0	19972.0	0.896	3016.0	1.0
1	27682.0	20780.0	0.933	3217.0	1.0
2	28188.0	20682.0	0.9305	2995.0	1.0
3	30188.0	21357.0	0.92	3042.0	1.0
4	29869.0	20628.0	0.9125	3090.0	1.0
5	28286.0	20240.0	0.921	2841.0	1.0
6	30875.0	19653.0	0.8895	2928.0	1.0
1	28170.0	20048.0	0.915	2858.0	1.0
2	29870.0	20539.0	0.916	3008.0	1.0
3	29782.0	21193.0	0.921	3085.0	1.0
4	29005.0	21093.0	0.9195	3227.0	1.0
5	29459.0	20273.0	0.9125	3011.0	1.0
6	29382.0	19576.0	0.899	3122.0	1.0
1	27827.0	20070.0	0.9225	2903.0	1.0
2	29366.0	20682.0	0.9215	2937.0	1.0
3	29213.0	21286.0	0.928	3138.0	1.0
4	28637.0	20162.0	0.9155	3067.0	1.0
5	29025.0	20621.0	0.9205	2984.0	1.0
6	27941.0	19164.0	0.9005	3025.0	1.0
1	30984.0	21305.0	0.921	2734.0	1.0
2	29500.0	21103.0	0.9215	3086.0	1.0
3	29889.0	21293.0	0.925	2919.0	1.0
4	31457.0	21074.0	0.903	3176.0	1.0
5	28444.0	19914.0	0.914	2969.0	1.0
6	28989.0	19669.0	0.897	3135.0	1.0
1	31659.0	21287.0	0.908	2988.0	1.0
2	28190.0	20808.0	0.926	3209.0	1.0
3	31377.0	21946.0	0.9225	3225.0	1.0
4	29905.0	21413.0	0.926	3045.0	1.0
5	29013.0	21268.0	0.9235	2997.0	1.0
6	31349.0	19874.0	0.8895	3171.0	1.0
1	29257.0	20634.0	0.9185	3066.0	1.0
2	30948.0	21938.0	0.9185	3145.0	1.0
3	30046.0	21363.0	0.921	3092.0	1.0
4	32207.0	22104.0	0.9075	3075.0	1.0
5	29427.0	20473.0	0.9105	3069.0	1.0
6	31281.0	20521.0	0.8975	3137.0	1.0
1	30167.0	21730.0	0.922	3056.0	1.0
2	28363.0	20839.0	0.929	2934.0	1.0
3	30473.0	21514.0	0.9155	3275.0	1.0
4	31513.0	21464.0	0.912	2952.0	1.0
5	29294.0	20397.0	0.9185	2959.0	1.0
6	28539.0	19497.0	0.902	2943.0	1.0
1	31450.0	21385.0	0.913	2866.0	1.0
2	30424.0	21668.0	0.92	3156.0	1.0
3	28413.0	21062.0	0.924	3073.0	1.0
4	32042.0	20920.0	0.904	2972.0	1.0
5	29036.0	20676.0	0.92	3030.0	1.0
6	30598.0	20236.0	0.8995	3086.0	1.0
1	29231.0	20820.0	0.918	3112.0	1.0
2	29709.0	21165.0	0.924	2941.0	1.0
3	28699.0	20852.0	0.9285	3048.0	1.0
4	31793.0	21326.0	0.9125	3162.0	1.0
5	28277.0	20366.0	0.919	3141.0	1.0
6	29585.0	19444.0	0.8905	2951.0	1.0
1	28166.0	20295.0	0.9165	2884.0	1.0
2	29376.0	21343.0	0.9245	3167.0	1.0
3	30688.0	21640.0	0.9195	3272.0	1.0
4	30161.0	21085.0	0.9195	2997.0	1.0
5	28340.0	20238.0	0.918	3094.0	1.0
6	33265.0	20271.0	0.8885	3043.0	1.0
1	28601.0	20338.0	0.9185	2955.0	1.0
2	31334.0	21403.0	0.9125	2926.0	1.0
3	29329.0	21006.0	0.9225	2952.0	1.0
4	29222.0	21265.0	0.919	3060.0	1.0
5	29773.0	20967.0	0.9145	3233.0	1.0
6	30605.0	19666.0	0.894	3031.0	1.0
1	30578.0	21637.0	0.915	3039.0	1.0
2	29687.0	21064.0	0.925	3139.0	1.0
3	29687.0	21302.0	0.923	2943.0	1.0
4	29972.0	20594.0	0.915	2949.0	1.0
5	28223.0	20344.0	0.9225	2986.0	1.0
6	29489.0	20119.0	0.906	3077.0	1.0
