Id	Weibull Discovery Time	Discovery Time	Fraction Discovery	Information Time	Fraction Information
0	538754.0	139918.0	0.7095	31856.0	1.0
1	8778235.0	127458.0	0.3375	79367.0	0.986
2	427516.0	57759.0	0.1165	86426.0	0.587
3	4109439.0	119812.0	0.159	126963.0	0.703
4	82520.0	111420.0	0.9535	22563.0	1.0
5	177732.0	28560.0	0.086	21172.0	0.269
6	27536141.0	141716.0	0.4815	61337.0	1.0
7	80411582.0	152521.0	0.421	72748.0	0.9975
8	157512.0	129936.0	0.832	31614.0	1.0
9	94238.0	114538.0	0.8925	24063.0	1.0
10	58464292.0	153925.0	0.4525	59114.0	1.0
11	375620.0	138941.0	0.7725	37041.0	1.0
12	642325.0	92734.0	0.259	72551.0	0.9905
13	39324577.0	139257.0	0.354	77107.0	0.9855
14	1123421769.0	160477.0	0.437	80841.0	1.0
15	4627839.0	81506.0	0.147	101325.0	0.6715
16	899913.0	130005.0	0.5675	37730.0	1.0
17	1528422.0	139115.0	0.582	45668.0	1.0
18	475320.0	72965.0	0.1485	92974.0	0.8115
19	9597835.0	139313.0	0.361	80872.0	0.9945
20	76302.0	110905.0	0.952	26453.0	1.0
21	809822.0	133236.0	0.509	41569.0	1.0
22	367389703.0	150276.0	0.412	74976.0	1.0
23	8474636.0	135927.0	0.4395	57102.0	0.9975
24	214070.0	32979.0	0.0915	31429.0	0.316
25	6430277.0	146981.0	0.572	50326.0	1.0
26	203105.0	137404.0	0.8235	31688.0	1.0
27	189859.0	23653.0	0.088	24957.0	0.3405
28	2566711.0	144619.0	0.489	49787.0	1.0
29	214253.0	132102.0	0.785	31781.0	1.0
30	2330853.0	107563.0	0.219	86594.0	0.9105
31	1273895.0	115125.0	0.168	112674.0	0.7775
32	18438552.0	142716.0	0.2125	139984.0	0.909
33	28419813.0	150122.0	0.5385	52530.0	1.0
34	126618.0	124987.0	0.8675	26377.0	1.0
35	30269541.0	153325.0	0.565	57053.0	1.0
36	21496302.0	153032.0	0.571	49344.0	1.0
37	13691273.0	138760.0	0.3615	72711.0	0.9995
38	131302121.0	155613.0	0.29	106345.0	0.987
39	142555669.0	156008.0	0.4645	60653.0	1.0
40	960377.0	143753.0	0.6915	36120.0	1.0
41	541523.0	130066.0	0.598	35732.0	1.0
42	137746401.0	157284.0	0.467	70285.0	0.998
43	2388075.0	134155.0	0.468	53033.0	1.0
44	795780.0	143046.0	0.6825	37582.0	1.0
45	1729755.0	132851.0	0.593	46611.0	1.0
46	35891288778.0	161933.0	0.3995	79395.0	0.987
47	2145914.0	146438.0	0.597	49705.0	1.0
48	490717.0	133596.0	0.7265	37564.0	1.0
49	13763906.0	152335.0	0.595	49307.0	1.0
50	3187389.0	134240.0	0.4135	58179.0	0.9995
51	1080423.0	140025.0	0.685	39592.0	1.0
52	188563.0	135537.0	0.8345	30334.0	1.0
53	241188381137.0	171974.0	0.3785	104159.0	1.0
54	655745.0	137530.0	0.6345	32699.0	1.0
55	201303.0	135154.0	0.803	26889.0	1.0
56	1590486.0	132875.0	0.5585	43964.0	1.0
57	2258187.0	67928.0	0.169	91668.0	0.692
58	3358809.0	150034.0	0.6005	51918.0	1.0
59	3307714.0	137804.0	0.5445	47846.0	1.0
60	19680275.0	146782.0	0.307	92141.0	0.9855
61	4141756.0	154783.0	0.6365	46407.0	1.0
62	19564393.0	147414.0	0.461	58426.0	1.0
63	1089892.0	149365.0	0.7055	40302.0	1.0
64	15407814.0	140162.0	0.4045	68416.0	1.0
65	691005.0	147814.0	0.7575	38634.0	1.0
66	736840287.0	162244.0	0.482	78912.0	0.9995
67	133864.0	126869.0	0.871	27633.0	1.0
68	3632679.0	149944.0	0.6755	50273.0	1.0
69	479142.0	148458.0	0.7795	31456.0	1.0
70	2394378.0	144131.0	0.561	49858.0	1.0
71	178438174.0	152022.0	0.3545	79341.0	0.9855
72	2100681.0	97522.0	0.167	126566.0	0.843
73	117654.0	120760.0	0.8735	22263.0	1.0
74	1903114.0	139986.0	0.6375	41214.0	1.0
75	6962395.0	148003.0	0.567	46871.0	1.0
76	129912.0	22422.0	0.0895	19993.0	0.2805
77	285866.0	33381.0	0.1085	45299.0	0.414
78	4758686145.0	167334.0	0.398	98183.0	1.0
79	9011286.0	155730.0	0.663	46695.0	1.0
80	5923721.0	151283.0	0.493	42675.0	1.0
81	4479028.0	154384.0	0.6245	43766.0	1.0
82	277400.0	133356.0	0.7875	30996.0	1.0
83	457767.0	78635.0	0.1325	98445.0	0.6685
84	3384896.0	104359.0	0.249	93092.0	0.9705
85	8485249.0	143176.0	0.4415	54458.0	1.0
86	960792.0	94825.0	0.2155	90955.0	0.9305
87	73438.0	106571.0	0.95	28562.0	1.0
88	2805389.0	150610.0	0.5905	49361.0	1.0
89	981807.0	125204.0	0.4405	43890.0	0.9905
90	9325190.0	131770.0	0.376	79832.0	0.98
91	956774.0	79280.0	0.166	103175.0	0.8285
92	328388065.0	150409.0	0.489	66117.0	1.0
93	93333.0	116133.0	0.896	27178.0	1.0
94	4708693158.0	161627.0	0.538	75167.0	1.0
95	14967249.0	134588.0	0.432	70201.0	1.0
96	185121.0	131890.0	0.811	28504.0	1.0
97	80383.0	111496.0	0.9315	27769.0	1.0
98	3877464.0	141230.0	0.513	49633.0	1.0
99	1164948.0	146289.0	0.6945	41580.0	1.0
