Id	Weibull Discovery Time	Discovery Time	Fraction Discovery	Information Time	Fraction Information
0	8450.0	5890.0	0.96	206.0	1.0
1	624547.0	1409.0	0.3215	371.0	0.981
2	557321.0	4376.0	0.5155	246.0	1.0
3	26589.0	7137.0	0.8045	318.0	1.0
4	246502.0	6211.0	0.575	358.0	1.0
5	516558.0	5800.0	0.521	394.0	1.0
6	9266.0	5544.0	0.9245	207.0	1.0
7	8386.0	6135.0	0.9555	336.0	1.0
8	41390.0	7795.0	0.766	289.0	1.0
9	10537.0	6332.0	0.9235	218.0	1.0
10	362518.0	6292.0	0.587	267.0	1.0
11	12231.0	6499.0	0.9135	226.0	1.0
12	14072.0	7121.0	0.89	245.0	1.0
13	24218.0	6149.0	0.8165	231.0	1.0
14	30790.0	6457.0	0.7655	196.0	1.0
15	63297.0	7417.0	0.721	345.0	1.0
16	25143.0	8010.0	0.83	311.0	1.0
17	16289.0	6510.0	0.8715	175.0	1.0
18	69319.0	6995.0	0.718	344.0	1.0
19	398834.0	5054.0	0.4425	583.0	0.992
20	69340.0	7025.0	0.707	323.0	1.0
21	12034.0	6595.0	0.9355	191.0	1.0
22	21753.0	6597.0	0.8195	260.0	1.0
23	324076.0	5924.0	0.5645	299.0	1.0
24	25003.0	7399.0	0.8215	284.0	1.0
25	19175.0	7407.0	0.852	185.0	1.0
26	230013.0	6441.0	0.597	390.0	1.0
27	14298.0	6679.0	0.8795	239.0	1.0
28	500778.0	2236.0	0.3305	246.0	0.9825
29	414541.0	6465.0	0.5525	383.0	1.0
30	427798.0	5190.0	0.465	283.0	1.0
31	15099.0	6708.0	0.8725	235.0	1.0
32	7311.0	5451.0	0.961	245.0	1.0
33	15978.0	7306.0	0.878	205.0	1.0
34	491850.0	1389.0	0.313	518.0	0.988
35	81820.0	7031.0	0.6825	330.0	1.0
36	333081.0	6391.0	0.4805	400.0	1.0
37	35624.0	5873.0	0.7675	214.0	1.0
38	37711.0	6349.0	0.771	371.0	1.0
39	8552.0	6024.0	0.9715	267.0	1.0
40	6356.0	5154.0	0.977	286.0	1.0
41	17511.0	6873.0	0.88	206.0	1.0
42	44422.0	7885.0	0.7615	354.0	1.0
43	10506.0	6339.0	0.9295	208.0	1.0
44	442138.0	5650.0	0.4845	531.0	1.0
45	18167.0	6695.0	0.8355	199.0	1.0
46	25650.0	7235.0	0.798	231.0	1.0
47	275987.0	6509.0	0.602	323.0	1.0
48	421346.0	2358.0	0.3085	284.0	0.989
49	446129.0	5274.0	0.473	491.0	0.993
50	10457.0	6786.0	0.948	234.0	1.0
51	457902.0	2273.0	0.33	372.0	0.9985
52	41336.0	5874.0	0.748	240.0	1.0
53	13227.0	6547.0	0.887	326.0	1.0
54	10696.0	6752.0	0.927	230.0	1.0
55	638048.0	6054.0	0.5465	254.0	1.0
56	479902.0	3070.0	0.409	289.0	1.0
57	9440.0	5333.0	0.9065	183.0	1.0
58	11161.0	6812.0	0.919	244.0	1.0
59	42788.0	6716.0	0.753	203.0	1.0
60	10423.0	6306.0	0.9395	241.0	1.0
61	584560.0	5953.0	0.534	540.0	1.0
62	23926.0	7394.0	0.8205	294.0	1.0
63	41401.0	7401.0	0.752	293.0	1.0
64	8025.0	5584.0	0.949	285.0	1.0
65	22046.0	6922.0	0.8205	200.0	1.0
66	206715.0	6344.0	0.597	332.0	1.0
67	11472.0	6035.0	0.9115	201.0	1.0
68	9338.0	6001.0	0.935	240.0	1.0
69	6891.0	5309.0	0.974	195.0	1.0
70	52218.0	7770.0	0.73	452.0	1.0
71	447662.0	3816.0	0.3985	357.0	0.9995
72	120175.0	6317.0	0.623	333.0	1.0
73	16181.0	6755.0	0.884	185.0	1.0
74	22317.0	7033.0	0.848	218.0	1.0
75	26031.0	6861.0	0.8125	313.0	1.0
76	18962.0	7176.0	0.856	276.0	1.0
77	30813.0	8156.0	0.7995	429.0	1.0
78	7931.0	5369.0	0.955	166.0	1.0
79	30062.0	6794.0	0.789	310.0	1.0
80	441687.0	3317.0	0.368	468.0	0.992
81	10200.0	6032.0	0.9285	211.0	1.0
82	387391.0	4878.0	0.4505	228.0	1.0
83	55753.0	7367.0	0.737	295.0	1.0
84	369514.0	3494.0	0.3745	527.0	0.997
85	449147.0	6066.0	0.506	308.0	1.0
86	226183.0	5812.0	0.585	255.0	1.0
87	126979.0	6747.0	0.6325	257.0	1.0
88	402648.0	5641.0	0.461	370.0	1.0
89	212073.0	6494.0	0.6015	388.0	1.0
90	73235.0	7294.0	0.6845	279.0	1.0
91	451181.0	2076.0	0.3105	374.0	0.979
92	553011.0	1299.0	0.3015	202.0	0.987
93	546601.0	5748.0	0.555	342.0	1.0
94	9283.0	5974.0	0.9385	193.0	1.0
95	27043.0	7785.0	0.805	285.0	1.0
96	60094.0	6973.0	0.699	254.0	1.0
97	15327.0	6369.0	0.8695	188.0	1.0
98	495184.0	4058.0	0.4515	364.0	1.0
99	412568.0	6284.0	0.5715	186.0	1.0
