Id	Weibull Discovery Time	Discovery Time	Fraction Discovery	Information Time	Fraction Information
0	534338.0	3293.0	0.398	519.0	0.969
1	402550.0	2232.0	0.2935	571.0	0.967
2	677880.0	447.0	0.286	207.0	0.9755
3	591074.0	445.0	0.278	164.0	0.9795
4	490390.0	7088.0	0.5395	366.0	1.0
5	640238.0	465.0	0.293	128.0	0.98
6	644084.0	975.0	0.297	258.0	0.988
7	471800.0	3004.0	0.336	274.0	0.9975
8	421658.0	3762.0	0.3835	592.0	0.9995
9	593169.0	4986.0	0.499	367.0	1.0
10	388489.0	3119.0	0.326	451.0	0.9785
11	390000.0	3973.0	0.3845	470.0	0.9995
12	473507.0	1468.0	0.328	268.0	0.987
13	532191.0	1826.0	0.328	462.0	0.991
14	530359.0	1917.0	0.3205	423.0	0.982
15	630464.0	588.0	0.2825	209.0	0.9625
16	393246.0	5325.0	0.438	513.0	0.995
17	468870.0	2706.0	0.3545	513.0	0.987
18	429006.0	2593.0	0.3325	638.0	0.9885
19	463899.0	2275.0	0.326	587.0	0.983
20	340391.0	6815.0	0.4575	427.0	0.9965
21	462323.0	2861.0	0.337	476.0	0.977
22	477482.0	2367.0	0.3235	356.0	0.989
23	427424.0	2508.0	0.3155	430.0	0.9865
24	569636.0	675.0	0.28	200.0	0.966
25	455005.0	2211.0	0.324	298.0	0.98
26	363044.0	6374.0	0.4585	500.0	1.0
27	535371.0	940.0	0.274	282.0	0.978
28	522936.0	3252.0	0.381	338.0	0.9985
29	374009.0	6389.0	0.459	650.0	0.9995
30	452288.0	1088.0	0.2715	265.0	0.968
31	603877.0	894.0	0.29	160.0	0.9855
32	510470.0	1005.0	0.289	200.0	0.9795
33	448043.0	2620.0	0.3335	371.0	0.986
34	351618.0	5915.0	0.466	597.0	0.9985
35	395651.0	2465.0	0.3225	437.0	0.988
36	420275.0	3189.0	0.346	612.0	0.978
37	458964.0	3050.0	0.349	499.0	0.994
38	552716.0	646.0	0.2785	227.0	0.978
39	481486.0	2429.0	0.323	436.0	0.9785
40	395160.0	4496.0	0.3755	625.0	0.995
41	330031.0	3907.0	0.372	506.0	0.9955
42	504477.0	2609.0	0.326	486.0	0.9795
43	413626.0	3080.0	0.338	372.0	0.977
44	301791.0	5015.0	0.3745	723.0	0.9985
45	526984.0	1804.0	0.324	358.0	0.983
46	480861.0	1822.0	0.3215	414.0	0.9835
47	551807.0	2302.0	0.3515	302.0	0.989
48	501952.0	4327.0	0.399	315.0	0.999
49	495178.0	1656.0	0.3145	348.0	0.983
50	526607.0	2413.0	0.3685	280.0	0.999
51	523680.0	3710.0	0.3885	588.0	0.9975
52	552048.0	4762.0	0.4495	264.0	0.999
53	183019.0	307.0	0.272	157.0	0.971
54	378641.0	3810.0	0.3795	366.0	0.9985
55	450807.0	5010.0	0.453	679.0	1.0
56	421186.0	2541.0	0.345	357.0	0.995
57	583127.0	1488.0	0.3075	351.0	0.978
58	435209.0	2863.0	0.366	479.0	0.9965
59	392522.0	3709.0	0.3615	387.0	0.984
60	268796.0	3416.0	0.3255	512.0	0.9805
61	504675.0	2357.0	0.3365	378.0	0.992
62	428860.0	3075.0	0.361	492.0	0.9885
63	354535.0	6116.0	0.431	593.0	0.995
64	477970.0	2935.0	0.3555	421.0	0.993
65	485912.0	3751.0	0.3935	444.0	0.9965
66	431840.0	2575.0	0.336	396.0	0.991
67	358778.0	6869.0	0.4715	507.0	1.0
68	579281.0	1061.0	0.298	220.0	0.964
69	337154.0	5644.0	0.435	476.0	1.0
70	426943.0	3539.0	0.38	511.0	0.9875
71	374902.0	3343.0	0.317	638.0	0.965
72	669262.0	600.0	0.288	212.0	0.983
73	405754.0	5932.0	0.49	536.0	1.0
74	461522.0	3229.0	0.36	363.0	0.9995
75	426634.0	2306.0	0.3	526.0	0.982
76	618213.0	1265.0	0.301	202.0	0.9835
77	606572.0	586.0	0.278	140.0	0.9685
78	602951.0	1336.0	0.308	285.0	0.9815
79	552742.0	2293.0	0.3225	333.0	0.9755
80	380840.0	3517.0	0.371	412.0	0.998
81	318521.0	5329.0	0.3665	664.0	0.998
82	389700.0	4046.0	0.393	618.0	0.9965
83	469567.0	1519.0	0.2995	298.0	0.963
84	519548.0	1902.0	0.318	521.0	0.9845
85	298604.0	4746.0	0.381	404.0	0.999
86	478614.0	1638.0	0.297	232.0	0.9695
87	523562.0	3990.0	0.412	384.0	0.998
88	419239.0	3443.0	0.343	739.0	0.978
89	328404.0	4905.0	0.3875	702.0	0.998
90	589024.0	1792.0	0.3455	517.0	0.974
91	532584.0	1668.0	0.2985	552.0	0.964
92	495283.0	2087.0	0.304	354.0	0.9805
93	438660.0	4646.0	0.4305	392.0	0.9995
94	507700.0	1760.0	0.305	484.0	0.9865
95	514539.0	2203.0	0.3405	402.0	0.993
96	368861.0	6463.0	0.471	400.0	1.0
97	406052.0	6006.0	0.4695	538.0	1.0
98	454268.0	3585.0	0.38	270.0	0.99
99	363546.0	3346.0	0.3385	582.0	0.991
