Id	Weibull Discovery Time	Discovery Time	Fraction Discovery	Information Time	Fraction Information
0	60675.0	23718.0	0.795	2931.0	1.0
1	66806.0	22428.0	0.77	2997.0	1.0
2	64292.0	22952.0	0.7875	2821.0	1.0
3	73757.0	21931.0	0.7405	3072.0	1.0
4	46858.0	23048.0	0.834	3210.0	1.0
5	84392.0	23420.0	0.734	2948.0	1.0
6	68530.0	23819.0	0.7725	2692.0	1.0
7	60732.0	23228.0	0.785	3063.0	1.0
8	59864.0	23772.0	0.8035	2898.0	1.0
9	55526.0	22668.0	0.8135	2713.0	1.0
10	64485.0	21924.0	0.7625	2918.0	1.0
11	57404.0	22909.0	0.791	3106.0	1.0
12	75511.0	21728.0	0.744	3252.0	1.0
13	66181.0	23643.0	0.778	3477.0	1.0
14	65680.0	21807.0	0.768	2790.0	1.0
15	75824.0	21921.0	0.753	2830.0	1.0
16	59805.0	21780.0	0.783	2962.0	1.0
17	61428.0	21902.0	0.775	3010.0	1.0
18	70533.0	23110.0	0.7655	3039.0	1.0
19	82540.0	22929.0	0.746	3027.0	1.0
20	57112.0	24238.0	0.814	2946.0	1.0
21	67588.0	22142.0	0.7715	3046.0	1.0
22	74342.0	22132.0	0.7605	2857.0	1.0
23	64062.0	23644.0	0.7885	2987.0	1.0
24	79400.0	23959.0	0.756	2917.0	1.0
25	59490.0	22650.0	0.795	2927.0	1.0
26	57570.0	23058.0	0.7935	3307.0	1.0
27	73178.0	23472.0	0.768	2912.0	1.0
28	61844.0	22831.0	0.781	3105.0	1.0
29	56104.0	23836.0	0.806	2870.0	1.0
30	69782.0	22661.0	0.7805	2902.0	1.0
31	88550.0	23183.0	0.742	3061.0	1.0
32	76544.0	23529.0	0.7625	2935.0	1.0
33	75615.0	23441.0	0.761	2852.0	1.0
34	60631.0	22427.0	0.7885	2949.0	1.0
35	68217.0	23371.0	0.7785	3067.0	1.0
36	59375.0	22220.0	0.7855	2791.0	1.0
37	70480.0	23346.0	0.769	3030.0	1.0
38	58400.0	21975.0	0.784	3044.0	1.0
39	69403.0	22836.0	0.7595	2935.0	1.0
40	67764.0	23046.0	0.776	3037.0	1.0
41	54713.0	22446.0	0.812	3145.0	1.0
42	62500.0	22705.0	0.773	2924.0	1.0
43	69334.0	22511.0	0.7645	3046.0	1.0
44	69810.0	23942.0	0.7705	3150.0	1.0
45	60307.0	22849.0	0.798	2882.0	1.0
46	68572.0	22893.0	0.7725	2941.0	1.0
47	63274.0	23480.0	0.7965	2975.0	1.0
48	63890.0	23124.0	0.789	3098.0	1.0
49	66317.0	23450.0	0.785	2801.0	1.0
50	66568.0	23225.0	0.778	3071.0	1.0
51	54164.0	23778.0	0.819	3157.0	1.0
52	64097.0	24323.0	0.792	3063.0	1.0
53	73961.0	22236.0	0.755	2895.0	1.0
54	61987.0	23099.0	0.79	2889.0	1.0
55	56640.0	22990.0	0.804	2985.0	1.0
56	59987.0	22559.0	0.784	2838.0	1.0
57	65315.0	23226.0	0.776	3119.0	1.0
58	63264.0	23482.0	0.7855	3082.0	1.0
59	60917.0	22313.0	0.784	2952.0	1.0
60	65669.0	21329.0	0.766	2842.0	1.0
61	70817.0	24758.0	0.7725	3067.0	1.0
62	63049.0	22870.0	0.785	3012.0	1.0
63	64376.0	23804.0	0.783	2969.0	1.0
64	64885.0	23262.0	0.782	3032.0	1.0
65	56799.0	22415.0	0.809	2852.0	1.0
66	67888.0	22938.0	0.7775	2829.0	1.0
67	52529.0	23306.0	0.8265	2905.0	1.0
68	66117.0	23311.0	0.7735	2904.0	1.0
69	59228.0	21648.0	0.787	2844.0	1.0
70	56603.0	21983.0	0.7905	3021.0	1.0
71	67200.0	23328.0	0.7695	3181.0	1.0
72	70626.0	22988.0	0.759	2903.0	1.0
73	57250.0	22685.0	0.804	2934.0	1.0
74	63986.0	23043.0	0.79	2807.0	1.0
75	62239.0	22073.0	0.782	2985.0	1.0
76	66569.0	22662.0	0.767	3038.0	1.0
77	75886.0	22160.0	0.753	2922.0	1.0
78	73705.0	22984.0	0.765	3029.0	1.0
79	60099.0	22372.0	0.7935	2996.0	1.0
80	63174.0	23579.0	0.7875	3196.0	1.0
81	70977.0	24148.0	0.773	2957.0	1.0
82	53927.0	23213.0	0.813	3068.0	1.0
83	74137.0	23566.0	0.7595	3207.0	1.0
84	80886.0	21979.0	0.7455	2859.0	1.0
85	67241.0	22653.0	0.7745	2842.0	1.0
86	74880.0	22687.0	0.7595	2995.0	1.0
87	55742.0	25315.0	0.8225	3028.0	1.0
88	64027.0	22257.0	0.775	3068.0	1.0
89	67362.0	22847.0	0.7805	2782.0	1.0
90	72338.0	21798.0	0.7495	3137.0	1.0
91	65371.0	22351.0	0.7775	3056.0	1.0
92	62226.0	22977.0	0.7775	3204.0	1.0
93	55285.0	23322.0	0.812	2828.0	1.0
94	70184.0	22522.0	0.7625	2959.0	1.0
95	61568.0	21661.0	0.784	2893.0	1.0
96	58843.0	22873.0	0.793	3152.0	1.0
97	52095.0	23186.0	0.821	3008.0	1.0
98	59922.0	22501.0	0.7915	3180.0	1.0
99	60468.0	23028.0	0.7895	2861.0	1.0
0	67097.0	23705.0	0.7855	2841.0	1.0
1	66486.0	22075.0	0.767	2895.0	1.0
2	62081.0	22796.0	0.793	2669.0	1.0
3	71486.0	22491.0	0.7525	3163.0	1.0
4	49465.0	22576.0	0.8295	3036.0	1.0
5	72376.0	21989.0	0.7565	2713.0	1.0
6	61389.0	23221.0	0.799	2984.0	1.0
7	58621.0	21456.0	0.7885	2820.0	1.0
8	51154.0	23405.0	0.8275	3031.0	1.0
9	56746.0	23959.0	0.82	3160.0	1.0
10	57251.0	22690.0	0.796	3109.0	1.0
11	57113.0	23831.0	0.807	2935.0	1.0
12	75563.0	23897.0	0.756	3143.0	1.0
13	61385.0	22034.0	0.785	3157.0	1.0
14	70999.0	23711.0	0.767	3137.0	1.0
15	68379.0	22964.0	0.7705	3042.0	1.0
16	62796.0	22192.0	0.781	2801.0	1.0
17	66515.0	21872.0	0.774	2882.0	1.0
18	62480.0	22340.0	0.767	3207.0	1.0
19	59284.0	21948.0	0.785	2875.0	1.0
20	55793.0	23230.0	0.8115	2825.0	1.0
21	59875.0	23655.0	0.787	2780.0	1.0
22	70187.0	22503.0	0.7705	2898.0	1.0
23	66437.0	22378.0	0.7745	3091.0	1.0
24	70127.0	22428.0	0.765	3070.0	1.0
25	63672.0	21902.0	0.775	2938.0	1.0
26	57685.0	23018.0	0.807	2923.0	1.0
27	76908.0	23258.0	0.7605	3003.0	1.0
28	63410.0	23463.0	0.791	2806.0	1.0
29	54154.0	23147.0	0.812	2967.0	1.0
30	70606.0	22280.0	0.7565	2915.0	1.0
31	71447.0	22680.0	0.7615	2841.0	1.0
32	73767.0	22118.0	0.7365	3070.0	1.0
33	67001.0	23772.0	0.776	2830.0	1.0
34	58259.0	22604.0	0.8035	3048.0	1.0
35	68158.0	22408.0	0.766	3047.0	1.0
36	57482.0	22416.0	0.7945	2848.0	1.0
37	58523.0	23034.0	0.7915	2955.0	1.0
38	78889.0	22252.0	0.745	3157.0	1.0
39	78040.0	23900.0	0.756	3076.0	1.0
40	58823.0	22447.0	0.7915	2949.0	1.0
41	57571.0	21789.0	0.7855	3165.0	1.0
42	72111.0	23001.0	0.7655	3099.0	1.0
43	62032.0	22434.0	0.7785	2836.0	1.0
44	61041.0	23055.0	0.7885	3007.0	1.0
45	68629.0	24485.0	0.787	2932.0	1.0
46	71489.0	22536.0	0.7715	3010.0	1.0
47	61474.0	23611.0	0.804	2819.0	1.0
48	59676.0	24037.0	0.8045	3237.0	1.0
49	59457.0	21706.0	0.785	3028.0	1.0
50	74935.0	22772.0	0.7505	3248.0	1.0
51	63932.0	23976.0	0.794	3135.0	1.0
52	56742.0	23391.0	0.805	2923.0	1.0
53	65644.0	22209.0	0.7725	2932.0	1.0
54	55928.0	22123.0	0.796	2760.0	1.0
55	62273.0	22731.0	0.7935	2806.0	1.0
56	69042.0	22349.0	0.762	3068.0	1.0
57	75816.0	23269.0	0.7605	2871.0	1.0
58	65845.0	22887.0	0.787	2945.0	1.0
59	69542.0	22977.0	0.7685	2852.0	1.0
60	69445.0	23720.0	0.7725	3119.0	1.0
61	71117.0	24806.0	0.7865	3041.0	1.0
62	58099.0	22257.0	0.782	2924.0	1.0
63	54335.0	22846.0	0.7985	3134.0	1.0
64	63679.0	21795.0	0.7775	2866.0	1.0
65	65372.0	23397.0	0.7875	3080.0	1.0
66	71693.0	22836.0	0.764	3127.0	1.0
67	54775.0	24104.0	0.8065	3146.0	1.0
68	64323.0	22312.0	0.775	2843.0	1.0
69	59224.0	21437.0	0.784	2819.0	1.0
70	57181.0	22810.0	0.81	2983.0	1.0
71	67088.0	23330.0	0.7725	2978.0	1.0
72	67357.0	23400.0	0.7795	3196.0	1.0
73	56138.0	22868.0	0.803	2939.0	1.0
74	61316.0	22885.0	0.79	3052.0	1.0
75	59669.0	22687.0	0.796	2856.0	1.0
76	67362.0	22452.0	0.766	2913.0	1.0
77	74399.0	23217.0	0.7435	3213.0	1.0
78	63717.0	23579.0	0.782	2934.0	1.0
79	66777.0	23245.0	0.779	2926.0	1.0
80	57213.0	21642.0	0.789	2981.0	1.0
81	61321.0	24125.0	0.7995	3061.0	1.0
82	56998.0	24602.0	0.8175	2980.0	1.0
83	73736.0	22818.0	0.7455	3179.0	1.0
84	64852.0	23315.0	0.778	3058.0	1.0
85	62095.0	21703.0	0.7745	2872.0	1.0
86	74223.0	21782.0	0.744	2832.0	1.0
87	55824.0	24909.0	0.8175	2926.0	1.0
88	58706.0	22834.0	0.7925	2955.0	1.0
89	63724.0	22829.0	0.785	3010.0	1.0
90	78254.0	22726.0	0.7475	2896.0	1.0
91	73340.0	23110.0	0.7605	3092.0	1.0
92	67211.0	23153.0	0.7755	3029.0	1.0
93	57189.0	23150.0	0.799	3045.0	1.0
94	64834.0	22897.0	0.7895	3054.0	1.0
95	67952.0	22699.0	0.77	2988.0	1.0
96	62319.0	24737.0	0.795	3017.0	1.0
97	56218.0	24425.0	0.815	3051.0	1.0
98	66407.0	22474.0	0.771	3159.0	1.0
99	66618.0	23499.0	0.7775	2841.0	1.0
0	61090.0	24296.0	0.799	2953.0	1.0
1	72412.0	23187.0	0.7515	3086.0	1.0
2	76659.0	22757.0	0.751	3048.0	1.0
3	68150.0	22471.0	0.768	3034.0	1.0
4	49972.0	22616.0	0.827	3014.0	1.0
5	70904.0	23571.0	0.763	3088.0	1.0
6	65753.0	23264.0	0.781	2876.0	1.0
7	69204.0	22853.0	0.775	2872.0	1.0
8	59199.0	23241.0	0.801	3122.0	1.0
9	51713.0	22284.0	0.808	3016.0	1.0
10	67452.0	23979.0	0.773	3137.0	1.0
11	63365.0	23244.0	0.7785	3258.0	1.0
12	68606.0	22778.0	0.764	2791.0	1.0
13	65829.0	21750.0	0.774	2845.0	1.0
14	65788.0	22851.0	0.775	2769.0	1.0
15	79996.0	22836.0	0.7485	3336.0	1.0
16	61823.0	23357.0	0.792	3087.0	1.0
17	68184.0	22755.0	0.771	2862.0	1.0
18	67048.0	22036.0	0.7635	2970.0	1.0
19	67894.0	22183.0	0.7675	3051.0	1.0
20	60291.0	24136.0	0.8065	2847.0	1.0
21	61079.0	23387.0	0.794	3116.0	1.0
22	70063.0	23220.0	0.774	2685.0	1.0
23	70000.0	22330.0	0.76	2969.0	1.0
24	72536.0	22895.0	0.7585	3153.0	1.0
25	74696.0	23120.0	0.7635	2836.0	1.0
26	53696.0	23775.0	0.813	3021.0	1.0
27	70802.0	22756.0	0.7695	3097.0	1.0
28	65987.0	22320.0	0.767	2909.0	1.0
29	59100.0	22360.0	0.798	2797.0	1.0
30	73967.0	21627.0	0.752	2819.0	1.0
31	88749.0	23467.0	0.7365	3141.0	1.0
32	62588.0	22689.0	0.787	3172.0	1.0
33	70958.0	23229.0	0.7705	3014.0	1.0
34	58478.0	22616.0	0.795	3201.0	1.0
35	66510.0	23157.0	0.7795	3110.0	1.0
36	57201.0	22845.0	0.797	3064.0	1.0
37	57001.0	21485.0	0.789	2890.0	1.0
38	69759.0	22258.0	0.7695	2994.0	1.0
39	74091.0	22317.0	0.7625	2906.0	1.0
40	58482.0	24490.0	0.803	2993.0	1.0
41	56184.0	23318.0	0.807	3063.0	1.0
42	64540.0	23496.0	0.7865	3178.0	1.0
43	61960.0	23594.0	0.788	2975.0	1.0
44	62315.0	23015.0	0.768	3370.0	1.0
45	56670.0	23194.0	0.805	3218.0	1.0
46	65361.0	22873.0	0.7705	2919.0	1.0
47	70248.0	23145.0	0.776	2836.0	1.0
48	64716.0	22605.0	0.7795	2952.0	1.0
49	63697.0	21869.0	0.7815	2853.0	1.0
50	65320.0	23175.0	0.7765	2958.0	1.0
51	61046.0	22961.0	0.791	2810.0	1.0
52	62643.0	22740.0	0.784	2777.0	1.0
53	68227.0	23608.0	0.7715	2986.0	1.0
54	61228.0	23662.0	0.7925	3044.0	1.0
55	53780.0	21900.0	0.8155	2695.0	1.0
56	61550.0	22085.0	0.782	2788.0	1.0
57	74370.0	21990.0	0.7525	2984.0	1.0
58	49435.0	22508.0	0.8165	2975.0	1.0
59	65333.0	22178.0	0.7825	2771.0	1.0
60	60550.0	22236.0	0.774	2941.0	1.0
61	59429.0	22783.0	0.79	3314.0	1.0
62	64238.0	22406.0	0.7745	2894.0	1.0
63	62185.0	23860.0	0.7915	2856.0	1.0
64	77097.0	23137.0	0.745	3361.0	1.0
65	72356.0	24601.0	0.776	3058.0	1.0
66	65390.0	22599.0	0.776	2860.0	1.0
67	57486.0	22620.0	0.8085	2777.0	1.0
68	57794.0	23402.0	0.8115	2809.0	1.0
69	67902.0	22875.0	0.764	3308.0	1.0
70	60865.0	22868.0	0.7905	2948.0	1.0
71	71192.0	23840.0	0.764	3064.0	1.0
72	69998.0	23365.0	0.761	3101.0	1.0
73	53988.0	22136.0	0.812	2918.0	1.0
74	63840.0	23421.0	0.779	2982.0	1.0
75	67048.0	22987.0	0.7745	2938.0	1.0
76	61997.0	22357.0	0.7745	3187.0	1.0
77	77290.0	23497.0	0.76	2828.0	1.0
78	76186.0	23484.0	0.7545	2952.0	1.0
79	68021.0	23070.0	0.772	3031.0	1.0
80	70924.0	23146.0	0.763	3125.0	1.0
81	67040.0	24701.0	0.7865	3241.0	1.0
82	60575.0	23362.0	0.8	3137.0	1.0
83	70997.0	23799.0	0.7645	3146.0	1.0
84	73855.0	22760.0	0.764	2725.0	1.0
85	65044.0	21630.0	0.767	2890.0	1.0
86	73206.0	23218.0	0.7635	3086.0	1.0
87	51303.0	23829.0	0.829	2936.0	1.0
88	67548.0	22636.0	0.7655	2954.0	1.0
89	63987.0	23623.0	0.7785	3063.0	1.0
90	65563.0	23359.0	0.783	3168.0	1.0
91	74370.0	24004.0	0.7655	2960.0	1.0
92	63991.0	21949.0	0.775	2949.0	1.0
93	59047.0	23445.0	0.7965	3056.0	1.0
94	72430.0	23792.0	0.7715	3141.0	1.0
95	62525.0	22266.0	0.78	3055.0	1.0
96	64980.0	23799.0	0.7915	2973.0	1.0
97	53326.0	23517.0	0.8165	3043.0	1.0
98	74749.0	22781.0	0.752	3120.0	1.0
99	57914.0	23741.0	0.808	3112.0	1.0
0	59534.0	23438.0	0.797	3074.0	1.0
1	67173.0	23477.0	0.768	3194.0	1.0
2	80734.0	24797.0	0.7515	3097.0	1.0
3	82490.0	22977.0	0.7485	3000.0	1.0
4	46657.0	22879.0	0.844	2786.0	1.0
5	75280.0	22650.0	0.754	2926.0	1.0
6	61294.0	21698.0	0.778	2950.0	1.0
7	70469.0	23409.0	0.7835	2814.0	1.0
8	54840.0	23479.0	0.8075	3112.0	1.0
9	54064.0	22426.0	0.804	3130.0	1.0
10	61871.0	21743.0	0.7845	3040.0	1.0
11	58187.0	23920.0	0.802	3043.0	1.0
12	60674.0	22289.0	0.7875	2976.0	1.0
13	62388.0	22091.0	0.7775	3134.0	1.0
14	64833.0	22951.0	0.7835	2790.0	1.0
15	69000.0	22911.0	0.77	3030.0	1.0
16	58152.0	23690.0	0.7995	2947.0	1.0
17	59346.0	22985.0	0.8025	2889.0	1.0
18	69526.0	22789.0	0.773	2875.0	1.0
19	66921.0	22457.0	0.772	2808.0	1.0
20	58703.0	23916.0	0.808	3120.0	1.0
21	74065.0	24784.0	0.7705	3119.0	1.0
22	61034.0	23289.0	0.786	2886.0	1.0
23	63325.0	23224.0	0.7795	3178.0	1.0
24	80422.0	23633.0	0.747	3073.0	1.0
25	70661.0	22337.0	0.76	2928.0	1.0
26	53926.0	22488.0	0.804	2691.0	1.0
27	64444.0	22241.0	0.7765	2958.0	1.0
28	59002.0	22748.0	0.7885	2876.0	1.0
29	58158.0	23995.0	0.811	3029.0	1.0
30	68280.0	22957.0	0.7655	2965.0	1.0
31	79850.0	23778.0	0.7605	3104.0	1.0
32	68024.0	22070.0	0.765	2863.0	1.0
33	71291.0	23544.0	0.7775	3020.0	1.0
34	60775.0	22651.0	0.7875	3043.0	1.0
35	63361.0	22302.0	0.7805	2973.0	1.0
36	67544.0	23379.0	0.7835	2925.0	1.0
37	64549.0	22041.0	0.7695	3212.0	1.0
38	66496.0	23067.0	0.7785	3117.0	1.0
39	70623.0	24094.0	0.766	2738.0	1.0
40	56203.0	22537.0	0.8	2817.0	1.0
41	69327.0	24306.0	0.7845	2892.0	1.0
42	72533.0	23258.0	0.7765	2901.0	1.0
43	68236.0	22901.0	0.7635	3146.0	1.0
44	59926.0	22958.0	0.785	2897.0	1.0
45	57584.0	22639.0	0.784	3087.0	1.0
46	63151.0	21648.0	0.786	2935.0	1.0
47	64615.0	23474.0	0.783	2932.0	1.0
48	69421.0	22096.0	0.7645	3052.0	1.0
49	60359.0	23337.0	0.8005	3055.0	1.0
50	67199.0	23155.0	0.773	2938.0	1.0
51	69369.0	23753.0	0.7855	3162.0	1.0
52	62576.0	23372.0	0.7935	3203.0	1.0
53	65449.0	23579.0	0.787	2876.0	1.0
54	58971.0	23164.0	0.8025	3055.0	1.0
55	57922.0	22454.0	0.7945	2855.0	1.0
56	65755.0	23816.0	0.7845	2788.0	1.0
57	66027.0	22447.0	0.777	2971.0	1.0
58	61352.0	24196.0	0.7965	2864.0	1.0
59	58457.0	23367.0	0.7985	3231.0	1.0
60	70222.0	22587.0	0.757	2970.0	1.0
61	58177.0	21560.0	0.7885	2823.0	1.0
62	62012.0	22686.0	0.7765	2890.0	1.0
63	60145.0	22143.0	0.788	2872.0	1.0
64	60211.0	22326.0	0.7815	3183.0	1.0
65	61738.0	22760.0	0.791	3023.0	1.0
66	67215.0	22167.0	0.76	3022.0	1.0
67	53760.0	23053.0	0.8135	3130.0	1.0
68	67428.0	24610.0	0.7855	3028.0	1.0
69	60379.0	22457.0	0.7825	3235.0	1.0
70	56019.0	22223.0	0.7995	2918.0	1.0
71	73111.0	23231.0	0.7675	2918.0	1.0
72	72384.0	23535.0	0.767	2915.0	1.0
73	52516.0	23005.0	0.8165	2976.0	1.0
74	59357.0	23080.0	0.79	2801.0	1.0
75	73344.0	22736.0	0.761	2995.0	1.0
76	72730.0	21891.0	0.7585	3180.0	1.0
77	64285.0	21563.0	0.773	2790.0	1.0
78	73670.0	23896.0	0.77	2929.0	1.0
79	66316.0	23536.0	0.774	3034.0	1.0
80	64359.0	22383.0	0.79	2748.0	1.0
81	58584.0	22734.0	0.789	3280.0	1.0
82	52873.0	24143.0	0.8215	2956.0	1.0
83	70694.0	22997.0	0.7565	3002.0	1.0
84	65657.0	23879.0	0.7885	3012.0	1.0
85	65046.0	22726.0	0.7745	2989.0	1.0
86	67490.0	22931.0	0.7635	3132.0	1.0
87	57359.0	24058.0	0.815	2757.0	1.0
88	68716.0	23124.0	0.7725	3132.0	1.0
89	66602.0	22419.0	0.777	2964.0	1.0
90	63285.0	23920.0	0.7935	2972.0	1.0
91	68997.0	23165.0	0.772	2852.0	1.0
92	73422.0	23686.0	0.762	3007.0	1.0
93	52942.0	23430.0	0.823	3045.0	1.0
94	63391.0	23358.0	0.783	3172.0	1.0
95	69642.0	24060.0	0.773	3180.0	1.0
96	60173.0	22648.0	0.792	3232.0	1.0
97	58984.0	24733.0	0.8215	2830.0	1.0
98	57378.0	22424.0	0.798	2798.0	1.0
99	62125.0	22361.0	0.777	3139.0	1.0
0	53718.0	23494.0	0.8295	2860.0	1.0
1	75156.0	22397.0	0.7525	3120.0	1.0
2	56156.0	22310.0	0.7995	3014.0	1.0
3	78034.0	23193.0	0.7495	3035.0	1.0
4	48605.0	22458.0	0.823	2977.0	1.0
5	74344.0	22274.0	0.754	3027.0	1.0
6	62317.0	24048.0	0.799	2937.0	1.0
7	75659.0	24288.0	0.7535	3307.0	1.0
8	57745.0	23498.0	0.7995	3018.0	1.0
9	50590.0	22609.0	0.8235	3072.0	1.0
10	59806.0	23063.0	0.784	3014.0	1.0
11	64603.0	23411.0	0.789	2883.0	1.0
12	66725.0	23094.0	0.7795	3070.0	1.0
13	70001.0	22411.0	0.7525	3312.0	1.0
14	63811.0	22710.0	0.776	3012.0	1.0
15	76503.0	23637.0	0.7505	3138.0	1.0
16	66275.0	23661.0	0.781	2850.0	1.0
17	68782.0	24802.0	0.771	2977.0	1.0
18	63438.0	21486.0	0.769	2920.0	1.0
19	69200.0	22305.0	0.764	2883.0	1.0
20	54921.0	23723.0	0.8175	2799.0	1.0
21	64148.0	22733.0	0.7785	2893.0	1.0
22	67491.0	23411.0	0.773	3092.0	1.0
23	64597.0	22362.0	0.7665	3139.0	1.0
24	62708.0	22331.0	0.7785	2938.0	1.0
25	65576.0	22477.0	0.7775	2873.0	1.0
26	60258.0	23235.0	0.773	3272.0	1.0
27	69951.0	22214.0	0.764	2768.0	1.0
28	55759.0	21591.0	0.7965	2917.0	1.0
29	53691.0	22786.0	0.817	3113.0	1.0
30	74964.0	23285.0	0.7605	2832.0	1.0
31	69680.0	22829.0	0.766	2969.0	1.0
32	67815.0	21958.0	0.7575	2919.0	1.0
33	63458.0	22454.0	0.788	2818.0	1.0
34	59237.0	23983.0	0.804	2941.0	1.0
35	63975.0	22473.0	0.789	2773.0	1.0
36	70211.0	22443.0	0.7725	2812.0	1.0
37	62536.0	22486.0	0.7855	2955.0	1.0
38	67562.0	22421.0	0.758	3229.0	1.0
39	68542.0	23616.0	0.7745	2936.0	1.0
40	54405.0	22231.0	0.7985	2911.0	1.0
41	61787.0	22763.0	0.7865	2884.0	1.0
42	66497.0	21512.0	0.7655	2981.0	1.0
43	69449.0	23361.0	0.7615	3056.0	1.0
44	67683.0	23469.0	0.7815	2987.0	1.0
45	60168.0	23401.0	0.7835	3306.0	1.0
46	69507.0	23514.0	0.7685	3025.0	1.0
47	58342.0	23057.0	0.801	2905.0	1.0
48	64660.0	22143.0	0.7675	2691.0	1.0
49	70491.0	24042.0	0.7855	2832.0	1.0
50	79063.0	22190.0	0.741	3069.0	1.0
51	66626.0	23310.0	0.7825	2991.0	1.0
52	57548.0	22861.0	0.8055	2883.0	1.0
53	63686.0	22932.0	0.787	3203.0	1.0
54	55496.0	23183.0	0.811	2952.0	1.0
55	60632.0	23978.0	0.7995	3059.0	1.0
56	64673.0	22908.0	0.783	2819.0	1.0
57	77211.0	23280.0	0.75	3278.0	1.0
58	67345.0	22929.0	0.778	2977.0	1.0
59	67130.0	23147.0	0.7815	2946.0	1.0
60	65030.0	22119.0	0.7695	3140.0	1.0
61	76109.0	24002.0	0.773	2658.0	1.0
62	65870.0	23374.0	0.7825	3002.0	1.0
63	61650.0	22704.0	0.783	2932.0	1.0
64	60083.0	23407.0	0.7995	3043.0	1.0
65	64847.0	22973.0	0.771	3095.0	1.0
66	63266.0	22966.0	0.784	3173.0	1.0
67	56218.0	24803.0	0.814	3241.0	1.0
68	64632.0	23309.0	0.7945	2805.0	1.0
69	63650.0	23128.0	0.7795	2923.0	1.0
70	62087.0	23176.0	0.778	3034.0	1.0
71	76549.0	22994.0	0.7585	2738.0	1.0
72	70055.0	23159.0	0.768	2888.0	1.0
73	59192.0	23053.0	0.797	2865.0	1.0
74	56838.0	22619.0	0.7955	2981.0	1.0
75	59554.0	22915.0	0.7945	2747.0	1.0
76	84749.0	22023.0	0.7235	3246.0	1.0
77	73927.0	24589.0	0.775	2955.0	1.0
78	67204.0	23539.0	0.79	2810.0	1.0
79	57526.0	21733.0	0.7945	2908.0	1.0
80	64257.0	23471.0	0.7935	2865.0	1.0
81	60384.0	22836.0	0.78	3138.0	1.0
82	55459.0	22496.0	0.808	2976.0	1.0
83	73875.0	22675.0	0.7555	2980.0	1.0
84	72076.0	24125.0	0.765	3131.0	1.0
85	52773.0	22319.0	0.806	3227.0	1.0
86	61846.0	22542.0	0.7715	3281.0	1.0
87	45287.0	23983.0	0.8535	3021.0	1.0
88	62436.0	23041.0	0.7835	2938.0	1.0
89	59188.0	22124.0	0.785	3265.0	1.0
90	74936.0	24077.0	0.7705	2896.0	1.0
91	71249.0	23158.0	0.7665	2929.0	1.0
92	60365.0	23725.0	0.7945	2940.0	1.0
93	54229.0	23410.0	0.8155	2857.0	1.0
94	72109.0	23899.0	0.7735	3126.0	1.0
95	67986.0	22137.0	0.77	2858.0	1.0
96	58743.0	24338.0	0.8085	2803.0	1.0
97	46745.0	22431.0	0.8305	2911.0	1.0
98	67845.0	24038.0	0.779	3289.0	1.0
99	61932.0	22355.0	0.763	3211.0	1.0
0	56888.0	23312.0	0.79	3256.0	1.0
1	68267.0	23600.0	0.7745	2920.0	1.0
2	70328.0	22904.0	0.7535	3177.0	1.0
3	68669.0	22429.0	0.773	2735.0	1.0
4	47114.0	22939.0	0.8415	3045.0	1.0
5	77197.0	23768.0	0.759	3088.0	1.0
6	65576.0	24475.0	0.7925	2987.0	1.0
7	69092.0	23020.0	0.766	3076.0	1.0
8	58305.0	23252.0	0.811	2908.0	1.0
9	53869.0	22477.0	0.7975	3193.0	1.0
10	63582.0	22143.0	0.7795	2770.0	1.0
11	65893.0	23510.0	0.777	3053.0	1.0
12	62187.0	21465.0	0.775	2912.0	1.0
13	64055.0	22126.0	0.7825	2803.0	1.0
14	77658.0	23160.0	0.752	2753.0	1.0
15	68178.0	21688.0	0.768	3024.0	1.0
16	64026.0	22757.0	0.7785	2951.0	1.0
17	55798.0	22813.0	0.812	2813.0	1.0
18	71669.0	22063.0	0.756	3096.0	1.0
19	70342.0	22117.0	0.7575	3059.0	1.0
20	60867.0	23592.0	0.8035	2767.0	1.0
21	60138.0	22836.0	0.7955	3147.0	1.0
22	62488.0	22933.0	0.778	3039.0	1.0
23	69049.0	22600.0	0.7735	2941.0	1.0
24	64544.0	22598.0	0.779	3067.0	1.0
25	62789.0	23916.0	0.7945	3012.0	1.0
26	54613.0	22936.0	0.809	2941.0	1.0
27	63410.0	22216.0	0.7775	3036.0	1.0
28	61439.0	21515.0	0.783	2829.0	1.0
29	53723.0	22921.0	0.812	2816.0	1.0
30	74836.0	23355.0	0.758	3015.0	1.0
31	67348.0	22692.0	0.771	3216.0	1.0
32	67944.0	22703.0	0.7695	3199.0	1.0
33	63209.0	23159.0	0.792	2897.0	1.0
34	61841.0	22982.0	0.792	3232.0	1.0
35	60924.0	22300.0	0.7795	2964.0	1.0
36	68851.0	22895.0	0.778	2902.0	1.0
37	50435.0	21905.0	0.805	3018.0	1.0
38	74126.0	23165.0	0.769	2890.0	1.0
39	60923.0	23136.0	0.7865	2951.0	1.0
40	58771.0	23207.0	0.7925	2912.0	1.0
41	61420.0	22573.0	0.794	2907.0	1.0
42	76534.0	23648.0	0.7625	2927.0	1.0
43	56232.0	23941.0	0.8125	2961.0	1.0
44	65066.0	22927.0	0.7815	2874.0	1.0
45	63292.0	23420.0	0.784	2880.0	1.0
46	59225.0	21719.0	0.781	3048.0	1.0
47	63994.0	23572.0	0.78	3245.0	1.0
48	61163.0	22836.0	0.7905	2904.0	1.0
49	60078.0	23177.0	0.7945	2900.0	1.0
50	62713.0	21818.0	0.7785	2909.0	1.0
51	63218.0	23025.0	0.7865	2903.0	1.0
52	58492.0	22969.0	0.791	3037.0	1.0
53	69541.0	21053.0	0.7565	2985.0	1.0
54	62378.0	22800.0	0.791	3024.0	1.0
55	64348.0	22989.0	0.796	2871.0	1.0
56	58900.0	22626.0	0.7985	2939.0	1.0
57	60881.0	22277.0	0.786	2797.0	1.0
58	61654.0	22635.0	0.7765	3131.0	1.0
59	72913.0	23690.0	0.774	3064.0	1.0
60	68375.0	22546.0	0.7705	2973.0	1.0
61	62670.0	23958.0	0.794	3069.0	1.0
62	65456.0	22845.0	0.774	2975.0	1.0
63	67273.0	23565.0	0.7755	3052.0	1.0
64	73780.0	22856.0	0.759	2973.0	1.0
65	61295.0	23701.0	0.8	2954.0	1.0
66	64013.0	22923.0	0.789	2969.0	1.0
67	56158.0	23603.0	0.814	2886.0	1.0
68	68053.0	23808.0	0.772	3434.0	1.0
69	54794.0	22110.0	0.812	2807.0	1.0
70	71108.0	21616.0	0.7615	2801.0	1.0
71	74159.0	23121.0	0.756	3006.0	1.0
72	77543.0	21876.0	0.7485	2899.0	1.0
73	54652.0	22973.0	0.8055	2852.0	1.0
74	61449.0	22890.0	0.7905	3091.0	1.0
75	58645.0	22588.0	0.791	2886.0	1.0
76	71451.0	22486.0	0.7555	3038.0	1.0
77	69134.0	22704.0	0.77	3122.0	1.0
78	63258.0	22668.0	0.7765	2960.0	1.0
79	67126.0	23268.0	0.7795	2729.0	1.0
80	77153.0	22995.0	0.757	3221.0	1.0
81	61337.0	22180.0	0.7865	3094.0	1.0
82	58500.0	22995.0	0.794	3122.0	1.0
83	70814.0	22007.0	0.76	2894.0	1.0
84	68344.0	21606.0	0.763	2783.0	1.0
85	60918.0	22361.0	0.786	2849.0	1.0
86	68399.0	22694.0	0.77	3074.0	1.0
87	52087.0	23566.0	0.834	3012.0	1.0
88	62982.0	22485.0	0.7855	2917.0	1.0
89	54450.0	21831.0	0.797	3139.0	1.0
90	68990.0	22967.0	0.7745	2689.0	1.0
91	62742.0	24134.0	0.7835	3017.0	1.0
92	68142.0	22842.0	0.7755	2776.0	1.0
93	56253.0	24084.0	0.8025	3446.0	1.0
94	69374.0	23603.0	0.7695	3259.0	1.0
95	61067.0	23179.0	0.799	2796.0	1.0
96	60784.0	22620.0	0.781	3267.0	1.0
97	49658.0	23783.0	0.8365	3000.0	1.0
98	69569.0	23119.0	0.774	3103.0	1.0
99	66266.0	22949.0	0.769	2910.0	1.0
0	59714.0	23854.0	0.791	3341.0	1.0
1	74290.0	22650.0	0.757	3106.0	1.0
2	76285.0	23171.0	0.756	3080.0	1.0
3	64789.0	23325.0	0.782	2875.0	1.0
4	55820.0	23389.0	0.8	2986.0	1.0
5	70993.0	21951.0	0.76	2862.0	1.0
6	72029.0	23604.0	0.768	2938.0	1.0
7	62783.0	22698.0	0.7725	2847.0	1.0
8	55690.0	24146.0	0.8065	2894.0	1.0
9	53917.0	22719.0	0.8165	2816.0	1.0
10	56625.0	22543.0	0.798	3020.0	1.0
11	55039.0	22847.0	0.81	2882.0	1.0
12	69684.0	22200.0	0.759	3115.0	1.0
13	71053.0	23038.0	0.7645	2900.0	1.0
14	59270.0	22145.0	0.778	2801.0	1.0
15	68569.0	23060.0	0.7545	3205.0	1.0
16	61745.0	23380.0	0.7845	3362.0	1.0
17	55352.0	22566.0	0.8035	2972.0	1.0
18	67677.0	22257.0	0.7595	3026.0	1.0
19	65620.0	22866.0	0.7755	2828.0	1.0
20	54238.0	21738.0	0.8035	2972.0	1.0
21	60319.0	22495.0	0.7875	2837.0	1.0
22	65282.0	21913.0	0.7675	2913.0	1.0
23	65808.0	22479.0	0.7785	2768.0	1.0
24	76060.0	22687.0	0.751	2954.0	1.0
25	75816.0	22571.0	0.75	2776.0	1.0
26	62223.0	24553.0	0.8015	3048.0	1.0
27	65094.0	20962.0	0.768	2828.0	1.0
28	53994.0	22213.0	0.8075	2924.0	1.0
29	53292.0	23271.0	0.82	2741.0	1.0
30	68869.0	22619.0	0.772	3032.0	1.0
31	62557.0	22166.0	0.78	3001.0	1.0
32	69732.0	23544.0	0.7715	2869.0	1.0
33	62645.0	23630.0	0.7815	3196.0	1.0
34	59603.0	22211.0	0.791	3041.0	1.0
35	64859.0	22919.0	0.78	3028.0	1.0
36	73047.0	23840.0	0.752	3031.0	1.0
37	60486.0	20893.0	0.771	2848.0	1.0
38	66779.0	22966.0	0.7745	3002.0	1.0
39	72426.0	23621.0	0.762	3383.0	1.0
40	64988.0	22269.0	0.767	3086.0	1.0
41	57501.0	23702.0	0.8075	3044.0	1.0
42	63527.0	23736.0	0.7985	2758.0	1.0
43	60685.0	23453.0	0.7925	2873.0	1.0
44	56524.0	21973.0	0.803	2670.0	1.0
45	58440.0	24248.0	0.798	2900.0	1.0
46	64538.0	21823.0	0.7705	2849.0	1.0
47	56872.0	21939.0	0.7965	2706.0	1.0
48	61720.0	22459.0	0.7825	2875.0	1.0
49	62247.0	22960.0	0.7855	3041.0	1.0
50	62760.0	22672.0	0.7735	2958.0	1.0
51	57951.0	24415.0	0.8075	3194.0	1.0
52	59140.0	23148.0	0.7945	3137.0	1.0
53	67227.0	24072.0	0.7895	3144.0	1.0
54	58812.0	21868.0	0.7985	2649.0	1.0
55	59270.0	21818.0	0.799	2839.0	1.0
56	66295.0	23782.0	0.7775	3156.0	1.0
57	67628.0	22251.0	0.7615	3100.0	1.0
58	57883.0	23557.0	0.8015	3081.0	1.0
59	62800.0	23455.0	0.799	3107.0	1.0
60	69777.0	23467.0	0.7745	2826.0	1.0
61	63416.0	23569.0	0.789	3579.0	0.999
62	60431.0	23466.0	0.7945	2935.0	1.0
63	49218.0	22442.0	0.8265	3038.0	1.0
64	65214.0	23013.0	0.7795	3041.0	1.0
65	65769.0	22875.0	0.7895	3240.0	1.0
66	67834.0	22582.0	0.762	3027.0	1.0
67	57552.0	24544.0	0.8035	3088.0	1.0
68	58888.0	22109.0	0.795	2921.0	1.0
69	63121.0	23012.0	0.7875	2959.0	1.0
70	59975.0	23462.0	0.805	2827.0	1.0
71	61295.0	23134.0	0.7935	2679.0	1.0
72	70843.0	22028.0	0.755	3276.0	0.9995
73	55225.0	22672.0	0.8045	2948.0	1.0
74	64414.0	23296.0	0.7835	2862.0	1.0
75	69004.0	23217.0	0.771	2849.0	1.0
76	64113.0	21674.0	0.771	2869.0	1.0
77	59960.0	22859.0	0.7885	2825.0	1.0
78	73561.0	24101.0	0.7655	3002.0	1.0
79	66845.0	22479.0	0.7715	3002.0	1.0
80	70472.0	22284.0	0.7615	2958.0	1.0
81	64051.0	23026.0	0.7885	2870.0	1.0
82	63896.0	23685.0	0.787	3005.0	1.0
83	65551.0	22107.0	0.7625	2899.0	1.0
84	71173.0	23745.0	0.7675	3010.0	1.0
85	56197.0	21149.0	0.7885	2939.0	1.0
86	75613.0	22732.0	0.748	3131.0	1.0
87	50895.0	23215.0	0.829	2852.0	1.0
88	62306.0	23164.0	0.786	3231.0	1.0
89	62362.0	21797.0	0.765	3174.0	1.0
90	61349.0	23586.0	0.7925	3141.0	1.0
91	72016.0	23913.0	0.7695	3043.0	1.0
92	74115.0	22170.0	0.755	2868.0	1.0
93	58167.0	23656.0	0.808	2941.0	1.0
94	66779.0	23346.0	0.775	3336.0	1.0
95	69839.0	23447.0	0.7605	3229.0	1.0
96	52290.0	22211.0	0.813	2981.0	1.0
97	55414.0	24062.0	0.827	2989.0	1.0
98	60362.0	23258.0	0.785	3398.0	1.0
99	71444.0	23655.0	0.768	2962.0	1.0
0	62454.0	23073.0	0.7925	2846.0	1.0
1	65883.0	23788.0	0.7795	3090.0	1.0
2	64433.0	22562.0	0.7765	2869.0	1.0
3	70309.0	22222.0	0.752	2847.0	1.0
4	55673.0	24464.0	0.823	2983.0	1.0
5	73324.0	22999.0	0.76	2989.0	1.0
6	76516.0	22668.0	0.751	3112.0	1.0
7	62210.0	22170.0	0.781	2848.0	1.0
8	61194.0	22857.0	0.784	3176.0	1.0
9	54969.0	23163.0	0.816	2716.0	1.0
10	60923.0	22838.0	0.78	3287.0	1.0
11	57754.0	21622.0	0.7925	2882.0	1.0
12	66214.0	21229.0	0.7615	2986.0	1.0
13	64184.0	22387.0	0.7875	3336.0	1.0
14	66256.0	21591.0	0.7735	2654.0	1.0
15	69991.0	21458.0	0.7505	3019.0	1.0
16	64271.0	22476.0	0.7875	2956.0	1.0
17	66105.0	23281.0	0.767	3042.0	1.0
18	66781.0	23404.0	0.7745	3203.0	1.0
19	61513.0	23025.0	0.79	2833.0	1.0
20	52855.0	22642.0	0.803	3204.0	1.0
21	60533.0	22986.0	0.794	2779.0	1.0
22	71371.0	21632.0	0.761	2704.0	1.0
23	61845.0	23050.0	0.786	2945.0	1.0
24	68887.0	22398.0	0.768	2831.0	1.0
25	62767.0	23324.0	0.793	2834.0	1.0
26	52393.0	22283.0	0.8165	2844.0	1.0
27	71075.0	22487.0	0.76	2952.0	1.0
28	61460.0	22430.0	0.792	2930.0	1.0
29	55749.0	23334.0	0.7985	3144.0	1.0
30	74173.0	23802.0	0.7645	3017.0	1.0
31	92780.0	23930.0	0.738	3008.0	1.0
32	72371.0	22721.0	0.752	3160.0	1.0
33	63817.0	23285.0	0.7935	3259.0	1.0
34	63517.0	22274.0	0.79	2767.0	1.0
35	67148.0	23386.0	0.7735	2954.0	1.0
36	68741.0	22759.0	0.7815	2710.0	1.0
37	65124.0	23595.0	0.7775	3334.0	1.0
38	69240.0	23568.0	0.7665	2856.0	1.0
39	64495.0	22287.0	0.772	2932.0	1.0
40	62988.0	22871.0	0.7895	3008.0	1.0
41	57432.0	22186.0	0.789	2924.0	1.0
42	75616.0	24359.0	0.7555	3217.0	1.0
43	66829.0	23336.0	0.7835	3047.0	1.0
44	60330.0	23637.0	0.7965	3133.0	1.0
45	74138.0	22913.0	0.7605	3133.0	1.0
46	59945.0	23060.0	0.792	2864.0	1.0
47	66313.0	23711.0	0.784	2853.0	1.0
48	62935.0	22635.0	0.7805	2907.0	1.0
49	71578.0	23353.0	0.7715	2885.0	1.0
50	71497.0	22333.0	0.7605	2983.0	1.0
51	59007.0	23131.0	0.7905	3322.0	1.0
52	53181.0	22073.0	0.8155	3071.0	1.0
53	72393.0	22812.0	0.7665	3081.0	1.0
54	57069.0	22469.0	0.7945	2898.0	1.0
55	63029.0	22175.0	0.776	3067.0	1.0
56	66063.0	21939.0	0.7795	2791.0	1.0
57	74143.0	22743.0	0.752	2987.0	1.0
58	63680.0	22638.0	0.7975	2761.0	1.0
59	62795.0	22725.0	0.79	2814.0	1.0
60	72857.0	23541.0	0.769	2841.0	1.0
61	56171.0	22602.0	0.813	2684.0	1.0
62	71618.0	23426.0	0.7665	2960.0	1.0
63	59510.0	22315.0	0.7855	2960.0	1.0
64	71519.0	22527.0	0.7555	3108.0	1.0
65	67078.0	22740.0	0.7745	3234.0	1.0
66	69204.0	23579.0	0.7685	2926.0	1.0
67	54663.0	22691.0	0.8035	2971.0	1.0
68	66924.0	23235.0	0.7825	2810.0	1.0
69	63595.0	23110.0	0.7825	3173.0	1.0
70	68994.0	23989.0	0.7805	2979.0	1.0
71	65970.0	22755.0	0.7685	2991.0	1.0
72	74224.0	22820.0	0.7565	2737.0	1.0
73	57236.0	24064.0	0.8065	2863.0	1.0
74	65088.0	24052.0	0.7805	2891.0	1.0
75	65364.0	23821.0	0.7825	3225.0	1.0
76	77403.0	23037.0	0.745	2964.0	1.0
77	67886.0	21380.0	0.764	2623.0	1.0
78	63092.0	24313.0	0.7955	3085.0	1.0
79	62204.0	23342.0	0.796	3182.0	1.0
80	65176.0	22751.0	0.7745	3116.0	1.0
81	72908.0	23657.0	0.7515	3165.0	1.0
82	59774.0	21977.0	0.787	2721.0	1.0
83	69204.0	21682.0	0.763	2734.0	1.0
84	65577.0	22589.0	0.7705	3076.0	1.0
85	67893.0	23666.0	0.779	2774.0	1.0
86	70278.0	21793.0	0.764	2940.0	1.0
87	48462.0	23198.0	0.841	2908.0	1.0
88	58165.0	22217.0	0.794	2924.0	1.0
89	55535.0	22258.0	0.7965	2964.0	1.0
90	66650.0	22999.0	0.779	2929.0	1.0
91	64175.0	21902.0	0.773	2856.0	1.0
92	70038.0	22247.0	0.758	3115.0	1.0
93	56137.0	24050.0	0.812	2933.0	1.0
94	66715.0	23423.0	0.777	2999.0	1.0
95	65740.0	22962.0	0.775	2813.0	1.0
96	50707.0	22668.0	0.8245	2726.0	1.0
97	56292.0	23418.0	0.7905	3106.0	1.0
98	72894.0	24111.0	0.769	3050.0	1.0
99	58323.0	22945.0	0.7925	3330.0	1.0
0	61049.0	23381.0	0.791	3125.0	1.0
1	68104.0	22571.0	0.7695	3036.0	1.0
2	60827.0	22902.0	0.793	2912.0	1.0
3	73448.0	22733.0	0.75	3048.0	1.0
4	53055.0	23227.0	0.8065	3246.0	1.0
5	69178.0	21527.0	0.766	2897.0	1.0
6	69087.0	23377.0	0.768	2869.0	1.0
7	67640.0	22693.0	0.7725	2794.0	1.0
8	57980.0	23895.0	0.8065	3240.0	1.0
9	54703.0	23306.0	0.8155	3005.0	1.0
10	73044.0	23381.0	0.768	2853.0	1.0
11	58154.0	22677.0	0.7935	3166.0	1.0
12	65505.0	21734.0	0.7705	3138.0	1.0
13	66671.0	21963.0	0.767	2924.0	1.0
14	58847.0	22404.0	0.7885	2932.0	1.0
15	69792.0	21636.0	0.7675	2569.0	1.0
16	64897.0	22070.0	0.7805	3046.0	1.0
17	64213.0	23536.0	0.7865	3043.0	1.0
18	71087.0	22845.0	0.7625	3265.0	1.0
19	65685.0	24172.0	0.777	3439.0	1.0
20	52156.0	23429.0	0.8205	2952.0	1.0
21	68859.0	23391.0	0.777	3045.0	1.0
22	65428.0	23853.0	0.775	3194.0	1.0
23	69132.0	24272.0	0.7755	3129.0	1.0
24	78909.0	22918.0	0.7415	3330.0	1.0
25	60497.0	21782.0	0.7805	2936.0	1.0
26	56141.0	23437.0	0.8085	3015.0	1.0
27	77133.0	22862.0	0.7455	3109.0	1.0
28	72012.0	25117.0	0.7745	2918.0	1.0
29	64084.0	23513.0	0.786	2975.0	1.0
30	76834.0	23596.0	0.7525	3110.0	1.0
31	70477.0	21903.0	0.7605	2797.0	1.0
32	64261.0	22454.0	0.7725	2881.0	1.0
33	63336.0	23172.0	0.789	2751.0	1.0
34	60512.0	22518.0	0.79	3087.0	1.0
35	70947.0	22651.0	0.7595	2826.0	1.0
36	59166.0	22351.0	0.7895	3104.0	1.0
37	64636.0	21785.0	0.76	2975.0	1.0
38	74157.0	23111.0	0.7685	2873.0	1.0
39	63664.0	22510.0	0.775	2923.0	1.0
40	58938.0	22071.0	0.795	2911.0	1.0
41	60534.0	21681.0	0.783	2773.0	1.0
42	71586.0	23823.0	0.7625	2931.0	1.0
43	70678.0	22508.0	0.764	2897.0	1.0
44	60299.0	24125.0	0.7915	3198.0	1.0
45	66934.0	23007.0	0.779	3344.0	1.0
46	68440.0	22155.0	0.777	2817.0	1.0
47	54297.0	23016.0	0.804	3223.0	1.0
48	61523.0	22690.0	0.788	2929.0	1.0
49	61686.0	21557.0	0.7745	2948.0	1.0
50	69542.0	22680.0	0.7665	2936.0	1.0
51	58035.0	23708.0	0.7995	3070.0	1.0
52	59149.0	23559.0	0.7975	3069.0	1.0
53	67026.0	22473.0	0.768	3030.0	1.0
54	62784.0	22724.0	0.772	3321.0	1.0
55	61725.0	22075.0	0.788	2992.0	1.0
56	64362.0	23766.0	0.7905	2917.0	1.0
57	77156.0	23594.0	0.7545	2777.0	1.0
58	65253.0	23569.0	0.7865	2890.0	1.0
59	56931.0	22173.0	0.789	3047.0	1.0
60	76217.0	22902.0	0.7575	2993.0	1.0
61	69806.0	22662.0	0.7625	3194.0	1.0
62	65257.0	21958.0	0.767	3250.0	1.0
63	56521.0	22726.0	0.7955	3201.0	1.0
64	72557.0	23644.0	0.762	3013.0	1.0
65	63489.0	22937.0	0.79	2988.0	1.0
66	79374.0	23731.0	0.742	3469.0	1.0
67	53568.0	23299.0	0.8075	2898.0	1.0
68	62442.0	22973.0	0.784	3068.0	1.0
69	63598.0	23322.0	0.7765	3105.0	1.0
70	61018.0	22312.0	0.7845	2957.0	1.0
71	66007.0	21816.0	0.7735	2881.0	1.0
72	77188.0	23305.0	0.748	3032.0	1.0
73	53081.0	22960.0	0.804	2987.0	1.0
74	71572.0	23031.0	0.7605	3072.0	1.0
75	56962.0	23092.0	0.7995	3034.0	1.0
76	69654.0	22931.0	0.771	3107.0	1.0
77	75493.0	22693.0	0.744	3490.0	1.0
78	65833.0	23196.0	0.779	3023.0	1.0
79	60982.0	23153.0	0.803	2968.0	1.0
80	79207.0	23307.0	0.7395	3005.0	1.0
81	58213.0	22593.0	0.7895	3330.0	1.0
82	56399.0	23290.0	0.811	3091.0	1.0
83	79770.0	23687.0	0.7535	2852.0	1.0
84	74772.0	24111.0	0.7515	2941.0	1.0
85	64884.0	22606.0	0.7795	2910.0	1.0
86	66070.0	22137.0	0.778	2839.0	1.0
87	50653.0	23529.0	0.835	2799.0	1.0
88	57120.0	22628.0	0.796	3116.0	1.0
89	57051.0	23004.0	0.7955	3129.0	1.0
90	62678.0	22527.0	0.783	2935.0	1.0
91	67073.0	22645.0	0.778	2895.0	1.0
92	67634.0	22928.0	0.766	3108.0	1.0
93	51860.0	23123.0	0.811	2988.0	1.0
94	58251.0	22902.0	0.801	3161.0	1.0
95	71129.0	22206.0	0.764	3071.0	1.0
96	57976.0	23090.0	0.8025	3047.0	1.0
97	53937.0	23494.0	0.8285	2927.0	1.0
98	63209.0	23663.0	0.794	2815.0	1.0
99	61685.0	23914.0	0.794	2988.0	1.0
0	63347.0	23438.0	0.778	3137.0	1.0
1	77266.0	23383.0	0.759	3142.0	1.0
2	66118.0	22682.0	0.7735	2672.0	1.0
3	77669.0	23137.0	0.7415	3044.0	1.0
4	53553.0	23334.0	0.821	2829.0	1.0
5	72819.0	22642.0	0.7555	3092.0	1.0
6	67689.0	23328.0	0.7795	3259.0	1.0
7	67363.0	23030.0	0.766	2996.0	1.0
8	59726.0	23739.0	0.803	2908.0	1.0
9	55645.0	24313.0	0.819	3221.0	1.0
10	65744.0	23162.0	0.77	3014.0	1.0
11	69144.0	23235.0	0.7775	2950.0	1.0
12	63187.0	22586.0	0.789	2803.0	1.0
13	72801.0	22913.0	0.767	2859.0	1.0
14	61132.0	21444.0	0.7845	2755.0	1.0
15	63355.0	22795.0	0.7815	2942.0	1.0
16	59912.0	22604.0	0.7915	3223.0	1.0
17	67270.0	24375.0	0.785	3134.0	1.0
18	63166.0	23036.0	0.7855	2738.0	1.0
19	63711.0	22810.0	0.778	2905.0	1.0
20	50187.0	22680.0	0.821	3038.0	1.0
21	71006.0	23776.0	0.7715	2910.0	1.0
22	61133.0	22045.0	0.7705	3168.0	1.0
23	69809.0	22049.0	0.768	2941.0	1.0
24	68122.0	22132.0	0.7655	3001.0	1.0
25	64215.0	22327.0	0.779	2895.0	1.0
26	59579.0	23780.0	0.804	3034.0	1.0
27	83992.0	23256.0	0.7375	3158.0	1.0
28	65412.0	22265.0	0.773	2854.0	1.0
29	56055.0	22855.0	0.799	2897.0	1.0
30	72328.0	23197.0	0.759	3343.0	1.0
31	63957.0	22528.0	0.782	2835.0	1.0
32	61886.0	22634.0	0.782	2759.0	1.0
33	70983.0	22640.0	0.765	2851.0	1.0
34	58747.0	22265.0	0.7885	3109.0	1.0
35	72996.0	23345.0	0.774	2931.0	1.0
36	62116.0	22808.0	0.7815	2986.0	1.0
37	66150.0	22059.0	0.755	2999.0	1.0
38	66897.0	21864.0	0.762	2876.0	1.0
39	69591.0	23446.0	0.778	2900.0	1.0
40	63335.0	22932.0	0.7845	3020.0	1.0
41	65571.0	22706.0	0.7675	3155.0	1.0
42	62666.0	23192.0	0.793	2883.0	1.0
43	65487.0	22419.0	0.797	2604.0	1.0
44	60547.0	23385.0	0.7875	3482.0	1.0
45	59002.0	23708.0	0.798	2958.0	1.0
46	58888.0	22224.0	0.7815	2842.0	1.0
47	53641.0	23698.0	0.8095	3079.0	1.0
48	58159.0	23725.0	0.7985	2911.0	1.0
49	61213.0	23490.0	0.7785	3358.0	1.0
50	64125.0	22484.0	0.789	2853.0	1.0
51	64947.0	23007.0	0.772	3073.0	1.0
52	57532.0	23937.0	0.8055	2860.0	1.0
53	70903.0	21286.0	0.769	2801.0	1.0
54	61608.0	24552.0	0.7955	3377.0	1.0
55	62271.0	23345.0	0.791	2914.0	1.0
56	60056.0	23072.0	0.7995	3075.0	1.0
57	63217.0	21557.0	0.7755	3104.0	1.0
58	61497.0	23727.0	0.787	3215.0	1.0
59	56991.0	23247.0	0.794	3031.0	1.0
60	55863.0	21358.0	0.7875	2922.0	1.0
61	64384.0	24050.0	0.785	3079.0	1.0
62	68535.0	22459.0	0.765	3081.0	1.0
63	70233.0	23847.0	0.7815	2939.0	1.0
64	73615.0	23083.0	0.755	2955.0	1.0
65	71063.0	23002.0	0.772	3075.0	1.0
66	69591.0	23718.0	0.7685	3081.0	1.0
67	51300.0	23271.0	0.8155	3227.0	1.0
68	66073.0	23977.0	0.7815	3127.0	1.0
69	60616.0	22752.0	0.796	2796.0	1.0
70	61662.0	21966.0	0.789	2840.0	1.0
71	72878.0	22698.0	0.754	3018.0	1.0
72	70142.0	22126.0	0.761	2847.0	1.0
73	54614.0	22446.0	0.815	3155.0	1.0
74	57820.0	22159.0	0.7965	3240.0	1.0
75	71984.0	23780.0	0.7775	2727.0	1.0
76	76915.0	22942.0	0.7565	3047.0	1.0
77	73132.0	22050.0	0.755	2974.0	1.0
78	61420.0	22676.0	0.7835	3049.0	1.0
79	62878.0	24128.0	0.794	2955.0	1.0
80	62417.0	22471.0	0.7865	3002.0	1.0
81	57143.0	22744.0	0.8065	2676.0	1.0
82	54368.0	23624.0	0.8225	3066.0	1.0
83	65697.0	22370.0	0.772	2868.0	1.0
84	59672.0	22117.0	0.778	3251.0	1.0
85	63059.0	22687.0	0.7785	2865.0	1.0
86	68712.0	22973.0	0.7565	3170.0	1.0
87	53693.0	24718.0	0.832	3086.0	1.0
88	65382.0	22282.0	0.774	3158.0	1.0
89	62799.0	23656.0	0.785	3182.0	1.0
90	64673.0	22408.0	0.776	3007.0	1.0
91	76031.0	22666.0	0.7535	2900.0	1.0
92	72702.0	23125.0	0.755	3105.0	1.0
93	53742.0	23302.0	0.8055	3093.0	1.0
94	68355.0	22938.0	0.7685	3121.0	1.0
95	67243.0	22159.0	0.763	2981.0	1.0
96	54249.0	22399.0	0.7985	3273.0	1.0
97	48738.0	23374.0	0.834	3020.0	1.0
98	66875.0	23442.0	0.7815	3036.0	1.0
99	61437.0	23672.0	0.7875	3056.0	1.0
0	60811.0	23171.0	0.7945	2908.0	1.0
1	73216.0	23158.0	0.7625	2989.0	1.0
2	75567.0	23465.0	0.7515	3126.0	1.0
3	72079.0	22751.0	0.755	3388.0	1.0
4	49770.0	23037.0	0.827	2968.0	1.0
5	71653.0	21745.0	0.7615	3059.0	1.0
6	65113.0	22223.0	0.781	2994.0	1.0
7	82535.0	23189.0	0.7405	2995.0	1.0
8	58255.0	23858.0	0.802	3006.0	1.0
9	60787.0	22578.0	0.8	2828.0	1.0
10	63906.0	22767.0	0.784	2964.0	1.0
11	61300.0	23671.0	0.7895	3390.0	1.0
12	68730.0	22582.0	0.763	3250.0	1.0
13	65027.0	22189.0	0.782	2931.0	1.0
14	65770.0	22250.0	0.769	3214.0	1.0
15	64668.0	23338.0	0.78	2775.0	1.0
16	61309.0	22984.0	0.783	3030.0	1.0
17	73124.0	24554.0	0.767	3591.0	1.0
18	72297.0	22079.0	0.7535	2968.0	1.0
19	62367.0	21600.0	0.7745	2856.0	1.0
20	57547.0	23822.0	0.8065	3023.0	1.0
21	61077.0	22932.0	0.79	2914.0	1.0
22	63337.0	22852.0	0.778	3064.0	1.0
23	66717.0	23271.0	0.768	2912.0	1.0
24	76643.0	22367.0	0.7565	2731.0	1.0
25	62707.0	22710.0	0.7735	3215.0	1.0
26	54632.0	23829.0	0.8135	3143.0	1.0
27	82281.0	23402.0	0.738	3020.0	1.0
28	64742.0	21400.0	0.7685	2942.0	1.0
29	57552.0	22595.0	0.7995	2940.0	1.0
30	67645.0	21248.0	0.761	2729.0	1.0
31	66394.0	22285.0	0.7675	3331.0	1.0
32	63421.0	22945.0	0.7885	2969.0	1.0
33	62924.0	23266.0	0.786	2999.0	1.0
34	60591.0	23587.0	0.7955	3275.0	1.0
35	65780.0	24292.0	0.778	3366.0	1.0
36	59797.0	23218.0	0.7915	2984.0	1.0
37	62705.0	21600.0	0.77	3114.0	1.0
38	72430.0	22446.0	0.758	3050.0	1.0
39	67425.0	23693.0	0.769	3154.0	1.0
40	60107.0	23506.0	0.797	3076.0	1.0
41	57717.0	22953.0	0.806	2856.0	1.0
42	61214.0	22556.0	0.7835	3228.0	1.0
43	67925.0	23776.0	0.776	2964.0	1.0
44	65600.0	23424.0	0.777	2972.0	1.0
45	67497.0	23104.0	0.7805	3026.0	1.0
46	62820.0	22187.0	0.781	2900.0	1.0
47	65480.0	22924.0	0.775	2793.0	1.0
48	57574.0	22808.0	0.8085	2830.0	1.0
49	60244.0	22509.0	0.794	2958.0	1.0
50	71886.0	23261.0	0.7715	2824.0	1.0
51	61094.0	22790.0	0.7805	2957.0	1.0
52	64666.0	24447.0	0.789	3155.0	1.0
53	75887.0	23281.0	0.7625	2797.0	1.0
54	58906.0	21966.0	0.7955	2894.0	1.0
55	59403.0	22786.0	0.792	3064.0	1.0
56	63522.0	22975.0	0.776	2915.0	1.0
57	75213.0	23537.0	0.7495	3067.0	1.0
58	63066.0	24207.0	0.7975	2914.0	1.0
59	66901.0	23877.0	0.781	3066.0	1.0
60	65348.0	21884.0	0.7605	2982.0	1.0
61	62735.0	22928.0	0.7845	3003.0	1.0
62	65433.0	23457.0	0.7835	2969.0	1.0
63	59047.0	23231.0	0.7955	2921.0	1.0
64	63848.0	22790.0	0.782	2809.0	1.0
65	68314.0	22911.0	0.776	2850.0	1.0
66	70551.0	23081.0	0.758	3401.0	1.0
67	54042.0	23184.0	0.8115	3030.0	1.0
68	61764.0	22893.0	0.7795	2964.0	1.0
69	61274.0	24581.0	0.7995	3047.0	1.0
70	62372.0	23115.0	0.7845	3028.0	1.0
71	76023.0	22524.0	0.7505	2778.0	1.0
72	80054.0	21487.0	0.7335	2917.0	1.0
73	54662.0	22779.0	0.819	2877.0	1.0
74	62522.0	24739.0	0.8045	3031.0	1.0
75	64246.0	23274.0	0.7845	3031.0	1.0
76	64015.0	22683.0	0.7835	2930.0	1.0
77	65832.0	22400.0	0.7685	2963.0	1.0
78	68011.0	22339.0	0.766	2999.0	1.0
79	60001.0	22102.0	0.79	3141.0	1.0
80	59305.0	22335.0	0.796	2803.0	1.0
81	57116.0	21880.0	0.786	3145.0	1.0
82	57787.0	23455.0	0.8055	3078.0	1.0
83	67080.0	22300.0	0.77	2985.0	1.0
84	75035.0	22939.0	0.7535	3065.0	1.0
85	63685.0	22758.0	0.7785	2769.0	1.0
86	61730.0	22336.0	0.7825	2890.0	1.0
87	52492.0	23748.0	0.825	2999.0	1.0
88	63218.0	22340.0	0.7855	3103.0	1.0
89	62579.0	22132.0	0.7795	2972.0	1.0
90	73078.0	24097.0	0.7595	3012.0	1.0
91	70895.0	22029.0	0.758	2972.0	1.0
92	64943.0	23978.0	0.78	3129.0	1.0
93	56856.0	24204.0	0.8005	3035.0	1.0
94	77308.0	23842.0	0.765	3014.0	1.0
95	75735.0	23630.0	0.7645	2833.0	1.0
96	64973.0	23192.0	0.785	3035.0	1.0
97	52129.0	22795.0	0.8175	3016.0	1.0
98	66025.0	23732.0	0.7745	3218.0	1.0
99	64678.0	23448.0	0.781	3186.0	1.0
0	63003.0	22452.0	0.775	2948.0	1.0
1	72842.0	23724.0	0.76	3152.0	1.0
2	70737.0	23168.0	0.7605	2849.0	1.0
3	78964.0	22602.0	0.749	2759.0	1.0
4	55393.0	23973.0	0.821	2939.0	1.0
5	64307.0	21498.0	0.7765	2825.0	1.0
6	65234.0	23598.0	0.785	2777.0	1.0
7	63983.0	21851.0	0.777	3065.0	1.0
8	53584.0	22103.0	0.8155	2875.0	1.0
9	53979.0	23340.0	0.817	2917.0	1.0
10	76273.0	21701.0	0.742	2800.0	1.0
11	65670.0	23637.0	0.789	2853.0	1.0
12	66090.0	22332.0	0.7625	3237.0	1.0
13	61397.0	23776.0	0.79	2920.0	1.0
14	60237.0	22710.0	0.7895	3012.0	1.0
15	72985.0	22687.0	0.759	3062.0	1.0
16	68295.0	22643.0	0.767	2755.0	1.0
17	62633.0	22879.0	0.785	2781.0	1.0
18	82651.0	23618.0	0.7435	2825.0	1.0
19	62972.0	23764.0	0.793	3044.0	1.0
20	49522.0	22227.0	0.8245	2918.0	1.0
21	58394.0	23295.0	0.8015	2896.0	1.0
22	72337.0	23325.0	0.7665	2891.0	1.0
23	73685.0	24810.0	0.7745	3028.0	1.0
24	64150.0	23079.0	0.785	2929.0	1.0
25	57534.0	23083.0	0.808	3012.0	1.0
26	64636.0	22135.0	0.775	2920.0	1.0
27	69998.0	21290.0	0.753	2834.0	1.0
28	60986.0	23302.0	0.793	3025.0	1.0
29	63278.0	23943.0	0.8025	2660.0	1.0
30	68157.0	24181.0	0.774	2952.0	1.0
31	71443.0	23189.0	0.749	2970.0	1.0
32	69704.0	22069.0	0.766	2900.0	1.0
33	58423.0	22649.0	0.7985	3024.0	1.0
34	61777.0	23559.0	0.792	3104.0	1.0
35	65506.0	22821.0	0.788	2958.0	1.0
36	61549.0	21787.0	0.7875	2644.0	1.0
37	58954.0	22259.0	0.7955	3128.0	1.0
38	72442.0	22063.0	0.752	3098.0	1.0
39	68590.0	22780.0	0.768	3111.0	1.0
40	58429.0	22482.0	0.7905	2835.0	1.0
41	58999.0	22863.0	0.792	3091.0	1.0
42	66933.0	23011.0	0.785	2915.0	1.0
43	64884.0	22923.0	0.79	2839.0	1.0
44	69433.0	24470.0	0.781	2750.0	1.0
45	67124.0	23143.0	0.7815	3195.0	1.0
46	61803.0	22636.0	0.7905	2780.0	1.0
47	61301.0	23637.0	0.7845	2974.0	1.0
48	63185.0	21535.0	0.766	3006.0	1.0
49	69886.0	22187.0	0.776	2813.0	1.0
50	60509.0	22242.0	0.78	3026.0	1.0
51	57064.0	22905.0	0.8015	3003.0	1.0
52	57241.0	22570.0	0.8115	2804.0	1.0
53	66057.0	23042.0	0.7715	3144.0	1.0
54	59387.0	22739.0	0.7895	3337.0	1.0
55	58151.0	23354.0	0.806	2997.0	1.0
56	65017.0	23586.0	0.7905	2753.0	1.0
57	77647.0	23453.0	0.753	3064.0	1.0
58	69145.0	22509.0	0.7725	2924.0	1.0
59	74185.0	23901.0	0.7675	2980.0	1.0
60	62570.0	23167.0	0.7775	3223.0	1.0
61	67457.0	23388.0	0.784	2782.0	1.0
62	67383.0	23343.0	0.7665	3023.0	1.0
63	61042.0	23690.0	0.806	2953.0	1.0
64	61335.0	24004.0	0.7955	2968.0	1.0
65	62544.0	23913.0	0.7935	3045.0	1.0
66	63789.0	21599.0	0.7845	2927.0	1.0
67	51915.0	22292.0	0.8105	2952.0	1.0
68	75238.0	25266.0	0.768	3179.0	1.0
69	56139.0	23231.0	0.8	2908.0	1.0
70	61529.0	23566.0	0.7805	2954.0	1.0
71	70623.0	21505.0	0.767	2665.0	1.0
72	77730.0	22910.0	0.752	2878.0	1.0
73	56614.0	22730.0	0.8	2989.0	1.0
74	53518.0	23010.0	0.808	3184.0	1.0
75	62392.0	22853.0	0.7925	2987.0	1.0
76	64918.0	22754.0	0.7715	2933.0	1.0
77	69344.0	22742.0	0.758	3067.0	1.0
78	67182.0	23367.0	0.774	3215.0	1.0
79	58902.0	24101.0	0.7875	3039.0	1.0
80	61515.0	22695.0	0.78	3104.0	1.0
81	61035.0	23788.0	0.7985	2911.0	1.0
82	63049.0	24631.0	0.7985	3076.0	1.0
83	68633.0	23139.0	0.764	3115.0	1.0
84	70260.0	22687.0	0.753	3012.0	1.0
85	59704.0	22173.0	0.7865	2820.0	1.0
86	66546.0	21394.0	0.7705	2774.0	1.0
87	50073.0	24481.0	0.8315	3223.0	1.0
88	63072.0	23825.0	0.7765	3117.0	1.0
89	59049.0	22203.0	0.7845	2766.0	1.0
90	65025.0	22199.0	0.7795	3162.0	1.0
91	71472.0	22919.0	0.7615	3165.0	1.0
92	67470.0	22719.0	0.7665	3048.0	1.0
93	52808.0	23042.0	0.812	3205.0	1.0
94	68586.0	22750.0	0.7825	3017.0	1.0
95	68771.0	22215.0	0.768	2895.0	1.0
96	57141.0	23184.0	0.812	2981.0	1.0
97	58946.0	24499.0	0.81	3049.0	1.0
98	64198.0	23138.0	0.784	3232.0	1.0
99	61228.0	24267.0	0.8045	3156.0	1.0
0	50956.0	21542.0	0.811	3107.0	1.0
1	62879.0	22377.0	0.7835	2838.0	1.0
2	82762.0	23401.0	0.751	2883.0	1.0
3	67298.0	21638.0	0.7725	2970.0	1.0
4	47491.0	22972.0	0.837	2904.0	1.0
5	64061.0	20892.0	0.7735	2900.0	1.0
6	61727.0	22554.0	0.7765	3095.0	1.0
7	75276.0	22240.0	0.762	2779.0	1.0
8	58018.0	24855.0	0.8005	3310.0	1.0
9	56743.0	22703.0	0.808	3055.0	1.0
10	59588.0	22048.0	0.784	2833.0	1.0
11	59583.0	22159.0	0.796	2894.0	1.0
12	68762.0	21830.0	0.7655	2966.0	1.0
13	68790.0	22121.0	0.7615	2911.0	1.0
14	61877.0	22688.0	0.796	2756.0	1.0
15	76636.0	24316.0	0.7615	2821.0	1.0
16	71449.0	22940.0	0.7635	3414.0	1.0
17	63815.0	21395.0	0.777	2682.0	1.0
18	70125.0	21613.0	0.7605	2744.0	1.0
19	66887.0	22803.0	0.7785	3152.0	1.0
20	54142.0	23971.0	0.824	2822.0	1.0
21	61707.0	22681.0	0.7875	2915.0	1.0
22	65904.0	22504.0	0.773	2982.0	1.0
23	61861.0	23768.0	0.7875	3089.0	1.0
24	68666.0	22911.0	0.7655	3256.0	1.0
25	73184.0	24416.0	0.775	3273.0	1.0
26	52546.0	22981.0	0.8075	2931.0	1.0
27	62474.0	21364.0	0.7775	2825.0	1.0
28	56464.0	22983.0	0.8005	3107.0	1.0
29	55757.0	22855.0	0.807	3321.0	1.0
30	73519.0	22451.0	0.753	3012.0	1.0
31	75514.0	22842.0	0.758	2890.0	1.0
32	72207.0	22885.0	0.7735	2874.0	1.0
33	68582.0	23559.0	0.775	3069.0	1.0
34	58139.0	23015.0	0.7995	3276.0	1.0
35	66659.0	23281.0	0.782	2956.0	1.0
36	68207.0	21665.0	0.7565	2952.0	1.0
37	63450.0	22310.0	0.779	2886.0	1.0
38	64103.0	22735.0	0.776	2900.0	1.0
39	72434.0	23752.0	0.761	2959.0	1.0
40	62388.0	23039.0	0.7835	3024.0	1.0
41	65487.0	23857.0	0.788	2810.0	1.0
42	64859.0	23855.0	0.7865	3118.0	1.0
43	58002.0	22284.0	0.791	3083.0	1.0
44	64745.0	24396.0	0.791	2950.0	1.0
45	63006.0	22729.0	0.79	2769.0	1.0
46	63904.0	22489.0	0.7795	2756.0	1.0
47	66228.0	24095.0	0.784	2934.0	1.0
48	63964.0	23682.0	0.789	2975.0	1.0
49	62372.0	22737.0	0.791	2929.0	1.0
50	69953.0	24022.0	0.776	2892.0	1.0
51	63042.0	24071.0	0.8005	3035.0	1.0
52	52110.0	24037.0	0.8315	3017.0	1.0
53	66929.0	22432.0	0.765	2928.0	1.0
54	58576.0	22786.0	0.7865	2995.0	1.0
55	54147.0	21108.0	0.787	3235.0	1.0
56	58629.0	22476.0	0.788	3021.0	1.0
57	64953.0	22339.0	0.762	3038.0	1.0
58	70137.0	22948.0	0.765	3288.0	1.0
59	64466.0	22584.0	0.7855	2890.0	1.0
60	68945.0	23448.0	0.7625	3030.0	1.0
61	68905.0	23197.0	0.7765	2978.0	1.0
62	65719.0	22489.0	0.7805	2857.0	1.0
63	55901.0	23043.0	0.8025	3168.0	1.0
64	62056.0	19968.0	0.767	2857.0	1.0
65	64254.0	24180.0	0.791	2935.0	1.0
66	73108.0	23132.0	0.7545	3176.0	1.0
67	53389.0	22606.0	0.819	2887.0	1.0
68	66055.0	24201.0	0.788	3026.0	1.0
69	53408.0	23206.0	0.808	2911.0	1.0
70	61131.0	23538.0	0.789	3034.0	1.0
71	67044.0	22611.0	0.7735	2874.0	1.0
72	68403.0	22798.0	0.7705	2907.0	1.0
73	55346.0	23072.0	0.807	3160.0	1.0
74	62658.0	23789.0	0.7825	3082.0	1.0
75	62727.0	24102.0	0.783	3228.0	1.0
76	72227.0	24277.0	0.7645	3241.0	1.0
77	69837.0	22808.0	0.762	3182.0	1.0
78	80029.0	22759.0	0.7575	2729.0	1.0
79	63964.0	23840.0	0.7915	3048.0	1.0
80	66177.0	22325.0	0.779	2948.0	1.0
81	65575.0	22030.0	0.7715	2883.0	1.0
82	57802.0	23085.0	0.806	3043.0	1.0
83	66441.0	21930.0	0.76	2884.0	1.0
84	74344.0	23425.0	0.753	3052.0	1.0
85	59937.0	22489.0	0.7965	3169.0	1.0
86	70105.0	22919.0	0.7585	3220.0	1.0
87	49518.0	24309.0	0.8345	2918.0	1.0
88	58347.0	22804.0	0.7905	2924.0	1.0
89	64178.0	23962.0	0.79	3039.0	1.0
90	56699.0	22455.0	0.805	3082.0	1.0
91	70310.0	23384.0	0.766	2991.0	1.0
92	66526.0	22544.0	0.778	3055.0	1.0
93	50801.0	21364.0	0.81	3001.0	1.0
94	73801.0	23687.0	0.7625	2941.0	1.0
95	67154.0	24544.0	0.793	2885.0	1.0
96	56639.0	23710.0	0.8065	3112.0	1.0
97	56759.0	24427.0	0.8085	3019.0	1.0
98	66428.0	21730.0	0.773	2938.0	1.0
99	59442.0	23994.0	0.801	3221.0	1.0
0	65054.0	24255.0	0.785	3152.0	1.0
1	69024.0	22376.0	0.758	3036.0	1.0
2	61325.0	23031.0	0.7895	3030.0	1.0
3	74133.0	22719.0	0.763	2728.0	1.0
4	46983.0	23216.0	0.839	2918.0	1.0
5	70923.0	21623.0	0.7565	2893.0	1.0
6	66794.0	22196.0	0.76	3163.0	1.0
7	59750.0	23337.0	0.788	3315.0	1.0
8	58503.0	23140.0	0.797	3000.0	1.0
9	57602.0	23100.0	0.8015	3220.0	1.0
10	58592.0	22824.0	0.7935	2980.0	1.0
11	59719.0	23495.0	0.804	2814.0	1.0
12	65011.0	22089.0	0.781	2894.0	1.0
13	63085.0	23093.0	0.782	3176.0	1.0
14	73777.0	24449.0	0.763	3253.0	1.0
15	65106.0	22904.0	0.784	2920.0	1.0
16	58319.0	22719.0	0.797	2878.0	1.0
17	58427.0	22839.0	0.7945	2879.0	1.0
18	71839.0	21711.0	0.751	2798.0	1.0
19	73258.0	23512.0	0.7695	2816.0	1.0
20	49190.0	22460.0	0.826	2732.0	1.0
21	62741.0	22886.0	0.782	3048.0	1.0
22	72070.0	23562.0	0.784	2783.0	1.0
23	59650.0	22486.0	0.7905	3036.0	1.0
24	63434.0	21288.0	0.7705	3027.0	1.0
25	63453.0	23782.0	0.7905	2693.0	1.0
26	59554.0	23080.0	0.796	2876.0	1.0
27	70568.0	21772.0	0.7505	3024.0	1.0
28	58783.0	23555.0	0.791	3016.0	1.0
29	60161.0	23253.0	0.8015	2950.0	1.0
30	73614.0	22260.0	0.761	2745.0	1.0
31	70705.0	22819.0	0.7615	2859.0	1.0
32	66610.0	22689.0	0.763	2971.0	1.0
33	68996.0	23966.0	0.781	3042.0	1.0
34	64993.0	22635.0	0.7855	2854.0	1.0
35	66622.0	23210.0	0.7845	2764.0	1.0
36	64062.0	21823.0	0.7635	2988.0	1.0
37	67488.0	22844.0	0.77	3149.0	1.0
38	72755.0	23141.0	0.7595	3078.0	1.0
39	63326.0	22103.0	0.7745	2846.0	1.0
40	70389.0	24285.0	0.775	3108.0	1.0
41	58504.0	22586.0	0.799	2972.0	1.0
42	63137.0	22397.0	0.777	2796.0	1.0
43	67822.0	22679.0	0.7575	2912.0	1.0
44	54657.0	23075.0	0.8035	2943.0	1.0
45	71777.0	23781.0	0.7565	3204.0	1.0
46	67094.0	22557.0	0.7675	3045.0	1.0
47	54631.0	22163.0	0.8095	2907.0	1.0
48	63743.0	23050.0	0.787	2942.0	1.0
49	60190.0	22214.0	0.7905	3160.0	1.0
50	72718.0	24315.0	0.7715	3127.0	1.0
51	61605.0	23379.0	0.801	2794.0	1.0
52	58732.0	23262.0	0.7935	2749.0	1.0
53	62417.0	22878.0	0.778	3051.0	1.0
54	61990.0	23482.0	0.7845	3179.0	1.0
55	62632.0	22991.0	0.7835	3334.0	1.0
56	62708.0	23250.0	0.786	2852.0	1.0
57	71537.0	21719.0	0.7575	3042.0	1.0
58	61205.0	22460.0	0.7905	2668.0	1.0
59	61762.0	22491.0	0.7855	2824.0	1.0
60	69396.0	24145.0	0.7795	2872.0	1.0
61	58684.0	22040.0	0.803	2804.0	1.0
62	68050.0	22021.0	0.7675	3016.0	1.0
63	64358.0	22694.0	0.7835	2822.0	1.0
64	71967.0	23139.0	0.768	2929.0	1.0
65	65705.0	24008.0	0.79	2936.0	1.0
66	68406.0	23283.0	0.7665	3102.0	1.0
67	57871.0	22622.0	0.7985	2909.0	1.0
68	72618.0	23384.0	0.765	2778.0	1.0
69	69526.0	22661.0	0.7755	2913.0	1.0
70	56246.0	22345.0	0.792	2904.0	1.0
71	72492.0	24111.0	0.7635	2938.0	1.0
72	67363.0	22676.0	0.779	3277.0	1.0
73	51870.0	22226.0	0.8165	3010.0	1.0
74	63367.0	22817.0	0.7765	3111.0	1.0
75	65210.0	22220.0	0.7845	2774.0	1.0
76	68599.0	23488.0	0.7625	3343.0	1.0
77	67371.0	23017.0	0.7765	3237.0	1.0
78	69412.0	23529.0	0.7785	2974.0	1.0
79	65100.0	23702.0	0.784	2940.0	1.0
80	60676.0	22090.0	0.784	3090.0	1.0
81	65006.0	23231.0	0.7805	3090.0	1.0
82	58060.0	23500.0	0.7915	3124.0	1.0
83	67579.0	23039.0	0.771	2873.0	1.0
84	73977.0	22842.0	0.7515	3160.0	1.0
85	73420.0	22380.0	0.7595	3064.0	1.0
86	68041.0	22068.0	0.765	3190.0	1.0
87	51449.0	23214.0	0.824	3007.0	1.0
88	64753.0	23127.0	0.783	3072.0	1.0
89	63632.0	22937.0	0.7795	3075.0	1.0
90	65185.0	23500.0	0.7905	2823.0	1.0
91	64411.0	23689.0	0.785	3065.0	1.0
92	66122.0	23425.0	0.785	3305.0	1.0
93	59784.0	23905.0	0.793	3142.0	1.0
94	71091.0	24168.0	0.777	2818.0	1.0
95	70473.0	22840.0	0.769	2925.0	1.0
96	61316.0	22921.0	0.7895	2897.0	1.0
97	63596.0	23375.0	0.793	2958.0	1.0
98	62133.0	23597.0	0.795	2892.0	1.0
99	65834.0	23164.0	0.7765	3104.0	1.0
0	65974.0	23577.0	0.787	3043.0	1.0
1	60807.0	23210.0	0.794	2932.0	1.0
2	75186.0	23191.0	0.7495	2954.0	1.0
3	73525.0	24079.0	0.7655	3099.0	1.0
4	55203.0	23166.0	0.805	3076.0	1.0
5	75444.0	24535.0	0.769	3007.0	1.0
6	68539.0	21870.0	0.761	2839.0	1.0
7	61950.0	23134.0	0.776	3245.0	1.0
8	56462.0	23291.0	0.814	3059.0	1.0
9	60046.0	22888.0	0.7955	3254.0	1.0
10	69472.0	24071.0	0.7775	3255.0	1.0
11	65099.0	23521.0	0.7765	3320.0	1.0
12	74027.0	22972.0	0.7645	2944.0	1.0
13	61473.0	21032.0	0.776	2736.0	1.0
14	65858.0	22525.0	0.7695	3028.0	1.0
15	79108.0	22677.0	0.7445	3082.0	1.0
16	65481.0	23721.0	0.7865	3048.0	1.0
17	50780.0	21125.0	0.808	2876.0	1.0
18	73401.0	22413.0	0.7625	2958.0	1.0
19	65672.0	22141.0	0.7715	2908.0	1.0
20	57509.0	24377.0	0.8075	3081.0	1.0
21	76638.0	23657.0	0.7525	3385.0	1.0
22	65967.0	24155.0	0.7865	3084.0	1.0
23	62095.0	23359.0	0.779	3230.0	1.0
24	69450.0	23673.0	0.7685	3058.0	1.0
25	59864.0	23363.0	0.783	3265.0	1.0
26	60995.0	24453.0	0.8	3055.0	1.0
27	66947.0	21187.0	0.77	2721.0	1.0
28	58612.0	22730.0	0.7995	2891.0	1.0
29	55875.0	23339.0	0.8075	3183.0	1.0
30	68879.0	23334.0	0.7735	2982.0	1.0
31	62742.0	22425.0	0.7735	3277.0	1.0
32	71358.0	23593.0	0.7715	2963.0	1.0
33	63679.0	23471.0	0.7875	2875.0	1.0
34	62451.0	22656.0	0.788	2902.0	1.0
35	71227.0	23058.0	0.7675	3281.0	1.0
36	52878.0	22517.0	0.8085	3295.0	1.0
37	65052.0	22417.0	0.7715	2841.0	1.0
38	65318.0	24509.0	0.769	3728.0	1.0
39	65240.0	23217.0	0.7865	3038.0	1.0
40	67222.0	22762.0	0.7825	2758.0	1.0
41	57420.0	21783.0	0.794	3005.0	1.0
42	76979.0	23996.0	0.7585	3183.0	1.0
43	59878.0	23053.0	0.7925	3122.0	1.0
44	68054.0	23473.0	0.775	3050.0	1.0
45	65911.0	23619.0	0.766	3406.0	1.0
46	72051.0	23776.0	0.7765	2911.0	1.0
47	62681.0	22281.0	0.789	2975.0	1.0
48	61377.0	22263.0	0.7875	3189.0	1.0
49	62057.0	21593.0	0.767	3020.0	1.0
50	72389.0	21577.0	0.751	3183.0	1.0
51	55420.0	22417.0	0.802	2656.0	1.0
52	55727.0	23793.0	0.815	2913.0	1.0
53	77942.0	22710.0	0.7525	2951.0	1.0
54	62379.0	23265.0	0.798	2756.0	1.0
55	58710.0	23775.0	0.806	2837.0	1.0
56	61304.0	22311.0	0.787	3013.0	1.0
57	71740.0	22591.0	0.759	2877.0	1.0
58	60742.0	23018.0	0.788	3048.0	1.0
59	67827.0	24306.0	0.7825	3083.0	1.0
60	69448.0	22188.0	0.7525	3025.0	1.0
61	66892.0	23846.0	0.78	3164.0	1.0
62	61302.0	22606.0	0.785	3088.0	1.0
63	58202.0	23561.0	0.801	2886.0	1.0
64	70060.0	23659.0	0.7785	3110.0	1.0
65	61400.0	23487.0	0.7965	3080.0	1.0
66	66921.0	23368.0	0.7785	3080.0	1.0
67	52660.0	23327.0	0.806	3329.0	1.0
68	67140.0	24587.0	0.785	2987.0	1.0
69	65861.0	23126.0	0.779	3066.0	1.0
70	53902.0	22758.0	0.8125	2979.0	1.0
71	58232.0	22630.0	0.7965	2763.0	1.0
72	79105.0	22819.0	0.7485	2892.0	1.0
73	55117.0	22926.0	0.8065	2824.0	1.0
74	53725.0	22746.0	0.8125	2947.0	1.0
75	65868.0	22998.0	0.774	2934.0	1.0
76	62779.0	22021.0	0.779	2812.0	1.0
77	72458.0	23570.0	0.7675	2958.0	1.0
78	76894.0	22568.0	0.7485	3105.0	1.0
79	57901.0	23340.0	0.7995	2980.0	1.0
80	74528.0	24454.0	0.767	3094.0	1.0
81	64639.0	24364.0	0.797	3001.0	1.0
82	53139.0	23648.0	0.824	2817.0	1.0
83	74579.0	22786.0	0.756	2953.0	1.0
84	59131.0	22305.0	0.7905	2821.0	1.0
85	70513.0	22483.0	0.7605	3140.0	1.0
86	68365.0	23168.0	0.7655	3143.0	1.0
87	51544.0	22608.0	0.8215	2801.0	1.0
88	66314.0	21010.0	0.7655	2944.0	1.0
89	67830.0	22959.0	0.765	3022.0	1.0
90	64249.0	21920.0	0.777	3121.0	1.0
91	66736.0	22161.0	0.7615	3136.0	1.0
92	64276.0	22446.0	0.774	3101.0	1.0
93	58480.0	23672.0	0.7975	3046.0	1.0
94	63788.0	22032.0	0.7805	2745.0	1.0
95	69872.0	23585.0	0.7705	2999.0	1.0
96	46490.0	21751.0	0.8395	2864.0	1.0
97	48586.0	23178.0	0.836	2938.0	1.0
98	67174.0	22118.0	0.7625	3238.0	1.0
99	60975.0	21835.0	0.787	3114.0	1.0
0	67780.0	23306.0	0.7745	3018.0	1.0
1	76375.0	24084.0	0.7565	3213.0	1.0
2	71353.0	21343.0	0.7565	2855.0	1.0
3	76434.0	23299.0	0.745	3124.0	1.0
4	54959.0	23682.0	0.826	2798.0	1.0
5	82667.0	23375.0	0.739	3052.0	1.0
6	64503.0	21960.0	0.774	2751.0	1.0
7	63881.0	22769.0	0.791	2950.0	1.0
8	60125.0	25561.0	0.813	2900.0	1.0
9	60609.0	23112.0	0.795	2980.0	1.0
10	68215.0	22819.0	0.7665	2904.0	1.0
11	57917.0	21291.0	0.788	2703.0	1.0
12	62837.0	21828.0	0.772	3143.0	1.0
13	64039.0	22613.0	0.782	3128.0	1.0
14	67473.0	24235.0	0.7885	2919.0	1.0
15	78962.0	23355.0	0.746	3157.0	1.0
16	65187.0	23818.0	0.7725	3032.0	1.0
17	58892.0	23170.0	0.796	3013.0	1.0
18	65912.0	22327.0	0.768	2930.0	1.0
19	74583.0	23800.0	0.774	2879.0	1.0
20	50329.0	23318.0	0.8195	2906.0	1.0
21	66487.0	22786.0	0.766	2724.0	1.0
22	63996.0	21760.0	0.766	2909.0	1.0
23	57606.0	21540.0	0.7915	2822.0	1.0
24	70976.0	21606.0	0.76	2992.0	1.0
25	71122.0	22196.0	0.7525	2911.0	1.0
26	60111.0	23377.0	0.7895	3177.0	1.0
27	66591.0	22778.0	0.7685	3387.0	1.0
28	73429.0	22829.0	0.7545	2957.0	1.0
29	60855.0	24122.0	0.801	2939.0	1.0
30	71813.0	23745.0	0.774	2740.0	1.0
31	70579.0	22820.0	0.763	2950.0	1.0
32	80006.0	22013.0	0.735	2901.0	1.0
33	72477.0	22391.0	0.7675	2916.0	1.0
34	60277.0	23154.0	0.802	3007.0	1.0
35	61274.0	23278.0	0.777	3221.0	1.0
36	60424.0	21678.0	0.7835	2960.0	1.0
37	60539.0	23650.0	0.7935	3219.0	1.0
38	56884.0	21338.0	0.7845	2979.0	1.0
39	62376.0	22955.0	0.781	3119.0	1.0
40	63372.0	23400.0	0.79	3172.0	1.0
41	57838.0	23600.0	0.7985	3269.0	1.0
42	64599.0	23419.0	0.7755	2921.0	1.0
43	57021.0	22553.0	0.794	3006.0	1.0
44	64504.0	23357.0	0.7735	3000.0	1.0
45	61998.0	23467.0	0.7815	3197.0	1.0
46	68659.0	24415.0	0.7705	3105.0	1.0
47	62041.0	23271.0	0.79	3197.0	1.0
48	56773.0	22612.0	0.8035	2799.0	1.0
49	61005.0	22968.0	0.7935	2970.0	1.0
50	60461.0	22664.0	0.791	2995.0	1.0
51	60738.0	23668.0	0.793	2946.0	1.0
52	57090.0	22820.0	0.8085	2872.0	1.0
53	72698.0	23110.0	0.76	2842.0	1.0
54	58823.0	21984.0	0.779	2834.0	1.0
55	66430.0	23444.0	0.7935	2889.0	1.0
56	69264.0	23156.0	0.772	3162.0	1.0
57	62131.0	22530.0	0.7805	3253.0	1.0
58	68822.0	23044.0	0.7755	2743.0	1.0
59	72963.0	23506.0	0.749	3136.0	1.0
60	64028.0	21622.0	0.7645	3097.0	1.0
61	61191.0	22762.0	0.7895	3025.0	1.0
62	61721.0	22849.0	0.787	3079.0	1.0
63	66492.0	23479.0	0.7785	2821.0	1.0
64	68570.0	23205.0	0.763	3225.0	1.0
65	64441.0	23296.0	0.7835	2839.0	1.0
66	62636.0	22350.0	0.7865	2758.0	1.0
67	54990.0	23985.0	0.8135	3103.0	1.0
68	62618.0	24352.0	0.7925	3015.0	1.0
69	63278.0	23036.0	0.769	3405.0	1.0
70	70650.0	23837.0	0.763	3268.0	1.0
71	64680.0	22449.0	0.777	3260.0	1.0
72	55127.0	20851.0	0.7925	2787.0	1.0
73	51521.0	23252.0	0.824	2961.0	1.0
74	69392.0	23489.0	0.7665	2909.0	1.0
75	67999.0	23389.0	0.779	3350.0	1.0
76	71242.0	23005.0	0.7725	2825.0	1.0
77	67248.0	22186.0	0.751	3092.0	1.0
78	75051.0	24071.0	0.7575	3096.0	1.0
79	71278.0	22949.0	0.772	2562.0	1.0
80	62819.0	22770.0	0.787	3038.0	1.0
81	69512.0	24660.0	0.7765	3241.0	1.0
82	59563.0	23698.0	0.7975	3356.0	1.0
83	68275.0	22340.0	0.7685	2927.0	1.0
84	67751.0	22948.0	0.7695	3023.0	1.0
85	69038.0	22619.0	0.7615	2979.0	1.0
86	61590.0	22395.0	0.787	3053.0	1.0
87	54720.0	23992.0	0.8165	2861.0	1.0
88	62789.0	22999.0	0.783	2990.0	1.0
89	72537.0	23803.0	0.7855	2900.0	1.0
90	70534.0	22380.0	0.766	3263.0	1.0
91	67701.0	22837.0	0.768	2793.0	1.0
92	66150.0	23061.0	0.778	3183.0	1.0
93	58870.0	24183.0	0.807	3028.0	1.0
94	65327.0	23900.0	0.792	3065.0	1.0
95	65005.0	22333.0	0.774	2828.0	1.0
96	48605.0	22460.0	0.8285	3002.0	1.0
97	54562.0	23106.0	0.812	3024.0	1.0
98	64918.0	22996.0	0.781	2988.0	1.0
99	58181.0	22506.0	0.7925	2911.0	1.0
0	66822.0	23124.0	0.776	3066.0	1.0
1	69823.0	23498.0	0.7735	3075.0	1.0
2	66068.0	21853.0	0.769	2932.0	1.0
3	64093.0	22561.0	0.7755	3090.0	1.0
4	46485.0	22523.0	0.831	3061.0	1.0
5	71158.0	22784.0	0.7645	3129.0	1.0
6	76470.0	23298.0	0.7595	2891.0	1.0
7	61290.0	22933.0	0.7885	3003.0	1.0
8	56364.0	23909.0	0.8155	2917.0	1.0
9	57046.0	23761.0	0.804	3229.0	1.0
10	63627.0	23642.0	0.788	2834.0	1.0
11	61524.0	22515.0	0.7865	2940.0	1.0
12	72130.0	23588.0	0.7575	3097.0	1.0
13	68664.0	22810.0	0.77	2875.0	1.0
14	66304.0	23849.0	0.777	2731.0	1.0
15	78914.0	22736.0	0.7395	3153.0	1.0
16	66199.0	23425.0	0.785	3226.0	1.0
17	64500.0	23387.0	0.782	3083.0	1.0
18	66082.0	22638.0	0.7835	3025.0	1.0
19	66011.0	22970.0	0.7825	3162.0	1.0
20	53724.0	23480.0	0.8205	3128.0	1.0
21	69643.0	24159.0	0.7715	3124.0	1.0
22	67336.0	21645.0	0.771	2863.0	1.0
23	63882.0	23944.0	0.7945	2784.0	1.0
24	82971.0	22819.0	0.7395	2705.0	1.0
25	65765.0	23316.0	0.7845	3042.0	1.0
26	55020.0	23853.0	0.808	2943.0	1.0
27	66190.0	23470.0	0.777	3212.0	1.0
28	60625.0	22463.0	0.7855	3134.0	1.0
29	62419.0	22537.0	0.786	3275.0	1.0
30	76621.0	22228.0	0.758	2830.0	1.0
31	75196.0	22346.0	0.7525	3049.0	1.0
32	73480.0	23139.0	0.754	2911.0	1.0
33	56050.0	23086.0	0.8	2923.0	1.0
34	60255.0	22717.0	0.793	2989.0	1.0
35	61825.0	23781.0	0.7865	3025.0	1.0
36	65640.0	21460.0	0.764	2979.0	1.0
37	74524.0	23429.0	0.754	2890.0	1.0
38	68175.0	23379.0	0.785	2757.0	1.0
39	63742.0	24037.0	0.789	2935.0	1.0
40	58005.0	23988.0	0.7975	3016.0	1.0
41	55319.0	22013.0	0.791	3133.0	1.0
42	69829.0	23531.0	0.772	3176.0	1.0
43	56970.0	23189.0	0.813	2615.0	1.0
44	63498.0	22666.0	0.7755	3029.0	1.0
45	64840.0	23718.0	0.7885	2916.0	1.0
46	61922.0	21683.0	0.7735	3042.0	1.0
47	63503.0	24148.0	0.7885	2854.0	1.0
48	68268.0	23490.0	0.7745	3000.0	1.0
49	65870.0	22657.0	0.78	3161.0	1.0
50	64946.0	24094.0	0.7815	3045.0	1.0
51	68688.0	24307.0	0.784	3007.0	1.0
52	59734.0	23475.0	0.798	3117.0	1.0
53	68322.0	23286.0	0.777	2906.0	1.0
54	62536.0	22058.0	0.7795	2919.0	1.0
55	50576.0	22322.0	0.814	3233.0	1.0
56	64505.0	22710.0	0.78	3010.0	1.0
57	69927.0	22877.0	0.762	3307.0	1.0
58	62002.0	23534.0	0.785	3043.0	1.0
59	57383.0	22144.0	0.7975	2901.0	1.0
60	60383.0	20787.0	0.772	2798.0	1.0
61	66979.0	23768.0	0.7825	3050.0	1.0
62	60077.0	22068.0	0.778	3080.0	1.0
63	65533.0	23366.0	0.772	2979.0	1.0
64	78205.0	23858.0	0.7515	2861.0	1.0
65	64988.0	23360.0	0.788	2976.0	1.0
66	70042.0	23614.0	0.7705	2931.0	1.0
67	63895.0	23423.0	0.786	2985.0	1.0
68	64992.0	23661.0	0.787	3133.0	1.0
69	58526.0	23092.0	0.798	2975.0	1.0
70	67569.0	23434.0	0.7795	2782.0	1.0
71	63856.0	23227.0	0.784	3011.0	1.0
72	70363.0	22578.0	0.769	2816.0	1.0
73	58012.0	22694.0	0.795	3071.0	1.0
74	65730.0	23613.0	0.781	3022.0	1.0
75	55875.0	23025.0	0.8075	2857.0	1.0
76	89492.0	21818.0	0.7135	2981.0	1.0
77	68300.0	22986.0	0.7625	3298.0	1.0
78	61113.0	23379.0	0.7885	2773.0	1.0
79	57212.0	22818.0	0.803	3051.0	1.0
80	65173.0	22224.0	0.7825	2799.0	1.0
81	55209.0	22711.0	0.8165	2663.0	1.0
82	63263.0	23486.0	0.785	3082.0	1.0
83	69567.0	22802.0	0.7615	2891.0	1.0
84	77425.0	20723.0	0.7405	2889.0	1.0
85	69625.0	22250.0	0.758	3066.0	1.0
86	61440.0	23360.0	0.799	3277.0	1.0
87	50196.0	22909.0	0.8285	2984.0	1.0
88	66847.0	21234.0	0.7685	2590.0	1.0
89	57256.0	22623.0	0.7945	2971.0	1.0
90	65087.0	23882.0	0.781	2971.0	1.0
91	73690.0	22688.0	0.7445	3390.0	1.0
92	69604.0	22941.0	0.7655	2806.0	1.0
93	53397.0	22227.0	0.816	2840.0	1.0
94	68791.0	23813.0	0.7755	3342.0	1.0
95	72484.0	23165.0	0.759	2900.0	1.0
96	73057.0	24552.0	0.766	3270.0	1.0
97	53248.0	22686.0	0.8185	3175.0	1.0
98	64538.0	23206.0	0.7805	3142.0	1.0
99	62291.0	22899.0	0.787	3176.0	1.0
0	58001.0	23169.0	0.797	3179.0	1.0
1	69162.0	22708.0	0.774	2919.0	1.0
2	68771.0	23524.0	0.775	3118.0	1.0
3	66939.0	22814.0	0.771	2996.0	1.0
4	50153.0	22372.0	0.818	2930.0	1.0
5	68860.0	23232.0	0.758	3371.0	1.0
6	79064.0	23030.0	0.761	2624.0	1.0
7	67783.0	22600.0	0.7605	2924.0	1.0
8	57035.0	22490.0	0.8025	2708.0	1.0
9	54560.0	21829.0	0.8025	2987.0	1.0
10	64303.0	23140.0	0.777	3199.0	1.0
11	61416.0	24261.0	0.798	3007.0	1.0
12	63106.0	21807.0	0.763	3225.0	1.0
13	69827.0	23838.0	0.768	2991.0	1.0
14	71309.0	21924.0	0.763	3103.0	1.0
15	71385.0	23447.0	0.758	3246.0	1.0
16	62062.0	22657.0	0.7815	3283.0	1.0
17	62147.0	22242.0	0.786	2766.0	0.9995
18	68528.0	22520.0	0.7665	2832.0	1.0
19	63436.0	22311.0	0.7785	3174.0	1.0
20	53146.0	22468.0	0.8105	3056.0	1.0
21	66311.0	22912.0	0.771	2954.0	1.0
22	73842.0	22944.0	0.753	3328.0	1.0
23	60763.0	23057.0	0.799	2846.0	1.0
24	68552.0	21917.0	0.7515	3099.0	1.0
25	69126.0	24244.0	0.776	3036.0	1.0
26	57881.0	23614.0	0.7835	3306.0	1.0
27	69522.0	21897.0	0.758	2921.0	1.0
28	73448.0	23052.0	0.7595	2871.0	1.0
29	55706.0	22858.0	0.799	3028.0	1.0
30	71627.0	21740.0	0.7505	2910.0	1.0
31	65553.0	23272.0	0.7695	3058.0	1.0
32	72684.0	22619.0	0.762	2889.0	1.0
33	66820.0	23211.0	0.774	2886.0	1.0
34	59044.0	22776.0	0.797	2852.0	1.0
35	61587.0	22350.0	0.795	2752.0	1.0
36	66815.0	22679.0	0.768	2975.0	1.0
37	58009.0	22311.0	0.8	2945.0	1.0
38	70616.0	23098.0	0.7665	2884.0	1.0
39	62259.0	22390.0	0.771	2807.0	1.0
40	64253.0	22252.0	0.778	2911.0	1.0
41	63255.0	24719.0	0.7815	3222.0	1.0
42	73788.0	22716.0	0.7485	2947.0	1.0
43	58799.0	23273.0	0.7925	2941.0	1.0
44	58017.0	23404.0	0.8035	3010.0	1.0
45	70610.0	24860.0	0.7835	2901.0	1.0
46	59831.0	22804.0	0.796	3101.0	1.0
47	65244.0	22949.0	0.792	2688.0	1.0
48	57871.0	23587.0	0.803	3118.0	1.0
49	67241.0	22942.0	0.7685	2909.0	1.0
50	59352.0	21175.0	0.787	2798.0	1.0
51	62089.0	23754.0	0.7915	3184.0	1.0
52	56623.0	23040.0	0.802	2976.0	1.0
53	75275.0	23003.0	0.758	3054.0	1.0
54	56078.0	22622.0	0.8085	2908.0	1.0
55	61089.0	22367.0	0.7835	2907.0	1.0
56	61874.0	23278.0	0.778	3535.0	1.0
57	78417.0	22198.0	0.75	3010.0	1.0
58	63522.0	22610.0	0.782	2953.0	1.0
59	61097.0	23146.0	0.777	3446.0	1.0
60	62952.0	23058.0	0.782	3055.0	1.0
61	63483.0	23669.0	0.7935	2783.0	1.0
62	69601.0	23935.0	0.7705	3165.0	1.0
63	61239.0	23355.0	0.7955	2984.0	1.0
64	68471.0	22902.0	0.7635	3069.0	1.0
65	66517.0	23784.0	0.785	3371.0	1.0
66	64385.0	21938.0	0.774	2974.0	1.0
67	62331.0	24107.0	0.8035	2947.0	1.0
68	57214.0	22051.0	0.7985	2840.0	1.0
69	60227.0	22723.0	0.7915	2951.0	1.0
70	68952.0	22742.0	0.7685	3046.0	1.0
71	63088.0	23109.0	0.7775	2984.0	1.0
72	71289.0	22848.0	0.76	3006.0	1.0
73	62523.0	24187.0	0.7955	2910.0	1.0
74	71898.0	22407.0	0.7635	2878.0	1.0
75	62381.0	22299.0	0.7755	3005.0	1.0
76	72212.0	21983.0	0.7485	3075.0	1.0
77	74531.0	21361.0	0.748	3014.0	1.0
78	60528.0	22989.0	0.788	3266.0	1.0
79	61699.0	24208.0	0.7935	3025.0	1.0
80	67276.0	22991.0	0.7785	2999.0	1.0
81	75211.0	23437.0	0.76	3051.0	1.0
82	55185.0	23928.0	0.821	2965.0	1.0
83	63679.0	22151.0	0.7765	2937.0	1.0
84	65527.0	21925.0	0.7685	2987.0	1.0
85	60842.0	21814.0	0.7865	2885.0	1.0
86	74186.0	22491.0	0.755	3241.0	1.0
87	47890.0	24073.0	0.8455	2963.0	1.0
88	69165.0	23578.0	0.772	2880.0	1.0
89	63839.0	22880.0	0.777	2953.0	1.0
90	63007.0	22254.0	0.782	2802.0	1.0
91	67456.0	22692.0	0.7735	2980.0	1.0
92	66823.0	24469.0	0.7805	3287.0	1.0
93	58097.0	23260.0	0.801	2923.0	1.0
94	67365.0	24455.0	0.784	2881.0	1.0
95	74649.0	23097.0	0.768	2875.0	1.0
96	56001.0	22709.0	0.802	3256.0	1.0
97	53287.0	23482.0	0.816	3002.0	1.0
98	68657.0	23752.0	0.7815	2824.0	1.0
99	55918.0	22868.0	0.799	2800.0	1.0
0	61051.0	22539.0	0.7905	2941.0	1.0
1	69794.0	22679.0	0.7695	2867.0	1.0
2	74256.0	23347.0	0.7495	3152.0	1.0
3	68249.0	21101.0	0.7675	2903.0	1.0
4	47358.0	23623.0	0.841	3053.0	1.0
5	72594.0	24332.0	0.773	2980.0	1.0
6	70752.0	24100.0	0.784	3159.0	1.0
7	65071.0	22295.0	0.7755	3154.0	1.0
8	58432.0	23323.0	0.7915	3083.0	1.0
9	51122.0	22029.0	0.812	3180.0	1.0
10	60981.0	21399.0	0.784	2879.0	1.0
11	64870.0	23717.0	0.7805	3123.0	1.0
12	67503.0	23784.0	0.7825	2848.0	1.0
13	61225.0	23073.0	0.794	3017.0	1.0
14	77766.0	22739.0	0.746	3052.0	1.0
15	70042.0	22379.0	0.7605	2848.0	1.0
16	60004.0	22340.0	0.789	2999.0	1.0
17	56065.0	21921.0	0.797	2827.0	1.0
18	69255.0	22576.0	0.7745	2992.0	1.0
19	63796.0	22940.0	0.7785	3035.0	1.0
20	56311.0	23712.0	0.8075	3173.0	1.0
21	57054.0	22543.0	0.7975	2837.0	1.0
22	67901.0	22838.0	0.766	3221.0	1.0
23	64613.0	22378.0	0.7805	2749.0	1.0
24	70025.0	22872.0	0.7535	3301.0	1.0
25	61626.0	22326.0	0.784	2945.0	1.0
26	59900.0	23876.0	0.7985	2959.0	1.0
27	62232.0	22193.0	0.78	2818.0	1.0
28	65343.0	22932.0	0.7755	3234.0	1.0
29	51706.0	23606.0	0.8155	3087.0	1.0
30	60019.0	23381.0	0.7875	3024.0	1.0
31	79380.0	23752.0	0.7515	3143.0	1.0
32	72381.0	22481.0	0.757	2803.0	1.0
33	72476.0	23069.0	0.7505	2943.0	1.0
34	57105.0	22525.0	0.8005	2908.0	1.0
35	67764.0	22454.0	0.774	2907.0	1.0
36	66566.0	23458.0	0.778	3103.0	1.0
37	73100.0	22039.0	0.7575	3220.0	1.0
38	66386.0	22401.0	0.775	3032.0	1.0
39	71927.0	22622.0	0.7605	3041.0	1.0
40	63521.0	23952.0	0.79	2916.0	1.0
41	56251.0	22513.0	0.799	2820.0	1.0
42	60798.0	22630.0	0.794	2835.0	1.0
43	58193.0	22134.0	0.788	2967.0	1.0
44	55742.0	22529.0	0.7985	2964.0	1.0
45	61428.0	23917.0	0.7955	3015.0	1.0
46	66893.0	22850.0	0.7795	3084.0	1.0
47	62546.0	23919.0	0.7825	2936.0	1.0
48	65340.0	23188.0	0.781	3037.0	1.0
49	70248.0	23889.0	0.774	3105.0	1.0
50	66567.0	23654.0	0.784	2885.0	1.0
51	62861.0	22867.0	0.775	3221.0	1.0
52	49742.0	21992.0	0.819	2730.0	1.0
53	72172.0	23192.0	0.761	3003.0	1.0
54	59399.0	22220.0	0.7825	2777.0	1.0
55	58928.0	22959.0	0.799	2914.0	1.0
56	75992.0	23782.0	0.767	2992.0	1.0
57	74292.0	23188.0	0.75	3083.0	1.0
58	61332.0	21371.0	0.7765	2941.0	1.0
59	62676.0	21939.0	0.7925	2909.0	1.0
60	62607.0	22275.0	0.777	3009.0	1.0
61	67139.0	23106.0	0.7785	2858.0	1.0
62	60748.0	22560.0	0.7885	2854.0	1.0
63	56058.0	22769.0	0.8	2909.0	1.0
64	68443.0	22517.0	0.7745	3143.0	1.0
65	58985.0	22433.0	0.8	2782.0	1.0
66	71522.0	22647.0	0.7675	2985.0	1.0
67	54205.0	22409.0	0.816	2773.0	1.0
68	65993.0	23340.0	0.7755	3053.0	1.0
69	54456.0	22779.0	0.803	2821.0	1.0
70	62229.0	23647.0	0.789	2940.0	1.0
71	76629.0	22982.0	0.7495	2952.0	1.0
72	69519.0	21980.0	0.767	2860.0	1.0
73	55145.0	22835.0	0.803	3142.0	1.0
74	67874.0	23658.0	0.7735	3080.0	1.0
75	56927.0	22283.0	0.7845	3070.0	1.0
76	69571.0	21576.0	0.746	3137.0	1.0
77	74516.0	22040.0	0.7435	3216.0	1.0
78	64879.0	22416.0	0.779	2751.0	1.0
79	61250.0	22861.0	0.777	3123.0	1.0
80	68246.0	23506.0	0.771	2988.0	1.0
81	56944.0	23225.0	0.7995	3169.0	1.0
82	54605.0	23699.0	0.8145	3024.0	1.0
83	70114.0	21774.0	0.758	2814.0	1.0
84	77800.0	22125.0	0.739	2907.0	1.0
85	68513.0	22822.0	0.7685	2886.0	1.0
86	64587.0	23065.0	0.792	2850.0	1.0
87	52509.0	24547.0	0.8275	3096.0	1.0
88	66343.0	22934.0	0.771	3056.0	1.0
89	70054.0	22536.0	0.76	2828.0	1.0
90	65398.0	22274.0	0.768	3169.0	1.0
91	67367.0	21754.0	0.772	2760.0	1.0
92	66783.0	22450.0	0.7765	2812.0	1.0
93	51564.0	22113.0	0.819	2814.0	1.0
94	66051.0	23463.0	0.77	3313.0	1.0
95	62679.0	22661.0	0.7855	3017.0	1.0
96	59496.0	23907.0	0.792	2925.0	1.0
97	55570.0	23950.0	0.816	2923.0	1.0
98	60878.0	22317.0	0.787	2945.0	1.0
99	55111.0	22337.0	0.803	2736.0	1.0
0	66033.0	23384.0	0.7885	3073.0	1.0
1	75416.0	23480.0	0.751	3175.0	1.0
2	76777.0	22102.0	0.746	2952.0	1.0
3	71174.0	22995.0	0.753	2905.0	1.0
4	49419.0	22910.0	0.827	3139.0	1.0
5	78664.0	23076.0	0.749	3128.0	1.0
6	65115.0	23395.0	0.77	3073.0	1.0
7	66840.0	22099.0	0.76	2993.0	1.0
8	55604.0	23529.0	0.808	3013.0	1.0
9	57557.0	22564.0	0.7915	2942.0	1.0
10	69665.0	22324.0	0.763	2921.0	1.0
11	64046.0	23869.0	0.783	3280.0	1.0
12	62582.0	22791.0	0.772	3847.0	1.0
13	65610.0	21523.0	0.763	3147.0	1.0
14	73994.0	22687.0	0.755	3009.0	1.0
15	70755.0	22846.0	0.7645	2970.0	1.0
16	60537.0	21818.0	0.7915	2939.0	1.0
17	61887.0	22386.0	0.787	2898.0	1.0
18	79555.0	22553.0	0.7495	2803.0	1.0
19	63874.0	23470.0	0.7745	3014.0	1.0
20	56843.0	24064.0	0.8215	2985.0	1.0
21	59499.0	22735.0	0.7895	2966.0	1.0
22	64165.0	23134.0	0.7705	3016.0	1.0
23	64545.0	23650.0	0.781	2989.0	1.0
24	68771.0	22472.0	0.757	2976.0	1.0
25	61973.0	22149.0	0.779	2907.0	1.0
26	55693.0	21706.0	0.795	3001.0	1.0
27	73837.0	21792.0	0.743	2991.0	1.0
28	57554.0	22512.0	0.7945	3089.0	1.0
29	59871.0	23185.0	0.801	2928.0	1.0
30	68767.0	23472.0	0.7785	3106.0	1.0
31	74480.0	22977.0	0.758	2970.0	1.0
32	75855.0	22730.0	0.752	3127.0	1.0
33	59955.0	23438.0	0.8035	2803.0	1.0
34	55837.0	22713.0	0.8045	3017.0	1.0
35	61318.0	22591.0	0.789	3163.0	1.0
36	58391.0	22849.0	0.7955	2985.0	1.0
37	63230.0	21902.0	0.7725	2894.0	1.0
38	71524.0	20981.0	0.753	2878.0	1.0
39	67037.0	22697.0	0.7685	2996.0	1.0
40	57644.0	23128.0	0.7985	2946.0	1.0
41	56689.0	23766.0	0.814	3128.0	1.0
42	68944.0	23473.0	0.7785	2962.0	1.0
43	66458.0	23055.0	0.777	3004.0	1.0
44	63091.0	23643.0	0.7845	3074.0	1.0
45	60730.0	22654.0	0.786	3185.0	1.0
46	69541.0	23620.0	0.7785	2662.0	1.0
47	58629.0	22405.0	0.796	2621.0	1.0
48	65030.0	23388.0	0.789	2916.0	1.0
49	64988.0	23020.0	0.7805	3131.0	1.0
50	79015.0	22954.0	0.749	3203.0	1.0
51	67599.0	22926.0	0.7795	2994.0	1.0
52	58010.0	24031.0	0.807	2895.0	1.0
53	66299.0	23664.0	0.7705	3100.0	1.0
54	61219.0	22716.0	0.7905	2913.0	1.0
55	56949.0	22329.0	0.7905	2985.0	1.0
56	65541.0	22829.0	0.7725	3044.0	1.0
57	74589.0	23943.0	0.767	3037.0	1.0
58	70758.0	23232.0	0.766	2879.0	1.0
59	70928.0	23952.0	0.771	2830.0	1.0
60	60987.0	22166.0	0.7865	2972.0	1.0
61	65468.0	23807.0	0.7895	2804.0	1.0
62	76439.0	23041.0	0.757	2969.0	1.0
63	57991.0	22076.0	0.786	3168.0	1.0
64	70149.0	22902.0	0.7665	3072.0	1.0
65	65320.0	24213.0	0.781	3185.0	1.0
66	61138.0	21112.0	0.7695	2888.0	1.0
67	57751.0	23001.0	0.809	2916.0	1.0
68	62919.0	23413.0	0.7855	3250.0	1.0
69	62351.0	23388.0	0.7885	3198.0	1.0
70	57586.0	22218.0	0.7955	2986.0	1.0
71	61382.0	22902.0	0.785	3043.0	1.0
72	63870.0	22383.0	0.753	3180.0	1.0
73	54046.0	22639.0	0.797	3353.0	1.0
74	67185.0	22865.0	0.7855	2841.0	1.0
75	66132.0	22809.0	0.7685	2917.0	1.0
76	67734.0	22355.0	0.772	2913.0	1.0
77	74313.0	22576.0	0.749	3035.0	1.0
78	64140.0	22472.0	0.768	3017.0	1.0
79	58991.0	22336.0	0.797	2544.0	1.0
80	62122.0	22055.0	0.775	3151.0	1.0
81	70595.0	23082.0	0.771	3070.0	1.0
82	55222.0	22815.0	0.8075	2957.0	1.0
83	65795.0	23248.0	0.777	3106.0	1.0
84	70202.0	22732.0	0.761	2796.0	1.0
85	62563.0	22998.0	0.7895	3157.0	1.0
86	62218.0	23480.0	0.7865	3090.0	1.0
87	55702.0	24281.0	0.816	2889.0	1.0
88	66554.0	23308.0	0.787	2988.0	1.0
89	71804.0	23254.0	0.7605	3013.0	1.0
90	62734.0	22800.0	0.7805	3087.0	1.0
91	70283.0	22860.0	0.766	3321.0	1.0
92	71108.0	24019.0	0.7745	3001.0	1.0
93	53320.0	23596.0	0.8215	3084.0	1.0
94	77050.0	23148.0	0.7615	2859.0	1.0
95	73716.0	24174.0	0.755	3348.0	1.0
96	60056.0	23519.0	0.7875	3195.0	1.0
97	51420.0	22784.0	0.8195	3184.0	1.0
98	65444.0	23028.0	0.783	2792.0	1.0
99	66081.0	24459.0	0.785	3000.0	1.0
