Generation 699:
002110101100010000200011001010
021101011000100002000110010101
211010110001000020001100101010
110101100010000200011001010100
101011000100002000110010101001
010110001000020001100101010012
101100010000200011001010100121
011000100002000110010101001210
110001000020001100101010012100
100010000200011001010100121000
000100002000110010101001210000
001000020001100101010012100001
010000200011001010100121000011
100002000110010101001210000111
000020001100101010012100001110
000200011001010100121000011100
002000110010101001210000111000
020001100101010012100001110000
200011001010100121000011100000
000110010101001210000111000000
001100101010012100001110000000
011001010100121000011100000001
110010101001210000111000000010
100101010012100001110000000101
001010100121000011100000001010
010101001210000111000000010101
101010012100001110000000101012
010100121000011100000001010120
101001210000111000000010101200
010012100001110000000101012000
00100101100000000101211110010
01001011000000001012111100100
10010110000000010121111001000
00101100000000101211110010000
01011000000001012111100100001
10110000000010121111001000010
01100000000101211110010000101
11000000001012111100100001011
10000000010121111001000010110
00000000101211110010000101100
00000001012111100100001011000
00000010121111001000010110000
00000101211110010000101100000
00001012111100100001011000000
00010121111001000010110000000
00101211110010000101100000000
01012111100100001011000000000
10121111001000010110000000000
01211110010000101100000000000
12111100100001011000000000000
21111001000010110000000000000
11110010000101100000000000001
11100100001011000000000000011
11001000010110000000000000111
10010000101100000000000001110
00100001011000000000000011101
01000010110000000000000111010
10000101100000000000001110100
00001011000000000000011101000
00010110000000000000111010000

002110101100010000200011001010
021101011000100002000110010101
211010110001000020001100101010
110101100010000200011001010100
101011000100002000110010101001
010110001000020001100101010012
101100010000200011001010100121
011000100002000110010101001210
110001000020001100101010012100
100010000200011001010100121000
000100002000110010101001210000
001000020001100101010012100001
010000200011001010100121000011
100002000110010101001210000111
000020001100101010012100001110
000200011001010100121000011100
002000110010101001210000111000
020001100101010012100001110000
200011001010100121000011100000
000110010101001210000111000000
001100101010012100001110000000
011001010100121000011100000001
110010101001210000111000000010
100101010012100001110000000101
001010100121000011100000001010
010101001210000111000000010101
101010012100001110000000101012
010100121000011100000001010120
101001210000111000000010101200
010012100001110000000101012000
00100101100000000101211110010
01001011000000001012111100100
10010110000000010121111001000
00101100000000101211110010000
01011000000001012111100100001
10110000000010121111001000010
01100000000101211110010000101
11000000001012111100100001011
10000000010121111001000010110
00000000101211110010000101100
00000001012111100100001011000
00000010121111001000010110000
00000101211110010000101100000
00001012111100100001011000000
00010121111001000010110000000
00101211110010000101100000000
01012111100100001011000000000
10121111001000010110000000000
01211110010000101100000000000
12111100100001011000000000000
21111001000010110000000000000
11110010000101100000000000001
11100100001011000000000000011
11001000010110000000000000111
10010000101100000000000001110
00100001011000000000000011101
01000010110000000000000111010
10000101100000000000001110100
00001011000000000000011101000
00010110000000000000111010000

002100101100010000200011001010
021001011000100002000110010101
210010110001000020001100101010
100101100010000200011001010100
001011000100002000110010101001
010110001000020001100101010012
101100010000200011001010100121
011000100002000110010101001210
110001000020001100101010012100
100010000200011001010100121000
000100002000110010101001210000
001000020001100101010012100001
010000200011001010100121000011
100002000110010101001210000111
000020001100101010012100001110
000200011001010100121000011100
002000110010101001210000111000
020001100101010012100001110000
200011001010100121000011100000
000110010101001210000111000000
001100101010012100001110000000
011001010100121000011100000001
110010101001210000111000000010
100101010012100001110000000101
001010100121000011100000001010
010101001210000111000000010101
101010012100001110000000101012
010100121000011100000001010120
101001210000111000000010101200
010012100001110000000101012000
00100101100000000101211110110
01001011000000001012111101100
10010110000000010121111011000
00101100000000101211110110000
01011000000001012111101100001
10110000000010121111011000010
01100000000101211110110000101
11000000001012111101100001011
10000000010121111011000010110
00000000101211110110000101100
00000001012111101100001011000
00000010121111011000010110000
00000101211110110000101100000
00001012111101100001011000000
00010121111011000010110000000
00101211110110000101100000000
01012111101100001011000000000
10121111011000010110000000000
01211110110000101100000000000
12111101100001011000000000000
21111011000010110000000000000
11110110000101100000000000001
11101100001011000000000000011
11011000010110000000000000111
10110000101100000000000001110
01100001011000000000000011101
11000010110000000000000111010
10000101100000000000001110100
00001011000000000000011101000
00010110000000000000111010000

002100101100010000200011001010
021001011000100002000110010101
210010110001000020001100101010
100101100010000200011001010100
001011000100002000110010101001
010110001000020001100101010012
101100010000200011001010100121
011000100002000110010101001210
110001000020001100101010012100
100010000200011001010100121000
000100002000110010101001210000
001000020001100101010012100001
010000200011001010100121000011
100002000110010101001210000111
000020001100101010012100001110
000200011001010100121000011100
002000110010101001210000111000
020001100101010012100001110000
200011001010100121000011100000
000110010101001210000111000000
001100101010012100001110000000
011001010100121000011100000001
110010101001210000111000000010
100101010012100001110000000101
001010100121000011100000001010
010101001210000111000000010101
101010012100001110000000101012
010100121000011100000001010120
101001210000111000000010101200
010012100001110000000101012000
00100101100000000101211110110
01001011000000001012111101100
10010110000000010121111011000
00101100000000101211110110000
01011000000001012111101100001
10110000000010121111011000010
01100000000101211110110000101
11000000001012111101100001011
10000000010121111011000010110
00000000101211110110000101100
00000001012111101100001011000
00000010121111011000010110000
00000101211110110000101100000
00001012111101100001011000000
00010121111011000010110000000
00101211110110000101100000000
01012111101100001011000000000
10121111011000010110000000000
01211110110000101100000000000
12111101100001011000000000000
21111011000010110000000000000
11110110000101100000000000001
11101100001011000000000000011
11011000010110000000000000111
10110000101100000000000001110
01100001011000000000000011101
11000010110000000000000111010
10000101100000000000001110100
00001011000000000000011101000
00010110000000000000111010000

002100101100010000200011001010
021001011000100002000110010101
210010110001000020001100101010
100101100010000200011001010100
001011000100002000110010101001
010110001000020001100101010012
101100010000200011001010100121
011000100002000110010101001210
110001000020001100101010012100
100010000200011001010100121000
000100002000110010101001210000
001000020001100101010012100001
010000200011001010100121000011
100002000110010101001210000111
000020001100101010012100001110
000200011001010100121000011100
002000110010101001210000111000
020001100101010012100001110000
200011001010100121000011100000
000110010101001210000111000000
001100101010012100001110000000
011001010100121000011100000001
110010101001210000111000000010
100101010012100001110000000101
001010100121000011100000001010
010101001210000111000000010101
101010012100001110000000101012
010100121000011100000001010120
101001210000111000000010101200
010012100001110000000101012000
00100101100000000101211110110
01001011000000001012111101100
10010110000000010121111011000
00101100000000101211110110000
01011000000001012111101100001
10110000000010121111011000010
01100000000101211110110000101
11000000001012111101100001011
10000000010121111011000010110
00000000101211110110000101100
00000001012111101100001011000
00000010121111011000010110000
00000101211110110000101100000
00001012111101100001011000000
00010121111011000010110000000
00101211110110000101100000000
01012111101100001011000000000
10121111011000010110000000000
01211110110000101100000000000
12111101100001011000000000000
21111011000010110000000000000
11110110000101100000000000001
11101100001011000000000000011
11011000010110000000000000111
10110000101100000000000001110
01100001011000000000000011101
11000010110000000000000111011
10000101100000000000001110110
00001011000000000000011101100
00010110000000000000111011000

002100101100010000200011001010
021001011000100002000110010101
210010110001000020001100101010
100101100010000200011001010100
001011000100002000110010101001
010110001000020001100101010012
101100010000200011001010100121
011000100002000110010101001210
110001000020001100101010012100
100010000200011001010100121000
000100002000110010101001210000
001000020001100101010012100001
010000200011001010100121000011
100002000110010101001210000111
000020001100101010012100001110
000200011001010100121000011100
002000110010101001210000111000
020001100101010012100001110000
200011001010100121000011100000
000110010101001210000111000000
001100101010012100001110000000
011001010100121000011100000001
110010101001210000111000000010
100101010012100001110000000101
001010100121000011100000001010
010101001210000111000000010101
101010012100001110000000101012
010100121000011100000001010120
101001210000111000000010101200
010012100001110000000101012000
00100101100000000101211110110
01001011000000001012111101100
10010110000000010121111011000
00101100000000101211110110000
01011000000001012111101100001
10110000000010121111011000010
01100000000101211110110000101
11000000001012111101100001011
10000000010121111011000010110
00000000101211110110000101100
00000001012111101100001011000
00000010121111011000010110000
00000101211110110000101100000
00001012111101100001011000000
00010121111011000010110000000
00101211110110000101100000000
01012111101100001011000000000
10121111011000010110000000000
01211110110000101100000000001
12111101100001011000000000010
21111011000010110000000000100
11110110000101100000000001001
11101100001011000000000010011
11011000010110000000000100111
10110000101100000000001001110
01100001011000000000010011101
11000010110000000000100111010
10000101100000000001001110100
00001011000000000010011101000
00010110000000000100111010000

002110101100010000200011001010
021101011000100002000110010101
211010110001000020001100101010
110101100010000200011001010100
101011000100002000110010101001
010110001000020001100101010012
101100010000200011001010100121
011000100002000110010101001210
110001000020001100101010012100
100010000200011001010100121000
000100002000110010101001210000
001000020001100101010012100001
010000200011001010100121000011
100002000110010101001210000111
000020001100101010012100001110
000200011001010100121000011100
002000110010101001210000111000
020001100101010012100001110000
200011001010100121000011100000
000110010101001210000111000000
001100101010012100001110000000
011001010100121000011100000001
110010101001210000111000000010
100101010012100001110000000101
001010100121000011100000001010
010101001210000111000000010101
101010012100001110000000101012
010100121000011100000001010120
101001210000111000000010101200
010012100001110000000101012000
00100101100000000101211110110
01001011000000001012111101100
10010110000000010121111011000
00101100000000101211110110000
01011000000001012111101100001
10110000000010121111011000010
01100000000101211110110000101
11000000001012111101100001011
10000000010121111011000010110
00000000101211110110000101100
00000001012111101100001011000
00000010121111011000010110000
00000101211110110000101100000
00001012111101100001011000000
00010121111011000010110000000
00101211110110000101100000000
01012111101100001011000000000
10121111011000010110000000000
01211110110000101100000000000
12111101100001011000000000000
21111011000010110000000000000
11110110000101100000000000001
11101100001011000000000000011
11011000010110000000000000111
10110000101100000000000001110
01100001011000000000000011101
11000010110000000000000111010
10000101100000000000001110100
00001011000000000000011101000
00010110000000000000111010000

002110101100010000200011001010
021101011000100002000110010101
211010110001000020001100101010
110101100010000200011001010100
101011000100002000110010101001
010110001000020001100101010012
101100010000200011001010100121
011000100002000110010101001210
110001000020001100101010012100
100010000200011001010100121000
000100002000110010101001210000
001000020001100101010012100001
010000200011001010100121000011
100002000110010101001210000110
000020001100101010012100001100
000200011001010100121000011000
002000110010101001210000110000
020001100101010012100001100000
200011001010100121000011000000
000110010101001210000110000000
001100101010012100001100000001
011001010100121000011000000011
110010101001210000110000000110
100101010012100001100000001101
001010100121000011000000011010
010101001210000110000000110101
101010012100001100000001101012
010100121000011000000011010120
101001210000110000000110101200
010012100001100000001101012000
00100101100000000101211110210
01001011000000001012111102100
10010110000000010121111021000
00101100000000101211110210000
01011000000001012111102100001
10110000000010121111021000010
01100000000101211110210000101
11000000001012111102100001011
10000000010121111021000010110
00000000101211110210000101100
00000001012111102100001011000
00000010121111021000010110000
00000101211110210000101100000
00001012111102100001011000000
00010121111021000010110000000
00101211110210000101100000000
01012111102100001011000000000
10121111021000010110000000000
01211110210000101100000000000
12111102100001011000000000000
21111021000010110000000000000
11110210000101100000000000001
11102100001011000000000000011
11021000010110000000000000111
10210000101100000000000001110
02100001011000000000000011101
21000010110000000000000111010
10000101100000000000001110100
00001011000000000000011101000
00010110000000000000111010000

002100101100010000200011001010
021001011000100002000110010101
210010110001000020001100101010
100101100010000200011001010100
001011000100002000110010101001
010110001000020001100101010012
101100010000200011001010100121
011000100002000110010101001210
110001000020001100101010012100
100010000200011001010100121000
000100002000110010101001210000
001000020001100101010012100001
010000200011001010100121000011
100002000110010101001210000111
000020001100101010012100001110
000200011001010100121000011100
002000110010101001210000111000
020001100101010012100001110000
200011001010100121000011100000
000110010101001210000111000000
001100101010012100001110000000
011001010100121000011100000001
110010101001210000111000000010
100101010012100001110000000101
001010100121000011100000001010
010101001210000111000000010101
101010012100001110000000101012
010100121000011100000001010120
101001210000111000000010101200
010012100001110000000101012000
00100101100000000101211110110
01001011000000001012111101100
10010110000000010121111011000
00101100000000101211110110000
01011000000001012111101100001
10110000000010121111011000010
01100000000101211110110000101
11000000001012111101100001011
10000000010121111011000010110
00000000101211110110000101100
00000001012111101100001011000
00000010121111011000010110000
00000101211110110000101100000
00001012111101100001011000000
00010121111011000010110000000
00101211110110000101100000000
01012111101100001011000000000
10121111011000010110000000000
01211110110000101100000000000
12111101100001011000000000000
21111011000010110000000000000
11110110000101100000000000001
11101100001011000000000000011
11011000010110000000000000111
10110000101100000000000001110
01100001011000000000000011101
11000010110000000000000111010
10000101100000000000001110100
00001011000000000000011101000
00010110000000000000111010000

002100101100010000200011001010
021001011000100002000110010101
210010110001000020001100101010
100101100010000200011001010100
001011000100002000110010101001
010110001000020001100101010012
101100010000200011001010100121
011000100002000110010101001210
110001000020001100101010012100
100010000200011001010100121000
000100002000110010101001210000
001000020001100101010012100001
010000200011001010100121000011
100002000110010101001210000111
000020001100101010012100001110
000200011001010100121000011100
002000110010101001210000111000
020001100101010012100001110000
200011001010100121000011100000
000110010101001210000111000000
001100101010012100001110000000
011001010100121000011100000001
110010101001210000111000000010
100101010012100001110000000101
001010100121000011100000001010
010101001210000111000000010101
101010012100001110000000101012
010100121000011100000001010120
101001210000111000000010101200
010012100001110000000101012000
00100101100000000101211110010
01001011000000001012111100100
10010110000000010121111001000
00101100000000101211110010000
01011000000001012111100100001
10110000000010121111001000010
01100000000101211110010000101
11000000001012111100100001011
10000000010121111001000010110
00000000101211110010000101100
00000001012111100100001011000
00000010121111001000010110000
00000101211110010000101100000
00001012111100100001011000000
00010121111001000010110000000
00101211110010000101100000000
01012111100100001011000000000
10121111001000010110000000000
01211110010000101100000000000
12111100100001011000000000000
21111001000010110000000000000
11110010000101100000000000001
11100100001011000000000000011
11001000010110000000000000111
10010000101100000000000001110
00100001011000000000000011101
01000010110000000000000111011
10000101100000000000001110110
00001011000000000000011101100
00010110000000000000111011000

002100101100010000200011001010
021001011000100002000110010101
210010110001000020001100101010
100101100010000200011001010100
001011000100002000110010101001
010110001000020001100101010012
101100010000200011001010100121
011000100002000110010101001210
110001000020001100101010012100
100010000200011001010100121000
000100002000110010101001210000
001000020001100101010012100001
010000200011001010100121000011
100002000110010101001210000111
000020001100101010012100001110
000200011001010100121000011100
002000110010101001210000111000
020001100101010012100001110000
200011001010100121000011100000
000110010101001210000111000000
001100101010012100001110000000
011001010100121000011100000001
110010101001210000111000000010
100101010012100001110000000101
001010100121000011100000001010
010101001210000111000000010101
101010012100001110000000101012
010100121000011100000001010120
101001210000111000000010101200
010012100001110000000101012000
00100101100000000101211110110
01001011000000001012111101100
10010110000000010121111011000
00101100000000101211110110000
01011000000001012111101100001
10110000000010121111011000010
01100000000101211110110000101
11000000001012111101100001011
10000000010121111011000010110
00000000101211110110000101100
00000001012111101100001011000
00000010121111011000010110000
00000101211110110000101100000
00001012111101100001011000000
00010121111011000010110000000
00101211110110000101100000000
01012111101100001011000000000
10121111011000010110000000000
01211110110000101100000000000
12111101100001011000000000000
21111011000010110000000000000
11110110000101100000000000001
11101100001011000000000000011
11011000010110000000000000111
10110000101100000000000001110
01100001011000000000000011101
11000010110000000000000111010
10000101100000000000001110100
00001011000000000000011101000
00010110000000000000111010000

002100101100010000200011001010
021001011000100002000110010101
210010110001000020001100101010
100101100010000200011001010100
001011000100002000110010101001
010110001000020001100101010012
101100010000200011001010100121
011000100002000110010101001210
110001000020001100101010012100
100010000200011001010100121000
000100002000110010101001210000
001000020001100101010012100001
010000200011001010100121000011
100002000110010101001210000111
000020001100101010012100001110
000200011001010100121000011100
002000110010101001210000111000
020001100101010012100001110000
200011001010100121000011100000
000110010101001210000111000000
001100101010012100001110000000
011001010100121000011100000001
110010101001210000111000000010
100101010012100001110000000101
001010100121000011100000001010
010101001210000111000000010101
101010012100001110000000101012
010100121000011100000001010120
101001210000111000000010101200
010012100001110000000101012000
00100101100000000101211110110
01001011000000001012111101100
10010110000000010121111011000
00101100000000101211110110000
01011000000001012111101100001
10110000000010121111011000010
01100000000101211110110000101
11000000001012111101100001011
10000000010121111011000010110
00000000101211110110000101100
00000001012111101100001011000
00000010121111011000010110000
00000101211110110000101100000
00001012111101100001011000000
00010121111011000010110000000
00101211110110000101100000000
01012111101100001011000000000
10121111011000010110000000000
01211110110000101100000000000
12111101100001011000000000000
21111011000010110000000000000
11110110000101100000000000001
11101100001011000000000000011
11011000010110000000000000111
10110000101100000000000001110
01100001011000000000000011101
11000010110000000000000111011
10000101100000000000001110110
00001011000000000000011101100
00010110000000000000111011000

002100101100010000200011001010
021001011000100002000110010101
210010110001000020001100101010
100101100010000200011001010100
001011000100002000110010101001
010110001000020001100101010012
101100010000200011001010100121
011000100002000110010101001210
110001000020001100101010012100
100010000200011001010100121000
000100002000110010101001210000
001000020001100101010012100001
010000200011001010100121000011
100002000110010101001210000111
000020001100101010012100001110
000200011001010100121000011100
002000110010101001210000111000
020001100101010012100001110000
200011001010100121000011100000
000110010101001210000111000000
001100101010012100001110000000
011001010100121000011100000001
110010101001210000111000000010
100101010012100001110000000101
001010100121000011100000001010
010101001210000111000000010101
101010012100001110000000101012
010100121000011100000001010120
101001210000111000000010101200
010012100001110000000101012000
00100101100000000101211110010
01001011000000001012111100100
10010110000000010121111001000
00101100000000101211110010000
01011000000001012111100100001
10110000000010121111001000010
01100000000101211110010000101
11000000001012111100100001011
10000000010121111001000010110
00000000101211110010000101100
00000001012111100100001011000
00000010121111001000010110000
00000101211110010000101100000
00001012111100100001011000000
00010121111001000010110000000
00101211110010000101100000000
01012111100100001011000000000
10121111001000010110000000000
01211110010000101100000000000
12111100100001011000000000000
21111001000010110000000000000
11110010000101100000000000001
11100100001011000000000000011
11001000010110000000000000111
10010000101100000000000001110
00100001011000000000000011101
01000010110000000000000111011
10000101100000000000001110110
00001011000000000000011101100
00010110000000000000111011000

002100101100010000200011001010
021001011000100002000110010101
210010110001000020001100101010
100101100010000200011001010100
001011000100002000110010101001
010110001000020001100101010012
101100010000200011001010100121
011000100002000110010101001210
110001000020001100101010012100
100010000200011001010100121000
000100002000110010101001210000
001000020001100101010012100001
010000200011001010100121000011
100002000110010101001210000111
000020001100101010012100001110
000200011001010100121000011100
002000110010101001210000111000
020001100101010012100001110000
200011001010100121000011100000
000110010101001210000111000000
001100101010012100001110000000
011001010100121000011100000001
110010101001210000111000000010
100101010012100001110000000101
001010100121000011100000001010
010101001210000111000000010101
101010012100001110000000101012
010100121000011100000001010120
101001210000111000000010101200
010012100001110000000101012000
00100101100000000101211110110
01001011000000001012111101100
10010110000000010121111011000
00101100000000101211110110000
01011000000001012111101100001
10110000000010121111011000010
01100000000101211110110000101
11000000001012111101100001011
10000000010121111011000010110
00000000101211110110000101100
00000001012111101100001011000
00000010121111011000010110000
00000101211110110000101100000
00001012111101100001011000000
00010121111011000010110000000
00101211110110000101100000000
01012111101100001011000000000
10121111011000010110000000000
01211110110000101100000000001
12111101100001011000000000010
21111011000010110000000000100
11110110000101100000000001001
11101100001011000000000010011
11011000010110000000000100111
10110000101100000000001001110
01100001011000000000010011101
11000010110000000000100111010
10000101100000000001001110100
00001011000000000010011101000
00010110000000000100111010000

002100101100010000200011001010
021001011000100002000110010101
210010110001000020001100101010
100101100010000200011001010100
001011000100002000110010101001
010110001000020001100101010012
101100010000200011001010100121
011000100002000110010101001210
110001000020001100101010012100
100010000200011001010100121000
000100002000110010101001210000
001000020001100101010012100001
010000200011001010100121000011
100002000110010101001210000111
000020001100101010012100001110
000200011001010100121000011100
002000110010101001210000111000
020001100101010012100001110000
200011001010100121000011100000
000110010101001210000111000000
001100101010012100001110000000
011001010100121000011100000001
110010101001210000111000000010
100101010012100001110000000101
001010100121000011100000001010
010101001210000111000000010101
101010012100001110000000101012
010100121000011100000001010120
101001210000111000000010101200
010012100001110000000101012000
00100101100000000101211110110
01001011000000001012111101100
10010110000000010121111011000
00101100000000101211110110000
01011000000001012111101100001
10110000000010121111011000010
01100000000101211110110000101
11000000001012111101100001011
10000000010121111011000010110
00000000101211110110000101100
00000001012111101100001011000
00000010121111011000010110000
00000101211110110000101100000
00001012111101100001011000000
00010121111011000010110000000
00101211110110000101100000000
01012111101100001011000000000
10121111011000010110000000000
01211110110000101100000000000
12111101100001011000000000000
21111011000010110000000000000
11110110000101100000000000001
11101100001011000000000000011
11011000010110000000000000111
10110000101100000000000001110
01100001011000000000000011101
11000010110000000000000111010
10000101100000000000001110100
00001011000000000000011101000
00010110000000000000111010000

002100101100010000200011001010
021001011000100002000110010101
210010110001000020001100101010
100101100010000200011001010100
001011000100002000110010101001
010110001000020001100101010012
101100010000200011001010100121
011000100002000110010101001210
110001000020001100101010012100
100010000200011001010100121000
000100002000110010101001210000
001000020001100101010012100001
010000200011001010100121000011
100002000110010101001210000111
000020001100101010012100001110
000200011001010100121000011100
002000110010101001210000111000
020001100101010012100001110000
200011001010100121000011100000
000110010101001210000111000000
001100101010012100001110000000
011001010100121000011100000001
110010101001210000111000000010
100101010012100001110000000101
001010100121000011100000001010
010101001210000111000000010101
101010012100001110000000101012
010100121000011100000001010120
101001210000111000000010101200
010012100001110000000101012000
00100101100000000101211110110
01001011000000001012111101100
10010110000000010121111011000
00101100000000101211110110000
01011000000001012111101100001
10110000000010121111011000010
01100000000101211110110000101
11000000001012111101100001011
10000000010121111011000010110
00000000101211110110000101100
00000001012111101100001011000
00000010121111011000010110000
00000101211110110000101100000
00001012111101100001011000000
00010121111011000010110000000
00101211110110000101100000000
01012111101100001011000000000
10121111011000010110000000000
01211110110000101100000000000
12111101100001011000000000000
21111011000010110000000000000
11110110000101100000000000001
11101100001011000000000000011
11011000010110000000000000111
10110000101100000000000001110
01100001011000000000000011101
11000010110000000000000111010
10000101100000000000001110100
00001011000000000000011101000
00010110000000000000111010000

002110101100010000200011001010
021101011000100002000110010101
211010110001000020001100101010
110101100010000200011001010100
101011000100002000110010101001
010110001000020001100101010012
101100010000200011001010100121
011000100002000110010101001210
110001000020001100101010012100
100010000200011001010100121000
000100002000110010101001210000
001000020001100101010012100001
010000200011001010100121000011
100002000110010101001210000111
000020001100101010012100001110
000200011001010100121000011100
002000110010101001210000111000
020001100101010012100001110000
200011001010100121000011100000
000110010101001210000111000000
001100101010012100001110000000
011001010100121000011100000001
110010101001210000111000000010
100101010012100001110000000101
001010100121000011100000001010
010101001210000111000000010101
101010012100001110000000101012
010100121000011100000001010120
101001210000111000000010101200
010012100001110000000101012000
00100101100000000101211110010
01001011000000001012111100100
10010110000000010121111001000
00101100000000101211110010000
01011000000001012111100100001
10110000000010121111001000010
01100000000101211110010000101
11000000001012111100100001011
10000000010121111001000010110
00000000101211110010000101100
00000001012111100100001011000
00000010121111001000010110000
00000101211110010000101100000
00001012111100100001011000000
00010121111001000010110000000
00101211110010000101100000000
01012111100100001011000000000
10121111001000010110000000000
01211110010000101100000000000
12111100100001011000000000000
21111001000010110000000000000
11110010000101100000000000001
11100100001011000000000000011
11001000010110000000000000111
10010000101100000000000001110
00100001011000000000000011101
01000010110000000000000111010
10000101100000000000001110100
00001011000000000000011101000
00010110000000000000111010000

002110101100010000200011001010
021101011000100002000110010101
211010110001000020001100101010
110101100010000200011001010100
101011000100002000110010101001
010110001000020001100101010012
101100010000200011001010100121
011000100002000110010101001210
110001000020001100101010012100
100010000200011001010100121000
000100002000110010101001210000
001000020001100101010012100001
010000200011001010100121000011
100002000110010101001210000111
000020001100101010012100001110
000200011001010100121000011100
002000110010101001210000111000
020001100101010012100001110000
200011001010100121000011100000
000110010101001210000111000000
001100101010012100001110000000
011001010100121000011100000001
110010101001210000111000000010
100101010012100001110000000101
001010100121000011100000001010
010101001210000111000000010101
101010012100001110000000101012
010100121000011100000001010120
101001210000111000000010101200
010012100001110000000101012000
00100101100000000101211110110
01001011000000001012111101100
10010110000000010121111011000
00101100000000101211110110000
01011000000001012111101100001
10110000000010121111011000010
01100000000101211110110000101
11000000001012111101100001011
10000000010121111011000010110
00000000101211110110000101100
00000001012111101100001011000
00000010121111011000010110000
00000101211110110000101100000
00001012111101100001011000000
00010121111011000010110000000
00101211110110000101100000000
01012111101100001011000000000
10121111011000010110000000000
01211110110000101100000000000
12111101100001011000000000000
21111011000010110000000000000
11110110000101100000000000001
11101100001011000000000000011
11011000010110000000000000111
10110000101100000000000001110
01100001011000000000000011101
11000010110000000000000111010
10000101100000000000001110100
00001011000000000000011101000
00010110000000000000111010000

002100101100010000200011001010
021001011000100002000110010101
210010110001000020001100101010
100101100010000200011001010100
001011000100002000110010101001
010110001000020001100101010012
101100010000200011001010100121
011000100002000110010101001210
110001000020001100101010012100
100010000200011001010100121000
000100002000110010101001210000
001000020001100101010012100001
010000200011001010100121000011
100002000110010101001210000111
000020001100101010012100001110
000200011001010100121000011100
002000110010101001210000111000
020001100101010012100001110000
200011001010100121000011100000
000110010101001210000111000000
001100101010012100001110000000
011001010100121000011100000001
110010101001210000111000000010
100101010012100001110000000101
001010100121000011100000001010
010101001210000111000000010101
101010012100001110000000101012
010100121000011100000001010120
101001210000111000000010101200
010012100001110000000101012000
00100101100000000101211110110
01001011000000001012111101100
10010110000000010121111011000
00101100000000101211110110000
01011000000001012111101100001
10110000000010121111011000010
01100000000101211110110000101
11000000001012111101100001011
10000000010121111011000010110
00000000101211110110000101100
00000001012111101100001011000
00000010121111011000010110000
00000101211110110000101100000
00001012111101100001011000000
00010121111011000010110000000
00101211110110000101100000000
01012111101100001011000000000
10121111011000010110000000000
01211110110000101100000000000
12111101100001011000000000000
21111011000010110000000000000
11110110000101100000000000001
11101100001011000000000000011
11011000010110000000000000111
10110000101100000000000001110
01100001011000000000000011101
11000010110000000000000111010
10000101100000000000001110100
00001011000000000000011101000
00010110000000000000111010000

002100101100010000200011001010
021001011000100002000110010101
210010110001000020001100101010
100101100010000200011001010100
001011000100002000110010101001
010110001000020001100101010012
101100010000200011001010100121
011000100002000110010101001210
110001000020001100101010012100
100010000200011001010100121000
000100002000110010101001210000
001000020001100101010012100001
010000200011001010100121000011
100002000110010101001210000111
000020001100101010012100001110
000200011001010100121000011100
002000110010101001210000111000
020001100101010012100001110000
200011001010100121000011100000
000110010101001210000111000000
001100101010012100001110000000
011001010100121000011100000001
110010101001210000111000000010
100101010012100001110000000101
001010100121000011100000001010
010101001210000111000000010101
101010012100001110000000101012
010100121000011100000001010120
101001210000111000000010101200
010012100001110000000101012000
00100101100000000101211110010
01001011000000001012111100100
10010110000000010121111001000
00101100000000101211110010000
01011000000001012111100100001
10110000000010121111001000010
01100000000101211110010000101
11000000001012111100100001011
10000000010121111001000010110
00000000101211110010000101100
00000001012111100100001011000
00000010121111001000010110000
00000101211110010000101100000
00001012111100100001011000000
00010121111001000010110000000
00101211110010000101100000000
01012111100100001011000000000
10121111001000010110000000000
01211110010000101100000000002
12111100100001011000000000020
21111001000010110000000000200
11110010000101100000000002001
11100100001011000000000020011
11001000010110000000000200111
10010000101100000000002001110
00100001011000000000020011101
01000010110000000000200111010
10000101100000000002001110100
00001011000000000020011101000
00010110000000000200111010000

002100101100010000200011001010
021001011000100002000110010101
210010110001000020001100101010
100101100010000200011001010100
001011000100002000110010101001
010110001000020001100101010012
101100010000200011001010100121
011000100002000110010101001210
110001000020001100101010012100
100010000200011001010100121000
000100002000110010101001210000
001000020001100101010012100001
010000200011001010100121000011
100002000110010101001210000111
000020001100101010012100001110
000200011001010100121000011100
002000110010101001210000111000
020001100101010012100001110000
200011001010100121000011100000
000110010101001210000111000000
001100101010012100001110000000
011001010100121000011100000001
110010101001210000111000000010
100101010012100001110000000101
001010100121000011100000001010
010101001210000111000000010101
101010012100001110000000101012
010100121000011100000001010120
101001210000111000000010101200
010012100001110000000101012000
00100101100000000101211110110
01001011000000001012111101100
10010110000000010121111011000
00101100000000101211110110000
01011000000001012111101100001
10110000000010121111011000010
01100000000101211110110000101
11000000001012111101100001011
10000000010121111011000010110
00000000101211110110000101100
00000001012111101100001011000
00000010121111011000010110000
00000101211110110000101100000
00001012111101100001011000000
00010121111011000010110000000
00101211110110000101100000000
01012111101100001011000000000
10121111011000010110000000000
01211110110000101100000000001
12111101100001011000000000010
21111011000010110000000000100
11110110000101100000000001001
11101100001011000000000010011
11011000010110000000000100111
10110000101100000000001001110
01100001011000000000010011101
11000010110000000000100111010
10000101100000000001001110100
00001011000000000010011101000
00010110000000000100111010000

002110101100010000200011001010
021101011000100002000110010101
211010110001000020001100101010
110101100010000200011001010100
101011000100002000110010101001
010110001000020001100101010012
101100010000200011001010100121
011000100002000110010101001210
110001000020001100101010012100
100010000200011001010100121000
000100002000110010101001210000
001000020001100101010012100001
010000200011001010100121000011
100002000110010101001210000111
000020001100101010012100001110
000200011001010100121000011100
002000110010101001210000111000
020001100101010012100001110000
200011001010100121000011100000
000110010101001210000111000000
001100101010012100001110000000
011001010100121000011100000001
110010101001210000111000000010
100101010012100001110000000101
001010100121000011100000001010
010101001210000111000000010101
101010012100001110000000101012
010100121000011100000001010120
101001210000111000000010101200
010012100001110000000101012000
00100101100000000101211110010
01001011000000001012111100100
10010110000000010121111001000
00101100000000101211110010000
01011000000001012111100100001
10110000000010121111001000010
01100000000101211110010000101
11000000001012111100100001011
10000000010121111001000010110
00000000101211110010000101100
00000001012111100100001011000
00000010121111001000010110000
00000101211110010000101100000
00001012111100100001011000000
00010121111001000010110000000
00101211110010000101100000000
01012111100100001011000000000
10121111001000010110000000000
01211110010000101100000000000
12111100100001011000000000000
21111001000010110000000000000
11110010000101100000000000001
11100100001011000000000000011
11001000010110000000000000111
10010000101100000000000001110
00100001011000000000000011101
01000010110000000000000111011
10000101100000000000001110110
00001011000000000000011101100
00010110000000000000111011000

002110101100010000200011001010
021101011000100002000110010101
211010110001000020001100101010
110101100010000200011001010100
101011000100002000110010101001
010110001000020001100101010012
101100010000200011001010100121
011000100002000110010101001210
110001000020001100101010012100
100010000200011001010100121000
000100002000110010101001210000
001000020001100101010012100001
010000200011001010100121000011
100002000110010101001210000111
000020001100101010012100001110
000200011001010100121000011100
002000110010101001210000111000
020001100101010012100001110000
200011001010100121000011100000
000110010101001210000111000000
001100101010012100001110000000
011001010100121000011100000001
110010101001210000111000000010
100101010012100001110000000101
001010100121000011100000001010
010101001210000111000000010101
101010012100001110000000101012
010100121000011100000001010120
101001210000111000000010101200
010012100001110000000101012000
00100101100000000101211110110
01001011000000001012111101100
10010110000000010121111011000
00101100000000101211110110000
01011000000001012111101100001
10110000000010121111011000010
01100000000101211110110000101
11000000001012111101100001011
10000000010121111011000010110
00000000101211110110000101100
00000001012111101100001011000
00000010121111011000010110000
00000101211110110000101100000
00001012111101100001011000000
00010121111011000010110000000
00101211110110000101100000000
01012111101100001011000000000
10121111011000010110000000000
01211110110000101100000000000
12111101100001011000000000000
21111011000010110000000000000
11110110000101100000000000001
11101100001011000000000000011
11011000010110000000000000111
10110000101100000000000001110
01100001011000000000000011101
11000010110000000000000111010
10000101100000000000001110100
00001011000000000000011101000
00010110000000000000111010000

002110101100010000200011001010
021101011000100002000110010101
211010110001000020001100101010
110101100010000200011001010100
101011000100002000110010101001
010110001000020001100101010012
101100010000200011001010100121
011000100002000110010101001210
110001000020001100101010012100
100010000200011001010100121000
000100002000110010101001210000
001000020001100101010012100001
010000200011001010100121000011
100002000110010101001210000111
000020001100101010012100001110
000200011001010100121000011100
002000110010101001210000111000
020001100101010012100001110000
200011001010100121000011100000
000110010101001210000111000000
001100101010012100001110000000
011001010100121000011100000001
110010101001210000111000000010
100101010012100001110000000101
001010100121000011100000001010
010101001210000111000000010101
101010012100001110000000101012
010100121000011100000001010120
101001210000111000000010101200
010012100001110000000101012000
00100101100000000101211110010
01001011000000001012111100100
10010110000000010121111001000
00101100000000101211110010000
01011000000001012111100100001
10110000000010121111001000010
01100000000101211110010000101
11000000001012111100100001011
10000000010121111001000010110
00000000101211110010000101100
00000001012111100100001011000
00000010121111001000010110000
00000101211110010000101100000
00001012111100100001011000000
00010121111001000010110000000
00101211110010000101100000000
01012111100100001011000000000
10121111001000010110000000000
01211110010000101100000000000
12111100100001011000000000000
21111001000010110000000000000
11110010000101100000000000001
11100100001011000000000000011
11001000010110000000000000111
10010000101100000000000001110
00100001011000000000000011101
01000010110000000000000111010
10000101100000000000001110100
00001011000000000000011101000
00010110000000000000111010000

002110101100010000200011001010
021101011000100002000110010101
211010110001000020001100101010
110101100010000200011001010100
101011000100002000110010101001
010110001000020001100101010012
101100010000200011001010100121
011000100002000110010101001210
110001000020001100101010012100
100010000200011001010100121000
000100002000110010101001210000
001000020001100101010012100001
010000200011001010100121000011
100002000110010101001210000111
000020001100101010012100001110
000200011001010100121000011100
002000110010101001210000111000
020001100101010012100001110000
200011001010100121000011100000
000110010101001210000111000000
001100101010012100001110000000
011001010100121000011100000001
110010101001210000111000000010
100101010012100001110000000101
001010100121000011100000001010
010101001210000111000000010101
101010012100001110000000101012
010100121000011100000001010120
101001210000111000000010101200
010012100001110000000101012000
00100101100000000101211110110
01001011000000001012111101100
10010110000000010121111011000
00101100000000101211110110000
01011000000001012111101100001
10110000000010121111011000010
01100000000101211110110000101
11000000001012111101100001011
10000000010121111011000010110
00000000101211110110000101100
00000001012111101100001011000
00000010121111011000010110000
00000101211110110000101100000
00001012111101100001011000000
00010121111011000010110000000
00101211110110000101100000000
01012111101100001011000000000
10121111011000010110000000000
01211110110000101100000000000
12111101100001011000000000000
21111011000010110000000000000
11110110000101100000000000001
11101100001011000000000000011
11011000010110000000000000111
10110000101100000000000001110
01100001011000000000000011101
11000010110000000000000111010
10000101100000000000001110100
00001011000000000000011101000
00010110000000000000111010000

002100101100010000200011001010
021001011000100002000110010101
210010110001000020001100101010
100101100010000200011001010100
001011000100002000110010101001
010110001000020001100101010012
101100010000200011001010100121
011000100002000110010101001210
110001000020001100101010012100
100010000200011001010100121000
000100002000110010101001210000
001000020001100101010012100001
010000200011001010100121000011
100002000110010101001210000111
000020001100101010012100001110
000200011001010100121000011100
002000110010101001210000111000
020001100101010012100001110000
200011001010100121000011100000
000110010101001210000111000000
001100101010012100001110000000
011001010100121000011100000001
110010101001210000111000000010
100101010012100001110000000101
001010100121000011100000001010
010101001210000111000000010101
101010012100001110000000101012
010100121000011100000001010120
101001210000111000000010101200
010012100001110000000101012000
00100101100000000101211110010
01001011000000001012111100100
10010110000000010121111001000
00101100000000101211110010000
01011000000001012111100100001
10110000000010121111001000010
01100000000101211110010000101
11000000001012111100100001011
10000000010121111001000010110
00000000101211110010000101100
00000001012111100100001011000
00000010121111001000010110000
00000101211110010000101100000
00001012111100100001011000000
00010121111001000010110000000
00101211110010000101100000000
01012111100100001011000000000
10121111001000010110000000000
01211110010000101100000000000
12111100100001011000000000000
21111001000010110000000000000
11110010000101100000000000001
11100100001011000000000000011
11001000010110000000000000111
10010000101100000000000001110
00100001011000000000000011101
01000010110000000000000111011
10000101100000000000001110110
00001011000000000000011101100
00010110000000000000111011000

002100101100010000200011001010
021001011000100002000110010101
210010110001000020001100101010
100101100010000200011001010100
001011000100002000110010101001
010110001000020001100101010012
101100010000200011001010100121
011000100002000110010101001210
110001000020001100101010012100
100010000200011001010100121000
000100002000110010101001210000
001000020001100101010012100001
010000200011001010100121000011
100002000110010101001210000111
000020001100101010012100001110
000200011001010100121000011100
002000110010101001210000111000
020001100101010012100001110000
200011001010100121000011100000
000110010101001210000111000000
001100101010012100001110000000
011001010100121000011100000001
110010101001210000111000000010
100101010012100001110000000101
001010100121000011100000001010
010101001210000111000000010101
101010012100001110000000101012
010100121000011100000001010120
101001210000111000000010101200
010012100001110000000101012000
00100101100000000101211110110
01001011000000001012111101100
10010110000000010121111011000
00101100000000101211110110000
01011000000001012111101100001
10110000000010121111011000010
01100000000101211110110000101
11000000001012111101100001011
10000000010121111011000010110
00000000101211110110000101100
00000001012111101100001011000
00000010121111011000010110000
00000101211110110000101100000
00001012111101100001011000000
00010121111011000010110000000
00101211110110000101100000000
01012111101100001011000000000
10121111011000010110000000000
01211110110000101100000000000
12111101100001011000000000000
21111011000010110000000000000
11110110000101100000000000001
11101100001011000000000000011
11011000010110000000000000111
10110000101100000000000001110
01100001011000000000000011101
11000010110000000000000111010
10000101100000000000001110100
00001011000000000000011101000
00010110000000000000111010000

002100101100010000200011001010
021001011000100002000110010101
210010110001000020001100101010
100101100010000200011001010100
001011000100002000110010101001
010110001000020001100101010012
101100010000200011001010100121
011000100002000110010101001210
110001000020001100101010012100
100010000200011001010100121000
000100002000110010101001210000
001000020001100101010012100001
010000200011001010100121000011
100002000110010101001210000111
000020001100101010012100001110
000200011001010100121000011100
002000110010101001210000111000
020001100101010012100001110000
200011001010100121000011100000
000110010101001210000111000000
001100101010012100001110000000
011001010100121000011100000001
110010101001210000111000000010
100101010012100001110000000101
001010100121000011100000001010
010101001210000111000000010101
101010012100001110000000101012
010100121000011100000001010120
101001210000111000000010101200
010012100001110000000101012000
00100101100000000101211110010
01001011000000001012111100100
10010110000000010121111001000
00101100000000101211110010000
01011000000001012111100100001
10110000000010121111001000010
01100000000101211110010000101
11000000001012111100100001011
10000000010121111001000010110
00000000101211110010000101100
00000001012111100100001011000
00000010121111001000010110000
00000101211110010000101100000
00001012111100100001011000000
00010121111001000010110000000
00101211110010000101100000000
01012111100100001011000000000
10121111001000010110000000000
01211110010000101100000000001
12111100100001011000000000010
21111001000010110000000000100
11110010000101100000000001001
11100100001011000000000010011
11001000010110000000000100111
10010000101100000000001001110
00100001011000000000010011101
01000010110000000000100111010
10000101100000000001001110100
00001011000000000010011101000
00010110000000000100111010000

002100101100010000200011001010
021001011000100002000110010101
210010110001000020001100101010
100101100010000200011001010100
001011000100002000110010101001
010110001000020001100101010012
101100010000200011001010100121
011000100002000110010101001210
110001000020001100101010012100
100010000200011001010100121000
000100002000110010101001210000
001000020001100101010012100001
010000200011001010100121000011
100002000110010101001210000111
000020001100101010012100001110
000200011001010100121000011100
002000110010101001210000111000
020001100101010012100001110000
200011001010100121000011100000
000110010101001210000111000000
001100101010012100001110000000
011001010100121000011100000001
110010101001210000111000000010
100101010012100001110000000101
001010100121000011100000001010
010101001210000111000000010101
101010012100001110000000101012
010100121000011100000001010120
101001210000111000000010101200
010012100001110000000101012000
00100101100000000101211110010
01001011000000001012111100100
10010110000000010121111001000
00101100000000101211110010000
01011000000001012111100100001
10110000000010121111001000010
01100000000101211110010000101
11000000001012111100100001011
10000000010121111001000010110
00000000101211110010000101100
00000001012111100100001011000
00000010121111001000010110000
00000101211110010000101100000
00001012111100100001011000000
00010121111001000010110000000
00101211110010000101100000000
01012111100100001011000000000
10121111001000010110000000000
01211110010000101100000000000
12111100100001011000000000000
21111001000010110000000000000
11110010000101100000000000001
11100100001011000000000000011
11001000010110000000000000111
10010000101100000000000001110
00100001011000000000000011101
01000010110000000000000111011
10000101100000000000001110110
00001011000000000000011101100
00010110000000000000111011000

002100101100010000200011001010
021001011000100002000110010101
210010110001000020001100101010
100101100010000200011001010100
001011000100002000110010101001
010110001000020001100101010012
101100010000200011001010100121
011000100002000110010101001210
110001000020001100101010012100
100010000200011001010100121000
000100002000110010101001210000
001000020001100101010012100001
010000200011001010100121000011
100002000110010101001210000111
000020001100101010012100001110
000200011001010100121000011100
002000110010101001210000111000
020001100101010012100001110000
200011001010100121000011100000
000110010101001210000111000000
001100101010012100001110000000
011001010100121000011100000001
110010101001210000111000000010
100101010012100001110000000101
001010100121000011100000001010
010101001210000111000000010101
101010012100001110000000101012
010100121000011100000001010120
101001210000111000000010101200
010012100001110000000101012000
00100101100000000101211110010
01001011000000001012111100100
10010110000000010121111001000
00101100000000101211110010000
01011000000001012111100100001
10110000000010121111001000010
01100000000101211110010000101
11000000001012111100100001011
10000000010121111001000010110
00000000101211110010000101100
00000001012111100100001011000
00000010121111001000010110000
00000101211110010000101100000
00001012111100100001011000000
00010121111001000010110000000
00101211110010000101100000000
01012111100100001011000000000
10121111001000010110000000000
01211110010000101100000000000
12111100100001011000000000000
21111001000010110000000000000
11110010000101100000000000001
11100100001011000000000000011
11001000010110000000000000111
10010000101100000000000001110
00100001011000000000000011101
01000010110000000000000111011
10000101100000000000001110110
00001011000000000000011101100
00010110000000000000111011000

002110101100010000200011001010
021101011000100002000110010101
211010110001000020001100101010
110101100010000200011001010100
101011000100002000110010101001
010110001000020001100101010012
101100010000200011001010100121
011000100002000110010101001210
110001000020001100101010012100
100010000200011001010100121000
000100002000110010101001210000
001000020001100101010012100001
010000200011001010100121000011
100002000110010101001210000111
000020001100101010012100001110
000200011001010100121000011100
002000110010101001210000111000
020001100101010012100001110000
200011001010100121000011100000
000110010101001210000111000000
001100101010012100001110000000
011001010100121000011100000001
110010101001210000111000000010
100101010012100001110000000101
001010100121000011100000001010
010101001210000111000000010101
101010012100001110000000101012
010100121000011100000001010120
101001210000111000000010101200
010012100001110000000101012000
00100101100000000101211110110
01001011000000001012111101100
10010110000000010121111011000
00101100000000101211110110000
01011000000001012111101100001
10110000000010121111011000010
01100000000101211110110000101
11000000001012111101100001011
10000000010121111011000010110
00000000101211110110000101100
00000001012111101100001011000
00000010121111011000010110000
00000101211110110000101100000
00001012111101100001011000000
00010121111011000010110000000
00101211110110000101100000000
01012111101100001011000000000
10121111011000010110000000000
01211110110000101100000000000
12111101100001011000000000000
21111011000010110000000000000
11110110000101100000000000001
11101100001011000000000000011
11011000010110000000000000111
10110000101100000000000001110
01100001011000000000000011101
11000010110000000000000111010
10000101100000000000001110100
00001011000000000000011101000
00010110000000000000111010000

002110101100010000200011001010
021101011000100002000110010101
211010110001000020001100101010
110101100010000200011001010100
101011000100002000110010101001
010110001000020001100101010012
101100010000200011001010100121
011000100002000110010101001210
110001000020001100101010012100
100010000200011001010100121000
000100002000110010101001210000
001000020001100101010012100001
010000200011001010100121000011
100002000110010101001210000111
000020001100101010012100001110
000200011001010100121000011100
002000110010101001210000111000
020001100101010012100001110000
200011001010100121000011100000
000110010101001210000111000000
001100101010012100001110000000
011001010100121000011100000001
110010101001210000111000000010
100101010012100001110000000101
001010100121000011100000001010
010101001210000111000000010101
101010012100001110000000101012
010100121000011100000001010120
101001210000111000000010101200
010012100001110000000101012000
00100101100000000101211110110
01001011000000001012111101100
10010110000000010121111011000
00101100000000101211110110000
01011000000001012111101100001
10110000000010121111011000010
01100000000101211110110000101
11000000001012111101100001011
10000000010121111011000010110
00000000101211110110000101100
00000001012111101100001011000
00000010121111011000010110000
00000101211110110000101100000
00001012111101100001011000000
00010121111011000010110000000
00101211110110000101100000000
01012111101100001011000000000
10121111011000010110000000000
01211110110000101100000000000
12111101100001011000000000000
21111011000010110000000000000
11110110000101100000000000001
11101100001011000000000000011
11011000010110000000000000111
10110000101100000000000001110
01100001011000000000000011101
11000010110000000000000111010
10000101100000000000001110100
00001011000000000000011101000
00010110000000000000111010000

002110101100010000200011001010
021101011000100002000110010101
211010110001000020001100101010
110101100010000200011001010100
101011000100002000110010101001
010110001000020001100101010012
101100010000200011001010100121
011000100002000110010101001210
110001000020001100101010012100
100010000200011001010100121000
000100002000110010101001210000
001000020001100101010012100001
010000200011001010100121000011
100002000110010101001210000111
000020001100101010012100001110
000200011001010100121000011100
002000110010101001210000111000
020001100101010012100001110000
200011001010100121000011100000
000110010101001210000111000000
001100101010012100001110000000
011001010100121000011100000001
110010101001210000111000000010
100101010012100001110000000101
001010100121000011100000001010
010101001210000111000000010101
101010012100001110000000101012
010100121000011100000001010120
101001210000111000000010101200
010012100001110000000101012000
00100101100000000101211110110
01001011000000001012111101100
10010110000000010121111011000
00101100000000101211110110000
01011000000001012111101100001
10110000000010121111011000010
01100000000101211110110000101
11000000001012111101100001011
10000000010121111011000010110
00000000101211110110000101100
00000001012111101100001011000
00000010121111011000010110000
00000101211110110000101100000
00001012111101100001011000000
00010121111011000010110000000
00101211110110000101100000000
01012111101100001011000000000
10121111011000010110000000000
01211110110000101100000000000
12111101100001011000000000000
21111011000010110000000000000
11110110000101100000000000001
11101100001011000000000000011
11011000010110000000000000111
10110000101100000000000001110
01100001011000000000000011101
11000010110000000000000111010
10000101100000000000001110100
00001011000000000000011101000
00010110000000000000111010000

002100101100010000200011001010
021001011000100002000110010101
210010110001000020001100101010
100101100010000200011001010100
001011000100002000110010101001
010110001000020001100101010012
101100010000200011001010100121
011000100002000110010101001210
110001000020001100101010012100
100010000200011001010100121000
000100002000110010101001210000
001000020001100101010012100001
010000200011001010100121000011
100002000110010101001210000111
000020001100101010012100001110
000200011001010100121000011100
002000110010101001210000111000
020001100101010012100001110000
200011001010100121000011100000
000110010101001210000111000000
001100101010012100001110000000
011001010100121000011100000001
110010101001210000111000000010
100101010012100001110000000101
001010100121000011100000001010
010101001210000111000000010101
101010012100001110000000101012
010100121000011100000001010120
101001210000111000000010101200
010012100001110000000101012000
00100101100000000101211110110
01001011000000001012111101100
10010110000000010121111011000
00101100000000101211110110000
01011000000001012111101100001
10110000000010121111011000010
01100000000101211110110000101
11000000001012111101100001011
10000000010121111011000010110
00000000101211110110000101100
00000001012111101100001011000
00000010121111011000010110000
00000101211110110000101100000
00001012111101100001011000000
00010121111011000010110000000
00101211110110000101100000000
01012111101100001011000000000
10121111011000010110000000000
01211110110000101100000000000
12111101100001011000000000000
21111011000010110000000000000
11110110000101100000000000001
11101100001011000000000000011
11011000010110000000000000111
10110000101100000000000001110
01100001011000000000000011101
11000010110000000000000111010
10000101100000000000001110100
00001011000000000000011101000
00010110000000000000111010000

002100101100010000200011001010
021001011000100002000110010101
210010110001000020001100101010
100101100010000200011001010100
001011000100002000110010101001
010110001000020001100101010012
101100010000200011001010100121
011000100002000110010101001210
110001000020001100101010012100
100010000200011001010100121000
000100002000110010101001210000
001000020001100101010012100001
010000200011001010100121000011
100002000110010101001210000111
000020001100101010012100001110
000200011001010100121000011100
002000110010101001210000111000
020001100101010012100001110000
200011001010100121000011100000
000110010101001210000111000000
001100101010012100001110000000
011001010100121000011100000001
110010101001210000111000000010
100101010012100001110000000101
001010100121000011100000001010
010101001210000111000000010101
101010012100001110000000101012
010100121000011100000001010120
101001210000111000000010101200
010012100001110000000101012000
00100101100000000101211110110
01001011000000001012111101100
10010110000000010121111011000
00101100000000101211110110000
01011000000001012111101100001
10110000000010121111011000010
01100000000101211110110000101
11000000001012111101100001011
10000000010121111011000010110
00000000101211110110000101100
00000001012111101100001011000
00000010121111011000010110000
00000101211110110000101100000
00001012111101100001011000000
00010121111011000010110000000
00101211110110000101100000000
01012111101100001011000000000
10121111011000010110000000000
01211110110000101100000000000
12111101100001011000000000000
21111011000010110000000000000
11110110000101100000000000001
11101100001011000000000000011
11011000010110000000000000111
10110000101100000000000001110
01100001011000000000000011101
11000010110000000000000111010
10000101100000000000001110100
00001011000000000000011101000
00010110000000000000111010000

002100101100010000200011001010
021001011000100002000110010101
210010110001000020001100101010
100101100010000200011001010100
001011000100002000110010101001
010110001000020001100101010012
101100010000200011001010100121
011000100002000110010101001210
110001000020001100101010012100
100010000200011001010100121000
000100002000110010101001210000
001000020001100101010012100001
010000200011001010100121000011
100002000110010101001210000111
000020001100101010012100001110
000200011001010100121000011100
002000110010101001210000111000
020001100101010012100001110000
200011001010100121000011100000
000110010101001210000111000000
001100101010012100001110000000
011001010100121000011100000001
110010101001210000111000000010
100101010012100001110000000101
001010100121000011100000001010
010101001210000111000000010101
101010012100001110000000101012
010100121000011100000001010120
101001210000111000000010101200
010012100001110000000101012000
00100101100000000101211110110
01001011000000001012111101100
10010110000000010121111011000
00101100000000101211110110000
01011000000001012111101100001
10110000000010121111011000010
01100000000101211110110000101
11000000001012111101100001011
10000000010121111011000010110
00000000101211110110000101100
00000001012111101100001011000
00000010121111011000010110000
00000101211110110000101100000
00001012111101100001011000000
00010121111011000010110000000
00101211110110000101100000000
01012111101100001011000000000
10121111011000010110000000000
01211110110000101100000000001
12111101100001011000000000010
21111011000010110000000000100
11110110000101100000000001001
11101100001011000000000010011
11011000010110000000000100111
10110000101100000000001001110
01100001011000000000010011101
11000010110000000000100111011
10000101100000000001001110110
00001011000000000010011101100
00010110000000000100111011000

002100101100010000200011001010
021001011000100002000110010101
210010110001000020001100101010
100101100010000200011001010100
001011000100002000110010101001
010110001000020001100101010012
101100010000200011001010100121
011000100002000110010101001210
110001000020001100101010012100
100010000200011001010100121000
000100002000110010101001210000
001000020001100101010012100001
010000200011001010100121000011
100002000110010101001210000111
000020001100101010012100001110
000200011001010100121000011100
002000110010101001210000111000
020001100101010012100001110000
200011001010100121000011100000
000110010101001210000111000000
001100101010012100001110000000
011001010100121000011100000001
110010101001210000111000000010
100101010012100001110000000101
001010100121000011100000001010
010101001210000111000000010101
101010012100001110000000101012
010100121000011100000001010120
101001210000111000000010101200
010012100001110000000101012000
00100101100000000101211110110
01001011000000001012111101100
10010110000000010121111011000
00101100000000101211110110000
01011000000001012111101100001
10110000000010121111011000010
01100000000101211110110000101
11000000001012111101100001011
10000000010121111011000010110
00000000101211110110000101100
00000001012111101100001011000
00000010121111011000010110000
00000101211110110000101100000
00001012111101100001011000000
00010121111011000010110000000
00101211110110000101100000000
01012111101100001011000000000
10121111011000010110000000000
01211110110000101100000000001
12111101100001011000000000010
21111011000010110000000000100
11110110000101100000000001001
11101100001011000000000010011
11011000010110000000000100111
10110000101100000000001001110
01100001011000000000010011101
11000010110000000000100111010
10000101100000000001001110100
00001011000000000010011101000
00010110000000000100111010000

002100101100010000200011001010
021001011000100002000110010101
210010110001000020001100101010
100101100010000200011001010100
001011000100002000110010101001
010110001000020001100101010012
101100010000200011001010100121
011000100002000110010101001210
110001000020001100101010012100
100010000200011001010100121000
000100002000110010101001210000
001000020001100101010012100001
010000200011001010100121000011
100002000110010101001210000111
000020001100101010012100001110
000200011001010100121000011100
002000110010101001210000111000
020001100101010012100001110000
200011001010100121000011100000
000110010101001210000111000000
001100101010012100001110000000
011001010100121000011100000001
110010101001210000111000000010
100101010012100001110000000101
001010100121000011100000001010
010101001210000111000000010101
101010012100001110000000101012
010100121000011100000001010120
101001210000111000000010101200
010012100001110000000101012000
00100101100000000101211110110
01001011000000001012111101100
10010110000000010121111011000
00101100000000101211110110000
01011000000001012111101100001
10110000000010121111011000010
01100000000101211110110000101
11000000001012111101100001011
10000000010121111011000010110
00000000101211110110000101100
00000001012111101100001011000
00000010121111011000010110000
00000101211110110000101100000
00001012111101100001011000000
00010121111011000010110000000
00101211110110000101100000000
01012111101100001011000000000
10121111011000010110000000000
01211110110000101100000000000
12111101100001011000000000000
21111011000010110000000000000
11110110000101100000000000001
11101100001011000000000000011
11011000010110000000000000111
10110000101100000000000001110
01100001011000000000000011101
11000010110000000000000111010
10000101100000000000001110100
00001011000000000000011101000
00010110000000000000111010000

002110101100010000200011001010
021101011000100002000110010101
211010110001000020001100101010
110101100010000200011001010100
101011000100002000110010101001
010110001000020001100101010012
101100010000200011001010100121
011000100002000110010101001210
110001000020001100101010012100
100010000200011001010100121000
000100002000110010101001210000
001000020001100101010012100001
010000200011001010100121000011
100002000110010101001210000111
000020001100101010012100001110
000200011001010100121000011100
002000110010101001210000111000
020001100101010012100001110000
200011001010100121000011100000
000110010101001210000111000000
001100101010012100001110000000
011001010100121000011100000001
110010101001210000111000000010
100101010012100001110000000101
001010100121000011100000001010
010101001210000111000000010101
101010012100001110000000101012
010100121000011100000001010120
101001210000111000000010101200
010012100001110000000101012000
00100101100000000101211110110
01001011000000001012111101100
10010110000000010121111011000
00101100000000101211110110000
01011000000001012111101100001
10110000000010121111011000010
01100000000101211110110000101
11000000001012111101100001011
10000000010121111011000010110
00000000101211110110000101100
00000001012111101100001011000
00000010121111011000010110000
00000101211110110000101100000
00001012111101100001011000000
00010121111011000010110000000
00101211110110000101100000000
01012111101100001011000000000
10121111011000010110000000000
01211110110000101100000000000
12111101100001011000000000000
21111011000010110000000000000
11110110000101100000000000001
11101100001011000000000000011
11011000010110000000000000111
10110000101100000000000001110
01100001011000000000000011101
11000010110000000000000111010
10000101100000000000001110100
00001011000000000000011101000
00010110000000000000111010000

002110101100010000200011001010
021101011000100002000110010101
211010110001000020001100101010
110101100010000200011001010100
101011000100002000110010101001
010110001000020001100101010012
101100010000200011001010100121
011000100002000110010101001210
110001000020001100101010012100
100010000200011001010100121000
000100002000110010101001210000
001000020001100101010012100001
010000200011001010100121000011
100002000110010101001210000111
000020001100101010012100001110
000200011001010100121000011100
002000110010101001210000111000
020001100101010012100001110000
200011001010100121000011100000
000110010101001210000111000000
001100101010012100001110000000
011001010100121000011100000001
110010101001210000111000000010
100101010012100001110000000101
001010100121000011100000001010
010101001210000111000000010101
101010012100001110000000101012
010100121000011100000001010120
101001210000111000000010101200
010012100001110000000101012000
00100101100000000101211110110
01001011000000001012111101100
10010110000000010121111011000
00101100000000101211110110000
01011000000001012111101100001
10110000000010121111011000010
01100000000101211110110000101
11000000001012111101100001011
10000000010121111011000010110
00000000101211110110000101100
00000001012111101100001011000
00000010121111011000010110000
00000101211110110000101100000
00001012111101100001011000000
00010121111011000010110000000
00101211110110000101100000000
01012111101100001011000000000
10121111011000010110000000000
01211110110000101100000000000
12111101100001011000000000000
21111011000010110000000000000
11110110000101100000000000001
11101100001011000000000000011
11011000010110000000000000111
10110000101100000000000001110
01100001011000000000000011101
11000010110000000000000111010
10000101100000000000001110100
00001011000000000000011101000
00010110000000000000111010000

