fitness: 38102 22205 0.87 3035 1.00 Gen: 4
100122022000102002001001
001220220001020020010011
012202200010200200100111
122022000102002001001112
220220001020020010011120
202200010200200100111201
022000102002001001112010
220001020020010011120102
200010200200100111201020
000102002001001112010201
001020020010011120102010
010200200100111201020101
102002001001112010201010
020020010011120102010100
200200100111201020101002
002001001112010201010021
020010011120102010100210
200100111201020101002100
001001112010201010021000
010011120102010100210002
100111201020101002100022
001112010201010021000222
011120102010100210002221
111201020101002100022212
02111121121001010121101
21111211210010101211010
11112112100101012110102
11121121001010121101021
11211210010101211010210
12112100101012110102100
21121001010121101021000
11210010101211010210002
12100101012110102100022
21001010121101021000220
10010101211010210002200
00101012110102100022000
01010121101021000220001
10101211010210002200012
01012110102100022000122
10121101021000220001220
01211010210002200012200
12110102100022000122000
21101021000220001220001
11010210002200012200011
10102100022000122000111
01021000220001220001111
10210002200012200011111
02100022000122000111111

fitness: 115678 2569 0.21 2706 0.81 Gen: 22
000211110100010010001101
002111101000100100011010
021111010001001000110101
211110100010010001101011
111101000100100011010110
111010001001000110101101
110100010010001101011010
101000100100011010110101
010001001000110101101011
100010010001101011010111
000100100011010110101110
001001000110101101011100
010010001101011010111001
100100011010110101110011
001000110101101011100110
010001101011010111001100
100011010110101110011001
000110101101011100110011
001101011010111001100110
011010110101110011001100
110101101011100110011000
101011010111001100110000
010110101110011001100000
101101011100110011000002
10111001100021000110111
01110011000210001101111
11100110002100011011112
11001100021000110111120
10011000210001101111201
00110002100011011112010
01100021000110111120100
11000210001101111201000
10002100011011112010002
00021000110111120100020
00210001101111201000200
02100011011112010002001
21000110111120100020011
10001101111201000200110
00011011112010002001100
00110111120100020011000
01101111201000200110000
11011112010002001100002
10111120100020011000021
01111201000200110000210
11112010002001100002100
11120100020011000021001
11201000200110000210011
12010002001100002100110

fitness: 32838 20483 0.89 2692 1.00 Gen: 75
100122012000100000011101
001220120001000000111011
012201200010000001110111
122012000100000011101112
220120001000000111011120
201200010000001110111201
012000100000011101112010
120001000000111011120102
200010000001110111201020
000100000011101112010201
001000000111011120102010
010000001110111201020100
100000011101112010201000
000000111011120102010000
000001110111201020100000
000011101112010201000001
000111011120102010000010
001110111201020100000100
011101112010201000001000
111011120102010000010002
110111201020100000100020
101112010201000001000202
011120102010000010002020
111201020100000100020201
00111021110001010121101
01110211100010101211010
11102111000101012110102
11021110001010121101021
10211100010101211010210
02111000101012110102100
21110001010121101021000
11100010101211010210001
11000101012110102100012
10001010121101021000120
00010101211010210001200
00101012110102100012000
01010121101021000120001
10101211010210001200010
01012110102100012000101
10121101021000120001010
01211010210001200010100
12110102100012000101001
21101021000120001010011
11010210001200010100110
10102100012000101001101
01021000120001010011011
10210001200010100110111
02100012000101001101111

fitness: 36909 20831 0.86 3131 1.00 Gen: 86
100011111210121220100000
000111112101212201000000
001111121012122010000000
011111210121220100000001
111112101212201000000011
111121012122010000000111
111210121220100000001111
112101212201000000011111
121012122010000000111110
210121220100000001111100
101212201000000011111000
012122010000000111110000
121220100000001111100000
212201000000011111000001
122010000000111110000010
220100000001111100000100
201000000011111000001001
010000000111110000010010
100000001111100000100100
000000011111000001001000
000000111110000010010002
000001111100000100100021
000011111000001001000210
000111110000010010002101
11101012100012020112101
11010121000120201121011
10101210001202011210111
01012100012020112101110
10121000120201121011101
01210001202011210111011
12100012020112101110110
21000120201121011101100
10001202011210111011001
00012020112101110110012
00120201121011101100120
01202011210111011001200
12020112101110110012001
20201121011101100120011
02011210111011001200110
20112101110110012001101
01121011101100120011011
11210111011001200110111
12101110110012001101111
21011101100120011011110
10111011001200110111100
01110110012001101111001
11101100120011011110010
11011001200110111100102

fitness: 35827 21745 0.88 2813 1.00 Gen: 109
000011010000010010111100
000110100000100101111000
001101000001001011110000
011010000010010111100002
110100000100101111000020
101000001001011110000201
010000010010111100002010
100000100101111000020101
000001001011110000201011
000010010111100002010111
000100101111000020101110
001001011110000201011100
010010111100002010111001
100101111000020101110011
001011110000201011100110
010111100002010111001101
101111000020101110011010
011110000201011100110101
111100002010111001101010
111000020101110011010100
110000201011100110101000
100002010111001101010001
000020101110011010100010
000201011100110101000101
01111001100010011121100
11110011000100111211001
11100110001001112110012
11001100010011121100121
10011000100111211001211
00110001001112110012110
01100010011121100121100
11000100111211001211001
10001001112110012110012
00010011121100121100120
00100111211001211001200
01001112110012110012000
10011121100121100120000
00111211001211001200000
01112110012110012000000
11121100121100120000000
11211001211001200000000
12110012110012000000002
21100121100120000000021
11001211001200000000210
10012110012000000002100
00121100120000000021001
01211001200000000210011
12110012000000002100110

fitness: 37173 20162 0.86 2971 1.00 Gen: 113
000001010010000000111001
000010100100000001110010
000101001000000011100100
001010010000000111001001
010100100000001110010010
101001000000011100100101
010010000000111001001010
100100000001110010010101
001000000011100100101011
010000000111001001010111
100000001110010010101110
000000011100100101011101
000000111001001010111010
000001110010010101110100
000011100100101011101000
000111001001010111010000
001110010010101110100001
011100100101011101000010
111001001010111010000100
110010010101110100001000
100100101011101000010002
001001010111010000100021
010010101110100001000210
100101011101000010002101
10001020000020011110111
00010200000200111101111
00102000002001111011111
01020000020011110111110
10200000200111101111100
02000002001111011111000
20000020011110111110000
00000200111101111100001
00002001111011111000011
00020011110111110000110
00200111101111100001100
02001111011111000011001
20011110111110000110011
00111101111100001100111
01111011111000011001110
11110111110000110011101
11101111100001100111010
11011111000011001110100
10111110000110011101001
01111100001100111010010
11111000011001110100100
11110000110011101001001
11100001100111010010010
11000011001110100100100

fitness: 30568 19846 0.88 2891 1.00 Gen: 123
000001010000000101111100
000010100000001011111000
000101000000010111110001
001010000000101111100012
010100000001011111000120
101000000010111110001201
010000000101111100012010
100000001011111000120101
000000010111110001201010
000000101111100012010101
000001011111000120101010
000010111110001201010100
000101111100012010101001
001011111000120101010011
010111110001201010100110
101111100012010101001101
011111000120101010011010
111110001201010100110101
111100012010101001101010
111000120101010011010100
110001201010100110101001
100012010101001101010010
000120101010011010100100
001201010100110101001001
01111001100021011121100
11110011000210111211000
11100110002101112110002
11001100021011121100021
10011000210111211000211
00110002101112110002110
01100021011121100021100
11000210111211000211001
10002101112110002110012
00021011121100021100120
00210111211000211001200
02101112110002110012000
21011121100021100120000
10111211000211001200000
01112110002110012000000
11121100021100120000001
11211000211001200000010
12110002110012000000102
21100021100120000001020
11000211001200000010200
10002110012000000102000
00021100120000001020000
00211001200000010200001
02110012000000102000010

fitness: 32069 21440 0.91 2981 1.00 Gen: 202
000001010000000100111100
000010100000001001111000
000101000000010011110001
001010000000100111100012
010100000001001111000120
101000000010011110001201
010000000100111100012010
100000001001111000120101
000000010011110001201010
000000100111100012010101
000001001111000120101010
000010011110001201010100
000100111100012010101001
001001111000120101010011
010011110001201010100110
100111100012010101001101
001111000120101010011010
011110001201010100110101
111100012010101001101010
111000120101010011010100
110001201010100110101001
100012010101001101010010
000120101010011010100100
001201010100110101001001
01111001100021011121100
11110011000210111211000
11100110002101112110002
11001100021011121100021
10011000210111211000211
00110002101112110002110
01100021011121100021100
11000210111211000211001
10002101112110002110012
00021011121100021100120
00210111211000211001200
02101112110002110012000
21011121100021100120000
10111211000211001200000
01112110002110012000000
11121100021100120000001
11211000211001200000010
12110002110012000000102
21100021100120000001020
11000211001200000010200
10002110012000000102000
00021100120000001020000
00211001200000010200001
02110012000000102000010

fitness: 35797 21647 0.88 3125 1.00 Gen: 261
012001211011211211001010
120012110112112110010102
200121101121121100101021
001211011211211001010211
012110112112110010102110
121101121121100101021101
211011211211001010211010
110112112110010102110100
101121121100101021101000
011211211001010211010001
112112110010102110100011
121121100101021101000110
211211001010211010001101
112110010102110100011011
121100101021101000110111
211001010211010001101110
110010102110100011011101
100101021101000110111011
001010211010001101110110
010102110100011011101100
101021101000110111011000
010211010001101110110000
102110100011011101100000
021101000110111011000001
11010001100020000222110
10100011000200002221101
01000110002000022211011
10001100020000222110111
00011000200002221101111
00110002000022211011110
01100020000222110111100
11000200002221101111001
10002000022211011110011
00020000222110111100112
00200002221101111001120
02000022211011110011200
20000222110111100112000
00002221101111001120000
00022211011110011200001
00222110111100112000010
02221101111001120000102
22211011110011200001021
22110111100112000010211
21101111001120000102111
11011110011200001021110
10111100112000010211101
01111001120000102111010
11110011200001021110100

fitness: 39488 20429 0.85 2988 1.00 Gen: 263
000011010000000010011101
000110100000000100111011
001101000000001001110112
011010000000010011101121
110100000000100111011210
101000000001001110112101
010000000010011101121010
100000000100111011210101
000000001001110112101010
000000010011101121010100
000000100111011210101000
000001001110112101010000
000010011101121010100001
000100111011210101000011
001001110112101010000110
010011101121010100001101
100111011210101000011010
001110112101010000110100
011101121010100001101000
111011210101000011010000
110112101010000110100000
101121010100001101000001
011210101000011010000010
112101010000110100000101
00111000100121011101100
01110001001210111011000
11100010012101110110002
11000100121011101100021
10001001210111011000211
00010012101110110002110
00100121011101100021100
01001210111011000211000
10012101110110002110001
00121011101100021100010
01210111011000211000100
12101110110002110001000
21011101100021100010001
10111011000211000100010
01110110002110001000100
11101100021100010001001
11011000211000100010010
10110002110001000100101
01100021100010001001011
11000211000100010010110
10002110001000100101100
00021100010001001011001
00211000100010010110011
02110001000100101100110

fitness: 32467 20412 0.88 3132 1.00 Gen: 278
000011010000010100111100
000110100000101001111000
001101000001010011110001
011010000010100111100012
110100000101001111000120
101000001010011110001201
010000010100111100012010
100000101001111000120101
000001010011110001201011
000010100111100012010111
000101001111000120101110
001010011110001201011100
010100111100012010111001
101001111000120101110011
010011110001201011100110
100111100012010111001101
001111000120101110011010
011110001201011100110101
111100012010111001101010
111000120101110011010100
110001201011100110101000
100012010111001101010000
000120101110011010100000
001201011100110101000001
01111001100010011121100
11110011000100111211000
11100110001001112110002
11001100010011121100021
10011000100111211000211
00110001001112110002110
01100010011121100021100
11000100111211000211001
10001001112110002110012
00010011121100021100120
00100111211000211001200
01001112110002110012000
10011121100021100120000
00111211000211001200000
01112110002110012000000
11121100021100120000001
11211000211001200000010
12110002110012000000102
21100021100120000001021
11000211001200000010210
10002110012000000102100
00021100120000001021000
00211001200000010210001
02110012000000102100010

fitness: 33580 19326 0.86 2958 1.00 Gen: 400
000112020000101010001001
001120200001010100010011
011202000010101000100111
112020000101010001001112
120200001010100010011120
202000010101000100111201
020000101010001001112010
200001010100010011120101
000010101000100111201010
000101010001001112010100
001010100010011120101000
010101000100111201010000
101010001001112010100001
010100010011120101000010
101000100111201010000100
010001001112010100001001
100010011120101000010010
000100111201010000100100
001001112010100001001000
010011120101000010010002
100111201010000100100022
001112010100001001000221
011120101000010010002210
111201010000100100022101
00011021100011011111101
00110211000110111111010
01102110001101111110102
11021100011011111101021
10211000110111111010211
02110001101111110102110
21100011011111101021100
11000110111111010211001
10001101111110102110012
00011011111101021100120
00110111111010211001200
01101111110102110012000
11011111101021100120000
10111111010211001200000
01111110102110012000000
11111101021100120000001
11111010211001200000010
11110102110012000000101
11101021100120000001011
11010211001200000010110
10102110012000000101100
01021100120000001011001
10211001200000010110010
02110012000000101100101

fitness: 46270 22249 0.83 2958 1.00 Gen: 405
000101010000000000111000
001010100000000001110000
010101000000000011100000
101010000000000111000001
010100000000001110000010
101000000000011100000101
010000000000111000001010
100000000001110000010101
000000000011100000101011
000000000111000001010111
000000001110000010101110
000000011100000101011101
000000111000001010111010
000001110000010101110100
000011100000101011101000
000111000001010111010000
001110000010101110100001
011100000101011101000010
111000001010111010000100
110000010101110100001000
100000101011101000010002
000001010111010000100021
000010101110100001000210
000101011101000010002101
10001020000020011110111
00010200000200111101111
00102000002001111011111
01020000020011110111111
10200000200111101111111
02000002001111011111110
20000020011110111111100
00000200111101111111001
00002001111011111110011
00020011110111111100110
00200111101111111001100
02001111011111110011001
20011110111111100110011
00111101111111001100111
01111011111110011001110
11110111111100110011101
11101111111001100111010
11011111110011001110100
10111111100110011101001
01111111001100111010010
11111110011001110100100
11111100110011101001001
11111001100111010010010
11110011001110100100100

fitness: 30143 20779 0.91 2769 1.00 Gen: 441
000001010000000100111100
000010100000001001111000
000101000000010011110001
001010000000100111100012
010100000001001111000120
101000000010011110001201
010000000100111100012010
100000001001111000120101
000000010011110001201010
000000100111100012010101
000001001111000120101010
000010011110001201010100
000100111100012010101001
001001111000120101010011
010011110001201010100110
100111100012010101001101
001111000120101010011010
011110001201010100110101
111100012010101001101010
111000120101010011010100
110001201010100110101001
100012010101001101010010
000120101010011010100100
001201010100110101001001
01111001100021011121100
11110011000210111211000
11100110002101112110002
11001100021011121100021
10011000210111211000211
00110002101112110002110
01100021011121100021100
11000210111211000211001
10002101112110002110012
00021011121100021100120
00210111211000211001200
02101112110002110012000
21011121100021100120000
10111211000211001200000
01112110002110012000000
11121100021100120000001
11211000211001200000010
12110002110012000000102
21100021100120000001020
11000211001200000010200
10002110012000000102000
00021100120000001020000
00211001200000010200001
02110012000000102000010

fitness: 33335 19987 0.87 2864 1.00 Gen: 448
000012020000100010001101
000120200001000100011011
001202000010001000110111
012020000100010001101112
120200001000100011011120
202000010001000110111201
020000100010001101112010
200001000100011011120101
000010001000110111201010
000100010001101112010100
001000100011011120101000
010001000110111201010000
100010001101112010100001
000100011011120101000010
001000110111201010000100
010001101112010100001001
100011011120101000010010
000110111201010000100100
001101112010100001001000
011011120101000010010002
110111201010000100100020
101112010100001001000201
011120101000010010002010
111201010000100100020101
00111001100011011111100
01110011000110111111000
11100110001101111110002
11001100011011111100021
10011000110111111000211
00110001101111110002110
01100011011111100021100
11000110111111000211001
10001101111110002110012
00011011111100021100120
00110111111000211001200
01101111110002110012000
11011111100021100120000
10111111000211001200000
01111110002110012000000
11111100021100120000001
11111000211001200000010
11110002110012000000101
11100021100120000001011
11000211001200000010110
10002110012000000101100
00021100120000001011001
00211001200000010110010
02110012000000101100100

fitness: 36264 19853 0.85 3210 1.00 Gen: 459
000201111201010010111100
002011112010100101111000
020111120101001011110001
201111201010010111100011
011112010100101111000111
111120101001011110001111
111201010010111100011110
112010100101111000111101
120101001011110001111010
201010010111100011110101
010100101111000111101010
101001011110001111010100
010010111100011110101001
100101111000111101010011
001011110001111010100110
010111100011110101001100
101111000111101010011001
011110001111010100110011
111100011110101001100110
111000111101010011001100
110001111010100110011000
100011110101001100110000
000111101010011001100000
001111010100110011000001
10101001000021011121111
01010010000210111211111
10100100002101112111112
01001000021011121111121
10010000210111211111211
00100002101112111112110
01000021011121111121100
10000210111211111211000
00002101112111112110001
00021011121111121100010
00210111211111211000100
02101112111112110001001
21011121111121100010011
10111211111211000100111
01112111112110001001110
11121111121100010011101
11211111211000100111010
12111112110001001110101
21111121100010011101011
11111211000100111010112
11112110001001110101120
11121100010011101011201
11211000100111010112011
12110001001110101120110

fitness: 29852 20436 0.90 3125 1.00 Gen: 511
000011010000010010111100
000110100000100101111000
001101000001001011110000
011010000010010111100002
110100000100101111000020
101000001001011110000201
010000010010111100002010
100000100101111000020101
000001001011110000201011
000010010111100002010111
000100101111000020101110
001001011110000201011100
010010111100002010111001
100101111000020101110011
001011110000201011100110
010111100002010111001101
101111000020101110011010
011110000201011100110101
111100002010111001101010
111000020101110011010100
110000201011100110101000
100002010111001101010001
000020101110011010100010
000201011100110101000101
01111001100011011121100
11110011000110111211000
11100110001101112110002
11001100011011121100021
10011000110111211000211
00110001101112110002110
01100011011121100021100
11000110111211000211001
10001101112110002110012
00011011121100021100120
00110111211000211001200
01101112110002110012000
11011121100021100120000
10111211000211001200000
01112110002110012000000
11121100021100120000000
11211000211001200000000
12110002110012000000002
21100021100120000000021
11000211001200000000210
10002110012000000002100
00021100120000000021001
00211001200000000210011
02110012000000002100110

fitness: 120746 2762 0.20 2298 0.78 Gen: 556
000001010001010011111101
000010100010100111111010
000101000101001111110101
001010001010011111101011
010100010100111111010111
101000101001111110101111
010001010011111101011110
100010100111111010111100
000101001111110101111000
001010011111101011110000
010100111111010111100000
101001111110101111000000
010011111101011110000001
100111111010111100000010
001111110101111000000100
011111101011110000001001
111111010111100000010011
111110101111000000100111
111101011110000001001110
111010111100000010011100
110101111000000100111000
101011110000001001110000
010111100000010011100000
101111000000100111000001
10110001100021010121100
01100011000210101211000
11000110002101012110002
10001100021010121100021
00011000210101211000211
00110002101012110002110
01100021010121100021100
11000210101211000211000
10002101012110002110002
00021010121100021100020
00210101211000211000200
02101012110002110002001
21010121100021100020010
10101211000211000200100
01012110002110002001000
10121100021100020010001
01211000211000200100010
12110002110002001000102
21100021100020010001020
11000211000200100010200
10002110002001000102000
00021100020010001020001
00211000200100010200010
02110002001000102000100

fitness: 30137 20074 0.91 2679 1.00 Gen: 562
000001010000000100111100
000010100000001001111000
000101000000010011110001
001010000000100111100012
010100000001001111000120
101000000010011110001201
010000000100111100012010
100000001001111000120101
000000010011110001201010
000000100111100012010101
000001001111000120101010
000010011110001201010100
000100111100012010101001
001001111000120101010011
010011110001201010100110
100111100012010101001101
001111000120101010011010
011110001201010100110101
111100012010101001101010
111000120101010011010100
110001201010100110101001
100012010101001101010010
000120101010011010100100
001201010100110101001001
01111001100021011121100
11110011000210111211000
11100110002101112110002
11001100021011121100021
10011000210111211000211
00110002101112110002110
01100021011121100021100
11000210111211000211001
10002101112110002110012
00021011121100021100120
00210111211000211001200
02101112110002110012000
21011121100021100120000
10111211000211001200000
01112110002110012000000
11121100021100120000001
11211000211001200000010
12110002110012000000102
21100021100120000001020
11000211001200000010200
10002110012000000102000
00021100120000001020000
00211001200000010200001
02110012000000102000010

fitness: 31165 20266 0.89 3113 1.00 Gen: 597
000011010000010000111100
000110100000100001111000
001101000001000011110000
011010000010000111100002
110100000100001111000020
101000001000011110000201
010000010000111100002010
100000100001111000020101
000001000011110000201011
000010000111100002010111
000100001111000020101110
001000011110000201011100
010000111100002010111001
100001111000020101110011
000011110000201011100110
000111100002010111001101
001111000020101110011010
011110000201011100110101
111100002010111001101010
111000020101110011010100
110000201011100110101000
100002010111001101010001
000020101110011010100010
000201011100110101000101
01111001100011011121100
11110011000110111211000
11100110001101112110002
11001100011011121100021
10011000110111211000211
00110001101112110002110
01100011011121100021100
11000110111211000211001
10001101112110002110012
00011011121100021100120
00110111211000211001200
01101112110002110012000
11011121100021100120000
10111211000211001200000
01112110002110012000000
11121100021100120000000
11211000211001200000000
12110002110012000000002
21100021100120000000021
11000211001200000000210
10002110012000000002100
00021100120000000021000
00211001200000000210001
02110012000000002100010

fitness: 31301 20446 0.90 2812 1.00 Gen: 632
000001010000000100111100
000010100000001001111000
000101000000010011110001
001010000000100111100012
010100000001001111000120
101000000010011110001201
010000000100111100012010
100000001001111000120101
000000010011110001201010
000000100111100012010101
000001001111000120101010
000010011110001201010100
000100111100012010101001
001001111000120101010011
010011110001201010100110
100111100012010101001101
001111000120101010011010
011110001201010100110101
111100012010101001101010
111000120101010011010100
110001201010100110101001
100012010101001101010010
000120101010011010100100
001201010100110101001001
01111001100021011121100
11110011000210111211000
11100110002101112110002
11001100021011121100021
10011000210111211000211
00110002101112110002110
01100021011121100021100
11000210111211000211001
10002101112110002110012
00021011121100021100120
00210111211000211001200
02101112110002110012000
21011121100021100120000
10111211000211001200000
01112110002110012000000
11121100021100120000001
11211000211001200000010
12110002110012000000102
21100021100120000001020
11000211001200000010200
10002110012000000102000
00021100120000001020000
00211001200000010200001
02110012000000102000010

fitness: 34627 21159 0.88 3003 1.00 Gen: 684
000011010000010100111100
000110100000101001111000
001101000001010011110001
011010000010100111100012
110100000101001111000120
101000001010011110001201
010000010100111100012010
100000101001111000120101
000001010011110001201010
000010100111100012010101
000101001111000120101010
001010011110001201010100
010100111100012010101001
101001111000120101010011
010011110001201010100110
100111100012010101001101
001111000120101010011010
011110001201010100110101
111100012010101001101010
111000120101010011010100
110001201010100110101000
100012010101001101010000
000120101010011010100000
001201010100110101000001
01111001100010011121100
11110011000100111211000
11100110001001112110002
11001100010011121100021
10011000100111211000211
00110001001112110002110
01100010011121100021100
11000100111211000211001
10001001112110002110012
00010011121100021100120
00100111211000211001200
01001112110002110012000
10011121100021100120000
00111211000211001200000
01112110002110012000000
11121100021100120000001
11211000211001200000010
12110002110012000000102
21100021100120000001020
11000211001200000010200
10002110012000000102000
00021100120000001020000
00211001200000010200001
02110012000000102000010

fitness: 32730 20334 0.89 2885 1.00 Gen: 693
100012022000102002001001
000120220001020020010010
001202200010200200100100
012022000102002001001002
120220001020020010010020
202200010200200100100201
022000102002001001002010
220001020020010010020102
200010200200100100201020
000102002001001002010201
001020020010010020102010
010200200100100201020101
102002001001002010201010
020020010010020102010100
200200100100201020101002
002001001002010201010020
020010010020102010100200
200100100201020101002000
001001002010201010020000
010010020102010100200002
100100201020101002000022
001002010201010020000222
010020102010100200002220
100201020101002000022201
01111121121001010101111
11111211210010101011110
11112112100101010111102
11121121001010101111021
11211210010101011110210
12112100101010111102100
21121001010101111021000
11210010101011110210000
12100101010111102100002
21001010101111021000020
10010101011110210000200
00101010111102100002001
01010101111021000020011
10101011110210000200112
01010111102100002001121
10101111021000020011210
01011110210000200112100
10111102100002001121000
01111021000020011210001
11110210000200112100011
11102100002001121000111
11021000020011210001111
10210000200112100011110
02100002001121000111101

fitness: 35273 21212 0.89 2773 1.00 Gen: 696
000011010000010100111100
000110100000101001111000
001101000001010011110001
011010000010100111100012
110100000101001111000120
101000001010011110001201
010000010100111100012010
100000101001111000120101
000001010011110001201010
000010100111100012010101
000101001111000120101010
001010011110001201010100
010100111100012010101001
101001111000120101010011
010011110001201010100110
100111100012010101001101
001111000120101010011010
011110001201010100110101
111100012010101001101010
111000120101010011010100
110001201010100110101000
100012010101001101010000
000120101010011010100000
001201010100110101000001
01111001100010011121100
11110011000100111211000
11100110001001112110002
11001100010011121100021
10011000100111211000211
00110001001112110002110
01100010011121100021100
11000100111211000211001
10001001112110002110012
00010011121100021100120
00100111211000211001200
01001112110002110012000
10011121100021100120000
00111211000211001200000
01112110002110012000000
11121100021100120000001
11211000211001200000010
12110002110012000000102
21100021100120000001020
11000211001200000010200
10002110012000000102000
00021100120000001020000
00211001200000010200001
02110012000000102000010

fitness: 36615 20244 0.86 3115 1.00 Gen: 700
000001010000000100111100
000010100000001001111000
000101000000010011110001
001010000000100111100011
010100000001001111000110
101000000010011110001101
010000000100111100011010
100000001001111000110101
000000010011110001101010
000000100111100011010101
000001001111000110101010
000010011110001101010100
000100111100011010101001
001001111000110101010011
010011110001101010100110
100111100011010101001100
001111000110101010011000
011110001101010100110000
111100011010101001100000
111000110101010011000000
110001101010100110000001
100011010101001100000010
000110101010011000000100
001101010100110000001001
01111001100021011121100
11110011000210111211000
11100110002101112110002
11001100021011121100021
10011000210111211000211
00110002101112110002110
01100021011121100021100
11000210111211000211001
10002101112110002110012
00021011121100021100120
00210111211000211001200
02101112110002110012000
21011121100021100120000
10111211000211001200000
01112110002110012000000
11121100021100120000001
11211000211001200000010
12110002110012000000102
21100021100120000001020
11000211001200000010200
10002110012000000102000
00021100120000001020000
00211001200000010200001
02110012000000102000010

