00221200220002000220
02212002200020002200
22120022000200022002
21200220002000220022
12002200020002200221
20022000200022002212
00220002000220022120
02200020002200221200
22000200022002212002
20002000220022120022
00020002200221200220
00200022002212002200
02000220022120022000
20002200221200220002
00022002212002200020
00220022120022000200
02200221200220002000
22002212002200020002
20022120022000200022
00221200220002000220
1200211211010021210
2002112110100212102
0021121101002121020
0211211010021210200
2112110100212102002
1121101002121020021
1211010021210200211
2110100212102002112
1101002121020021121
1010021210200211211
0100212102002112110
1002121020021121101
0021210200211211010
0212102002112110100
2121020021121101002
1210200211211010021
2102002112110100212
1020021121101002121
0200211211010021210
2002112110100212102