Generation 699:
0001021121100112022100
0010211211001120221000
0102112110011202210000
1021121100112022100002
0211211001120221000022
2112110011202210000221
1121100112022100002212
1211001120221000022121
2110011202210000221212
1100112022100002212121
1001120221000022121210
0011202210000221212100
0112022100002212121000
1120221000022121210001
1202210000221212100011
2022100002212121000110
0221000022121210001101
2210000221212100011011
2100002212121000110110
1000022121210001101100
0000221212100011011000
0002212121000110110001
222011112101211000121
220111121012110001211
201111210121100012111
011112101211000121112
111121012110001211122
111210121100012111221
112101211000121112212
121012110001211122121
210121100012111221212
101211000121112212120
012110001211122121200
121100012111221212002
211000121112212120022
110001211122121200222
100012111221212002221
000121112212120022211
001211122121200222111
012111221212002221112
121112212120022211122
211122121200222111222
111221212002221112222
112212120022211122220

0001021121100112022100
0010211211001120221000
0102112110011202210000
1021121100112022100002
0211211001120221000022
2112110011202210000221
1121100112022100002212
1211001120221000022121
2110011202210000221212
1100112022100002212121
1001120221000022121210
0011202210000221212100
0112022100002212121000
1120221000022121210001
1202210000221212100011
2022100002212121000110
0221000022121210001100
2210000221212100011001
2100002212121000110010
1000022121210001100100
0000221212100011001000
0002212121000110010001
022011112101212000121
220111121012120001211
201111210121200012111
011112101212000121112
111121012120001211122
111210121200012111221
112101212000121112212
121012120001211122121
210121200012111221212
101212000121112212122
012120001211122121222
121200012111221212222
212000121112212122221
120001211122121222212
200012111221212222121
000121112212122221211
001211122121222212111
012111221212222121112
121112212122221211120
211122121222212111202
111221212222121112022
112212122221211120220

2001021121100112022100
0010211211001120221000
0102112110011202210000
1021121100112022100002
0211211001120221000022
2112110011202210000222
1121100112022100002222
1211001120221000022220
2110011202210000222202
1100112022100002222021
1001120221000022220210
0011202210000222202100
0112022100002222021000
1120221000022220210001
1202210000222202100011
2022100002222021000110
0221000022220210001101
2210000222202100011011
2100002222021000110110
1000022220210001101100
0000222202100011011000
0002222021000110110001
022011112101110101022
220111121011101010221
201111210111010102211
011112101110101022112
111121011101010221122
111210111010102211221
112101110101022112212
121011101010221122122
210111010102211221222
101110101022112212222
011101010221122122222
111010102211221222222
110101022112212222222
101010221122122222221
010102211221222222211
101022112212222222111
010221122122222221110
102211221222222211101
022112212222222111010
221122122222221110102
211221222222211101022
112212222222111010220

0001021121100112022100
0010211211001120221000
0102112110011202210000
1021121100112022100002
0211211001120221000022
2112110011202210000221
1121100112022100002212
1211001120221000022121
2110011202210000221212
1100112022100002212121
1001120221000022121210
0011202210000221212100
0112022100002212121000
1120221000022121210001
1202210000221212100011
2022100002212121000110
0221000022121210001101
2210000221212100011011
2100002212121000110110
1000022121210001101100
0000221212100011011000
0002212121000110110001
222011110100212000121
220111101002120001211
201111010021200012111
011110100212000121112
111101002120001211122
111010021200012111221
110100212000121112212
101002120001211122121
010021200012111221212
100212000121112212120
002120001211122121202
021200012111221212022
212000121112212120221
120001211122121202212
200012111221212022121
000121112212120221211
001211122121202212111
012111221212022121112
121112212120221211122
211122121202212111222
111221212022121112222
112212120221211122220

2001021121200112022100
0010211212001120221000
0102112120011202210000
1021121200112022100002
0211212001120221000022
2112120011202210000221
1121200112022100002212
1212001120221000022121
2120011202210000221212
1200112022100002212121
2001120221000022121210
0011202210000221212100
0112022100002212121000
1120221000022121210001
1202210000221212100011
2022100002212121000110
0221000022121210001101
2210000221212100011011
2100002212121000110110
1000022121210001101100
0000221212100011011000
0002212121000110110001
022011112110211001122
220111121102110011221
201111211021100112211
011112110211001122112
111121102110011221122
111211021100112211221
112110211001122112212
121102110011221122121
211021100112211221212
110211001122112212120
102110011221122121200
021100112211221212002
211001122112212120021
110011221122121200212
100112211221212002121
001122112212120021211
011221122121200212110
112211221212002121101
122112212120021211010
221122121200212110102
211221212002121101022
112212120021211010220

2001021121202112022100
0010211212021120221000
0102112120211202210000
1021121202112022100002
0211212021120221000022
2112120211202210000222
1121202112022100002222
1212021120221000022220
2120211202210000222202
1202112022100002222021
2021120221000022220210
0211202210000222202100
2112022100002222021000
1120221000022220210001
1202210000222202100011
2022100002222021000110
0221000022220210001101
2210000222202100011011
2100002222021000110110
1000022220210001101100
0000222202100011011000
0002222021000110110001
222011110101110101021
220111101011101010211
201111010111010102111
011110101110101021112
111101011101010211122
111010111010102111221
110101110101021112212
101011101010211122122
010111010102111221222
101110101021112212222
011101010211122122222
111010102111221222222
110101021112212222222
101010211122122222222
010102111221222222221
101021112212222222211
010211122122222222111
102111221222222221111
021112212222222211112
211122122222222111122
111221222222221111222
112212222222211112220

0011021121100112022100
0110211211001120221000
1102112110011202210000
1021121100112022100002
0211211001120221000022
2112110011202210000221
1121100112022100002212
1211001120221000022121
2110011202210000221212
1100112022100002212121
1001120221000022121210
0011202210000221212100
0112022100002212121000
1120221000022121210001
1202210000221212100011
2022100002212121000110
0221000022121210001101
2210000221212100011011
2100002212121000110110
1000022121210001101100
0000221212100011011000
0002212121000110110001
022011112101212000121
220111121012120001212
201111210121200012121
011112101212000121211
111121012120001212112
111210121200012121121
112101212000121211212
121012120001212112121
210121200012121121212
101212000121211212122
012120001212112121222
121200012121121212222
212000121211212122221
120001212112121222212
200012121121212222121
000121211212122221211
001212112121222212111
012121121212222121112
121211212122221211120
212112121222212111202
121121212222121112022
211212122221211120220

2001021121202112022100
0010211212021120221000
0102112120211202210000
1021121202112022100002
0211212021120221000022
2112120211202210000221
1121202112022100002212
1212021120221000022120
2120211202210000221202
1202112022100002212021
2021120221000022120210
0211202210000221202100
2112022100002212021000
1120221000022120210001
1202210000221202100011
2022100002212021000110
0221000022120210001101
2210000221202100011011
2100002212021000110110
1000022120210001101100
0000221202100011011000
0002212021000110110001
022011110101210101021
220111101012101010211
201111010121010102111
011110101210101021112
111101012101010211122
111010121010102111221
110101210101021112212
101012101010211122121
010121010102111221212
101210101021112212122
012101010211122121222
121010102111221212222
210101021112212122222
101010211122121222222
010102111221212222221
101021112212122222211
010211122121222222111
102111221212222221111
021112212122222211112
211122121222222111122
111221212222221111222
112212122222211112220

0001021121100112022100
0010211211001120221000
0102112110011202210000
1021121100112022100002
0211211001120221000022
2112110011202210000221
1121100112022100002212
1211001120221000022121
2110011202210000221212
1100112022100002212121
1001120221000022121210
0011202210000221212100
0112022100002212121000
1120221000022121210001
1202210000221212100011
2022100002212121000110
0221000022121210001101
2210000221212100011011
2100002212121000110110
1000022121210001101100
0000221212100011011000
0002212121000110110001
022011112101210000121
220111121012100001211
201111210121000012111
011112101210000121112
111121012100001211122
111210121000012111221
112101210000121112212
121012100001211122121
210121000012111221212
101210000121112212122
012100001211122121222
121000012111221212222
210000121112212122221
100001211122121222211
000012111221212222111
000121112212122221111
001211122121222211111
012111221212222111112
121112212122221111120
211122121222211111202
111221212222111112022
112212122221111120220

2001021121102112022100
0010211211021120221000
0102112110211202210000
1021121102112022100001
0211211021120221000012
2112110211202210000122
1121102112022100001222
1211021120221000012220
2110211202210000122202
1102112022100001222021
1021120221000012220210
0211202210000122202100
2112022100001222021000
1120221000012220210001
1202210000122202100011
2022100001222021000110
0221000012220210001101
2210000122202100011011
2100001222021000110110
1000012220210001101100
0000122202100011011000
0001222021000110110001
022011112101110101021
220111121011101010211
201111210111010102111
011112101110101021112
111121011101010211122
111210111010102111221
112101110101021112212
121011101010211122122
210111010102111221222
101110101021112212222
011101010211122122222
111010102111221222222
110101021112212222221
101010211122122222211
010102111221222222111
101021112212222221111
010211122122222211110
102111221222222111101
021112212222221111010
211122122222211110102
111221222222111101022
112212222221111010220

0001021121100112022100
0010211211001120221000
0102112110011202210000
1021121100112022100001
0211211001120221000012
2112110011202210000122
1121100112022100001222
1211001120221000012220
2110011202210000122202
1100112022100001222021
1001120221000012220210
0011202210000122202102
0112022100001222021020
1120221000012220210201
1202210000122202102011
2022100001222021020110
0221000012220210201101
2210000122202102011011
2100001222021020110110
1000012220210201101100
0000122202102011011000
0001222021020110110001
022011112101210100121
220111121012101001211
201111210121010012111
011112101210100121112
111121012101001211122
111210121010012111221
112101210100121112212
121012101001211122122
210121010012111221222
101210100121112212222
012101001211122122222
121010012111221222222
210100121112212222221
101001211122122222212
010012111221222222121
100121112212222221211
001211122122222212111
012111221222222121112
121112212222221211120
211122122222212111202
111221222222121112022
112212222221211120220

2001021121102112022100
0010211211021120221000
0102112110211202210000
1021121102112022100002
0211211021120221000022
2112110211202210000222
1121102112022100002222
1211021120221000022220
2110211202210000222202
1102112022100002222021
1021120221000022220210
0211202210000222202100
2112022100002222021000
1120221000022220210001
1202210000222202100011
2022100002222021000110
0221000022220210001101
2210000222202100011011
2100002222021000110110
1000022220210001101100
0000222202100011011000
0002222021000110110001
222011110101110101021
220111101011101010211
201111010111010102111
011110101110101021112
111101011101010211122
111010111010102111221
110101110101021112212
101011101010211122121
010111010102111221212
101110101021112212122
011101010211122121222
111010102111221212222
110101021112212122222
101010211122121222222
010102111221212222221
101021112212122222211
010211122121222222111
102111221212222221112
021112212122222211122
211122121222222111222
111221212222221112222
112212122222211122220

0001021121100112022100
0010211211001120221000
0102112110011202210000
1021121100112022100002
0211211001120221000022
2112110011202210000221
1121100112022100002212
1211001120221000022121
2110011202210000221212
1100112022100002212121
1001120221000022121210
0011202210000221212100
0112022100002212121000
1120221000022121210001
1202210000221212100011
2022100002212121000110
0221000022121210001100
2210000221212100011001
2100002212121000110010
1000022121210001100100
0000221212100011001000
0002212121000110010001
022011112101210000021
220111121012100000211
201111210121000002111
011112101210000021112
111121012100000211122
111210121000002111221
112101210000021112212
121012100000211122121
210121000002111221212
101210000021112212120
012100000211122121200
121000002111221212002
210000021112212120021
100000211122121200212
000002111221212002122
000021112212120021221
000211122121200212210
002111221212002122102
021112212120021221022
211122121200212210222
111221212002122102222
112212120021221022220

0001021121200112022100
0010211212001120221000
0102112120011202210000
1021121200112022100002
0211212001120221000022
2112120011202210000221
1121200112022100002212
1212001120221000022121
2120011202210000221212
1200112022100002212121
2001120221000022121210
0011202210000221212100
0112022100002212121000
1120221000022121210001
1202210000221212100011
2022100002212121000110
0221000022121210001101
2210000221212100011011
2100002212121000110110
1000022121210001101100
0000221212100011011000
0002212121000110110001
222011112110211001121
220111121102110011211
201111211021100112111
011112110211001121112
111121102110011211122
111211021100112111221
112110211001121112212
121102110011211122121
211021100112111221212
110211001121112212120
102110011211122121200
021100112111221212002
211001121112212120021
110011211122121200212
100112111221212002121
001121112212120021211
011211122121200212111
112111221212002121111
121112212120021211112
211122121200212111122
111221212002121111222
112212120021211112220

0001021121100112022100
0010211211001120221000
0102112110011202210000
1021121100112022100002
0211211001120221000022
2112110011202210000221
1121100112022100002212
1211001120221000022121
2110011202210000221212
1100112022100002212121
1001120221000022121210
0011202210000221212100
0112022100002212121000
1120221000022121210001
1202210000221212100011
2022100002212121000110
0221000022121210001100
2210000221212100011001
2100002212121000110010
1000022121210001100100
0000221212100011001000
0002212121000110010001
022011112101012000121
220111121010120001211
201111210101200012111
011112101012000121112
111121010120001211122
111210101200012111221
112101012000121112212
121010120001211122121
210101200012111221212
101012000121112212120
010120001211122121200
101200012111221212002
012000121112212120021
120001211122121200212
200012111221212002121
000121112212120021211
001211122121200212111
012111221212002121112
121112212120021211122
211122121200212111222
111221212002121112222
112212120021211122220

0001021121100112022100
0010211211001120221000
0102112110011202210000
1021121100112022100002
0211211001120221000022
2112110011202210000221
1121100112022100002212
1211001120221000022121
2110011202210000221212
1100112022100002212121
1001120221000022121210
0011202210000221212100
0112022100002212121000
1120221000022121210001
1202210000221212100011
2022100002212121000110
0221000022121210001101
2210000221212100011011
2100002212121000110110
1000022121210001101100
0000221212100011011000
0002212121000110110001
022011112101212000121
220111121012120001211
201111210121200012111
011112101212000121112
111121012120001211122
111210121200012111221
112101212000121112212
121012120001211122121
210121200012111221212
101212000121112212120
012120001211122121200
121200012111221212002
212000121112212120021
120001211122121200212
200012111221212002121
000121112212120021211
001211122121200212111
012111221212002121112
121112212120021211122
211122121200212111222
111221212002121112222
112212120021211122220

2001021121102112022100
0010211211021120221000
0102112110211202210000
1021121102112022100001
0211211021120221000012
2112110211202210000122
1121102112022100001222
1211021120221000012220
2110211202210000122202
1102112022100001222021
1021120221000012220210
0211202210000122202100
2112022100001222021000
1120221000012220210001
1202210000122202100011
2022100001222021000110
0221000012220210001101
2210000122202100011011
2100001222021000110110
1000012220210001101100
0000122202100011011000
0001222021000110110001
022011112101110101021
220111121011101010211
201111210111010102111
011112101110101021112
111121011101010211122
111210111010102111221
112101110101021112212
121011101010211122122
210111010102111221222
101110101021112212222
011101010211122122222
111010102111221222222
110101021112212222221
101010211122122222211
010102111221222222111
101021112212222221111
010211122122222211110
102111221222222111101
021112212222221111010
211122122222211110102
111221222222111101022
112212222221111010220

2001021121102112022100
0010211211021120221000
0102112110211202210000
1021121102112022100001
0211211021120221000012
2112110211202210000122
1121102112022100001222
1211021120221000012220
2110211202210000122202
1102112022100001222021
1021120221000012220210
0211202210000122202100
2112022100001222021000
1120221000012220210001
1202210000122202100011
2022100001222021000110
0221000012220210001101
2210000122202100011011
2100001222021000110110
1000012220210001101100
0000122202100011011000
0001222021000110110001
222011112101110101021
220111121011101010211
201111210111010102111
011112101110101021112
111121011101010211122
111210111010102111221
112101110101021112212
121011101010211122122
210111010102111221222
101110101021112212222
011101010211122122220
111010102111221222202
110101021112212222022
101010211122122220221
010102111221222202211
101021112212222022111
010211122122220221110
102111221222202211101
021112212222022111010
211122122220221110102
111221222202211101022
112212222022111010220

0001021121100112022100
0010211211001120221000
0102112110011202210000
1021121100112022100001
0211211001120221000012
2112110011202210000122
1121100112022100001222
1211001120221000012220
2110011202210000122202
1100112022100001222021
1001120221000012220210
0011202210000122202100
0112022100001222021000
1120221000012220210001
1202210000122202100011
2022100001222021000110
0221000012220210001101
2210000122202100011011
2100001222021000110110
1000012220210001101100
0000122202100011011000
0001222021000110110001
222012112101210101021
220121121012101010211
201211210121010102111
012112101210101021112
121121012101010211120
211210121010102111201
112101210101021112012
121012101010211120122
210121010102111201222
101210101021112012222
012101010211120122222
121010102111201222222
210101021112012222221
101010211120122222211
010102111201222222111
101021112012222221111
010211120122222211111
102111201222222111111
021112012222221111112
211120122222211111122
111201222222111111222
112012222221111112220

2001021121102112022100
0010211211021120221000
0102112110211202210000
1021121102112022100002
0211211021120221000022
2112110211202210000222
1121102112022100002222
1211021120221000022220
2110211202210000222202
1102112022100002222021
1021120221000022220210
0211202210000222202100
2112022100002222021000
1120221000022220210001
1202210000222202100011
2022100002222021000110
0221000022220210001101
2210000222202100011011
2100002222021000110110
1000022220210001101100
0000222202100011011000
0002222021000110110001
222011110101110101021
220111101011101010211
201111010111010102111
011110101110101021112
111101011101010211122
111010111010102111221
110101110101021112212
101011101010211122121
010111010102111221212
101110101021112212122
011101010211122121222
111010102111221212222
110101021112212122222
101010211122121222222
010102111221212222221
101021112212122222211
010211122121222222111
102111221212222221112
021112212122222211122
211122121222222111222
111221212222221112222
112212122222211122220

0001021121100112022100
0010211211001120221000
0102112110011202210000
1021121100112022100002
0211211001120221000022
2112110011202210000222
1121100112022100002222
1211001120221000022221
2110011202210000222212
1100112022100002222121
1001120221000022221210
0011202210000222212100
0112022100002222121000
1120221000022221210001
1202210000222212100011
2022100002222121000110
0221000022221210001101
2210000222212100011011
2100002222121000110110
1000022221210001101100
0000222212100011011000
0002222121000110110001
222011112101112000121
220111121011120001211
201111210111200012111
011112101112000121112
111121011120001211122
111210111200012111221
112101112000121112212
121011120001211122122
210111200012111221222
101112000121112212222
011120001211122122222
111200012111221222222
112000121112212222221
120001211122122222212
200012111221222222121
000121112212222221211
001211122122222212111
012111221222222121112
121112212222221211120
211122122222212111202
111221222222121112022
112212222221211120220

2001021121202112022100
0010211212021120221000
0102112120211202210000
1021121202112022100002
0211212021120221000022
2112120211202210000221
1121202112022100002212
1212021120221000022120
2120211202210000221202
1202112022100002212021
2021120221000022120210
0211202210000221202100
2112022100002212021000
1120221000022120210001
1202210000221202100011
2022100002212021000110
0221000022120210001101
2210000221202100011011
2100002212021000110110
1000022120210001101100
0000221202100011011000
0002212021000110110001
222011112101112101021
220111121011121010211
201111210111210102111
011112101112101021111
111121011121010211112
111210111210102111121
112101112101021111212
121011121010211112122
210111210102111121222
101112101021111212222
011121010211112122222
111210102111121222222
112101021111212222222
121010211112122222222
210102111121222222221
101021111212222222211
010211112122222222111
102111121222222221111
021111212222222211112
211112122222222111122
111121222222221111222
111212222222211112220

2001021121100112022100
0010211211001120221000
0102112110011202210000
1021121100112022100002
0211211001120221000022
2112110011202210000222
1121100112022100002222
1211001120221000022220
2110011202210000222202
1100112022100002222021
1001120221000022220210
0011202210000222202100
0112022100002222021000
1120221000022220210001
1202210000222202100011
2022100002222021000110
0221000022220210001101
2210000222202100011011
2100002222021000110110
1000022220210001101100
0000222202100011011000
0002222021000110110001
022011112101110101022
220111121011101010221
201111210111010102211
011112101110101022111
111121011101010221112
111210111010102211121
112101110101022111212
121011101010221112122
210111010102211121222
101110101022111212222
011101010221112122222
111010102211121222222
110101022111212222222
101010221112122222221
010102211121222222211
101022111212222222111
010221112122222221110
102211121222222211101
022111212222222111010
221112122222221110102
211121222222211101022
111212222222111010220

0001021121100112022100
0010211211001120221000
0102112110011202210000
1021121100112022100002
0211211001120221000022
2112110011202210000221
1121100112022100002212
1211001120221000022121
2110011202210000221212
1100112022100002212121
1001120221000022121210
0011202210000221212100
0112022100002212121000
1120221000022121210001
1202210000221212100011
2022100002212121000110
0221000022121210001100
2210000221212100011001
2100002212121000110010
1000022121210001100100
0000221212100011001000
0002212121000110010001
022011112101212000121
220111121012120001211
201111210121200012111
011112101212000121112
111121012120001211122
111210121200012111221
112101212000121112212
121012120001211122121
210121200012111221212
101212000121112212120
012120001211122121200
121200012111221212002
212000121112212120021
120001211122121200212
200012111221212002121
000121112212120021211
001211122121200212111
012111221212002121112
121112212120021211122
211122121200212111222
111221212002121112222
112212120021211122220

2001021121202112022100
0010211212021120221000
0102112120211202210000
1021121202112022100002
0211212021120221000022
2112120211202210000221
1121202112022100002212
1212021120221000022120
2120211202210000221202
1202112022100002212021
2021120221000022120210
0211202210000221202100
2112022100002212021000
1120221000022120210001
1202210000221202100011
2022100002212021000110
0221000022120210001101
2210000221202100011011
2100002212021000110110
1000022120210001101100
0000221202100011011000
0002212021000110110001
222011112101110101021
220111121011101010211
201111210111010102111
011112101110101021112
111121011101010211122
111210111010102111221
112101110101021112212
121011101010211122122
210111010102111221222
101110101021112212222
011101010211122122222
111010102111221222222
110101021112212222222
101010211122122222221
010102111221222222211
101021112212222222111
010211122122222221111
102111221222222211111
021112212222222111112
211122122222221111122
111221222222211111222
112212222222111112220

2001021121100112122102
0010211211001121221020
0102112110011212210200
1021121100112122102001
0211211001121221020012
2112110011212210200122
1121100112122102001222
1211001121221020012220
2110011212210200122202
1100112122102001222021
1001121221020012220210
0011212210200122202100
0112122102001222021000
1121221020012220210001
1212210200122202100011
2122102001222021000110
1221020012220210001101
2210200122202100011011
2102001222021000110110
1020012220210001101100
0200122202100011011000
2001222021000110110001
022002122101111101122
220021221011111011221
200212210111110112211
002122101111101122111
021221011111011221110
212210111110112211101
122101111101122111012
221011111011221110122
210111110112211101222
101111101122111012222
011111011221110122222
111110112211101222222
111101122111012222221
111011221110122222211
110112211101222222111
101122111012222221111
011221110122222211111
112211101222222111111
122111012222221111110
221110122222211111102
211101222222111111022
111012222221111110220

2001021121202112022100
0010211212021120221000
0102112120211202210000
1021121202112022100002
0211212021120221000022
2112120211202210000222
1121202112022100002222
1212021120221000022220
2120211202210000222202
1202112022100002222021
2021120221000022220210
0211202210000222202100
2112022100002222021000
1120221000022220210001
1202210000222202100011
2022100002222021000110
0221000022220210001101
2210000222202100011011
2100002222021000110110
1000022220210001101100
0000222202100011011000
0002222021000110110001
222011110101110101021
220111101011101010211
201111010111010102111
011110101110101021112
111101011101010211122
111010111010102111221
110101110101021112212
101011101010211122122
010111010102111221222
101110101021112212222
011101010211122122222
111010102111221222222
110101021112212222222
101010211122122222222
010102111221222222221
101021112212222222211
010211122122222222111
102111221222222221111
021112212222222211112
211122122222222111122
111221222222221111222
112212222222211112220

2001021121100112022100
0010211211001120221000
0102112110011202210000
1021121100112022100002
0211211001120221000022
2112110011202210000222
1121100112022100002222
1211001120221000022220
2110011202210000222202
1100112022100002222021
1001120221000022220210
0011202210000222202100
0112022100002222021000
1120221000022220210001
1202210000222202100011
2022100002222021000110
0221000022220210001101
2210000222202100011011
2100002222021000110110
1000022220210001101100
0000222202100011011000
0002222021000110110001
022011110101110100021
220111101011101000211
201111010111010002111
011110101110100021112
111101011101000211122
111010111010002111221
110101110100021112212
101011101000211122121
010111010002111221212
101110100021112212122
011101000211122121222
111010002111221212222
110100021112212122222
101000211122121222222
010002111221212222221
100021112212122222211
000211122121222222111
002111221212222221112
021112212122222211122
211122121222222111222
111221212222221112222
112212122222211122220

0001021121100112022100
0010211211001120221000
0102112110011202210000
1021121100112022100002
0211211001120221000022
2112110011202210000221
1121100112022100002212
1211001120221000022121
2110011202210000221212
1100112022100002212121
1001120221000022121210
0011202210000221212100
0112022100002212121000
1120221000022121210001
1202210000221212100011
2022100002212121000110
0221000022121210001101
2210000221212100011011
2100002212121000110110
1000022121210001101100
0000221212100011011000
0002212121000110110001
212011110100212000121
120111101002120001211
201111010021200012111
011110100212000121112
111101002120001211122
111010021200012111221
110100212000121112212
101002120001211122121
010021200012111221212
100212000121112212120
002120001211122121200
021200012111221212002
212000121112212120022
120001211122121200222
200012111221212002221
000121112212120022211
001211122121200222111
012111221212002221112
121112212120022211122
211122121200222111222
111221212002221112222
112212120022211122220

0001021121200112022100
0010211212001120221000
0102112120011202210000
1021121200112022100002
0211212001120221000022
2112120011202210000221
1121200112022100002212
1212001120221000022121
2120011202210000221212
1200112022100002212121
2001120221000022121210
0011202210000221212100
0112022100002212121000
1120221000022121210001
1202210000221212100011
2022100002212121000110
0221000022121210001101
2210000221212100011011
2100002212121000110110
1000022121210001101100
0000221212100011011000
0002212121000110110001
222011112110211001121
220111121102110011211
201111211021100112111
011112110211001121112
111121102110011211122
111211021100112111221
112110211001121112212
121102110011211122121
211021100112111221212
110211001121112212120
102110011211122121200
021100112111221212002
211001121112212120021
110011211122121200212
100112111221212002121
001121112212120021211
011211122121200212111
112111221212002121111
121112212120021211112
211122121200212111122
111221212002121111222
112212120021211112220

2001021121200112022100
0010211212001120221000
0102112120011202210000
1021121200112022100002
0211212001120221000022
2112120011202210000222
1121200112022100002222
1212001120221000022220
2120011202210000222202
1200112022100002222021
2001120221000022220210
0011202210000222202100
0112022100002222021000
1120221000022220210001
1202210000222202100011
2022100002222021000110
0221000022220210001101
2210000222202100011011
2100002222021000110110
1000022220210001101100
0000222202100011011000
0002222021000110110001
222011112101110100021
220111121011101000211
201111210111010002111
011112101110100021112
111121011101000211122
111210111010002111221
112101110100021112212
121011101000211122122
210111010002111221222
101110100021112212222
011101000211122122222
111010002111221222222
110100021112212222222
101000211122122222222
010002111221222222221
100021112212222222211
000211122122222222111
002111221222222221111
021112212222222211112
211122122222222111122
111221222222221111222
112212222222211112220

0001021121100112022100
0010211211001120221000
0102112110011202210000
1021121100112022100002
0211211001120221000022
2112110011202210000221
1121100112022100002212
1211001120221000022121
2110011202210000221212
1100112022100002212121
1001120221000022121210
0011202210000221212100
0112022100002212121000
1120221000022121210001
1202210000221212100011
2022100002212121000110
0221000022121210001101
2210000221212100011011
2100002212121000110110
1000022121210001101100
0000221212100011011000
0002212121000110110001
022011112101210000121
220111121012100001211
201111210121000012111
011112101210000121112
111121012100001211122
111210121000012111221
112101210000121112212
121012100001211122121
210121000012111221212
101210000121112212120
012100001211122121202
121000012111221212022
210000121112212120221
100001211122121202212
000012111221212022121
000121112212120221211
001211122121202212111
012111221212022121111
121112212120221211110
211122121202212111102
111221212022121111022
112212120221211110220

0001021121102112022100
0010211211021120221000
0102112110211202210000
1021121102112022100002
0211211021120221000022
2112110211202210000221
1121102112022100002212
1211021120221000022121
2110211202210000221212
1102112022100002212121
1021120221000022121210
0211202210000221212100
2112022100002212121000
1120221000022121210001
1202210000221212100011
2022100002212121000110
0221000022121210001100
2210000221212100011001
2100002212121000110010
1000022121210001100100
0000221212100011001000
0002212121000110010001
222011112101212001121
220111121012120011211
201111210121200112111
011112101212001121112
111121012120011211122
111210121200112111221
112101212001121112212
121012120011211122121
210121200112111221212
101212001121112212120
012120011211122121200
121200112111221212002
212001121112212120021
120011211122121200212
200112111221212002121
001121112212120021211
011211122121200212111
112111221212002121112
121112212120021211122
211122121200212111222
111221212002121112222
112212120021211122220

0001021121200112121100
0010211212001121211000
0102112120011212110000
1021121200112121100002
0211212001121211000022
2112120011212110000220
1121200112121100002202
1212001121211000022021
2120011212110000220212
1200112121100002202121
2001121211000022021210
0011212110000220212102
0112121100002202121020
1121211000022021210201
1212110000220212102011
2121100002202121020110
1211000022021210201100
2110000220212102011001
1100002202121020110010
1000022021210201100101
0000220212102011001010
0002202121020110010101
222011112101021110121
220111121010211101210
201111210102111012101
011112101021110121011
111121010211101210111
111210102111012101111
112101021110121011112
121010211101210111122
210102111012101111222
101021110121011112222
010211101210111122222
102111012101111222222
021110121011112222221
211101210111122222212
111012101111222222121
110121011112222221211
101210111122222212111
012101111222222121112
121011112222221211120
210111122222212111202
101111222222121112020
011112222221211120200

0011021121100112022100
0110211211001120221000
1102112110011202210000
1021121100112022100002
0211211001120221000022
2112110011202210000221
1121100112022100002212
1211001120221000022121
2110011202210000221212
1100112022100002212121
1001120221000022121210
0011202210000221212100
0112022100002212121000
1120221000022121210001
1202210000221212100011
2022100002212121000110
0221000022121210001101
2210000221212100011011
2100002212121000110110
1000022121210001101100
0000221212100011011000
0002212121000110110001
022011112101212000121
220111121012120001211
201111210121200012111
011112101212000121111
111121012120001211112
111210121200012111121
112101212000121111212
121012120001211112121
210121200012111121212
101212000121111212122
012120001211112121222
121200012111121212222
212000121111212122221
120001211112121222212
200012111121212222121
000121111212122221211
001211112121222212111
012111121212222121112
121111212122221211120
211112121222212111202
111121212222121112022
111212122221211120220

0001021121102112022100
0010211211021120221000
0102112110211202210000
1021121102112022100002
0211211021120221000022
2112110211202210000221
1121102112022100002212
1211021120221000022121
2110211202210000221212
1102112022100002212121
1021120221000022121210
0211202210000221212100
2112022100002212121000
1120221000022121210001
1202210000221212100011
2022100002212121000110
0221000022121210001101
2210000221212100011011
2100002212121000110110
1000022121210001101100
0000221212100011011000
0002212121000110110001
022011110101212001121
220111101012120011211
201111010121200112111
011110101212001121112
111101012120011211122
111010121200112111221
110101212001121112212
101012120011211122121
010121200112111221212
101212001121112212122
012120011211122121222
121200112111221212222
212001121112212122221
120011211122121222212
200112111221212222121
001121112212122221211
011211122121222212111
112111221212222121112
121112212122221211120
211122121222212111202
111221212222121112022
112212122221211120220

2001021121102112022100
0010211211021120221000
0102112110211202210000
1021121102112022100001
0211211021120221000012
2112110211202210000122
1121102112022100001222
1211021120221000012220
2110211202210000122202
1102112022100001222021
1021120221000012220210
0211202210000122202100
2112022100001222021000
1120221000012220210001
1202210000122202100011
2022100001222021000110
0221000012220210001101
2210000122202100011011
2100001222021000110110
1000012220210001101100
0000122202100011011000
0001222021000110110001
022011112101110101022
220111121011101010221
201111210111010102211
011112101110101022112
111121011101010221122
111210111010102211221
112101110101022112212
121011101010221122122
210111010102211221222
101110101022112212222
011101010221122122222
111010102211221222222
110101022112212222221
101010221122122222211
010102211221222222111
101022112212222221111
010221122122222211110
102211221222222111101
022112212222221111010
221122122222211110102
211221222222111101022
112212222221111010220

2001021121102112022100
0010211211021120221000
0102112110211202210000
1021121102112022100001
0211211021120221000012
2112110211202210000122
1121102112022100001222
1211021120221000012220
2110211202210000122202
1102112022100001222021
1021120221000012220210
0211202210000122202100
2112022100001222021000
1120221000012220210001
1202210000122202100011
2022100001222021000110
0221000012220210001101
2210000122202100011011
2100001222021000110110
1000012220210001101100
0000122202100011011000
0001222021000110110001
022011112101110101021
220111121011101010211
201111210111010102111
011112101110101021112
111121011101010211122
111210111010102111221
112101110101021112212
121011101010211122122
210111010102111221222
101110101021112212222
011101010211122122222
111010102111221222222
110101021112212222222
101010211122122222221
010102111221222222211
101021112212222222111
010211122122222221110
102111221222222211101
021112212222222111010
211122122222221110102
111221222222211101022
112212222222111010220

2001021121100112022100
0010211211001120221000
0102112110011202210000
1021121100112022100002
0211211001120221000022
2112110011202210000222
1121100112022100002222
1211001120221000022220
2110011202210000222202
1100112022100002222021
1001120221000022220210
0011202210000222202100
0112022100002222021000
1120221000022220210001
1202210000222202100011
2022100002222021000110
0221000022220210001101
2210000222202100011011
2100002222021000110110
1000022220210001101100
0000222202100011011000
0002222021000110110001
022011112101110101021
220111121011101010211
201111210111010102111
011112101110101021112
111121011101010211122
111210111010102111221
112101110101021112212
121011101010211122122
210111010102111221222
101110101021112212222
011101010211122122222
111010102111221222222
110101021112212222222
101010211122122222221
010102111221222222211
101021112212222222111
010211122122222221110
102111221222222211101
021112212222222111010
211122122222221110102
111221222222211101022
112212222222111010220

2001021121202112022100
0010211212021120221000
0102112120211202210000
1021121202112022100002
0211212021120221000022
2112120211202210000222
1121202112022100002222
1212021120221000022220
2120211202210000222202
1202112022100002222021
2021120221000022220210
0211202210000222202100
2112022100002222021000
1120221000022220210001
1202210000222202100011
2022100002222021000110
0221000022220210001101
2210000222202100011011
2100002222021000110110
1000022220210001101100
0000222202100011011000
0002222021000110110001
222011110101110101021
220111101011101010211
201111010111010102111
011110101110101021112
111101011101010211122
111010111010102111221
110101110101021112212
101011101010211122122
010111010102111221222
101110101021112212222
011101010211122122222
111010102111221222222
110101021112212222221
101010211122122222212
010102111221222222121
101021112212222221211
010211122122222212111
102111221222222121111
021112212222221211112
211122122222212111122
111221222222121111222
112212222221211112220

