fitness: 29049 1177
01202002002100122112
12200001221211110112
00212102211120010011
11011000100111100102
10202212101020020222
21002012120121111121
12210100111202000021
10002111100101210220
01020200001210010010
12122012022120020121
11000201120122112111
22210120221112011210
20022120012122000222
11012022120020022010
10000010002122120112
11111020122211212022
22101110020111021010
22202000202102222221
22120102111022102220
02220020212201110200
1220022212012120221
1200001101201002021
2102021202201020200
2001112202101000100
0100102211201202100
2220222221011222201
1222101110101021120
2110201100012212001
2112021200110122210
0120000222000002101
2012102011020211000
0200102120000200022
2112021012221212221
1000220201100121121
2120222111122102221
1200001202012002000
0212122121101021201
2011122010012012101
1111200121200220212
1002021000122212222

fitness: 25792 1288
20222012002200111111
21200000121211211022
00212202112021010011
10011000020111101122
00200212201220022202
22022012020120110011
11100200111201022002
10212111100100220221
12010020201010200110
12120022002120212211
01001202120120210111
22220102121002101111
22120221012120001201
11012122122020021010
12020010011222120102
20202021100022212020
12101110110121011110
22202021000200120011
22002010112122101222
02221120221202112100
2001021202101110102
1201001101011102001
1002011000201010220
2101212212112222000
0201122110220101100
2221202220111021221
0120101021120002120
2212212000012112022
2012101202010120210
0201010220000001101
2020202111120211200
0201022120200101120
2212010212120102200
0020220211000111221
2210202011202002101
2210000102002012200
1012122111012221201
1221100211012021111
1101000121202120212
1002001010102211012

fitness: 28392 1225
20202001112120021110
22100001210221212122
00110000110221211110
01012111200102100002
01022112200101120202
20012002102112211221
02002100211101000002
10021222210200220111
10110022010111220020
10101202102112022012
01201210120222010111
22220120221100021011
12010111210010021201
21012111102202211100
20200012011211022120
11212010120202002121
11202100110201101122
22220210200102110010
20002121121122011222
12221020210202121200
1221120012112102100
1001001121002201002
1012111022012210220
0021212002102222022
1201122110002202100
1020012020002111012
1110121121102201200
2100002001012022012
1112022200022102111
0201011222000012111
2020120010100012210
2221112011202012120
1220110112022211210
0120220211000221012
2210122210101122221
1111000202220201022
0222110120212221201
2111002002021212112
2011000021200111002
1002101112120210021

fitness: 22018 1466
20202001112120021110
22100001210221212122
00110001110221211110
01012111200102100002
01022112200101120202
20012002102112211221
02002100211101000002
10021222210200220111
10110022010111220020
10102202102112022012
01201210120222010111
22220120221100021011
12010111210010021201
21012111102202211100
20200012011211022120
11212010120202002121
01202100110201101122
22220210200102110010
20002121121122011222
12221020210202121200
1221120012112102100
1001001121002201002
1012111022012210220
0021212002102222022
1201122110002202100
1020012020002111012
1110121121102201200
2100002001012022012
1112022200022102111
0201011222000012111
2020120010100012210
2221112011202012120
1220110112022211210
0120220211000221012
2210122210101122221
1111000202220201022
0222110120212221201
2111002002021212112
2011000021200111002
1002101112120210021

fitness: 24847 1315
21202011102120021110
12200000221221211022
00211000111221010111
11011100200101100002
10002112201201120202
20012012122122111221
11102200211101000022
10022121210111220221
10110002001110210120
10120002002122222011
01201210120120010111
22220122221000121011
12010220010020001201
11012112122002211000
20000012011111122100
11212021120202012021
12201110120221101120
22200000200202120010
20002121111122011222
02221020212202121200
2221120012112102100
1000001101001202002
1102011002001010220
2001112002102220000
1201122220002202100
1220212020001021002
0110101021102001100
2210202000012022012
1012022200022122111
0201010222000012101
2020120010121212210
0201122110200212122
1212211112220211200
0020220211100211212
2210122011101102121
1211000202220202000
0212110120212221201
1211002011011212111
1001000021200211212
1002101110120210012

fitness: 26662 1236
22002002112120021111
12100001200221212122
02110000100221211110
01012111202102100002
11022112200101120102
20212102102112211220
02012100211102000212
10021222212210220111
10110002010111221000
10101200110212022012
01201210122222020111
20220120221100020011
12010111200012021201
21212111112202211102
20200002011111022120
11211010120200002121
01202100120201101122
22220210202102110020
20002121121122012222
11001020210202121200
1221120012012102110
1001001221202201022
1012111222012210220
0021210002002202022
1201121211002202100
1020012000002211010
1110121122102201202
2100000001022022012
1111022200222102111
0201011222000012110
1020120010200012210
2121112011202012120
1220111112022211110
0100220211000221012
2220222200101020221
1111002202220201022
0222110110212221201
2110022002021212022
2011000010220111002
0002101122220210021

