fitness: 28223 20423 0.92 3057 1.00 23517 19029
fitness: 33152 20551 0.88 3155 1.00 23911 20077
fitness: 31811 19939 0.88 2856 1.00 23177 16701
fitness: 33917 21445 0.88 3249 1.00 23323 18734
fitness: 28171 19381 0.91 2806 1.00 22659 16948
fitness: 31518 19907 0.89 3104 1.00 23868 19865
fitness: 27768 19900 0.92 3157 1.00 23887 20651
fitness: 28347 19939 0.91 3159 1.00 20432 16181
fitness: 31636 19157 0.88 2803 1.00 22884 18617
fitness: 31631 20105 0.90 2803 1.00 23942 18352
fitness: 30428 19300 0.90 2969 1.00 23069 19016
fitness: 33042 19611 0.87 3075 1.00 23742 19885
fitness: 29161 18698 0.89 3106 1.00 21489 16767
fitness: 32705 19586 0.87 2952 1.00 23580 20273
fitness: 31401 20679 0.89 3169 1.00 23930 18864
fitness: 31519 21820 0.91 3163 1.00 22887 20141
fitness: 31474 19877 0.89 2974 1.00 23435 18291
fitness: 29784 19219 0.89 2931 1.00 23869 18534
fitness: 31811 19681 0.88 3186 1.00 22190 19799
fitness: 32567 19441 0.87 2877 1.00 23425 18884
fitness: 30839 19430 0.89 3076 1.00 23598 19315
fitness: 34621 22185 0.90 2740 1.00 23638 15266
fitness: 32527 20064 0.88 3167 1.00 23461 19140
fitness: 30811 20074 0.89 3021 1.00 23927 20230
fitness: 30407 19927 0.89 3043 1.00 23006 17626
fitness: 28953 20233 0.92 2930 1.00 21648 19190
fitness: 33504 20508 0.88 2969 1.00 23197 17469
fitness: 31401 20547 0.90 2899 1.00 23031 18788
fitness: 29628 19999 0.90 2805 1.00 23947 18616
fitness: 27737 20211 0.92 3068 1.00 22875 17201
fitness: 31921 19611 0.88 2901 1.00 23666 18298
fitness: 29573 19807 0.90 3204 1.00 22118 16780
fitness: 27486 19479 0.92 3001 1.00 23204 19303
