110001001110110010011100
011100011001011100000010
100110110010110011010001
110011000011001111011000
111010011110100011110101
010011010010101011010100
110111010101010110011111
000010010011010000010000
111100000110101001111010
100011111101111011010110
101001101100101000000110
100011110110011001010111
100100100100111001111101
001110101001111110110010
010010101001101011011011
010101011100101010111001
010100000111111110001001
011110000101111101000100
100001110010011101110111
100111100001001111111111
