31408 19835 0.866667 2443 1.000000
32392 23670 0.916667 2097 1.000000
29174 21239 0.910000 2214 1.000000
29899 19935 0.890000 1876 1.000000
30224 21567 0.916667 2076 1.000000
31227 21273 0.896667 2129 1.000000
27861 21247 0.906666 1975 1.000000
28982 22249 0.920000 2445 1.000000
30640 21356 0.893333 2371 1.000000
30093 19748 0.900000 2011 1.000000
29710 20862 0.906667 2135 1.000000
26138 21534 0.940000 2013 1.000000
28820 19355 0.880000 2080 1.000000
25559 20334 0.946667 2115 1.000000
26930 19000 0.896667 1923 1.000000
27360 22315 0.930000 2382 1.000000
27443 21896 0.940000 2189 1.000000
28754 21989 0.933333 2079 1.000000
27553 22346 0.950000 2168 1.000000
31167 22085 0.906667 2386 1.000000
28783 22385 0.926667 2558 1.000000
29904 21067 0.926667 1998 1.000000
26371 19583 0.913333 2066 1.000000
26717 19954 0.926667 1871 1.000000
30134 21341 0.920000 1835 1.000000
28573 22362 0.933333 1873 1.000000
26644 20552 0.920000 2226 1.000000
28029 21114 0.930000 2188 1.000000
29145 22127 0.943333 1839 1.000000
29903 22003 0.920000 2012 1.000000
30108 20387 0.893333 2465 1.000000
28702 20559 0.920000 1986 1.000000
31134 22440 0.920000 2130 1.000000
28059 19867 0.906667 1635 1.000000
29945 22320 0.923333 2084 1.000000
27248 19682 0.906667 2616 1.000000
28231 22067 0.930000 2339 1.000000
29592 21911 0.920000 2071 1.000000
26493 20959 0.930000 1759 1.000000
27148 20113 0.923333 2274 1.000000
28707 21690 0.920000 2186 1.000000
28427 20604 0.926667 2162 1.000000
27314 20115 0.930000 1866 1.000000
29204 20290 0.913333 2077 1.000000
27612 20377 0.903333 1643 1.000000
28000 22368 0.956667 2199 1.000000
30511 21510 0.910000 2269 1.000000
27129 20622 0.913333 2291 1.000000
30161 20918 0.913333 2226 1.000000
26361 21075 0.933333 2594 1.000000
26635 20830 0.946667 2325 1.000000
29137 20266 0.900000 2216 1.000000
29468 22259 0.923333 2174 1.000000
27689 20794 0.936667 2165 1.000000
29628 22040 0.926667 2013 1.000000
28603 23060 0.953333 1915 1.000000
26169 21942 0.943333 2102 1.000000
28272 20383 0.926667 1857 1.000000
28802 20806 0.920000 1803 1.000000
27039 20711 0.916667 2171 1.000000
28540 21036 0.926667 2080 1.000000
27418 21711 0.950000 2014 1.000000
26205 20969 0.936667 2234 1.000000
29246 21123 0.930000 2042 1.000000
30377 21696 0.916667 2015 1.000000
28555 17905 0.876667 1880 1.000000
27156 21389 0.923333 2648 1.000000
28850 20165 0.910000 1855 1.000000
29927 20594 0.916667 1667 1.000000
26408 20321 0.926667 2440 1.000000
28415 21252 0.926667 1980 1.000000
26908 20180 0.936667 1870 1.000000
27422 20884 0.933333 1943 1.000000
26552 20494 0.940000 2250 1.000000
29100 21232 0.926667 1988 1.000000
28167 20690 0.933333 1921 1.000000
27997 20888 0.923333 2146 1.000000
28808 22018 0.913333 2567 1.000000
26141 20847 0.936667 2421 1.000000
25729 20548 0.940000 1910 1.000000
28064 19645 0.903333 1622 1.000000
27621 19996 0.910000 1809 1.000000
28297 22944 0.943333 2334 1.000000
28511 21909 0.933333 1912 1.000000
31588 22388 0.913333 2751 1.000000
28406 19919 0.880000 2052 1.000000
25602 18307 0.906667 2086 1.000000
28080 21119 0.940000 1809 1.000000
28063 20162 0.913333 2020 1.000000
28603 21050 0.926667 1775 1.000000
28001 21067 0.930000 1974 1.000000
28057 20898 0.926667 1555 1.000000
27309 20588 0.940000 2141 1.000000
27871 22196 0.953333 1754 1.000000
26626 21747 0.943333 2135 1.000000
27098 20347 0.933333 1975 1.000000
27436 20675 0.933333 1697 1.000000
30097 23908 0.936667 2634 1.000000
24318 20266 0.943333 1855 1.000000
27884 19928 0.923333 1846 1.000000
28591 21053 0.913334 2038 1.000000
27726 22542 0.950000 1954 1.000000
28779 19356 0.913333 1718 1.000000
27449 21173 0.936667 1922 1.000000
28422 21424 0.923333 2303 1.000000
25597 18133 0.930000 1871 1.000000
27801 20914 0.913333 2348 1.000000
28436 21238 0.916667 2395 1.000000
25290 20397 0.933333 1908 1.000000
27753 21891 0.946667 1809 1.000000
29558 20133 0.896667 2098 1.000000
26735 20498 0.933333 2201 1.000000
27814 20996 0.943333 2226 1.000000
29431 22692 0.940000 1949 1.000000
27163 20636 0.940000 1649 1.000000
28038 20640 0.930000 2222 1.000000
28802 20771 0.923333 1902 1.000000
29990 21295 0.916667 1863 1.000000
25525 19630 0.933333 1777 1.000000
29115 20689 0.916667 2193 1.000000
29203 22608 0.943333 2167 1.000000
29060 20986 0.920000 1595 1.000000
26961 21082 0.926667 1900 1.000000
26768 21026 0.926667 1958 1.000000
28457 21164 0.920000 2277 1.000000
28936 20444 0.910000 2156 1.000000
25650 20581 0.936667 1728 1.000000
29065 22787 0.950000 2089 1.000000
28796 22479 0.936667 1907 1.000000
30833 23583 0.936667 1999 1.000000
25395 20506 0.953333 1687 1.000000
27724 22498 0.956667 1463 1.000000
30952 22046 0.903333 2113 1.000000
29345 22507 0.923333 1921 1.000000
28545 23093 0.943333 2141 1.000000
26605 20906 0.933334 1890 1.000000
27840 21611 0.930000 2004 1.000000
28104 21918 0.940000 2133 1.000000
28953 22472 0.930000 2086 1.000000
25763 19155 0.916667 1643 1.000000
28972 21090 0.913333 2401 1.000000
27880 20642 0.913333 2699 1.000000
28650 22470 0.940000 1903 1.000000
28154 20153 0.920000 1923 1.000000
27265 20716 0.923333 2133 1.000000
27920 21959 0.930000 2199 1.000000
27523 20746 0.903333 2502 1.000000
29169 22366 0.926667 1994 1.000000
28557 20464 0.923333 1855 1.000000
27477 21768 0.946667 1903 1.000000
24785 20601 0.946667 1980 1.000000
27990 20295 0.886667 1997 1.000000
26916 19466 0.923334 1898 1.000000
28502 22518 0.926667 2473 1.000000
29580 22242 0.936667 2168 1.000000
24642 19223 0.930000 1532 1.000000
30081 19946 0.916667 1865 1.000000
27213 21375 0.930000 1999 1.000000
29189 21745 0.920000 2109 1.000000
28002 21416 0.933333 1801 1.000000
26588 19189 0.923334 1605 1.000000
28730 21526 0.946667 1972 1.000000
29375 21682 0.916667 2351 1.000000
25308 20049 0.926667 1745 1.000000
28104 21083 0.930000 2074 1.000000
26726 20366 0.930000 2199 1.000000
25710 21031 0.943333 2019 1.000000
28545 21900 0.933333 2083 1.000000
27943 19841 0.913333 2417 1.000000
28387 19363 0.886667 2509 1.000000
28748 21013 0.913333 2462 1.000000
25815 17786 0.900000 1861 1.000000
25873 20397 0.933333 1794 1.000000
28743 21916 0.940000 1581 1.000000
27437 20177 0.926667 2233 1.000000
26352 19228 0.923333 2090 1.000000
25780 22158 0.966667 2147 1.000000
27073 21313 0.940000 2130 1.000000
25897 20460 0.936667 2583 1.000000
28938 22213 0.926667 2322 1.000000
25920 19322 0.930000 1653 1.000000
26634 22005 0.930000 2731 1.000000
27046 19911 0.930000 1651 1.000000
27176 20895 0.940000 2086 1.000000
27999 21465 0.936667 1747 1.000000
23118 18946 0.933333 1838 1.000000
29052 20532 0.900000 2093 1.000000
27197 21017 0.930000 2283 1.000000
25986 21030 0.936667 1925 1.000000
29589 21298 0.923333 1890 1.000000
26947 20417 0.926667 2100 1.000000
28020 19398 0.913334 1890 1.000000
26671 19958 0.940000 1903 1.000000
27807 21190 0.923333 2591 1.000000
27648 20871 0.916667 2432 1.000000
27804 20642 0.930000 1809 1.000000
26773 19359 0.920000 1935 1.000000
26345 20614 0.933333 1926 1.000000
26515 20934 0.950000 1789 1.000000
27191 20852 0.936667 2313 1.000000
28301 21938 0.933333 2090 1.000000
28474 21528 0.926667 1569 1.000000
26965 19853 0.906667 1608 1.000000
28968 21697 0.916667 2503 1.000000
26604 19736 0.926667 2194 1.000000
28459 22095 0.936667 1956 1.000000
28304 20416 0.910000 1996 1.000000
25017 21028 0.953333 1611 1.000000
28460 21364 0.910000 1955 1.000000
26801 18768 0.930000 1562 1.000000
28363 20673 0.926667 2044 1.000000
27915 20378 0.923333 2080 1.000000
29463 22264 0.923333 2205 1.000000
24935 18821 0.923333 1954 1.000000
28000 20816 0.936667 1604 1.000000
27647 20749 0.933333 2022 1.000000
25975 21228 0.933333 1829 1.000000
26328 21514 0.956667 2101 1.000000
25696 20381 0.926667 1712 1.000000
29335 22444 0.933333 2312 1.000000
27459 20385 0.910000 2090 1.000000
27935 20597 0.923333 1837 1.000000
25877 20876 0.963333 1627 1.000000
29135 21809 0.920000 2251 1.000000
26421 20842 0.943333 1750 1.000000
26155 18867 0.930000 2095 1.000000
27526 20052 0.900000 1862 1.000000
27260 21056 0.950000 1781 1.000000
28632 23147 0.946667 1611 1.000000
29028 21068 0.920000 1706 1.000000
26049 20159 0.940000 1723 1.000000
26010 20632 0.940000 2206 1.000000
27532 22705 0.966667 1931 1.000000
28278 20019 0.916667 2246 1.000000
25070 19138 0.943333 1894 1.000000
28332 19063 0.903333 2091 1.000000
26682 20352 0.946667 1735 1.000000
26503 20318 0.940000 2020 1.000000
26727 20043 0.916667 2374 1.000000
26079 18758 0.913333 2264 1.000000
28409 21169 0.923333 2055 1.000000
26155 18987 0.916667 1850 1.000000
28719 21687 0.933333 1828 1.000000
29106 22640 0.936667 2237 1.000000
27681 20477 0.916667 2255 1.000000
26857 20089 0.926667 2252 1.000000
28340 20332 0.910000 2086 1.000000
27127 19303 0.926667 1714 1.000000
26571 19695 0.923333 1822 1.000000
29469 22221 0.933333 1641 1.000000
26421 20432 0.923333 2256 1.000000
28279 20034 0.916667 1883 1.000000
31350 23348 0.923333 2190 1.000000
30937 21341 0.913333 2334 1.000000
28882 20433 0.900000 2237 1.000000
27056 20414 0.913333 2128 1.000000
28838 19171 0.886667 2102 1.000000
28362 20621 0.903333 2418 1.000000
26912 18800 0.913333 2237 1.000000
27488 20665 0.920000 1641 1.000000
27497 20736 0.930000 2310 1.000000
27549 20810 0.923334 2119 1.000000
26028 20536 0.933333 1860 1.000000
23537 17571 0.920000 1981 1.000000
29385 22387 0.936667 2034 1.000000
28621 20908 0.923333 1485 1.000000
29524 20429 0.903333 2285 1.000000
26708 21958 0.950000 2137 1.000000
27808 20268 0.930000 1886 1.000000
26884 20436 0.913333 1818 1.000000
26062 21659 0.950000 2356 1.000000
26924 21745 0.923333 2293 1.000000
27588 20871 0.936667 2131 1.000000
27910 21898 0.940000 1934 1.000000
27982 21574 0.936667 2126 1.000000
27570 20854 0.936667 1569 1.000000
28403 22494 0.940000 1901 1.000000
28404 21130 0.923333 2450 1.000000
26843 19928 0.936667 1537 1.000000
28142 20605 0.920000 2306 1.000000
26366 20640 0.943333 1851 1.000000
27635 20309 0.933333 1934 1.000000
26907 18423 0.903333 1937 1.000000
27638 20500 0.946667 1947 1.000000
28586 20525 0.916667 2507 1.000000
26303 20101 0.923333 1828 1.000000
28698 21653 0.916667 2001 1.000000
25955 19623 0.933333 2591 1.000000
26909 19938 0.923333 1832 1.000000
28211 21366 0.926667 2385 1.000000
25111 20323 0.943333 1966 1.000000
29844 22173 0.920000 2512 1.000000
28453 22861 0.950000 1514 1.000000
28582 21594 0.926667 1639 1.000000
26429 19616 0.923333 2137 1.000000
26784 20390 0.936667 2169 1.000000
26203 22141 0.953333 1788 1.000000
28103 20572 0.920000 1850 1.000000
28923 20714 0.923333 2169 1.000000
25334 21701 0.963334 2344 1.000000
27911 22520 0.950000 2227 1.000000
27951 21129 0.936667 2264 1.000000
28462 20818 0.940000 1777 1.000000
26891 20315 0.930000 1978 1.000000
26988 19982 0.930000 1604 1.000000
28426 20407 0.896667 2108 1.000000
26666 20540 0.946667 1767 1.000000
26220 19312 0.923333 1814 1.000000
30494 21146 0.903333 2244 1.000000
28048 21508 0.946667 1963 1.000000
28210 22300 0.946667 1528 1.000000
26067 20467 0.946667 1830 1.000000
28873 19510 0.910000 1797 1.000000
28272 19660 0.906667 1937 1.000000
25859 21238 0.960000 2061 1.000000
23902 20434 0.960000 1830 1.000000
29097 20637 0.923333 1936 1.000000
26363 20614 0.933333 2302 1.000000
28315 20792 0.936667 1732 1.000000
25479 20025 0.940000 1818 1.000000
28617 21062 0.940000 1866 1.000000
26242 20463 0.943333 1973 1.000000
28455 20139 0.920000 1931 1.000000
27779 21176 0.933333 2115 1.000000
28506 21027 0.936667 1927 1.000000
27319 21974 0.953333 1893 1.000000
28953 21126 0.913333 1898 1.000000
26468 19025 0.923333 1965 1.000000
26641 20088 0.916667 1812 1.000000
29161 20753 0.906667 1532 1.000000
27131 20814 0.926667 2209 1.000000
27299 20015 0.926667 1774 1.000000
27903 21377 0.936667 2229 1.000000
25894 18515 0.916667 1882 1.000000
26569 20612 0.933333 1994 1.000000
26758 19387 0.913333 1622 1.000000
28397 20610 0.933333 2087 1.000000
27216 19295 0.910000 1778 1.000000
29346 19149 0.900000 1707 1.000000
21986 18161 0.943333 1885 1.000000
27365 21743 0.936667 2203 1.000000
27731 20705 0.910000 1855 1.000000
29215 23263 0.936667 2024 1.000000
26271 19471 0.933333 1897 1.000000
23971 19799 0.956667 2136 1.000000
30015 22642 0.916667 2430 1.000000
25966 20757 0.940000 1884 1.000000
26067 20578 0.943333 2181 1.000000
27008 21232 0.933333 2214 1.000000
25269 18614 0.933333 1758 1.000000
27961 19718 0.906667 2223 1.000000
28036 21616 0.930000 2437 1.000000
28007 19287 0.920000 1418 1.000000
27565 20612 0.923333 1586 1.000000
28832 21748 0.920000 1959 1.000000
27786 21817 0.946667 2093 1.000000
27394 21371 0.930000 2806 1.000000
25576 20560 0.943333 1960 1.000000
26411 21399 0.950000 2162 1.000000
28243 21528 0.930000 1908 1.000000
24768 20202 0.940000 2150 1.000000
28242 21211 0.930000 2037 1.000000
28397 21043 0.936667 2308 1.000000
28485 19829 0.916667 1796 1.000000
26891 19974 0.926667 2253 1.000000
27333 20994 0.930000 1862 1.000000
24471 19569 0.946667 1613 1.000000
28934 21434 0.900000 2150 1.000000
28934 21229 0.910000 2594 1.000000
27901 21105 0.953333 1560 1.000000
29248 23271 0.953333 2038 1.000000
26087 20060 0.913333 2509 1.000000
26311 20951 0.930000 2643 1.000000
24725 19697 0.926667 2477 1.000000
28063 20751 0.926667 1996 1.000000
31155 22989 0.936667 1973 1.000000
27174 21222 0.936667 2001 1.000000
28653 20357 0.903333 2397 1.000000
26186 19903 0.943333 2056 1.000000
25966 19722 0.923333 1889 1.000000
25900 19737 0.930000 2082 1.000000
27392 21602 0.933333 1942 1.000000
28774 21117 0.923333 2514 1.000000
27335 21177 0.926667 2317 1.000000
29011 21908 0.933333 2113 1.000000
26788 20346 0.920000 1805 1.000000
29406 20650 0.920000 2169 1.000000
27519 20028 0.910000 1769 1.000000
26501 21366 0.953333 2048 1.000000
28832 20391 0.920000 2013 1.000000
29246 23234 0.936667 2112 1.000000
25652 21034 0.936667 1954 1.000000
28068 21704 0.923333 1811 1.000000
26921 21303 0.936667 2257 1.000000
25936 19252 0.903333 2258 1.000000
27834 20799 0.926667 1687 1.000000
25816 21416 0.940000 2062 1.000000
27851 20718 0.913334 2442 1.000000
28378 20976 0.923333 1693 1.000000
25511 20290 0.950000 2225 1.000000
25153 19007 0.933333 2343 1.000000
26360 21707 0.940000 2540 1.000000
26474 20110 0.916667 1819 1.000000
27295 21082 0.950000 1872 1.000000
27075 21015 0.936667 1748 1.000000
26027 21700 0.946667 2190 1.000000
27210 20542 0.930000 2003 1.000000
27887 21071 0.920000 2006 1.000000
29344 21849 0.926667 1732 1.000000
28454 22052 0.943333 1846 1.000000
28066 19286 0.896667 1745 1.000000
24929 19842 0.940000 1985 1.000000
25070 19790 0.930000 1660 1.000000
27829 22547 0.940000 2311 1.000000
25309 20203 0.933333 1921 1.000000
26247 21123 0.920000 2695 1.000000
28714 21003 0.923333 1757 1.000000
25051 21074 0.963333 2140 1.000000
25466 19839 0.916667 2374 1.000000
25058 21578 0.963333 1684 1.000000
26160 20113 0.936667 1491 1.000000
26914 20474 0.926667 1725 1.000000
25830 20089 0.943333 2026 1.000000
28729 21116 0.940000 2142 1.000000
26526 20641 0.933334 2071 1.000000
27462 19412 0.893333 1729 1.000000
27818 20959 0.916667 2217 1.000000
27626 20605 0.916667 1907 1.000000
26192 20644 0.933333 1572 1.000000
28060 22227 0.956667 1610 1.000000
27832 21971 0.950000 2219 1.000000
27471 21476 0.953333 1836 1.000000
24317 19829 0.950000 1873 1.000000
27789 21091 0.940000 1933 1.000000
28706 22373 0.930000 1867 1.000000
26087 20346 0.930000 2042 1.000000
27616 21635 0.943333 1783 1.000000
28477 19577 0.916667 1750 1.000000
25859 21391 0.946667 2133 1.000000
28046 20010 0.920000 1980 1.000000
26041 20982 0.936667 2000 1.000000
28712 21377 0.900000 2454 1.000000
26878 21271 0.926667 2008 1.000000
27036 21866 0.956667 2052 1.000000
28387 20255 0.906667 2254 1.000000
27306 22844 0.953333 2252 1.000000
28053 21898 0.943333 1803 1.000000
28273 20155 0.923333 1635 1.000000
28959 20708 0.920000 1966 1.000000
28156 21002 0.930000 2391 1.000000
26778 20537 0.930000 1883 1.000000
26075 22020 0.966667 1986 1.000000
24830 20294 0.943333 1821 1.000000
27690 21279 0.936667 2049 1.000000
25955 21215 0.946667 2995 1.000000
27208 19098 0.916667 2144 1.000000
25191 18483 0.913333 2128 1.000000
28310 22196 0.930000 2150 1.000000
28143 21097 0.923333 2071 1.000000
27484 20516 0.933333 2054 1.000000
27883 22143 0.930000 1991 1.000000
26666 21994 0.966667 1551 1.000000
27050 20689 0.940000 1908 1.000000
27034 20920 0.933333 1972 1.000000
27450 19823 0.906667 2123 1.000000
26178 21045 0.960000 1933 1.000000
27657 20640 0.923333 2276 1.000000
27146 19630 0.930000 1747 1.000000
28260 18978 0.906667 2128 1.000000
28046 21085 0.926667 2503 1.000000
27926 21185 0.910000 2790 1.000000
27043 19740 0.913333 1932 1.000000
28529 21535 0.943333 1880 1.000000
27656 21121 0.933334 1801 1.000000
26407 20524 0.940000 1891 1.000000
29211 21726 0.940000 1892 1.000000
26429 21191 0.926667 2528 1.000000
26815 20756 0.930000 2138 1.000000
26067 19328 0.930000 2023 1.000000
28182 20843 0.933333 1856 1.000000
28610 20748 0.910000 2031 1.000000
25353 20866 0.953333 2027 1.000000
24398 19507 0.933333 1933 1.000000
25196 20466 0.943333 1851 1.000000
27570 20545 0.926667 1989 1.000000
26623 20753 0.936667 1707 1.000000
27383 21403 0.920000 2133 1.000000
27169 21036 0.923333 2066 1.000000
28414 20740 0.920000 1938 1.000000
25746 21706 0.943333 2447 1.000000
27613 22467 0.943333 2266 1.000000
28409 22405 0.930000 2165 1.000000
28567 21127 0.926667 2335 1.000000
27665 21384 0.943333 1979 1.000000
27960 21165 0.930000 1748 1.000000
26981 20231 0.926667 2072 1.000000
28077 21297 0.926667 1881 1.000000
29612 22017 0.913333 2274 1.000000
22012 17410 0.933333 2282 1.000000
26594 18584 0.916667 1445 1.000000
28391 22487 0.930000 2139 1.000000
26984 20530 0.930000 1940 1.000000
25259 18594 0.930000 1626 1.000000
29053 20784 0.916667 1980 1.000000
28736 21038 0.910000 1947 1.000000
26849 20430 0.933333 1627 1.000000
28201 21598 0.926667 2281 1.000000
26685 20981 0.943333 1759 1.000000
26433 18507 0.900000 2076 1.000000
27042 21322 0.936667 2093 1.000000
26924 19466 0.913333 2169 1.000000
28416 20708 0.913333 2147 1.000000
26985 20928 0.930000 2096 1.000000
28013 20986 0.923333 2156 1.000000
26738 18911 0.926667 1776 1.000000
27749 20987 0.933333 1878 1.000000
25688 19954 0.913333 2213 1.000000
28585 21374 0.930000 2173 1.000000
25028 19310 0.930000 2312 1.000000
26286 19814 0.920000 1791 1.000000
27847 21721 0.940000 1495 1.000000
28931 21707 0.923333 2205 1.000000
26086 20577 0.933333 2330 1.000000
28240 21954 0.933333 2626 1.000000
28669 21699 0.923333 1967 1.000000
27204 20373 0.926667 2099 1.000000
29551 21053 0.923333 2041 1.000000
27423 21115 0.926667 2070 1.000000
28309 20471 0.920000 1812 1.000000
27356 21621 0.936667 2183 1.000000
29845 22351 0.953333 1498 1.000000
25814 22171 0.956667 1786 1.000000
24058 20034 0.943333 1934 1.000000
28474 21623 0.946667 1995 1.000000
25785 18833 0.930000 2034 1.000000
28036 21802 0.926667 2126 1.000000
28536 21165 0.926667 1885 1.000000
26700 19916 0.936667 2153 1.000000
27299 20452 0.926667 2144 1.000000
26540 19147 0.930000 1832 1.000000
25114 20167 0.943333 1849 1.000000
25899 19926 0.916667 2508 1.000000
27814 20574 0.913333 2020 1.000000
25827 19878 0.933333 1687 1.000000
27100 21933 0.956667 1923 1.000000
28113 20222 0.923333 1768 1.000000
26656 21522 0.956667 1930 1.000000
25884 20674 0.930000 2225 1.000000
27672 20360 0.930000 1678 1.000000
26993 21012 0.930000 2146 1.000000
27957 23463 0.956667 2427 1.000000
26736 20462 0.933333 2329 1.000000
26148 21291 0.940000 2113 1.000000
28408 20932 0.923333 1900 1.000000
26438 19462 0.930000 2001 1.000000
28346 21343 0.930000 1788 1.000000
29550 24183 0.966667 2012 1.000000
26764 20938 0.930000 1967 1.000000
25730 20788 0.943333 2069 1.000000
28249 19800 0.916667 1554 1.000000
25151 20233 0.943333 2144 1.000000
26782 20082 0.933333 2200 1.000000
26908 21523 0.953333 2061 1.000000
29246 22814 0.926667 2310 1.000000
28016 21562 0.933333 1751 1.000000
25383 19924 0.936667 1974 1.000000
28434 21177 0.920000 1711 1.000000
24178 17609 0.910000 1907 1.000000
25866 19621 0.936667 1819 1.000000
26070 19512 0.920000 1737 1.000000
27268 19994 0.910000 1726 1.000000
28009 22281 0.953333 2368 1.000000
29043 21901 0.936667 2250 1.000000
25158 19760 0.930000 2195 1.000000
30417 21771 0.916667 1821 1.000000
28997 19573 0.903333 1771 1.000000
28096 21886 0.943333 2488 1.000000
26201 20715 0.943333 2346 1.000000
26757 21053 0.933333 2262 1.000000
26174 21428 0.936667 2488 1.000000
27805 19736 0.923333 2236 1.000000
28840 22724 0.943333 2538 1.000000
28359 20350 0.926667 1726 1.000000
28037 19798 0.910000 1713 1.000000
29037 21544 0.913334 2076 1.000000
27450 22349 0.943333 2146 1.000000
26470 21011 0.933334 2379 1.000000
29469 22202 0.916667 1769 1.000000
27787 20536 0.950000 1520 1.000000
26359 21255 0.946667 1906 1.000000
26190 19603 0.920000 1977 1.000000
28629 20281 0.913333 2308 1.000000
24160 18660 0.916667 2076 1.000000
25292 20139 0.943333 2121 1.000000
27731 21953 0.930000 2279 1.000000
26096 20895 0.963333 1741 1.000000
22860 17361 0.920000 1918 1.000000
26386 21800 0.956667 1728 1.000000
27547 20581 0.930000 1945 1.000000
27886 22011 0.950000 2375 1.000000
25072 19914 0.943333 1711 1.000000
27423 19881 0.913333 2408 1.000000
27993 19196 0.910000 1798 1.000000
24632 20000 0.936667 2235 1.000000
25073 19571 0.943333 2195 1.000000
26959 19018 0.913333 2140 1.000000
27796 22191 0.940000 1831 1.000000
27966 18441 0.893333 1663 1.000000
29094 19981 0.906667 1953 1.000000
27252 19945 0.923333 1923 1.000000
28618 21493 0.913333 2565 1.000000
26199 22779 0.970000 1995 1.000000
25803 20200 0.943333 1866 1.000000
28107 21163 0.923333 1876 1.000000
26684 19829 0.913333 2717 1.000000
26411 19823 0.926667 1758 1.000000
29081 20665 0.923333 1819 1.000000
27820 20261 0.906667 2161 1.000000
27241 21616 0.943333 1926 1.000000
26897 20806 0.943333 1720 1.000000
27864 22419 0.946667 1908 1.000000
25264 18538 0.900000 2225 1.000000
26963 20052 0.930000 1747 1.000000
27390 20758 0.926667 2515 1.000000
29424 21326 0.916667 2756 1.000000
25155 21293 0.950000 1791 1.000000
27291 21291 0.933333 2246 1.000000
26805 21625 0.940000 2259 1.000000
22753 18807 0.956667 2108 1.000000
26548 20429 0.933333 1662 1.000000
26754 21631 0.933334 2336 1.000000
27671 20963 0.936667 1653 1.000000
26845 20337 0.946667 1812 1.000000
24986 20472 0.946667 1970 1.000000
26272 20019 0.930000 2156 1.000000
28732 22231 0.936667 2007 1.000000
27756 20978 0.923333 2056 1.000000
27337 21004 0.940000 1946 1.000000
26914 19501 0.933333 1895 1.000000
26709 20903 0.940000 2015 1.000000
27799 19979 0.913333 1531 1.000000
27296 19806 0.930000 1900 1.000000
26896 21650 0.933333 2280 1.000000
27500 21124 0.916667 2153 1.000000
28358 20828 0.903333 2435 1.000000
26578 19529 0.916667 2201 1.000000
25069 18896 0.903333 1790 1.000000
25079 20044 0.946667 1736 1.000000
28060 21454 0.943333 1490 1.000000
29917 20438 0.910000 1521 1.000000
27938 23199 0.950000 2150 1.000000
28235 21414 0.933333 2309 1.000000
27534 21560 0.930000 1658 1.000000
26549 21468 0.933333 2530 1.000000
27688 21069 0.913333 2269 1.000000
28623 20301 0.923334 2400 1.000000
27024 21769 0.940000 2040 1.000000
25814 19747 0.936667 1783 1.000000
25065 18574 0.933333 1661 1.000000
27466 21727 0.950000 1848 1.000000
27890 20847 0.930000 2161 1.000000
26236 20266 0.930000 2159 1.000000
27333 20821 0.946667 1713 1.000000
26086 19775 0.930000 2222 1.000000
28331 21873 0.933333 1652 1.000000
26067 20187 0.936667 1691 1.000000
25961 20828 0.956667 2239 1.000000
28810 20707 0.920000 2382 1.000000
29357 21488 0.930000 1682 1.000000
27335 21621 0.940000 1846 1.000000
28604 22665 0.933333 2258 1.000000
25798 20910 0.946667 2120 1.000000
28100 20448 0.933333 1740 1.000000
26797 19575 0.923333 1903 1.000000
27543 19148 0.906667 2166 1.000000
28477 19929 0.896667 2083 1.000000
27390 19952 0.923333 1788 1.000000
25929 19292 0.916667 2326 1.000000
28095 20592 0.926667 1768 1.000000
26541 19764 0.926667 2040 1.000000
25944 19963 0.920000 1815 1.000000
26070 20003 0.933333 2095 1.000000
26695 21313 0.946667 2093 1.000000
26449 19188 0.916667 1926 1.000000
27899 21041 0.930000 1811 1.000000
26815 21171 0.946667 1739 1.000000
27663 20885 0.930000 1659 1.000000
28863 22687 0.940000 1899 1.000000
28494 21523 0.930000 1874 1.000000
26977 20231 0.940000 2413 1.000000
24987 21212 0.956667 2190 1.000000
27403 21838 0.943333 1806 1.000000
27361 20357 0.923333 1979 1.000000
28099 22631 0.946667 2426 1.000000
27348 19935 0.926667 2470 1.000000
26048 20777 0.946667 2535 1.000000
28509 19341 0.916667 1848 1.000000
27920 19539 0.910000 1904 1.000000
29600 21091 0.916667 2011 1.000000
25533 18443 0.916667 1688 1.000000
26698 21627 0.943333 2312 1.000000
26302 20726 0.940000 2280 1.000000
26542 19248 0.920000 1928 1.000000
27050 20994 0.930000 2793 1.000000
28782 22652 0.936667 2090 1.000000
27070 20807 0.930000 2520 1.000000
28275 21057 0.930000 1646 1.000000
25303 19347 0.936667 1831 1.000000
24350 20196 0.953333 1979 1.000000
29396 23091 0.940000 2172 1.000000
27630 20379 0.923333 1886 1.000000
28038 20077 0.903333 2046 1.000000
27952 21043 0.930000 1863 1.000000
28125 20311 0.933333 1617 1.000000
28925 21370 0.933333 1998 1.000000
26480 20650 0.926666 2373 1.000000
29503 22473 0.933334 2286 1.000000
26584 20954 0.930000 2416 1.000000
26591 20306 0.926667 1592 1.000000
27415 20838 0.933333 1804 1.000000
26596 19194 0.920000 1835 1.000000
27870 20874 0.916667 2012 1.000000
28209 22781 0.946667 2718 1.000000
26643 19027 0.900000 2008 1.000000
27785 21550 0.940000 2109 1.000000
26124 19957 0.936667 2265 1.000000
26137 19789 0.930000 1815 1.000000
27722 20234 0.906667 2153 1.000000
28458 20952 0.916667 2027 1.000000
26472 20949 0.936667 2489 1.000000
25475 19346 0.933333 1831 1.000000
25931 21466 0.933333 2302 1.000000
26605 19237 0.903333 1554 1.000000
26844 20022 0.926667 1411 1.000000
26847 22169 0.956667 1869 1.000000
27232 20508 0.940000 1998 1.000000
27550 21478 0.940000 2257 1.000000
26572 20984 0.946667 1868 1.000000
28755 20649 0.933333 1607 1.000000
24260 17943 0.926667 1964 1.000000
25382 19577 0.923333 2166 1.000000
27879 20555 0.920000 2334 1.000000
27470 20821 0.933333 2037 1.000000
27556 19753 0.923334 1684 1.000000
27358 20609 0.926667 1761 1.000000
29185 21558 0.920000 2082 1.000000
24483 19127 0.936667 1929 1.000000
25680 19301 0.926667 1845 1.000000
27992 19031 0.900000 1918 1.000000
27376 21696 0.943333 1687 1.000000
26123 20551 0.923333 2254 1.000000
26066 19390 0.910000 2166 1.000000
26198 21968 0.956667 2188 1.000000
26994 19350 0.920000 1573 1.000000
28176 20973 0.940000 1797 1.000000
27689 20677 0.916667 2863 1.000000
26132 19139 0.920000 1841 1.000000
27096 20535 0.930000 2026 1.000000
25948 20018 0.933333 2115 1.000000
25243 20163 0.926667 2515 1.000000
26268 20140 0.930000 1974 1.000000
27013 20903 0.943333 1794 1.000000
25865 19118 0.910000 1998 1.000000
26218 19959 0.926667 2181 1.000000
26701 20937 0.946667 1694 1.000000
28894 20815 0.913333 1842 1.000000
27879 20304 0.920000 2232 1.000000
27409 20184 0.923333 2182 1.000000
24292 20298 0.956667 1799 1.000000
26732 20677 0.933333 1905 1.000000
29832 21432 0.916667 1971 1.000000
27586 19617 0.926667 1594 1.000000
28189 21110 0.920000 2330 1.000000
27123 20244 0.923333 2008 1.000000
26638 21713 0.956667 2281 1.000000
28448 20545 0.903333 2320 1.000000
26988 20016 0.920000 2125 1.000000
26915 20655 0.910000 2765 1.000000
25750 18636 0.910000 2158 1.000000
23991 18994 0.933333 2100 1.000000
27196 20640 0.943333 1735 1.000000
28857 20077 0.916667 2039 1.000000
26888 20848 0.930000 2453 1.000000
24979 19775 0.946667 1944 1.000000
27873 20673 0.923333 2222 1.000000
24516 20412 0.956667 2300 1.000000
25313 20167 0.953334 2010 1.000000
27481 21659 0.943333 1902 1.000000
26584 20951 0.926667 2419 1.000000
27227 19624 0.923333 1687 1.000000
28490 20809 0.940000 1700 1.000000
27821 20354 0.923334 1888 1.000000
26815 20719 0.920000 1790 1.000000
26311 19583 0.933334 1791 1.000000
25757 21036 0.946667 2095 1.000000
28849 19724 0.910000 1869 1.000000
26074 20732 0.926667 1911 1.000000
29301 22167 0.913334 2226 1.000000
28264 21307 0.926667 2004 1.000000
28024 21518 0.936667 2233 1.000000
26636 19475 0.933333 1589 1.000000
27428 22066 0.943333 1694 1.000000
29423 21928 0.913333 2093 1.000000
25359 21251 0.946667 2476 1.000000
28434 20342 0.913333 1657 1.000000
26689 21263 0.926667 2122 1.000000
25727 20619 0.950000 1977 1.000000
28357 21477 0.926667 1901 1.000000
28193 22304 0.936667 1991 1.000000
26793 21298 0.940000 2536 1.000000
25784 18838 0.916667 1983 1.000000
27547 21995 0.936667 2341 1.000000
27856 21953 0.943333 2392 1.000000
25237 20379 0.940000 2364 1.000000
27016 20365 0.920000 1943 1.000000
25828 20363 0.923334 2705 1.000000
26919 19956 0.930000 2132 1.000000
27431 21232 0.936667 1869 1.000000
25725 20141 0.930000 1849 1.000000
27499 20603 0.940000 1781 1.000000
26471 21337 0.953333 2019 1.000000
27666 22469 0.946667 1890 1.000000
25872 21382 0.953333 2418 1.000000
29395 22745 0.930000 2107 1.000000
26169 19474 0.920000 2385 1.000000
28636 20154 0.910000 1933 1.000000
25331 20049 0.940000 2168 1.000000
27815 22041 0.943333 1947 1.000000
26129 18329 0.900000 2293 1.000000
27128 21474 0.936667 2090 1.000000
27673 20179 0.930000 2238 1.000000
28168 20752 0.920000 2136 1.000000
29402 21296 0.933333 1623 1.000000
29260 20018 0.916667 1839 1.000000
26207 20597 0.923333 2317 1.000000
25655 19242 0.950000 1798 1.000000
26729 19526 0.913333 1929 1.000000
25572 20386 0.943333 1728 1.000000
26537 21994 0.953333 2714 1.000000
27405 19901 0.913333 2360 1.000000
26426 19861 0.923333 1965 1.000000
24602 20969 0.960000 2067 1.000000
28431 22178 0.953333 2340 1.000000
28042 21419 0.910000 2265 1.000000
24373 19929 0.946667 1800 1.000000
27434 21406 0.933333 2441 1.000000
26608 20321 0.926667 2480 1.000000
27125 21826 0.940000 2483 1.000000
27453 22036 0.960000 2005 1.000000
27434 22004 0.943333 2155 1.000000
27185 22557 0.950000 2844 1.000000
26504 20334 0.926667 1793 1.000000
25806 19630 0.940000 2233 1.000000
25982 20711 0.933333 2108 1.000000
26375 20933 0.936667 2265 1.000000
28898 20533 0.903333 1831 1.000000
26892 19536 0.913333 2024 1.000000
26902 18964 0.910000 1719 1.000000
26780 19575 0.916667 2173 1.000000
27237 23219 0.940000 2416 1.000000
26181 20083 0.933333 1834 1.000000
26568 21230 0.930000 1518 1.000000
28383 21134 0.930000 2151 1.000000
26646 20781 0.936667 2148 1.000000
27297 19382 0.923333 1544 1.000000
28499 21774 0.936667 2066 1.000000
28965 22316 0.946667 1775 1.000000
25599 19668 0.936666 1952 1.000000
27435 20143 0.933333 1656 1.000000
27706 20413 0.916667 2046 1.000000
25851 19619 0.936667 1807 1.000000
29115 19659 0.916667 1802 1.000000
26477 20716 0.913333 2413 1.000000
29738 20657 0.920000 2015 1.000000
27575 21983 0.950000 2347 1.000000
27333 21367 0.960000 1450 1.000000
27740 20747 0.933333 2043 1.000000
24441 19724 0.943334 1950 1.000000
25412 19754 0.933334 2079 1.000000
28651 22249 0.940000 1821 1.000000
24251 20144 0.960000 2140 1.000000
27352 21270 0.943333 2351 1.000000
27539 21153 0.916667 2084 1.000000
25884 18161 0.910000 1473 1.000000
26791 19972 0.940000 2416 1.000000
27001 21329 0.940000 1955 1.000000
26138 21109 0.960000 1693 1.000000
27821 21387 0.920000 1811 1.000000
26893 19095 0.920000 1913 1.000000
28287 19973 0.920000 1824 1.000000
28850 22821 0.950000 1897 1.000000
25613 20287 0.933333 2400 1.000000
26633 21076 0.940000 2412 1.000000
25505 19720 0.923333 2530 1.000000
27317 21430 0.913333 1844 1.000000
28158 19680 0.883333 2410 1.000000
28258 21320 0.920000 1698 1.000000
27338 20205 0.910000 2543 1.000000
26418 20570 0.933333 2017 1.000000
27870 20719 0.930000 1706 1.000000
26747 20735 0.926667 2264 1.000000
25368 19605 0.926667 2201 1.000000
27775 21469 0.920000 1861 1.000000
28536 21413 0.926667 2287 1.000000
27230 20310 0.910000 1897 1.000000
27507 19847 0.933333 1480 1.000000
26415 20810 0.946667 1655 1.000000
30101 20088 0.896667 2536 1.000000
24221 19052 0.933333 2118 1.000000
27983 21868 0.953333 2507 1.000000
26355 20399 0.930000 2128 1.000000
25499 20329 0.940000 1871 1.000000
28454 20570 0.920000 1753 1.000000
28829 22145 0.946667 2350 1.000000
24120 19328 0.943333 1834 1.000000
28451 21483 0.933333 1867 1.000000
28124 20140 0.903333 2289 1.000000
25881 20930 0.950000 1980 1.000000
26670 20263 0.936667 1897 1.000000
26370 19997 0.906667 1958 1.000000
23825 19553 0.940000 2342 1.000000
27640 21073 0.953333 1761 1.000000
25931 19296 0.930000 1914 1.000000
27804 22486 0.946667 2237 1.000000
25037 21860 0.963333 2317 1.000000
26966 21104 0.933333 2260 1.000000
25234 18237 0.930000 1590 1.000000
27048 20484 0.933333 2450 1.000000
28695 20856 0.933333 1741 1.000000
24754 20198 0.940000 2453 1.000000
26380 19356 0.906667 1744 1.000000
29338 20879 0.920000 2052 1.000000
27118 20379 0.926667 2037 1.000000
26344 20238 0.933333 1845 1.000000
26458 22654 0.950000 2068 1.000000
26133 20820 0.933333 2093 1.000000
26114 21581 0.956667 1584 1.000000
27062 19397 0.920000 1739 1.000000
24752 20878 0.936667 2238 1.000000
27593 21218 0.926667 1965 1.000000
27785 23296 0.950000 1856 1.000000
26471 20102 0.926667 2185 1.000000
26240 20251 0.923333 1954 1.000000
27286 20242 0.930000 1695 1.000000
28127 23088 0.956667 2369 1.000000
25551 19051 0.920000 1427 1.000000
26122 21209 0.940000 2090 1.000000
26290 21210 0.943333 2137 1.000000
27572 20350 0.920000 2012 1.000000
28096 21617 0.930000 1241 1.000000
27012 20551 0.933333 1858 1.000000
26846 20957 0.926667 2148 1.000000
27701 20756 0.926667 1897 1.000000
27510 21454 0.936667 1406 1.000000
24019 20199 0.943333 2435 1.000000
26626 21751 0.943333 2304 1.000000
28981 20919 0.926667 2228 1.000000
26273 20340 0.936666 2151 1.000000
26500 18661 0.903333 1951 1.000000
25768 19160 0.913333 1582 1.000000
27263 21859 0.943333 2378 1.000000
27413 20699 0.926667 1787 1.000000
27428 20541 0.926667 2044 1.000000
26043 20835 0.946667 2077 1.000000
26265 20537 0.936667 1838 1.000000
26619 21430 0.930000 2519 1.000000
27024 21881 0.940000 2089 1.000000
24663 20238 0.950000 1857 1.000000
27279 21202 0.936667 2439 1.000000
27082 21005 0.940000 2276 1.000000
27745 20473 0.930000 1747 1.000000
27567 20795 0.916667 1701 1.000000
26312 21039 0.950000 2107 1.000000
26941 20216 0.923333 2133 1.000000
26213 20186 0.920000 2212 1.000000
27659 21870 0.940000 2429 1.000000
24247 19242 0.933333 1762 1.000000
24726 20080 0.933333 1900 1.000000
28305 21382 0.916667 1977 1.000000
27660 20963 0.926667 2012 1.000000
26916 19679 0.916667 2301 1.000000
28312 21504 0.930000 2020 1.000000
28274 20581 0.920000 2189 1.000000
27079 20054 0.920000 2071 1.000000
27268 22183 0.950000 1971 1.000000
27836 19160 0.900000 2354 1.000000
28681 21249 0.926667 1997 1.000000
26726 20430 0.926667 1680 1.000000
25675 20944 0.926667 2126 1.000000
27876 21080 0.933333 2191 1.000000
26546 20413 0.956667 1822 1.000000
27365 19639 0.923333 1924 1.000000
27149 21204 0.933333 1817 1.000000
25783 19567 0.920000 2250 1.000000
28358 20404 0.913333 1683 1.000000
26703 19757 0.933333 2052 1.000000
27752 21012 0.926667 1960 1.000000
27720 20779 0.916667 1947 1.000000
27493 22077 0.933333 2396 1.000000
28028 21581 0.936667 1935 1.000000
