0121010001010010100011000001
1210100010100101000110000011
2101000101001010001100000112
1010001010010100011000001121
0100010100101000110000011210
1000101001010001100000112101
0001010010100011000001121010
0010100101000110000011210100
0101001010001100000112101000
1010010100011000001121010001
0100101000110000011210100010
1001010001100000112101000101
0010100011000001121010001010
0101000110000011210100010100
1010001100000112101000101001
0100011000001121010001010010
1000110000011210100010100101
0001100000112101000101001010
0011000001121010001010010100
0110000011210100010100101000
1100000112101000101001010001
1000001121010001010010100011
0000011210100010100101000110
0000112101000101001010001100
0001121010001010010100011000
0011210100010100101000110000
0112101000101001010001100000
1121010001010010100011000001
110100001111111011100011100
101000011111110111000111001
010000111111101110001110010
100001111111011100011100101
000011111110111000111001010
000111111101110001110010100
001111111011100011100101000
011111110111000111001010000
111111101110001110010100001
111111011100011100101000011
111110111000111001010000111
111101110001110010100001111
111011100011100101000011111
110111000111001010000111111
101110001110010100001111111
011100011100101000011111110
111000111001010000111111101
110001110010100001111111011
100011100101000011111110111
000111001010000111111101110
001110010100001111111011100
011100101000011111110111000
111001010000111111101110001
110010100001111111011100011
100101000011111110111000111
001010000111111101110001110
010100001111111011100011100
101000011111110111000111001
