2001110222121220102021
0011102221212201020210
0111022212122010202100
1110222121220102021001
1102221212201020210011
1022212122010202100111
0222121220102021001110
2221212201020210011102
2212122010202100111022
2121220102021001110222
1212201020210011102221
2122010202100111022212
1220102021001110222121
2201020210011102221212
2010202100111022212122
0102021001110222121220
1020210011102221212201
0202100111022212122010
2021001110222121220102
0210011102221212201020
2100111022212122010202
1001110222121220102021
012120222210210011101
121202222102100111011
212022221021001110112
120222210210011101121
202222102100111011212
022221021001110112120
222210210011101121202
222102100111011212022
221021001110112120222
210210011101121202222
102100111011212022221
021001110112120222210
210011101121202222102
100111011212022221021
001110112120222210210
011101121202222102100
111011212022221021001
110112120222210210011
101121202222102100111
011212022221021001110
112120222210210011101
121202222102100111011