01010000000010001000110211
10100000000100010001102110
01000000001000100011021102
10000000010001000110211021
00000000100010001102110210
00000001000100011021102100
00000010001000110211021001
00000100010001102110210010
00001000100011021102100100
00010001000110211021001000
00100010001102110210010000
01000100011021102100100001
10001000110211021001000011
00010001102110210010000112
00100011021102100100001121
01000110211021001000011211
10001102110210010000112110
00011021102100100001121100
00110211021001000011211002
01102110210010000112110021
11021102100100001121100210
10211021001000011211002100
02110210010000112110021001
21102100100001121100210010
11021001000011211002100100
10210010000112110021001001
1101200020102110010111111
1012000201021100101111111
0120002010211001011111110
1200020102110010111111102
2000201021100101111111021
0002010211001011111110210
0020102110010111111102101
0201021100101111111021010
2010211001011111110210102
0102110010111111102101021
1021100101111111021010210
0211001011111110210102100
2110010111111102101021000
1100101111111021010210000
1001011111110210102100001
0010111111102101021000011
0101111111021010210000110
1011111110210102100001101
0111111102101021000011010
1111111021010210000110101
1111110210102100001101010
1111102101021000011010101
1111021010210000110101011
1110210102100001101010111
1102101021000011010101111
1021010210000110101011110