0110001010011001001011100010
1100010100110010010111000101
1000101001100100101110001011
0001010011001001011100010110
0010100110010010111000101100
0101001100100101110001011000
1010011001001011100010110001
0100110010010111000101100010
1001100100101110001011000101
0011001001011100010110001010
0110010010111000101100010100
1100100101110001011000101001
1001001011100010110001010011
0010010111000101100010100110
0100101110001011000101001100
1001011100010110001010011001
0010111000101100010100110010
0101110001011000101001100100
1011100010110001010011001001
0111000101100010100110010010
1110001011000101001100100101
1100010110001010011001001011
1000101100010100110010010111
0001011000101001100100101110
0010110001010011001001011100
0101100010100110010010111000
1011000101001100100101110001
0110001010011001001011100010
000110011001000001010111111
001100110010000010101111110
011001100100000101011111100
110011001000001010111111001
100110010000010101111110011
001100100000101011111100110
011001000001010111111001100
110010000010101111110011001
100100000101011111100110011
001000001010111111001100110
010000010101111110011001100
100000101011111100110011001
000001010111111001100110010
000010101111110011001100100
000101011111100110011001000
001010111111001100110010000
010101111110011001100100000
101011111100110011001000001
010111111001100110010000010
101111110011001100100000101
011111100110011001000001010
111111001100110010000010101
111110011001100100000101011
111100110011001000001010111
111001100110010000010101111
110011001100100000101011111
100110011001000001010111111
001100110010000010101111110
