Id	Weibull Discovery Time	Discovery Time	Fraction Discovery	Information Time	Fraction Information
24	29866.0	16827.0	0.8875	1868.0	1.0
11	34151.0	22589.0	0.8937	3082.0	1.0
35	34200.0	20155.0	0.9	1795.0	1.0
7	33815.0	20347.0	0.875	3098.0	1.0
7	45235.0	23963.0	0.8188	3570.0	1.0
10	33091.0	21665.0	0.9063	2658.0	1.0
12	27838.0	17484.0	0.8875	3013.0	1.0
25	39848.0	19232.0	0.8312	2646.0	1.0
20	35738.0	20419.0	0.8688	2640.0	1.0
12	37244.0	24460.0	0.8875	3574.0	1.0
7	38338.0	23644.0	0.85	3858.0	1.0
33	43161.0	23351.0	0.8313	2766.0	1.0
20	34883.0	23882.0	0.925	2580.0	1.0
25	41101.0	22798.0	0.8375	2931.0	1.0
17	34298.0	21055.0	0.9063	2253.0	1.0
1	41478.0	20679.0	0.85	2913.0	1.0
21	32492.0	19575.0	0.8562	3230.0	1.0
29	31114.0	22061.0	0.925	2694.0	1.0
32	23247.0	17241.0	0.9062	2683.0	1.0
28	33415.0	22179.0	0.9	3460.0	1.0
1	27407.0	21081.0	0.925	2261.0	1.0
1	41283.0	24890.0	0.8938	2954.0	1.0
18	31578.0	23846.0	0.9375	2417.0	1.0
29	37427.0	21594.0	0.8688	2288.0	1.0
6	34791.0	18789.0	0.85	3670.0	1.0
30	35552.0	21628.0	0.875	2695.0	1.0
27	38840.0	20814.0	0.8312	3041.0	1.0
1	34005.0	23235.0	0.875	3461.0	1.0
13	38608.0	21688.0	0.8688	3234.0	1.0
33	29264.0	21486.0	0.8937	3994.0	1.0
15	24340.0	18872.0	0.9125	2899.0	1.0
0	38858.0	24897.0	0.875	2512.0	1.0
29	34635.0	20716.0	0.8688	2545.0	1.0
5	26943.0	18772.0	0.9063	2969.0	1.0
7	44768.0	22944.0	0.8	3514.0	1.0
15	29131.0	21783.0	0.925	2321.0	1.0
31	51783.0	23561.0	0.8	2992.0	1.0
27	29240.0	20344.0	0.8812	3534.0	1.0
27	28909.0	21400.0	0.9188	2650.0	1.0
4	26416.0	19549.0	0.8937	3086.0	1.0
13	27353.0	20882.0	0.95	2372.0	1.0
14	37349.0	27031.0	0.8937	4091.0	1.0
31	29692.0	20598.0	0.8937	3173.0	1.0
8	29431.0	21278.0	0.9188	2759.0	1.0
25	30099.0	21334.0	0.9125	2856.0	1.0
5	22092.0	17159.0	0.9	2947.0	1.0
29	26330.0	18329.0	0.8938	3357.0	1.0
14	24696.0	18466.0	0.9188	2751.0	1.0
20	28534.0	21288.0	0.8938	3554.0	1.0
16	24693.0	17435.0	0.9188	2456.0	1.0
17	26687.0	17562.0	0.8938	2614.0	1.0
1	22238.0	18777.0	0.9313	2680.0	1.0
36	26913.0	18034.0	0.9062	2618.0	1.0
32	23523.0	18280.0	0.9187	2748.0	1.0
26	26525.0	19436.0	0.9187	2950.0	1.0
3	29645.0	20834.0	0.875	3735.0	1.0
16	22664.0	18357.0	0.975	2143.0	1.0
8	28222.0	21343.0	0.9125	2882.0	1.0
34	30112.0	20397.0	0.8813	3982.0	1.0
39	33971.0	21740.0	0.8875	3246.0	1.0
17	28656.0	21171.0	0.9	2786.0	1.0
36	27518.0	21619.0	0.925	3376.0	1.0
19	24209.0	17317.0	0.9062	2790.0	1.0
15	23384.0	19984.0	0.9438	3032.0	1.0
3	24773.0	20964.0	0.95	2349.0	1.0
39	26485.0	18064.0	0.9188	2469.0	1.0
37	30644.0	22865.0	0.9062	3166.0	1.0
36	33438.0	23687.0	0.9187	2749.0	1.0
6	26633.0	20718.0	0.9188	2994.0	1.0
19	32144.0	19092.0	0.8438	3426.0	1.0
28	24126.0	17643.0	0.9188	2858.0	1.0
11	27887.0	20640.0	0.925	2725.0	1.0
39	25618.0	18031.0	0.875	2743.0	1.0
26	24972.0	21094.0	0.9625	2508.0	1.0
25	32629.0	24144.0	0.9188	3319.0	1.0
7	27681.0	21086.0	0.9188	3870.0	1.0
34	30377.0	22847.0	0.9313	3027.0	1.0
34	25240.0	17698.0	0.9	2818.0	1.0
3	24107.0	17778.0	0.9125	2698.0	1.0
36	23716.0	20152.0	0.9562	2567.0	1.0
4	27968.0	21302.0	0.9188	3765.0	1.0
36	26805.0	19051.0	0.9063	3024.0	1.0
15	26453.0	21586.0	0.9313	3758.0	1.0
1	26074.0	19124.0	0.9125	2770.0	1.0
3	24969.0	17244.0	0.9	2222.0	1.0
4	34667.0	23948.0	0.8875	3549.0	1.0
2	30264.0	21466.0	0.9	2517.0	1.0
14	20934.0	16893.0	0.9313	2868.0	1.0
4	25137.0	18482.0	0.9313	2520.0	1.0
6	30436.0	21777.0	0.9188	2888.0	1.0
2	24144.0	18518.0	0.925	2972.0	1.0
30	23944.0	19745.0	0.9437	2890.0	1.0
5	26585.0	17476.0	0.875	3064.0	1.0
8	27047.0	20965.0	0.925	3590.0	1.0
22	25483.0	20923.0	0.9375	2938.0	1.0
37	26382.0	22368.0	0.9375	3475.0	1.0
29	30374.0	19035.0	0.85	2763.0	1.0
18	24454.0	17372.0	0.9188	2326.0	1.0
8	22812.0	17249.0	0.95	2472.0	1.0
8	28607.0	23125.0	0.9313	3331.0	1.0
39	24823.0	16936.0	0.9063	2281.0	1.0
1	28503.0	20255.0	0.9062	3248.0	1.0
29	26677.0	20524.0	0.9063	3350.0	1.0
10	19067.0	16639.0	0.95	2520.0	1.0
26	28361.0	20142.0	0.8875	3008.0	1.0
25	21674.0	16778.0	0.9125	3071.0	1.0
7	27309.0	19178.0	0.875	2938.0	1.0
15	27056.0	19113.0	0.9125	2819.0	1.0
0	25302.0	18494.0	0.9125	3309.0	1.0
27	21372.0	15533.0	0.9125	2361.0	1.0
26	32003.0	23129.0	0.8938	3364.0	1.0
17	29590.0	20283.0	0.9	2659.0	1.0
23	28067.0	18280.0	0.9125	2694.0	1.0
13	20957.0	20190.0	0.9938	2404.0	1.0
17	24783.0	19074.0	0.9312	2742.0	1.0
8	23994.0	18478.0	0.9313	2886.0	1.0
28	23511.0	17420.0	0.9313	2570.0	1.0
7	29762.0	20198.0	0.9	2096.0	1.0
24	18313.0	16976.0	0.95	2664.0	1.0
8	33086.0	25017.0	0.9187	3014.0	1.0
16	25315.0	17286.0	0.8875	2202.0	1.0
0	23513.0	17535.0	0.925	1878.0	1.0
10	26463.0	20984.0	0.925	3389.0	1.0
21	26320.0	20069.0	0.9063	3092.0	1.0
4	29842.0	20029.0	0.8937	2499.0	1.0
11	25013.0	18760.0	0.9313	2589.0	1.0
4	25389.0	17344.0	0.8688	2510.0	1.0
9	30288.0	19282.0	0.875	3006.0	1.0
29	20751.0	16472.0	0.9375	2118.0	1.0
15	30800.0	22123.0	0.9	3201.0	1.0
26	24336.0	16892.0	0.8812	2831.0	1.0
30	21116.0	17892.0	0.9188	4225.0	1.0
20	27068.0	20875.0	0.9062	3722.0	1.0
6	34444.0	22157.0	0.8688	3661.0	1.0
35	26995.0	22972.0	0.9437	3341.0	1.0
29	25365.0	19444.0	0.9188	3084.0	1.0
21	26490.0	17812.0	0.8875	2410.0	1.0
19	25942.0	20715.0	0.9188	3568.0	1.0
3	28040.0	21280.0	0.9062	2738.0	1.0
3	27900.0	22170.0	0.95	3312.0	1.0
2	25627.0	18076.0	0.9187	3012.0	1.0
29	30010.0	20334.0	0.9125	2798.0	1.0
2	24590.0	19198.0	0.9188	3254.0	1.0
33	28688.0	22046.0	0.9	3114.0	1.0
22	23699.0	17628.0	0.9	3204.0	1.0
38	26123.0	19447.0	0.9063	2552.0	1.0
20	26684.0	21348.0	0.9125	2934.0	1.0
2	29671.0	18695.0	0.8938	2548.0	1.0
29	22371.0	17522.0	0.9437	3288.0	1.0
34	25759.0	19474.0	0.925	2808.0	1.0
38	22243.0	17470.0	0.9313	2495.0	1.0
3	22523.0	19054.0	0.95	2885.0	1.0
16	27958.0	19953.0	0.9188	3290.0	1.0
31	22221.0	17887.0	0.9375	2390.0	1.0
39	24902.0	19450.0	0.9375	2353.0	1.0
20	21410.0	18294.0	0.9375	3543.0	1.0
4	29307.0	22352.0	0.925	3023.0	1.0
38	24199.0	17184.0	0.925	2577.0	1.0
16	26636.0	19870.0	0.9313	2615.0	1.0
25	21525.0	18195.0	0.9438	2411.0	1.0
15	26872.0	18620.0	0.8938	3388.0	1.0
30	27634.0	19526.0	0.9	2700.0	1.0
13	22608.0	18226.0	0.9313	3014.0	1.0
20	27200.0	19979.0	0.9	3176.0	1.0
11	25223.0	19765.0	0.9313	3239.0	1.0
24	27231.0	19640.0	0.925	1860.0	1.0
20	25816.0	20319.0	0.9375	2347.0	1.0
3	30650.0	20579.0	0.875	4492.0	1.0
6	23349.0	18251.0	0.9313	2376.0	1.0
23	26971.0	19914.0	0.9375	2570.0	1.0
17	23877.0	20192.0	0.9313	2503.0	1.0
3	23427.0	19129.0	0.9563	3262.0	1.0
10	30082.0	22285.0	0.9188	3998.0	1.0
18	23626.0	18654.0	0.9313	2692.0	1.0
10	22606.0	17960.0	0.95	2282.0	1.0
4	22728.0	17359.0	0.9187	2686.0	1.0
29	22825.0	15504.0	0.9188	2427.0	1.0
29	22159.0	17221.0	0.9063	2256.0	1.0
0	26181.0	18124.0	0.9188	2930.0	1.0
16	23609.0	18620.0	0.9125	3216.0	1.0
0	32024.0	21924.0	0.8625	4116.0	1.0
28	27321.0	22343.0	0.9312	2743.0	1.0
17	35274.0	23527.0	0.8875	2860.0	1.0
37	33131.0	20233.0	0.8563	3350.0	1.0
2	20162.0	16132.0	0.9438	2650.0	1.0
13	26755.0	20696.0	0.9313	2888.0	1.0
0	29801.0	20676.0	0.9	2514.0	1.0
4	24300.0	18582.0	0.9438	2441.0	1.0
13	22858.0	21857.0	0.9625	2606.0	1.0
8	26610.0	22989.0	0.925	3594.0	1.0
20	26646.0	17468.0	0.8937	2770.0	1.0
21	21450.0	18553.0	0.9688	2078.0	1.0
1	22041.0	17137.0	0.9438	2205.0	1.0
20	27819.0	20901.0	0.9	3088.0	1.0
39	26166.0	19609.0	0.9187	2615.0	1.0
25	34204.0	22624.0	0.8937	3564.0	1.0
26	29508.0	19790.0	0.8938	4156.0	1.0
10	29283.0	21373.0	0.925	2451.0	1.0
19	24118.0	16397.0	0.8875	3362.0	1.0
30	25073.0	20026.0	0.9313	2864.0	1.0
9	24813.0	19348.0	0.9375	2467.0	1.0
25	28273.0	19776.0	0.8812	3756.0	1.0
5	23244.0	16792.0	0.9	2658.0	1.0
29	23905.0	17942.0	0.9187	3294.0	1.0
7	33346.0	19529.0	0.8625	2217.0	1.0
15	23243.0	18205.0	0.9063	2159.0	1.0
20	26243.0	17254.0	0.8813	2542.0	1.0
5	25298.0	20918.0	0.9375	2917.0	1.0
1	26751.0	19154.0	0.9125	2912.0	1.0
30	27257.0	18876.0	0.9188	2058.0	1.0
6	24649.0	19925.0	0.9313	2031.0	1.0
22	27966.0	18860.0	0.9	2519.0	1.0
11	22821.0	18316.0	0.9313	2387.0	1.0
27	27126.0	22090.0	0.925	2513.0	1.0
28	20786.0	15468.0	0.9313	2144.0	1.0
39	22724.0	16190.0	0.8938	3071.0	1.0
24	24844.0	16902.0	0.8938	2678.0	1.0
12	25043.0	19464.0	0.9062	2792.0	1.0
14	23563.0	16222.0	0.8875	2319.0	1.0
28	21618.0	16622.0	0.9375	1992.0	1.0
24	27652.0	20652.0	0.9313	3318.0	1.0
1	28897.0	19357.0	0.8875	2930.0	1.0
22	21836.0	16562.0	0.925	2448.0	1.0
21	28011.0	16745.0	0.8875	2597.0	1.0
5	28005.0	20809.0	0.9188	2616.0	1.0
0	25924.0	19286.0	0.9	3054.0	1.0
8	27978.0	17916.0	0.8688	3643.0	1.0
35	22058.0	16977.0	0.9188	3213.0	1.0
7	23185.0	17528.0	0.925	3017.0	1.0
15	22668.0	18880.0	0.9688	2782.0	1.0
5	24730.0	20356.0	0.9562	2411.0	1.0
20	32008.0	20889.0	0.8812	2866.0	1.0
23	25207.0	18820.0	0.925	2198.0	1.0
30	25302.0	20131.0	0.9	2897.0	1.0
9	25673.0	20306.0	0.9563	2114.0	1.0
2	33914.0	20391.0	0.8563	2982.0	1.0
38	22129.0	17729.0	0.9375	2156.0	1.0
2	32817.0	22155.0	0.8688	3391.0	1.0
10	22199.0	17920.0	0.9375	2069.0	1.0
10	25519.0	20482.0	0.9312	2644.0	1.0
11	32930.0	19225.0	0.875	2834.0	1.0
16	24428.0	17456.0	0.9	2030.0	1.0
26	24153.0	16708.0	0.9188	2777.0	1.0
15	29649.0	20305.0	0.875	3246.0	1.0
4	26387.0	21622.0	0.9563	2236.0	1.0
21	25852.0	18673.0	0.8875	2965.0	1.0
10	26536.0	17794.0	0.9	2291.0	1.0
15	22279.0	16868.0	0.9188	2450.0	1.0
35	23765.0	17730.0	0.9125	3387.0	1.0
1	31015.0	21932.0	0.925	3121.0	1.0
30	20309.0	16501.0	0.9187	2448.0	1.0
9	23365.0	17285.0	0.9125	2496.0	1.0
7	24786.0	17166.0	0.8875	3068.0	1.0
15	28541.0	20691.0	0.9062	3558.0	1.0
31	27612.0	22423.0	0.9125	3853.0	1.0
20	32467.0	20240.0	0.8563	2683.0	1.0
23	28855.0	21377.0	0.9125	3489.0	1.0
21	24143.0	18915.0	0.925	2446.0	1.0
22	27363.0	20971.0	0.9438	3173.0	1.0
12	29919.0	19834.0	0.875	3968.0	1.0
17	27058.0	18352.0	0.9	2672.0	1.0
0	23148.0	18316.0	0.9375	2222.0	1.0
3	23077.0	17298.0	0.9375	2528.0	1.0
36	23336.0	19964.0	0.9437	3305.0	1.0
35	24040.0	17059.0	0.9125	2668.0	1.0
21	25735.0	17461.0	0.8875	2748.0	1.0
21	23171.0	18160.0	0.9187	2833.0	1.0
12	20559.0	16824.0	0.9375	2660.0	1.0
11	29940.0	21952.0	0.9188	3153.0	1.0
4	25384.0	20234.0	0.925	3163.0	1.0
10	26665.0	19834.0	0.9188	3112.0	1.0
38	27756.0	18618.0	0.8813	2908.0	1.0
32	21364.0	16956.0	0.925	2739.0	1.0
18	23930.0	19786.0	0.9625	3238.0	1.0
35	23507.0	20628.0	0.95	3160.0	1.0
14	27068.0	18865.0	0.8875	2390.0	1.0
38	27556.0	18763.0	0.9062	3037.0	1.0
6	18029.0	14818.0	0.9437	2173.0	1.0
29	30861.0	22885.0	0.9187	3466.0	1.0
14	32160.0	22228.0	0.8875	3072.0	1.0
7	25593.0	17416.0	0.9	3142.0	1.0
29	20678.0	14926.0	0.925	2358.0	1.0
23	29851.0	22593.0	0.9188	4209.0	1.0
21	25138.0	19575.0	0.9125	2375.0	1.0
1	27671.0	19400.0	0.9063	2765.0	1.0
18	20555.0	15890.0	0.925	2534.0	1.0
23	22832.0	19260.0	0.9625	2390.0	1.0
5	18651.0	15065.0	0.9313	2390.0	1.0
9	26439.0	21186.0	0.9437	3369.0	1.0
24	20688.0	17996.0	0.9563	2579.0	1.0
11	21014.0	16476.0	0.9375	2013.0	1.0
24	24002.0	18172.0	0.9062	2783.0	1.0
2	22995.0	18486.0	0.9187	3028.0	1.0
17	20010.0	15729.0	0.9313	2209.0	1.0
21	21878.0	15175.0	0.8625	3105.0	1.0
15	26053.0	17890.0	0.8875	2316.0	1.0
33	30351.0	20558.0	0.9	3271.0	1.0
32	22403.0	18086.0	0.9438	2780.0	1.0
27	18343.0	15746.0	0.9688	2593.0	1.0
31	25129.0	17455.0	0.8938	3143.0	1.0
24	27081.0	17750.0	0.8563	3539.0	1.0
0	23528.0	17956.0	0.9188	2974.0	1.0
36	23357.0	20219.0	0.9563	2152.0	1.0
14	26363.0	18287.0	0.8875	3359.0	1.0
28	26425.0	18143.0	0.8937	2620.0	1.0
22	31148.0	18951.0	0.875	2773.0	1.0
28	28011.0	19828.0	0.9188	2967.0	1.0
35	30273.0	18564.0	0.8812	2401.0	1.0
15	26258.0	18896.0	0.925	2147.0	1.0
1	32159.0	22083.0	0.9	2907.0	1.0
25	19539.0	16269.0	0.9313	2514.0	1.0
22	32066.0	24800.0	0.9438	3811.0	1.0
34	28340.0	20164.0	0.9062	2940.0	1.0
34	17982.0	15886.0	0.95	2475.0	1.0
33	25945.0	20916.0	0.9313	3423.0	1.0
30	22858.0	18435.0	0.9563	2129.0	1.0
6	23160.0	15341.0	0.8875	2709.0	1.0
5	19631.0	15701.0	0.9375	2491.0	1.0
0	21997.0	18816.0	0.9375	2667.0	1.0
12	21175.0	14385.0	0.9187	2266.0	1.0
13	25239.0	18208.0	0.9187	2181.0	1.0
0	22768.0	15692.0	0.9187	1786.0	1.0
31	26896.0	18851.0	0.925	2934.0	1.0
32	20254.0	16360.0	0.9437	2546.0	1.0
8	26880.0	20944.0	0.9188	3204.0	1.0
17	20897.0	15506.0	0.9125	2544.0	1.0
26	20653.0	17025.0	0.9313	2665.0	1.0
36	30115.0	21465.0	0.8875	3861.0	1.0
15	22461.0	17486.0	0.925	2727.0	1.0
11	26255.0	19036.0	0.9125	2173.0	1.0
18	24143.0	18366.0	0.9437	3821.0	1.0
39	21045.0	18090.0	0.95	2697.0	1.0
3	24384.0	17730.0	0.9187	3018.0	1.0
5	26576.0	21638.0	0.9313	3485.0	1.0
14	24099.0	18421.0	0.9125	3934.0	1.0
8	21807.0	17662.0	0.9125	2876.0	1.0
20	26624.0	18116.0	0.8875	2603.0	1.0
21	25067.0	17022.0	0.925	2372.0	1.0
35	23856.0	16860.0	0.8938	2860.0	1.0
25	22988.0	18535.0	0.9187	3023.0	1.0
26	28226.0	20185.0	0.9375	2132.0	1.0
9	28362.0	21021.0	0.9062	3245.0	1.0
21	22982.0	16317.0	0.8938	2314.0	1.0
16	29143.0	24123.0	0.9375	3322.0	1.0
9	20985.0	16458.0	0.9438	2504.0	1.0
2	22159.0	15927.0	0.9375	1938.0	1.0
11	21996.0	18464.0	0.95	2922.0	1.0
3	32753.0	20540.0	0.9062	2400.0	1.0
16	19178.0	16545.0	0.9563	1984.0	1.0
12	27925.0	20369.0	0.9187	3369.0	1.0
14	28299.0	20182.0	0.8625	3820.0	1.0
38	27924.0	21385.0	0.9187	3391.0	1.0
4	22590.0	17452.0	0.9062	2247.0	1.0
8	18131.0	15615.0	0.9375	2909.0	1.0
17	25066.0	19788.0	0.925	2533.0	1.0
0	19051.0	13790.0	0.9125	1919.0	1.0
34	22669.0	18828.0	0.9375	2844.0	1.0
23	21642.0	16861.0	0.9375	2014.0	1.0
8	29776.0	19194.0	0.8812	3218.0	1.0
25	27107.0	19828.0	0.9187	3089.0	1.0
10	31992.0	22258.0	0.9	3061.0	1.0
23	31407.0	18083.0	0.8562	2945.0	1.0
36	21195.0	18047.0	0.95	2556.0	1.0
16	26317.0	21010.0	0.9188	4072.0	1.0
39	21475.0	17374.0	0.9188	2548.0	1.0
10	25874.0	17807.0	0.8938	3010.0	1.0
17	22448.0	18569.0	0.9375	2954.0	1.0
12	26424.0	19675.0	0.925	2984.0	1.0
28	25363.0	19643.0	0.9312	2553.0	1.0
28	28737.0	21310.0	0.9313	3006.0	1.0
22	22398.0	18667.0	0.9187	2682.0	1.0
33	26484.0	20554.0	0.9125	2835.0	1.0
9	26821.0	20370.0	0.925	3087.0	1.0
25	25510.0	18520.0	0.9	2688.0	1.0
31	25303.0	16381.0	0.875	2659.0	1.0
19	21756.0	17348.0	0.9375	2931.0	1.0
16	30731.0	23223.0	0.9187	3358.0	1.0
3	28910.0	19502.0	0.925	2460.0	1.0
28	26735.0	18435.0	0.8812	2835.0	1.0
28	30271.0	19309.0	0.8812	2656.0	1.0
25	24833.0	19913.0	0.9375	2833.0	1.0
28	25300.0	18295.0	0.9	3128.0	1.0
23	16107.0	14905.0	0.9625	2402.0	1.0
9	21948.0	16570.0	0.9313	2091.0	1.0
11	23694.0	18415.0	0.9375	2907.0	1.0
6	25712.0	18328.0	0.9	2736.0	1.0
39	25311.0	20192.0	0.925	2738.0	1.0
32	22563.0	19556.0	0.9563	2458.0	1.0
12	28529.0	16781.0	0.8313	3540.0	1.0
22	18844.0	16364.0	0.9562	2691.0	1.0
38	19382.0	16412.0	0.95	2360.0	1.0
24	25489.0	18794.0	0.9125	2727.0	1.0
2	32765.0	21828.0	0.8688	3230.0	1.0
39	26386.0	18852.0	0.9188	2799.0	1.0
13	31873.0	20592.0	0.8875	2560.0	1.0
8	28065.0	20908.0	0.925	2813.0	1.0
12	25725.0	19240.0	0.9063	3376.0	1.0
17	26311.0	19106.0	0.9	2591.0	1.0
18	25280.0	17006.0	0.9	3141.0	1.0
20	27795.0	19842.0	0.8875	2597.0	1.0
2	25573.0	19358.0	0.9125	3127.0	1.0
29	24144.0	16907.0	0.9125	2598.0	1.0
3	30794.0	21394.0	0.9062	2532.0	1.0
31	23003.0	17134.0	0.9188	2717.0	1.0
28	24089.0	15212.0	0.8875	2579.0	1.0
11	28409.0	19189.0	0.875	3166.0	1.0
39	28887.0	20439.0	0.8938	3205.0	1.0
5	24965.0	18641.0	0.9188	3654.0	1.0
8	25171.0	18411.0	0.9062	3082.0	1.0
29	26430.0	17947.0	0.875	3164.0	1.0
24	22557.0	18144.0	0.95	2154.0	1.0
19	22862.0	17891.0	0.9375	3441.0	1.0
0	24622.0	17156.0	0.875	2729.0	1.0
1	23261.0	20048.0	0.9438	2271.0	1.0
14	26404.0	20209.0	0.9063	3302.0	1.0
13	18882.0	16948.0	0.95	2229.0	1.0
27	30580.0	21672.0	0.9	3015.0	1.0
15	30431.0	21174.0	0.8938	2997.0	1.0
28	28700.0	20368.0	0.8938	2867.0	1.0
6	27884.0	19905.0	0.9125	3329.0	1.0
11	28224.0	18590.0	0.9	2234.0	1.0
34	21645.0	16564.0	0.9313	1851.0	1.0
8	20788.0	15968.0	0.8938	2842.0	1.0
15	29962.0	19199.0	0.8625	2766.0	1.0
27	24709.0	19759.0	0.9313	2866.0	1.0
11	21103.0	17610.0	0.9125	3069.0	1.0
26	29885.0	18015.0	0.8875	3141.0	1.0
12	28555.0	20546.0	0.8875	3319.0	1.0
26	23872.0	17579.0	0.9062	3118.0	1.0
5	31052.0	19198.0	0.8438	3766.0	1.0
33	24215.0	19239.0	0.9375	2600.0	1.0
33	25791.0	18048.0	0.9062	2459.0	1.0
2	28089.0	19733.0	0.8875	2982.0	1.0
18	30454.0	23848.0	0.925	3460.0	1.0
34	22030.0	19014.0	0.9625	2424.0	1.0
21	19201.0	16034.0	0.9313	2779.0	1.0
33	29512.0	21027.0	0.8938	3144.0	1.0
3	28087.0	19174.0	0.8875	3047.0	1.0
17	21376.0	17871.0	0.9563	2977.0	1.0
16	21715.0	16498.0	0.9125	2469.0	1.0
31	21916.0	17517.0	0.95	2142.0	1.0
1	22164.0	16530.0	0.9313	2542.0	1.0
33	25152.0	18483.0	0.9125	3358.0	1.0
20	20085.0	18908.0	0.9625	2207.0	1.0
23	23977.0	16626.0	0.9	2796.0	1.0
13	28860.0	19220.0	0.8813	2901.0	1.0
7	24614.0	18570.0	0.9125	3050.0	1.0
5	24224.0	17798.0	0.8938	3751.0	1.0
10	26608.0	18870.0	0.9062	2897.0	1.0
28	21330.0	17040.0	0.9187	2456.0	1.0
12	28613.0	20504.0	0.9125	2847.0	1.0
0	22972.0	17199.0	0.9063	2851.0	1.0
26	27761.0	17412.0	0.8688	2575.0	1.0
5	23644.0	19669.0	0.9375	2812.0	1.0
29	27595.0	22230.0	0.9375	3146.0	1.0
19	23945.0	16623.0	0.8938	2048.0	1.0
21	22325.0	20061.0	0.9625	2375.0	1.0
29	23530.0	19757.0	0.9625	2317.0	1.0
7	25303.0	18953.0	0.9125	2805.0	1.0
9	30852.0	19419.0	0.8938	2117.0	1.0
24	21697.0	18077.0	0.9437	3395.0	1.0
11	30103.0	20632.0	0.8688	3069.0	1.0
17	24659.0	17539.0	0.9125	2563.0	1.0
7	23314.0	15804.0	0.8812	2574.0	1.0
1	25472.0	18610.0	0.9188	2444.0	1.0
27	22692.0	17928.0	0.9188	3164.0	1.0
28	25161.0	18247.0	0.9313	2979.0	1.0
25	22824.0	18415.0	0.9375	2080.0	1.0
28	21761.0	17975.0	0.925	3006.0	1.0
13	25751.0	19266.0	0.9125	2568.0	1.0
16	21027.0	15798.0	0.925	2471.0	1.0
21	28294.0	20662.0	0.9063	3215.0	1.0
4	29110.0	22213.0	0.925	3112.0	1.0
36	25244.0	19671.0	0.925	2162.0	1.0
4	26104.0	20448.0	0.9438	3482.0	1.0
18	24439.0	19352.0	0.9313	2314.0	1.0
9	25725.0	17539.0	0.9	2623.0	1.0
4	20707.0	13912.0	0.9125	2664.0	1.0
29	23788.0	21451.0	0.95	3442.0	1.0
28	28889.0	19104.0	0.8625	3785.0	1.0
28	24243.0	17413.0	0.9187	1846.0	1.0
20	23352.0	19200.0	0.9438	2584.0	1.0
3	34158.0	23653.0	0.8875	3348.0	1.0
7	27242.0	19457.0	0.9	2768.0	1.0
35	22841.0	17503.0	0.8938	2392.0	1.0
39	21197.0	18022.0	0.9563	3413.0	1.0
28	24824.0	17095.0	0.9063	2825.0	1.0
38	26678.0	19470.0	0.9	2650.0	1.0
12	24054.0	18432.0	0.925	2286.0	1.0
23	27112.0	18551.0	0.8875	3342.0	1.0
33	34148.0	24702.0	0.8875	2919.0	1.0
7	31533.0	19167.0	0.8687	2763.0	1.0
14	21472.0	17044.0	0.9187	2670.0	1.0
34	22662.0	17222.0	0.925	2717.0	1.0
30	23249.0	16808.0	0.9063	2424.0	1.0
31	27722.0	18228.0	0.875	3004.0	1.0
24	22507.0	17972.0	0.9063	2842.0	1.0
1	26177.0	17166.0	0.8625	3274.0	1.0
0	27848.0	19880.0	0.9063	3172.0	1.0
6	26180.0	18433.0	0.8875	3266.0	1.0
0	21044.0	17588.0	0.9563	2587.0	1.0
15	24645.0	18957.0	0.9313	2727.0	1.0
27	23205.0	15985.0	0.8875	2737.0	1.0
35	22055.0	18079.0	0.9313	2275.0	1.0
32	24356.0	18836.0	0.925	2891.0	1.0
12	27255.0	18105.0	0.875	3268.0	1.0
5	34468.0	23594.0	0.8938	3351.0	1.0
33	25459.0	19639.0	0.925	3302.0	1.0
14	26947.0	19447.0	0.9125	2374.0	1.0
30	22470.0	16143.0	0.9125	2181.0	1.0
6	25904.0	18521.0	0.925	2676.0	1.0
37	24962.0	18649.0	0.925	2169.0	1.0
27	24210.0	18761.0	0.9375	2067.0	1.0
25	27320.0	19187.0	0.9	3676.0	1.0
37	30148.0	18293.0	0.8813	1933.0	1.0
35	24081.0	20467.0	0.9375	3214.0	1.0
8	25038.0	18701.0	0.9187	2603.0	1.0
0	23610.0	17632.0	0.9063	2705.0	1.0
4	25514.0	17772.0	0.9062	2986.0	1.0
11	26212.0	19409.0	0.925	2220.0	1.0
7	19710.0	17166.0	0.95	2554.0	1.0
1	23429.0	17634.0	0.925	2244.0	1.0
8	22737.0	17439.0	0.9	2492.0	1.0
39	22152.0	16668.0	0.9125	2404.0	1.0
22	23069.0	18337.0	0.9125	2804.0	1.0
24	28900.0	20506.0	0.9125	2853.0	1.0
35	24151.0	20172.0	0.9375	3416.0	1.0
8	23564.0	17231.0	0.9125	2078.0	1.0
17	29340.0	21058.0	0.9062	2956.0	1.0
11	21878.0	17886.0	0.9437	2634.0	1.0
11	31899.0	20578.0	0.85	4168.0	1.0
10	30055.0	21489.0	0.9063	4370.0	1.0
35	25525.0	18469.0	0.925	2526.0	1.0
24	23636.0	16486.0	0.9125	2312.0	1.0
20	23607.0	17833.0	0.9062	2882.0	1.0
19	23152.0	19650.0	0.95	1888.0	1.0
23	26509.0	19088.0	0.8875	3278.0	1.0
36	24143.0	18741.0	0.9188	2265.0	1.0
15	29828.0	18558.0	0.8625	2997.0	1.0
35	28648.0	18648.0	0.8875	2851.0	1.0
7	25829.0	19025.0	0.9063	3114.0	1.0
34	21291.0	16857.0	0.925	2679.0	1.0
1	23362.0	16537.0	0.875	3276.0	1.0
1	24606.0	20259.0	0.95	2766.0	1.0
38	25114.0	18062.0	0.9	3805.0	1.0
26	23262.0	18472.0	0.9062	2956.0	1.0
6	35069.0	22071.0	0.8562	3208.0	1.0
14	25010.0	19303.0	0.9375	2210.0	1.0
14	27558.0	17104.0	0.8812	2654.0	1.0
26	20024.0	15172.0	0.9125	2697.0	1.0
37	26615.0	20670.0	0.9187	2819.0	1.0
36	28814.0	22180.0	0.9313	3074.0	1.0
32	30493.0	21638.0	0.8875	3754.0	1.0
13	25465.0	16662.0	0.8938	2434.0	1.0
3	32272.0	20446.0	0.85	3626.0	1.0
23	32206.0	20405.0	0.8688	2830.0	1.0
27	27741.0	20613.0	0.8938	3371.0	1.0
23	22161.0	18398.0	0.9625	2765.0	1.0
3	25121.0	19341.0	0.9375	3364.0	1.0
25	23356.0	17591.0	0.9125	2582.0	1.0
15	24177.0	18407.0	0.9187	3729.0	1.0
20	31655.0	20525.0	0.9	2931.0	1.0
31	26062.0	17894.0	0.9125	2677.0	1.0
28	30621.0	20439.0	0.9	3094.0	1.0
31	24688.0	18777.0	0.9062	2625.0	1.0
36	21676.0	17267.0	0.95	2569.0	1.0
28	24648.0	18030.0	0.9063	2488.0	1.0
13	23386.0	17644.0	0.925	2757.0	1.0
25	25471.0	19503.0	0.9125	3142.0	1.0
10	21068.0	17235.0	0.9375	2909.0	1.0
28	25822.0	19686.0	0.9188	3318.0	1.0
24	23280.0	18920.0	0.9125	3093.0	1.0
8	22338.0	17966.0	0.9313	2160.0	1.0
7	24576.0	16065.0	0.8812	2322.0	1.0
38	26553.0	17875.0	0.9187	2426.0	1.0
33	17017.0	14876.0	0.9437	2137.0	1.0
1	22302.0	16254.0	0.9125	2544.0	1.0
4	24781.0	17608.0	0.9062	3020.0	1.0
8	27747.0	16841.0	0.85	2902.0	1.0
33	27834.0	22701.0	0.9375	3859.0	1.0
17	24509.0	17409.0	0.9	2047.0	1.0
34	18217.0	15748.0	0.9563	2822.0	1.0
27	22699.0	17909.0	0.9063	3125.0	1.0
36	22654.0	17520.0	0.9313	3264.0	1.0
25	26163.0	20630.0	0.95	3068.0	1.0
31	23798.0	18725.0	0.9188	3008.0	1.0
1	26929.0	19350.0	0.9125	2545.0	1.0
22	26392.0	19138.0	0.9188	3493.0	1.0
30	24155.0	19750.0	0.925	2560.0	1.0
27	26201.0	18335.0	0.8937	3026.0	1.0
1	20722.0	17966.0	0.925	3788.0	1.0
15	26758.0	19913.0	0.9125	2681.0	1.0
13	22995.0	15949.0	0.8875	2500.0	1.0
16	32152.0	23958.0	0.9062	3935.0	1.0
12	20082.0	16769.0	0.9563	2085.0	1.0
12	21714.0	18280.0	0.95	2907.0	1.0
25	25768.0	19642.0	0.8937	2729.0	1.0
27	23103.0	18803.0	0.9563	2842.0	1.0
9	25129.0	17589.0	0.9062	2608.0	1.0
17	27138.0	21945.0	0.8938	3367.0	1.0
14	27046.0	19159.0	0.925	2946.0	1.0
31	31721.0	23249.0	0.8875	3461.0	1.0
24	23663.0	18293.0	0.9313	2954.0	1.0
9	23132.0	16166.0	0.9062	3194.0	1.0
14	27751.0	20544.0	0.9125	2514.0	1.0
25	27926.0	19167.0	0.9187	2660.0	1.0
28	21698.0	19006.0	0.9688	3012.0	1.0
22	29901.0	21363.0	0.875	4164.0	1.0
7	24359.0	18524.0	0.9188	2892.0	1.0
12	25088.0	18907.0	0.925	2626.0	1.0
39	26650.0	18726.0	0.8938	2908.0	1.0
19	26842.0	19737.0	0.8938	2733.0	1.0
8	20928.0	15852.0	0.9125	3054.0	1.0
17	24622.0	18950.0	0.9125	2718.0	1.0
6	29125.0	19768.0	0.9125	1960.0	1.0
2	20880.0	16556.0	0.925	2635.0	1.0
16	25519.0	21886.0	0.9438	3031.0	1.0
7	23429.0	18012.0	0.9125	2592.0	1.0
27	26418.0	20108.0	0.9125	2930.0	1.0
9	25868.0	19095.0	0.9	3027.0	1.0
32	30516.0	22870.0	0.9	3703.0	1.0
19	21052.0	16954.0	0.9	2991.0	1.0
23	26663.0	18440.0	0.9	2804.0	1.0
10	22612.0	18636.0	0.9625	2630.0	1.0
28	27254.0	21478.0	0.9375	2872.0	1.0
7	23896.0	19224.0	0.9062	3494.0	1.0
9	25729.0	18570.0	0.9	2758.0	1.0
29	22530.0	15986.0	0.8688	3143.0	1.0
22	29305.0	19519.0	0.8625	3720.0	1.0
8	22341.0	16033.0	0.9125	2314.0	1.0
17	24042.0	17886.0	0.925	2586.0	1.0
29	24726.0	19729.0	0.9563	1853.0	1.0
26	24951.0	18942.0	0.9125	2909.0	1.0
2	30396.0	20995.0	0.8937	3109.0	1.0
39	25895.0	19146.0	0.9125	2756.0	1.0
26	29864.0	19865.0	0.8812	2887.0	1.0
24	28991.0	20104.0	0.8687	3365.0	1.0
19	22421.0	16894.0	0.95	1840.0	1.0
27	25515.0	19265.0	0.9	2123.0	1.0
35	23732.0	18051.0	0.9	2840.0	1.0
6	19258.0	14503.0	0.9313	2163.0	1.0
6	26033.0	17388.0	0.8688	2583.0	1.0
20	23808.0	16820.0	0.925	2728.0	1.0
36	24759.0	19924.0	0.9313	3620.0	1.0
35	23121.0	17509.0	0.9438	2084.0	1.0
12	26431.0	20425.0	0.925	3152.0	1.0
10	23029.0	17606.0	0.925	2346.0	1.0
1	23770.0	18997.0	0.9375	2332.0	1.0
30	25303.0	18130.0	0.9188	2899.0	1.0
12	24128.0	19115.0	0.9125	3259.0	1.0
29	32612.0	21990.0	0.9	3341.0	1.0
18	26258.0	17446.0	0.8875	2747.0	1.0
32	18295.0	16154.0	0.9313	2789.0	1.0
11	26550.0	17451.0	0.8812	2680.0	1.0
32	24382.0	18776.0	0.9187	3452.0	1.0
36	28397.0	21224.0	0.9062	3682.0	1.0
12	26616.0	18138.0	0.8875	2880.0	1.0
34	23054.0	17734.0	0.9063	2538.0	1.0
20	26565.0	19281.0	0.9125	3266.0	1.0
29	27238.0	20367.0	0.9062	3367.0	1.0
0	32527.0	23031.0	0.8812	4074.0	1.0
26	25785.0	20273.0	0.9437	2875.0	1.0
39	26740.0	19938.0	0.8937	3223.0	1.0
10	28451.0	19595.0	0.9063	2840.0	1.0
37	27799.0	21553.0	0.9313	2605.0	1.0
10	25829.0	17906.0	0.8875	3165.0	1.0
34	26361.0	17483.0	0.8875	2016.0	1.0
1	26165.0	22007.0	0.9438	3030.0	1.0
29	25570.0	18860.0	0.9125	3033.0	1.0
11	27849.0	20403.0	0.9063	2825.0	1.0
19	23155.0	17742.0	0.9375	2285.0	1.0
14	25618.0	19180.0	0.9062	3258.0	1.0
35	17481.0	14495.0	0.9313	2111.0	1.0
7	30968.0	18842.0	0.85	3782.0	1.0
35	23749.0	19405.0	0.925	2392.0	1.0
28	25873.0	19050.0	0.9188	2729.0	1.0
32	22627.0	18636.0	0.9375	2993.0	1.0
6	28086.0	19525.0	0.9062	2586.0	1.0
7	26613.0	19851.0	0.9125	2862.0	1.0
18	27199.0	19883.0	0.8937	2921.0	1.0
12	22972.0	18911.0	0.95	2964.0	1.0
38	27393.0	17184.0	0.8688	3371.0	1.0
37	23554.0	18819.0	0.9313	2433.0	1.0
31	22604.0	17270.0	0.925	2657.0	1.0
18	22500.0	17981.0	0.9438	2953.0	1.0
21	27010.0	20599.0	0.925	3198.0	1.0
26	27295.0	21692.0	0.9313	2425.0	1.0
20	30002.0	20033.0	0.8812	3749.0	1.0
24	20592.0	17650.0	0.95	2522.0	1.0
2	25717.0	19143.0	0.9313	2807.0	1.0
2	25080.0	16301.0	0.8937	3180.0	1.0
38	26595.0	19985.0	0.9375	2490.0	1.0
36	32182.0	19915.0	0.8625	3900.0	1.0
27	26740.0	19031.0	0.9188	2898.0	1.0
1	25197.0	19455.0	0.9125	2527.0	1.0
26	29713.0	22346.0	0.9313	2637.0	1.0
36	22419.0	17862.0	0.925	3091.0	1.0
28	26671.0	18932.0	0.8938	2940.0	1.0
30	22520.0	15663.0	0.875	2752.0	1.0
32	28888.0	21552.0	0.9125	3138.0	1.0
