fitness: 36527 23845 0.91 2827 1.00 25822 18567
fitness: 35754 23448 0.91 2931 1.00 26999 21400
fitness: 34861 23313 0.90 3080 1.00 27401 20670
fitness: 37294 24287 0.90 2948 1.00 27724 22693
fitness: 36733 24339 0.91 2774 1.00 27897 21161
fitness: 37073 24812 0.91 3028 1.00 28528 19965
fitness: 37353 23773 0.90 2924 1.00 28719 22092
fitness: 37548 24573 0.90 2831 1.00 28818 23338
fitness: 35960 23382 0.91 2825 1.00 28857 23602
fitness: 35723 23566 0.91 2983 1.00 28958 22521
fitness: 38628 24108 0.89 3062 1.00 28971 21831
fitness: 36427 23523 0.90 2898 1.00 29063 21764
fitness: 38975 23454 0.89 2926 1.00 29090 22463
fitness: 37364 23900 0.90 2861 1.00 29178 20855
fitness: 37560 24643 0.90 2986 1.00 29260 24131
