fitness: 55953 22787 0.80 2875 1.00 41778 19188 1
fitness: 41563 25016 0.89 2999 1.00 41415 21947 100
fitness: 37366 24012 0.91 2621 1.00 30782 22560 200
fitness: 39406 24028 0.90 2571 1.00 34298 22245 300
fitness: 38090 24485 0.91 2800 1.00 33841 26546 400
fitness: 37728 24691 0.90 3138 1.00 31871 23572 500
fitness: 37476 23645 0.89 2926 1.00 36198 27578 600
fitness: 36465 23494 0.91 2737 1.00 34331 24904 700
