Generation 699:
100002120112021020
000021201120210202
000212011202102022
002120112021020221
021201120210202211
212011202102022110
120112021020221100
201120210202211001
011202102022110010
112021020221100100
120210202211001001
202102022110010010
021020221100100101
210202211001001011
102022110010010112
020221100100101120
202211001001011201
022110010010112010
00111011020010201
01110110200102011
11101102001020110
11011020010201102
10110200102011020
01102001020110201
11020010201102012
10200102011020121
02001020110201212
20010201102012120
00102011020121201
01020110201212011
10201102012120111
02011020121201111
20110201212011110
01102012120111101
11020121201111010
10201212011110101

100202121002022121
002021210020221210
020212100202212102
202121002022121021
021210020221210211
212100202212102110
121002022121021100
210020221210211001
100202212102110011
002022121021100111
020221210211001111
202212102110011112
022121021100111121
221210211001111210
212102110011112101
121021100111121010
210211001111210101
102110011112101010
10102010020021201
01020100200212010
10201002002120101
02010020021201012
20100200212010120
01002002120101201
10020021201012012
00200212010120122
02002120101201222
20021201012012220
00212010120122201
02120101201222011
21201012012220111
12010120122201112
20101201222011121
01012012220111210
10120122201112100
01201222011121001

101202121012021121
012021210120211210
120212101202112102
202121012021121021
021210120211210211
212101202112102111
121012021121021110
210120211210211101
101202112102111010
012021121021110100
120211210211101001
202112102111010012
021121021110100121
211210211101001212
112102111010012122
121021110100121220
210211101001212201
102111010012122010
10102011010021201
01020110100212010
10201101002120102
02011010021201022
20110100212010220
01101002120102201
11010021201022012
10100212010220121
01002120102201212
10021201022012120
00212010220121201
02120102201212011
21201022012120111
12010220121201111
20102201212011110
01022012120111100
10220121201111001
02201212011110011

100002120102020020
000021201020200200
000212010202002002
002120102020020021
021201020200200211
212010202002002112
120102020020021121
201020200200211211
010202002002112111
102020020021121110
020200200211211101
202002002112111010
020020021121110101
200200211211101010
002002112111010101
020021121110101011
200211211101010111
002112111010101110
10110020010012201
01100200100122012
11002001001220121
10020010012201212
00200100122012120
02001001220121200
20010012201212002
00100122012120021
01001220121200212
10012201212002122
00122012120021221
01220121200212211
12201212002122111
22012120021221111
20121200212211110
01212002122111100
12120021221111000
21200212211110001

100102120002020020
001021200020200200
010212000202002002
102120002020020021
021200020200200211
212000202002002111
120002020020021110
200020200200211101
000202002002111011
002020020021110110
020200200211101101
202002002111011010
020020021110110101
200200211101101010
002002111011010101
020021110110101010
200211101101010101
002111011010101010
00120000010011201
01200000100112011
12000001001120111
20000010011201112
00000100112011120
00001001120111200
00010011201112002
00100112011120021
01001120111200212
10011201112002122
00112011120021221
01120111200212211
11201112002122111
12011120021221111
20111200212211110
01112002122111100
11120021221111000
11200212211110001

100002120102020020
000021201020200200
000212010202002002
002120102020020021
021201020200200210
212010202002002102
120102020020021021
201020200200210211
010202002002102110
102020020021021100
020200200210211001
202002002102110010
020020021021100101
200200210211001010
002002102110010101
020021021100101010
200210211001010101
002102110010101010
10110020010010201
01100200100102012
11002001001020121
10020010010201212
00200100102012120
02001001020121200
20010010201212002
00100102012120021
01001020121200212
10010201212002122
00102012120021221
01020121200212211
10201212002122111
02012120021221110
20121200212211100
01212002122111000
12120021221110000
21200212211100001

211002122102211010
110021221022110100
100212210221101000
002122102211010001
021221022110100010
212210221101000102
122102211010001020
221022110100010201
210221101000102011
102211010001020110
022110100010201101
221101000102011011
211010001020110110
110100010201101100
101000102011011000
010001020110110000
100010201101100000
000102011011000000
10212020011101101
02120200111011012
21202001110110120
12020011101101202
20200111011012022
02001110110120220
20011101101202201
00111011012022011
01110110120220110
11101101202201102
11011012022011022
10110120220110220
01101202201102200
11012022011022000
10120220110220001
01202201102200011
12022011022000112
20220110220001120

100002120102020020
000021201020200200
000212010202002002
002120102020020021
021201020200200211
212010202002002112
120102020020021121
201020200200211211
010202002002112111
102020020021121110
020200200211211101
202002002112111010
020020021121110101
200200211211101010
002002112111010101
020021121110101010
200211211101010101
002112111010101010
10110020010012201
01100200100122012
11002001001220121
10020010012201212
00200100122012120
02001001220121200
20010012201212002
00100122012120020
01001220121200202
10012201212002022
00122012120020221
01220121200202211
12201212002022111
22012120020221111
20121200202211110
01212002022111100
12120020221111000
21200202211110001

000002120002020020
000021200020200200
000212000202002002
002120002020020021
021200020200200211
212000202002002112
120002020020021121
200020200200211211
000202002002112111
002020020021121110
020200200211211101
202002002112111010
020020021121110101
200200211211101010
002002112111010101
020021121110101012
200211211101010121
002112111010101210
00110010010010201
01100100100102012
11001001001020121
10010010010201212
00100100102012120
01001001020121200
10010010201212002
00100102012120021
01001020121200212
10010201212002122
00102012120021221
01020121200212211
10201212002122111
02012120021221111
20121200212211110
01212002122111100
12120021221111000
21200212211110001

100002120002120020
000021200021200200
000212000212002001
002120002120020011
021200021200200111
212000212002001112
120002120020011120
200021200200111201
000212002001112011
002120020011120110
021200200111201101
212002001112011010
120020011120110100
200200111201101000
002001112011010001
020011120110100010
200111201101000101
001112011010001010
00120020010001001
01200200100010012
12002001000100120
20020010001001202
00200100010012020
02001000100120200
20010001001202002
00100010012020021
01000100120200212
10001001202002122
00010012020021221
00100120200212211
01001202002122111
10012020021221111
00120200212211110
01202002122111100
12020021221111001
20200212211110010

100102120002020020
001021200020200200
010212000202002002
102120002020020020
021200020200200201
212000202002002011
120002020020020111
200020200200201111
000202002002011111
002020020020111110
020200200201111101
202002002011111010
020020020111110101
200200201111101010
002002011111010101
020020111110101010
200201111101010101
002011111010101010
00120000000011201
01200000000112010
12000000001120101
20000000011201012
00000000112010120
00000001120101200
00000011201012002
00000112010120020
00001120101200202
00011201012002022
00112010120020221
01120101200202211
11201012002022111
12010120020221111
20101200202211110
01012002022111100
10120020221111000
01200202211110001

100102120002020020
001021200020200200
010212000202002002
102120002020020021
021200020200200211
212000202002002110
120002020020021101
200020200200211011
000202002002110111
002020020021101111
020200200211011111
202002002110111111
020020021101111111
200200211011111110
002002110111111101
020021101111111011
200211011111110111
002110111111101110
00120010010001201
01200100100012010
12001001000120101
20010010001201012
00100100012010120
01001000120101200
10010001201012002
00100012010120021
01000120101200212
10001201012002122
00012010120021221
00120101200212211
01201012002122111
12010120021221111
20101200212211110
01012002122111100
10120021221111000
01200212211110001

101102120002020020
011021200020200201
110212000202002012
102120002020020121
021200020200201211
212000202002012111
120002020020121110
200020200201211101
000202002012111010
002020020121110100
020200201211101001
202002012111010010
020020121110100101
200201211101001011
002012111010010110
020121110100101101
201211101001011011
012111010010110110
00110010010011201
01100100100112010
11001001001120101
10010010011201012
00100100112010120
01001001120101200
10010011201012002
00100112010120021
01001120101200212
10011201012002121
00112010120021211
01120101200212111
11201012002121111
12010120021211111
20101200212111110
01012002121111101
10120021211111010
01200212111110101

100002120102020020
000021201020200201
000212010202002012
002120102020020121
021201020200201211
212010202002012110
120102020020121100
201020200201211001
010202002012110011
102020020121100110
020200201211001101
202002012110011010
020020121100110101
200201211001101010
002012110011010101
020121100110101010
201211001101010101
012110011010101010
10110020010012201
01100200100122011
11002001001220111
10020010012201112
00200100122011120
02001001220111200
20010012201112002
00100122011120021
01001220111200212
10012201112002122
00122011120021221
01220111200212211
12201112002122111
22011120021221110
20111200212211100
01112002122111001
11120021221110010
11200212211100101

100002120102020020
000021201020200200
000212010202002002
002120102020020021
021201020200200211
212010202002002112
120102020020021121
201020200200211211
010202002002112111
102020020021121110
020200200211211101
202002002112111010
020020021121110101
200200211211101010
002002112111010101
020021121110101011
200211211101010111
002112111010101110
10110020010012201
01100200100122012
11002001001220121
10020010012201212
00200100122012120
02001001220121200
20010012201212002
00100122012120020
01001220121200202
10012201212002022
00122012120020221
01220121200202211
12201212002022111
22012120020221111
20121200202211110
01212002022111100
12120020221111000
21200202211110001

000002120102020020
000021201020200200
000212010202002002
002120102020020021
021201020200200211
212010202002002110
120102020020021101
201020200200211011
010202002002110111
102020020021101110
020200200211011101
202002002110111010
020020021101110101
200200211011101010
002002110111010101
020021101110101012
200211011101010121
002110111010101210
00110010010010201
01100100100102010
11001001001020101
10010010010201012
00100100102010120
01001001020101200
10010010201012002
00100102010120021
01001020101200212
10010201012002122
00102010120021221
01020101200212211
10201012002122111
02010120021221111
20101200212211110
01012002122111100
10120021221111000
01200212211110001

000002120102020020
000021201020200200
000212010202002002
002120102020020021
021201020200200211
212010202002002111
120102020020021111
201020200200211111
010202002002111110
102020020021111100
020200200211111001
202002002111110010
020020021111100101
200200211111001011
002002111110010111
020021111100101110
200211111001011101
002111110010111010
00110010010011201
01100100100112012
11001001001120121
10010010011201212
00100100112012120
01001001120121200
10010011201212002
00100112012120021
01001120121200212
10011201212002122
00112012120021221
01120121200212211
11201212002122111
12012120021221110
20121200212211100
01212002122111000
12120021221110000
21200212211100000

100002120102000100
000021201020001000
000212010200010002
002120102000100020
021201020001000201
212010200010002012
120102000100020121
201020001000201211
010200010002012111
102000100020121111
020001000201211111
200010002012111110
000100020121111100
001000201211111000
010002012111110001
100020121111100011
000201211111000111
002012111110001111
10100020010012001
01000200100120012
10002001001200121
00020010012001212
00200100120012120
02001001200121200
20010012001212000
00100120012120001
01001200121200012
10012001212000122
00120012120001221
01200121200012211
12001212000122111
20012120001221111
00121200012211110
01212000122111100
12120001221111000
21200012211110000

100002120102020020
000021201020200200
000212010202002002
002120102020020021
021201020200200211
212010202002002112
120102020020021121
201020200200211211
010202002002112111
102020020021121110
020200200211211101
202002002112111010
020020021121110101
200200211211101010
002002112111010101
020021121110101010
200211211101010101
002112111010101010
10110020010012201
01100200100122012
11002001001220121
10020010012201212
00200100122012120
02001001220121200
20010012201212002
00100122012120020
01001220121200202
10012201212002022
00122012120020221
01220121200202211
12201212002022111
22012120020221111
20121200202211110
01212002022111100
12120020221111000
21200202211110001

000102120002020020
001021200020200200
010212000202002002
102120002020020021
021200020200200211
212000202002002111
120002020020021110
200020200200211101
000202002002111011
002020020021110110
020200200211101101
202002002111011010
020020021110110101
200200211101101010
002002111011010101
020021110110101010
200211101101010101
002111011010101010
00100010010011201
01000100100112010
10001001001120101
00010010011201012
00100100112010120
01001001120101200
10010011201012002
00100112010120021
01001120101200212
10011201012002122
00112010120021221
01120101200212211
11201012002122111
12010120021221111
20101200212211110
01012002122111100
10120021221111000
01200212211110001

001102122102001001
011021221020010010
110212210200100100
102122102001001002
021221020010010020
212210200100100202
122102001001002020
221020010010020201
210200100100202012
102001001002020121
020010010020201211
200100100202012110
001001002020121101
010010020201211010
100100202012110100
001002020121101001
010020201211010010
100202012110100101
01122121011201111
11221210112011112
12212101120111121
22121011201111212
21210112011112122
12101120111121221
21011201111212210
10112011112122101
01120111121221010
11201111212210102
12011112122101022
20111121221010220
01111212210102200
11112122101022000
11121221010220001
11212210102200011
12122101022000110
21221010220001100

000102120002020020
001021200020200200
010212000202002001
102120002020020010
021200020200200101
212000202002001011
120002020020010111
200020200200101111
000202002001011110
002020020010111100
020200200101111001
202002001011110010
020020010111100101
200200101111001011
002001011110010111
020010111100101111
200101111001011111
001011110010111110
00020000001010201
00200000010102010
02000000101020101
20000001010201012
00000010102010120
00000101020101201
00001010201012012
00010102010120121
00101020101201212
01010201012012122
10102010120121221
01020101201212211
10201012012122111
02010120121221110
20101201212211100
01012012122111000
10120121221110001
01201212211100010

100002120102020020
000021201020200200
000212010202002002
002120102020020020
021201020200200201
212010202002002012
120102020020020121
201020200200201211
010202002002012111
102020020020121110
020200200201211101
202002002012111010
020020020121110101
200200201211101010
002002012111010101
020020121110101010
200201211101010101
002012111010101010
10110000010012201
01100000100122012
11000001001220121
10000010012201212
00000100122012120
00001001220121200
00010012201212002
00100122012120020
01001220121200202
10012201212002022
00122012120020221
01220121200202211
12201212002022111
22012120020221111
20121200202211110
01212002022111100
12120020221111000
21200202211110001

001002120002021020
010021200020210200
100212000202102001
002120002021020011
021200020210200111
212000202102001111
120002021020011111
200020210200111111
000202102001111110
002021020011111101
020210200111111011
202102001111110110
021020011111101101
210200111111011011
102001111110110111
020011111101101111
200111111011011111
001111110110111110
00020010012011201
00200100120112011
02001001201120111
20010012011201112
00100120112011120
01001201120111200
10012011201112002
00120112011120021
01201120111200212
12011201112002122
20112011120021221
01120111200212211
11201112002122111
12011120021221110
20111200212211100
01112002122111000
11120021221110000
11200212211100000

100002120102020020
000021201020200200
000212010202002002
002120102020020021
021201020200200211
212010202002002111
120102020020021111
201020200200211111
010202002002111111
102020020021111110
020200200211111101
202002002111111010
020020021111110101
200200211111101010
002002111111010101
020021111110101011
200211111101010111
002111111010101110
00120010010011201
01200100100112010
12001001001120101
20010010011201012
00100100112010120
01001001120101200
10010011201012002
00100112010120021
01001120101200212
10011201012002122
00112010120021221
01120101200212211
11201012002122111
12010120021221111
20101200212211110
01012002122111100
10120021221111000
01200212211110001

000002120102020020
000021201020200200
000212010202002002
002120102020020021
021201020200200210
212010202002002101
120102020020021011
201020200200210111
010202002002101110
102020020021011100
020200200210111001
202002002101110010
020020021011100101
200200210111001011
002002101110010111
020021011100101110
200210111001011101
002101110010111010
00110010010011201
01100100100112012
11001001001120121
10010010011201212
00100100112012120
01001001120121200
10010011201212002
00100112012120021
01001120121200212
10011201212002122
00112012120021221
01120121200212211
11201212002122111
12012120021221110
20121200212211100
01212002122111000
12120021221110000
21200212211100000

001002120002020120
010021200020201200
100212000202012002
002120002020120021
021200020201200211
212000202012002110
120002020120021100
200020201200211001
000202012002110010
002020120021100101
020201200211001011
202012002110010110
020120021100101101
201200211001011010
012002110010110101
120021100101101010
200211001011010101
002110010110101010
00020010010011201
00200100100112010
02001001001120101
20010010011201012
00100100112010120
01001001120101200
10010011201012002
00100112010120021
01001120101200212
10011201012002122
00112010120021220
01120101200212201
11201012002122011
12010120021220111
20101200212201110
01012002122011101
10120021220111010
01200212201110100

100202120012021020
002021200120210202
020212001202102022
202120012021020221
021200120210202211
212001202102022110
120012021020221100
200120210202211001
001202102022110010
012021020221100100
120210202211001001
202102022110010011
021020221100100111
210202211001001110
102022110010011102
020221100100111020
202211001001110201
022110010011102010
00112010020000201
01120100200002010
11201002000020102
12010020000201022
20100200002010220
01002000020102201
10020000201022012
00200002010220121
02000020102201212
20000201022012120
00002010220121201
00020102201212011
00201022012120111
02010220121201110
20102201212011100
01022012120111000
10220121201110001
02201212011100011

100102120002020020
001021200020200200
010212000202002002
102120002020020021
021200020200200211
212000202002002110
120002020020021100
200020200200211001
000202002002110011
002020020021100110
020200200211001101
202002002110011010
020020021100110101
200200211001101010
002002110011010101
020021100110101010
200211001101010101
002110011010101010
00110010010011201
01100100100112010
11001001001120101
10010010011201012
00100100112010120
01001001120101200
10010011201012002
00100112010120021
01001120101200212
10011201012002122
00112010120021221
01120101200212211
11201012002122111
12010120021221111
20101200212211110
01012002122111100
10120021221111000
01200212211110001

000002121002020020
000021210020200200
000212100202002002
002121002020020021
021210020200200211
212100202002002112
121002020020021121
210020200200211211
100202002002112111
002020020021121110
020200200211211101
202002002112111010
020020021121110101
200200211211101010
002002112111010101
020021121110101010
200211211101010101
002112111010101010
10110020010012201
01100200100122012
11002001001220120
10020010012201202
00200100122012020
02001001220120200
20010012201202002
00100122012020021
01001220120200212
10012201202002120
00122012020021201
01220120200212011
12201202002120111
22012020021201111
20120200212011110
01202002120111100
12020021201111000
20200212011110001

100102120002020020
001021200020200200
010212000202002002
102120002020020020
021200020200200201
212000202002002011
120002020020020111
200020200200201111
000202002002011111
002020020020111110
020200200201111101
202002002011111010
020020020111110101
200200201111101010
002002011111010101
020020111110101011
200201111101010111
002011111010101110
00120010010012201
01200100100122010
12001001001220101
20010010012201012
00100100122010120
01001001220101200
10010012201012002
00100122010120020
01001220101200202
10012201012002022
00122010120020221
01220101200202211
12201012002022111
22010120020221111
20101200202211110
01012002022111100
10120020221111000
01200202211110001

100002120102020020
000021201020200200
000212010202002002
002120102020020021
021201020200200211
212010202002002111
120102020020021111
201020200200211111
010202002002111111
102020020021111110
020200200211111101
202002002111111010
020020021111110101
200200211111101010
002002111111010101
020021111110101010
200211111101010101
002111111010101010
00120010010012201
01200100100122010
12001001001220101
20010010012201012
00100100122010120
01001001220101200
10010012201012002
00100122010120021
01001220101200212
10012201012002122
00122010120021221
01220101200212211
12201012002122111
22010120021221111
20101200212211110
01012002122111100
10120021221111001
01200212211110011

100102120002020020
001021200020200200
010212000202002002
102120002020020021
021200020200200211
212000202002002112
120002020020021121
200020200200211211
000202002002112111
002020020021121110
020200200211211101
202002002112111010
020020021121110101
200200211211101010
002002112111010101
020021121110101011
200211211101010111
002112111010101110
10110020010011201
01100200100112012
11002001001120121
10020010011201212
00200100112012120
02001001120121200
20010011201212002
00100112012120021
01001120121200212
10011201212002122
00112012120021221
01120121200212211
11201212002122111
12012120021221111
20121200212211110
01212002122111100
12120021221111000
21200212211110001

000002120102020020
000021201020200200
000212010202002002
002120102020020021
021201020200200210
212010202002002101
120102020020021011
201020200200210111
010202002002101110
102020020021011100
020200200210111001
202002002101110010
020020021011100101
200200210111001011
002002101110010111
020021011100101110
200210111001011101
002101110010111010
00110010010011201
01100100100112012
11001001001120121
10010010011201212
00100100112012120
01001001120121200
10010011201212002
00100112012120021
01001120121200212
10011201212002122
00112012120021221
01120121200212211
11201212002122111
12012120021221110
20121200212211100
01212002122111000
12120021221110000
21200212211100000

001102121002020020
011021210020200200
110212100202002002
102121002020020021
021210020200200211
212100202002002110
121002020020021100
210020200200211001
100202002002110010
002020020021100101
020200200211001011
202002002110010110
020020021100101101
200200211001011010
002002110010110101
020021100101101010
200211001011010101
002110010110101010
00110010011011201
01100100110112011
11001001101120112
10010011011201122
00100110112011220
01001101120112200
10011011201122002
00110112011220021
01101120112200212
11011201122002120
10112011220021201
01120112200212011
11201122002120111
12011220021201111
20112200212011110
01122002120111100
11220021201111000
12200212011110000

100002120002021020
000021200020210200
000212000202102002
002120002021020021
021200020210200211
212000202102002111
120002021020021111
200020210200211111
000202102002111110
002021020021111101
020210200211111011
202102002111110110
021020021111101101
210200211111011011
102002111110110110
020021111101101101
200211111011011011
002111110110110110
10111000010010201
01110000100102011
11100001001020111
11000010010201112
10000100102011120
00001001020111200
00010010201112002
00100102011120021
01001020111200212
10010201112002121
00102011120021211
01020111200212111
10201112002121111
02011120021211111
20111200212111111
01112002121111110
11120021211111100
11200212111111001

100002120002020020
000021200020200200
000212000202002002
002120002020020021
021200020200200211
212000202002002111
120002020020021111
200020200200211111
000202002002111111
002020020021111110
020200200211111101
202002002111111010
020020021111110101
200200211111101010
002002111111010101
020021111110101010
200211111101010101
002111111010101010
10100020010012201
01000200100122012
10002001001220121
00020010012201212
00200100122012120
02001001220121200
20010012201212002
00100122012120021
01001220121200212
10012201212002122
00122012120021221
01220121200212211
12201212002122111
22012120021221111
20121200212211110
01212002122111100
12120021221111000
21200212211110001

101202120012021121
012021200120211212
120212001202112122
202120012021121221
021200120211212211
212001202112122110
120012021121221100
200120211212211001
001202112122110010
012021121221100101
120211212211001011
202112122110010112
021121221100101121
211212211001011212
112122110010112122
121221100101121221
212211001011212211
122110010112122110
10111011000011201
01110110000112010
11101100001120101
11011000011201012
10110000112010120
01100001120101201
11000011201012012
10000112010120121
00001120101201212
00011201012012121
00112010120121211
01120101201212111
11201012012121111
12010120121211111
20101201212111110
01012012121111101
10120121211111011
01201212111110111

100002120102020020
000021201020200200
000212010202002002
002120102020020021
021201020200200211
212010202002002111
120102020020021111
201020200200211111
010202002002111111
102020020021111110
020200200211111101
202002002111111010
020020021111110101
200200211111101010
002002111111010101
020021111110101011
200211111101010111
002111111010101110
00120010010012201
01200100100122012
12001001001220121
20010010012201212
00100100122012120
01001001220121200
10010012201212002
00100122012120021
01001220121200212
10012201212002121
00122012120021211
01220121200212111
12201212002121111
22012120021211111
20121200212111110
01212002121111100
12120021211111000
21200212111110001

000002120102020020
000021201020200200
000212010202002002
002120102020020021
021201020200200211
212010202002002112
120102020020021121
201020200200211211
010202002002112111
102020020021121110
020200200211211101
202002002112111010
020020021121110101
200200211211101010
002002112111010101
020021121110101010
200211211101010101
002112111010101010
00110020010012201
01100200100122012
11002001001220121
10020010012201212
00200100122012120
02001001220121200
20010012201212002
00100122012120021
01001220121200212
10012201212002120
00122012120021201
01220121200212011
12201212002120111
22012120021201111
20121200212011110
01212002120111100
12120021201111000
21200212011110001

