fitness: 33138 20290 0.89 2788 1.00 Gen: 15
0001021121100112022100
0010211211001120221000
0102112110011202210000
1021121100112022100001
0211211001120221000010
2112110011202210000102
1121100112022100001021
1211001120221000010211
2110011202210000102112
1100112022100001021121
1001120221000010211211
0011202210000102112110
0112022100001021121100
1120221000010211211001
1202210000102112110011
2022100001021121100112
0221000010211211001120
2210000102112110011202
2100001021121100112022
1000010211211001120221
0000102112110011202210
0001021121100112022100
022011112101212000121
220111121012120001212
201111210121200012122
011112101212000121220
111121012120001212201
111210121200012122011
112101212000121220111
121012120001212201111
210121200012122011112
101212000121220111121
012120001212201111210
121200012122011112101
212000121220111121012
120001212201111210121
200012122011112101212
000121220111121012120
001212201111210121200
012122011112101212000
121220111121012120001
212201111210121200012
122011112101212000121
220111121012120001211

fitness: 58743 21619 0.79 2790 1.00 Gen: 43
2001021121100112122102
0010211211001121221020
0102112110011212210200
1021121100112122102001
0211211001121221020010
2112110011212210200102
1121100112122102001021
1211001121221020010211
2110011212210200102112
1100112122102001021121
1001121221020010211211
0011212210200102112110
0112122102001021121100
1121221020010211211001
1212210200102112110011
2122102001021121100112
1221020010211211001121
2210200102112110011212
2102001021121100112122
1020010211211001121221
0200102112110011212210
2001021121100112122102
022002122101110101022
220021221011101010222
200212210111010102222
002122101110101022220
021221011101010222200
212210111010102222002
122101110101022220021
221011101010222200212
210111010102222002122
101110101022220021221
011101010222200212210
111010102222002122101
110101022220021221011
101010222200212210111
010102222002122101110
101022220021221011101
010222200212210111010
102222002122101110101
022220021221011101010
222200212210111010102
222002122101110101022
220021221011101010221

fitness: 34261 21315 0.89 3084 1.00 Gen: 68
0001021121100112022100
0010211211001120221000
0102112110011202210000
1021121100112022100001
0211211001120221000010
2112110011202210000102
1121100112022100001021
1211001120221000010211
2110011202210000102112
1100112022100001021121
1001120221000010211211
0011202210000102112110
0112022100001021121100
1120221000010211211001
1202210000102112110011
2022100001021121100112
0221000010211211001120
2210000102112110011202
2100001021121100112022
1000010211211001120221
0000102112110011202210
0001021121100112022100
022011112101212000121
220111121012120001212
201111210121200012122
011112101212000121220
111121012120001212201
111210121200012122011
112101212000121220111
121012120001212201111
210121200012122011112
101212000121220111121
012120001212201111210
121200012122011112101
212000121220111121012
120001212201111210121
200012122011112101212
000121220111121012120
001212201111210121200
012122011112101212000
121220111121012120001
212201111210121200012
122011112101212000121
220111121012120001211

fitness: 55501 21698 0.80 3037 1.00 Gen: 104
0001021121100112022100
0010211211001120221000
0102112110011202210000
1021121100112022100001
0211211001120221000010
2112110011202210000102
1121100112022100001021
1211001120221000010211
2110011202210000102112
1100112022100001021121
1001120221000010211211
0011202210000102112110
0112022100001021121100
1120221000010211211001
1202210000102112110011
2022100001021121100112
0221000010211211001120
2210000102112110011202
2100001021121100112022
1000010211211001120221
0000102112110011202210
0001021121100112022100
022011112101210000121
220111121012100001212
201111210121000012122
011112101210000121220
111121012100001212201
111210121000012122011
112101210000121220111
121012100001212201111
210121000012122011112
101210000121220111121
012100001212201111210
121000012122011112101
210000121220111121012
100001212201111210121
000012122011112101210
000121220111121012100
001212201111210121000
012122011112101210000
121220111121012100001
212201111210121000012
122011112101210000121
220111121012100001211

fitness: 39389 21566 0.86 3280 1.00 Gen: 113
2001021121102112022100
0010211211021120221000
0102112110211202210000
1021121102112022100001
0211211021120221000010
2112110211202210000102
1121102112022100001021
1211021120221000010211
2110211202210000102112
1102112022100001021121
1021120221000010211211
0211202210000102112110
2112022100001021121102
1120221000010211211021
1202210000102112110211
2022100001021121102112
0221000010211211021120
2210000102112110211202
2100001021121102112022
1000010211211021120221
0000102112110211202210
0001021121102112022100
022011112101110101021
220111121011101010212
201111210111010102122
011112101110101021220
111121011101010212201
111210111010102122011
112101110101021220111
121011101010212201111
210111010102122011112
101110101021220111121
011101010212201111210
111010102122011112101
110101021220111121011
101010212201111210111
010102122011112101110
101021220111121011101
010212201111210111010
102122011112101110101
021220111121011101010
212201111210111010102
122011112101110101021
220111121011101010211

fitness: 32687 21608 0.90 3085 1.00 Gen: 159
0001021121100112022100
0010211211001120221000
0102112110011202210000
1021121100112022100001
0211211001120221000010
2112110011202210000102
1121100112022100001021
1211001120221000010211
2110011202210000102112
1100112022100001021121
1001120221000010211211
0011202210000102112110
0112022100001021121100
1120221000010211211001
1202210000102112110011
2022100001021121100112
0221000010211211001120
2210000102112110011202
2100001021121100112022
1000010211211001120221
0000102112110011202210
0001021121100112022100
022011112101212000121
220111121012120001212
201111210121200012122
011112101212000121220
111121012120001212201
111210121200012122011
112101212000121220111
121012120001212201111
210121200012122011112
101212000121220111121
012120001212201111210
121200012122011112101
212000121220111121012
120001212201111210121
200012122011112101212
000121220111121012120
001212201111210121200
012122011112101212000
121220111121012120001
212201111210121200012
122011112101212000121
220111121012120001211

fitness: 52675 21476 0.81 2648 1.00 Gen: 205
0001021121102112022100
0010211211021120221000
0102112110211202210000
1021121102112022100001
0211211021120221000010
2112110211202210000102
1121102112022100001021
1211021120221000010211
2110211202210000102112
1102112022100001021121
1021120221000010211211
0211202210000102112110
2112022100001021121102
1120221000010211211021
1202210000102112110211
2022100001021121102112
0221000010211211021120
2210000102112110211202
2100001021121102112022
1000010211211021120221
0000102112110211202210
0001021121102112022100
022011112101210000121
220111121012100001212
201111210121000012122
011112101210000121220
111121012100001212201
111210121000012122011
112101210000121220111
121012100001212201111
210121000012122011112
101210000121220111121
012100001212201111210
121000012122011112101
210000121220111121012
100001212201111210121
000012122011112101210
000121220111121012100
001212201111210121000
012122011112101210000
121220111121012100001
212201111210121000012
122011112101210000121
220111121012100001211

fitness: 49447 21655 0.82 2784 1.00 Gen: 206
0001021121100112022100
0010211211001120221000
0102112110011202210000
1021121100112022100001
0211211001120221000010
2112110011202210000102
1121100112022100001021
1211001120221000010211
2110011202210000102112
1100112022100001021121
1001120221000010211211
0011202210000102112110
0112022100001021121100
1120221000010211211001
1202210000102112110011
2022100001021121100112
0221000010211211001120
2210000102112110011202
2100001021121100112022
1000010211211001120221
0000102112110011202210
0001021121100112022100
022011112101210100121
220111121012101001212
201111210121010012122
011112101210100121220
111121012101001212201
111210121010012122011
112101210100121220111
121012101001212201111
210121010012122011112
101210100121220111121
012101001212201111210
121010012122011112101
210100121220111121012
101001212201111210121
010012122011112101210
100121220111121012101
001212201111210121010
012122011112101210100
121220111121012101001
212201111210121010012
122011112101210100121
220111121012101001211

fitness: 63060 23447 0.78 2895 1.00 Gen: 245
2001021121202112022100
0010211212021120221000
0102112120211202210000
1021121202112022100001
0211212021120221000010
2112120211202210000102
1121202112022100001021
1212021120221000010211
2120211202210000102112
1202112022100001021121
2021120221000010211212
0211202210000102112120
2112022100001021121202
1120221000010211212021
1202210000102112120211
2022100001021121202112
0221000010211212021120
2210000102112120211202
2100001021121202112022
1000010211212021120221
0000102112120211202210
0001021121202112022100
022011112101110101021
220111121011101010212
201111210111010102122
011112101110101021220
111121011101010212201
111210111010102122011
112101110101021220111
121011101010212201111
210111010102122011112
101110101021220111121
011101010212201111210
111010102122011112101
110101021220111121011
101010212201111210111
010102122011112101110
101021220111121011101
010212201111210111010
102122011112101110101
021220111121011101010
212201111210111010102
122011112101110101021
220111121011101010211

fitness: 44433 22849 0.84 3075 1.00 Gen: 270
2001021121100112122100
0010211211001121221000
0102112110011212210000
1021121100112122100001
0211211001121221000010
2112110011212210000102
1121100112122100001021
1211001121221000010211
2110011212210000102112
1100112122100001021121
1001121221000010211211
0011212210000102112110
0112122100001021121100
1121221000010211211001
1212210000102112110011
2122100001021121100112
1221000010211211001121
2210000102112110011212
2100001021121100112122
1000010211211001121221
0000102112110011212210
0001021121100112122100
022002112101210101022
220021121012101010222
200211210121010102222
002112101210101022220
021121012101010222200
211210121010102222002
112101210101022220021
121012101010222200211
210121010102222002112
101210101022220021121
012101010222200211210
121010102222002112101
210101022220021121012
101010222200211210121
010102222002112101210
101022220021121012101
010222200211210121010
102222002112101210101
022220021121012101010
222200211210121010102
222002112101210101022
220021121012101010221

fitness: 34031 21574 0.89 3220 1.00 Gen: 281
0001021121100112022100
0010211211001120221000
0102112110011202210000
1021121100112022100001
0211211001120221000010
2112110011202210000102
1121100112022100001021
1211001120221000010211
2110011202210000102112
1100112022100001021121
1001120221000010211211
0011202210000102112110
0112022100001021121100
1120221000010211211001
1202210000102112110011
2022100001021121100112
0221000010211211001120
2210000102112110011202
2100001021121100112022
1000010211211001120221
0000102112110011202210
0001021121100112022100
022011112101212000121
220111121012120001212
201111210121200012122
011112101212000121220
111121012120001212201
111210121200012122011
112101212000121220111
121012120001212201111
210121200012122011112
101212000121220111121
012120001212201111210
121200012122011112101
212000121220111121012
120001212201111210121
200012122011112101212
000121220111121012120
001212201111210121200
012122011112101212000
121220111121012120001
212201111210121200012
122011112101212000121
220111121012120001211

fitness: 35261 21028 0.87 3172 1.00 Gen: 318
0001021121200112022100
0010211212001120221000
0102112120011202210000
1021121200112022100001
0211212001120221000010
2112120011202210000102
1121200112022100001021
1212001120221000010211
2120011202210000102112
1200112022100001021121
2001120221000010211212
0011202210000102112120
0112022100001021121200
1120221000010211212001
1202210000102112120011
2022100001021121200112
0221000010211212001120
2210000102112120011202
2100001021121200112022
1000010211212001120221
0000102112120011202210
0001021121200112022100
222011112110211001121
220111121102110011212
201111211021100112122
011112110211001121220
111121102110011212201
111211021100112122011
112110211001121220111
121102110011212201111
211021100112122011112
110211001121220111121
102110011212201111211
021100112122011112110
211001121220111121102
110011212201111211021
100112122011112110211
001121220111121102110
011212201111211021100
112122011112110211001
121220111121102110011
212201111211021100112
122011112110211001121
220111121102110011211

fitness: 75729 21341 0.76 2915 1.00 Gen: 341
0001021121100112022100
0010211211001120221000
0102112110011202210000
1021121100112022100001
0211211001120221000010
2112110011202210000102
1121100112022100001021
1211001120221000010211
2110011202210000102112
1100112022100001021121
1001120221000010211211
0011202210000102112110
0112022100001021121100
1120221000010211211001
1202210000102112110011
2022100001021121100112
0221000010211211001120
2210000102112110011202
2100001021121100112022
1000010211211001120221
0000102112110011202210
0001021121100112022100
022011112101210000121
220111121012100001212
201111210121000012122
011112101210000121220
111121012100001212201
111210121000012122011
112101210000121220111
121012100001212201111
210121000012122011112
101210000121220111121
012100001212201111210
121000012122011112101
210000121220111121012
100001212201111210121
000012122011112101210
000121220111121012100
001212201111210121000
012122011112101210000
121220111121012100001
212201111210121000012
122011112101210000121
220111121012100001211

fitness: 39364 21477 0.86 3124 1.00 Gen: 352
2001021121100112022100
0010211211001120221000
0102112110011202210000
1021121100112022100001
0211211001120221000010
2112110011202210000102
1121100112022100001021
1211001120221000010211
2110011202210000102112
1100112022100001021121
1001120221000010211211
0011202210000102112110
0112022100001021121100
1120221000010211211001
1202210000102112110011
2022100001021121100112
0221000010211211001120
2210000102112110011202
2100001021121100112022
1000010211211001120221
0000102112110011202210
0001021121100112022100
022012112101210101022
220121121012101010222
201211210121010102222
012112101210101022220
121121012101010222201
211210121010102222012
112101210101022220121
121012101010222201211
210121010102222012112
101210101022220121121
012101010222201211210
121010102222012112101
210101022220121121012
101010222201211210121
010102222012112101210
101022220121121012101
010222201211210121010
102222012112101210101
022220121121012101010
222201211210121010102
222012112101210101022
220121121012101010221

fitness: 39527 22418 0.87 3134 1.00 Gen: 402
0001021121200112121100
0010211212001121211000
0102112120011212110000
1021121200112121100001
0211212001121211000010
2112120011212110000102
1121200112121100001021
1212001121211000010211
2120011212110000102112
1200112121100001021121
2001121211000010211212
0011212110000102112120
0112121100001021121200
1121211000010211212001
1212110000102112120011
2121100001021121200112
1211000010211212001121
2110000102112120011212
1100001021121200112121
1000010211212001121211
0000102112120011212110
0001021121200112121100
222011112101021110121
220111121010211101212
201111210102111012122
011112101021110121220
111121010211101212201
111210102111012122011
112101021110121220111
121010211101212201111
210102111012122011112
101021110121220111121
010211101212201111210
102111012122011112101
021110121220111121010
211101212201111210102
111012122011112101021
110121220111121010211
101212201111210102111
012122011112101021110
121220111121010211101
212201111210102111012
122011112101021110121
220111121010211101210

fitness: 43304 22245 0.85 2811 1.00 Gen: 407
2001021121102112022100
0010211211021120221000
0102112110211202210000
1021121102112022100001
0211211021120221000010
2112110211202210000102
1121102112022100001021
1211021120221000010211
2110211202210000102112
1102112022100001021121
1021120221000010211211
0211202210000102112110
2112022100001021121102
1120221000010211211021
1202210000102112110211
2022100001021121102112
0221000010211211021120
2210000102112110211202
2100001021121102112022
1000010211211021120221
0000102112110211202210
0001021121102112022100
022011112101110101021
220111121011101010212
201111210111010102122
011112101110101021220
111121011101010212201
111210111010102122011
112101110101021220111
121011101010212201111
210111010102122011112
101110101021220111121
011101010212201111210
111010102122011112101
110101021220111121011
101010212201111210111
010102122011112101110
101021220111121011101
010212201111210111010
102122011112101110101
021220111121011101010
212201111210111010102
122011112101110101021
220111121011101010211

fitness: 65300 22527 0.78 2916 1.00 Gen: 455
2001021121202112022100
0010211212021120221000
0102112120211202210000
1021121202112022100001
0211212021120221000010
2112120211202210000102
1121202112022100001021
1212021120221000010211
2120211202210000102112
1202112022100001021121
2021120221000010211212
0211202210000102112120
2112022100001021121202
1120221000010211212021
1202210000102112120211
2022100001021121202112
0221000010211212021120
2210000102112120211202
2100001021121202112022
1000010211212021120221
0000102112120211202210
0001021121202112022100
222011110101110101021
220111101011101010212
201111010111010102122
011110101110101021220
111101011101010212201
111010111010102122011
110101110101021220111
101011101010212201111
010111010102122011110
101110101021220111101
011101010212201111010
111010102122011110101
110101021220111101011
101010212201111010111
010102122011110101110
101021220111101011101
010212201111010111010
102122011110101110101
021220111101011101010
212201111010111010102
122011110101110101021
220111101011101010211

fitness: 34141 20754 0.88 3049 1.00 Gen: 499
0001021121100112022100
0010211211001120221000
0102112110011202210000
1021121100112022100001
0211211001120221000010
2112110011202210000102
1121100112022100001021
1211001120221000010211
2110011202210000102112
1100112022100001021121
1001120221000010211211
0011202210000102112110
0112022100001021121100
1120221000010211211001
1202210000102112110011
2022100001021121100112
0221000010211211001120
2210000102112110011202
2100001021121100112022
1000010211211001120221
0000102112110011202210
0001021121100112022100
222011110100212000121
220111101002120001212
201111010021200012122
011110100212000121220
111101002120001212201
111010021200012122011
110100212000121220111
101002120001212201111
010021200012122011110
100212000121220111101
002120001212201111010
021200012122011110100
212000121220111101002
120001212201111010021
200012122011110100212
000121220111101002120
001212201111010021200
012122011110100212000
121220111101002120001
212201111010021200012
122011110100212000121
220111101002120001211

fitness: 69239 23191 0.77 2987 1.00 Gen: 514
2001021121202112022100
0010211212021120221000
0102112120211202210000
1021121202112022100001
0211212021120221000010
2112120211202210000102
1121202112022100001021
1212021120221000010211
2120211202210000102112
1202112022100001021121
2021120221000010211212
0211202210000102112120
2112022100001021121202
1120221000010211212021
1202210000102112120211
2022100001021121202112
0221000010211212021120
2210000102112120211202
2100001021121202112022
1000010211212021120221
0000102112120211202210
0001021121202112022100
222011110101110101021
220111101011101010212
201111010111010102122
011110101110101021220
111101011101010212201
111010111010102122011
110101110101021220111
101011101010212201111
010111010102122011110
101110101021220111101
011101010212201111010
111010102122011110101
110101021220111101011
101010212201111010111
010102122011110101110
101021220111101011101
010212201111010111010
102122011110101110101
021220111101011101010
212201111010111010102
122011110101110101021
220111101011101010211

fitness: 40188 21719 0.85 3081 1.00 Gen: 522
2001021121102112022100
0010211211021120221000
0102112110211202210000
1021121102112022100001
0211211021120221000010
2112110211202210000102
1121102112022100001021
1211021120221000010211
2110211202210000102112
1102112022100001021121
1021120221000010211211
0211202210000102112110
2112022100001021121102
1120221000010211211021
1202210000102112110211
2022100001021121102112
0221000010211211021120
2210000102112110211202
2100001021121102112022
1000010211211021120221
0000102112110211202210
0001021121102112022100
022011112101110101021
220111121011101010212
201111210111010102122
011112101110101021220
111121011101010212201
111210111010102122011
112101110101021220111
121011101010212201111
210111010102122011112
101110101021220111121
011101010212201111210
111010102122011112101
110101021220111121011
101010212201111210111
010102122011112101110
101021220111121011101
010212201111210111010
102122011112101110101
021220111121011101010
212201111210111010102
122011112101110101021
220111121011101010211

fitness: 44115 21375 0.83 2908 1.00 Gen: 545
0011021121100112022100
0110211211001120221000
1102112110011202210001
1021121100112022100011
0211211001120221000110
2112110011202210001102
1121100112022100011021
1211001120221000110211
2110011202210001102112
1100112022100011021121
1001120221000110211211
0011202210001102112110
0112022100011021121100
1120221000110211211001
1202210001102112110011
2022100011021121100112
0221000110211211001120
2210001102112110011202
2100011021121100112022
1000110211211001120221
0001102112110011202210
0011021121100112022100
022011112101212000121
220111121012120001212
201111210121200012122
011112101212000121220
111121012120001212201
111210121200012122011
112101212000121220111
121012120001212201111
210121200012122011112
101212000121220111121
012120001212201111210
121200012122011112101
212000121220111121012
120001212201111210121
200012122011112101212
000121220111121012120
001212201111210121200
012122011112101212000
121220111121012120001
212201111210121200012
122011112101212000121
220111121012120001211

fitness: 66261 23063 0.76 3316 1.00 Gen: 558
2001021121202112022100
0010211212021120221000
0102112120211202210000
1021121202112022100001
0211212021120221000010
2112120211202210000102
1121202112022100001021
1212021120221000010211
2120211202210000102112
1202112022100001021121
2021120221000010211212
0211202210000102112120
2112022100001021121202
1120221000010211212021
1202210000102112120211
2022100001021121202112
0221000010211212021120
2210000102112120211202
2100001021121202112022
1000010211212021120221
0000102112120211202210
0001021121202112022100
222011112101110101021
220111121011101010212
201111210111010102122
011112101110101021220
111121011101010212201
111210111010102122011
112101110101021220111
121011101010212201111
210111010102122011112
101110101021220111121
011101010212201111210
111010102122011112101
110101021220111121011
101010212201111210111
010102122011112101110
101021220111121011101
010212201111210111010
102122011112101110101
021220111121011101010
212201111210111010102
122011112101110101021
220111121011101010211

fitness: 41297 21290 0.85 2855 1.00 Gen: 566
2001021121102112022100
0010211211021120221000
0102112110211202210000
1021121102112022100001
0211211021120221000010
2112110211202210000102
1121102112022100001021
1211021120221000010211
2110211202210000102112
1102112022100001021121
1021120221000010211211
0211202210000102112110
2112022100001021121102
1120221000010211211021
1202210000102112110211
2022100001021121102112
0221000010211211021120
2210000102112110211202
2100001021121102112022
1000010211211021120221
0000102112110211202210
0001021121102112022100
222011112101110101021
220111121011101010212
201111210111010102122
011112101110101021220
111121011101010212201
111210111010102122011
112101110101021220111
121011101010212201111
210111010102122011112
101110101021220111121
011101010212201111210
111010102122011112101
110101021220111121011
101010212201111210111
010102122011112101110
101021220111121011101
010212201111210111010
102122011112101110101
021220111121011101010
212201111210111010102
122011112101110101021
220111121011101010211

fitness: 55779 22535 0.80 3180 1.00 Gen: 568
2001021121102112022100
0010211211021120221000
0102112110211202210000
1021121102112022100001
0211211021120221000010
2112110211202210000102
1121102112022100001021
1211021120221000010211
2110211202210000102112
1102112022100001021121
1021120221000010211211
0211202210000102112110
2112022100001021121102
1120221000010211211021
1202210000102112110211
2022100001021121102112
0221000010211211021120
2210000102112110211202
2100001021121102112022
1000010211211021120221
0000102112110211202210
0001021121102112022100
222011110101110101021
220111101011101010212
201111010111010102122
011110101110101021220
111101011101010212201
111010111010102122011
110101110101021220111
101011101010212201111
010111010102122011110
101110101021220111101
011101010212201111010
111010102122011110101
110101021220111101011
101010212201111010111
010102122011110101110
101021220111101011101
010212201111010111010
102122011110101110101
021220111101011101010
212201111010111010102
122011110101110101021
220111101011101010211

fitness: 42172 21257 0.84 2987 1.00 Gen: 634
0001021121100112022100
0010211211001120221000
0102112110011202210000
1021121100112022100001
0211211001120221000010
2112110011202210000102
1121100112022100001021
1211001120221000010211
2110011202210000102112
1100112022100001021121
1001120221000010211211
0011202210000102112110
0112022100001021121100
1120221000010211211001
1202210000102112110011
2022100001021121100112
0221000010211211001120
2210000102112110011202
2100001021121100112022
1000010211211001120221
0000102112110011202210
0001021121100112022100
022011112101112000121
220111121011120001212
201111210111200012122
011112101112000121220
111121011120001212201
111210111200012122011
112101112000121220111
121011120001212201111
210111200012122011112
101112000121220111121
011120001212201111210
111200012122011112101
112000121220111121011
120001212201111210111
200012122011112101112
000121220111121011120
001212201111210111200
012122011112101112000
121220111121011120001
212201111210111200012
122011112101112000121
220111121011120001211

