fitness: 140183 7954 0.40 2925 1.00 Gen: 135
0010000001000012100011101110
0100000010000121000111011100
1000000100001210001110111001
0000001000012100011101110010
0000010000121000111011100100
0000100001210001110111001000
0001000012100011101110010000
0010000121000111011100100000
0100001210001110111001000000
1000012100011101110010000001
0000121000111011100100000010
0001210001110111001000000100
0012100011101110010000001000
0121000111011100100000010000
1210001110111001000000100001
2100011101110010000001000012
1000111011100100000010000121
0001110111001000000100001210
0011101110010000001000012100
0111011100100000010000121000
1110111001000000100001210001
1101110010000001000012100011
1011100100000010000121000111
0111001000000100001210001110
1110010000001000012100011101
1100100000010000121000111011
1001000000100001210001110111
0010000001000012100011101110
000000100011110001110021011
000001000111100011100210110
000010001111000111002101100
000100011110001110021011000
001000111100011100210110000
010001111000111002101100000
100011110001110021011000001
000111100011100210110000010
001111000111002101100000100
011110001110021011000001000
111100011100210110000010001
111000111002101100000100011
110001110021011000001000111
100011100210110000010001111
000111002101100000100011110
001110021011000001000111100
011100210110000010001111000
111002101100000100011110001
110021011000001000111100011
100210110000010001111000111
002101100000100011110001110
021011000001000111100011100
210110000010001111000111002
101100000100011110001110021
011000001000111100011100210
110000010001111000111002101
100000100011110001110021011
000001000111100011100210111

fitness: 97190 9409 0.49 3098 1.00 Gen: 158
0000010001100010000010001010
0000100011000100000100010100
0001000110001000001000101000
0010001100010000010001010000
0100011000100000100010100000
1000110001000001000101000001
0001100010000010001010000010
0011000100000100010100000100
0110001000001000101000001000
1100010000010001010000010001
1000100000100010100000100011
0001000001000101000001000110
0010000010001010000010001100
0100000100010100000100011000
1000001000101000001000110001
0000010001010000010001100010
0000100010100000100011000100
0001000101000001000110001000
0010001010000010001100010000
0100010100000100011000100000
1000101000001000110001000001
0001010000010001100010000010
0010100000100011000100000100
0101000001000110001000001000
1010000010001100010000010001
0100000100011000100000100010
1000001000110001000001000101
0000010001100010000010001010
100101100100000011010100000
001011001000000110101000000
010110010000001101010000000
101100100000011010100000001
011001000000110101000000010
110010000001101010000000101
100100000011010100000001011
001000000110101000000010110
010000001101010000000101100
100000011010100000001011001
000000110101000000010110010
000001101010000000101100100
000011010100000001011001000
000110101000000010110010000
001101010000000101100100000
011010100000001011001000000
110101000000010110010000001
101010000000101100100000011
010100000001011001000000110
101000000010110010000001101
010000000101100100000011010
100000001011001000000110101
000000010110010000001101010
000000101100100000011010100
000001011001000000110101000
000010110010000001101010000
000101100100000011010100000
001011001000000110101000000

fitness: 66320 22337 0.77 2907 1.00 Gen: 179
0010000001000012100001101110
0100000010000121000011011100
1000000100001210000110111001
0000001000012100001101110010
0000010000121000011011100100
0000100001210000110111001000
0001000012100001101110010000
0010000121000011011100100000
0100001210000110111001000000
1000012100001101110010000001
0000121000011011100100000010
0001210000110111001000000100
0012100001101110010000001000
0121000011011100100000010000
1210000110111001000000100001
2100001101110010000001000012
1000011011100100000010000121
0000110111001000000100001210
0001101110010000001000012100
0011011100100000010000121000
0110111001000000100001210000
1101110010000001000012100001
1011100100000010000121000011
0111001000000100001210000110
1110010000001000012100001101
1100100000010000121000011011
1001000000100001210000110111
0010000001000012100001101110
000002100011110001110021011
000021000111100011100210110
000210001111000111002101100
002100011110001110021011000
021000111100011100210110000
210001111000111002101100002
100011110001110021011000021
000111100011100210110000210
001111000111002101100002100
011110001110021011000021000
111100011100210110000210001
111000111002101100002100011
110001110021011000021000111
100011100210110000210001111
000111002101100002100011110
001110021011000021000111100
011100210110000210001111000
111002101100002100011110001
110021011000021000111100011
100210110000210001111000111
002101100002100011110001110
021011000021000111100011100
210110000210001111000111002
101100002100011110001110021
011000021000111100011100210
110000210001111000111002101
100002100011110001110021011
000021000111100011100210111

fitness: 55324 21677 0.80 2748 1.00 Gen: 192
2111010001021111100001101110
1110100010211111000011011101
1101000102111110000110111011
1010001021111100001101110111
0100010211111000011011101110
1000102111110000110111011101
0001021111100001101110111010
0010211111000011011101110100
0102111110000110111011101000
1021111100001101110111010001
0211111000011011101110100010
2111110000110111011101000102
1111100001101110111010001021
1111000011011101110100010211
1110000110111011101000102111
1100001101110111010001021111
1000011011101110100010211111
0000110111011101000102111110
0001101110111010001021111100
0011011101110100010211111000
0110111011101000102111110000
1101110111010001021111100001
1011101110100010211111000011
0111011101000102111110000110
1110111010001021111100001101
1101110100010211111000011011
1011101000102111110000110111
0111010001021111100001101110
001101000010110110110002111
011010000101101101100021110
110100001011011011000211101
101000010110110110002111011
010000101101101100021110110
100001011011011000211101101
000010110110110002111011010
000101101101100021110110100
001011011011000211101101000
010110110110002111011010000
101101101100021110110100001
011011011000211101101000010
110110110002111011010000101
101101100021110110100001011
011011000211101101000010110
110110002111011010000101101
101100021110110100001011011
011000211101101000010110110
110002111011010000101101101
100021110110100001011011011
000211101101000010110110110
002111011010000101101101100
021110110100001011011011000
211101101000010110110110002
111011010000101101101100021
110110100001011011011000211
101101000010110110110002111
011010000101101101100021111

fitness: 64206 22316 0.76 3221 1.00 Gen: 235
0010000001000012100001101110
0100000010000121000011011100
1000000100001210000110111001
0000001000012100001101110010
0000010000121000011011100100
0000100001210000110111001000
0001000012100001101110010000
0010000121000011011100100000
0100001210000110111001000000
1000012100001101110010000001
0000121000011011100100000010
0001210000110111001000000100
0012100001101110010000001000
0121000011011100100000010000
1210000110111001000000100001
2100001101110010000001000012
1000011011100100000010000121
0000110111001000000100001210
0001101110010000001000012100
0011011100100000010000121000
0110111001000000100001210000
1101110010000001000012100001
1011100100000010000121000011
0111001000000100001210000110
1110010000001000012100001101
1100100000010000121000011011
1001000000100001210000110111
0010000001000012100001101110
000002100011110001110011011
000021000111100011100110110
000210001111000111001101100
002100011110001110011011000
021000111100011100110110000
210001111000111001101100002
100011110001110011011000021
000111100011100110110000210
001111000111001101100002100
011110001110011011000021000
111100011100110110000210001
111000111001101100002100011
110001110011011000021000111
100011100110110000210001111
000111001101100002100011110
001110011011000021000111100
011100110110000210001111000
111001101100002100011110001
110011011000021000111100011
100110110000210001111000111
001101100002100011110001110
011011000021000111100011100
110110000210001111000111001
101100002100011110001110011
011000021000111100011100110
110000210001111000111001101
100002100011110001110011011
000021000111100011100110111

fitness: 70407 21314 0.75 2890 1.00 Gen: 314
0010000001000012100011101110
0100000010000121000111011100
1000000100001210001110111001
0000001000012100011101110010
0000010000121000111011100100
0000100001210001110111001000
0001000012100011101110010000
0010000121000111011100100000
0100001210001110111001000000
1000012100011101110010000001
0000121000111011100100000010
0001210001110111001000000100
0012100011101110010000001000
0121000111011100100000010000
1210001110111001000000100001
2100011101110010000001000012
1000111011100100000010000121
0001110111001000000100001210
0011101110010000001000012100
0111011100100000010000121000
1110111001000000100001210001
1101110010000001000012100011
1011100100000010000121000111
0111001000000100001210001110
1110010000001000012100011101
1100100000010000121000111011
1001000000100001210001110111
0010000001000012100011101110
000001100011110001110011011
000011000111100011100110110
000110001111000111001101100
001100011110001110011011000
011000111100011100110110000
110001111000111001101100001
100011110001110011011000011
000111100011100110110000110
001111000111001101100001100
011110001110011011000011000
111100011100110110000110001
111000111001101100001100011
110001110011011000011000111
100011100110110000110001111
000111001101100001100011110
001110011011000011000111100
011100110110000110001111000
111001101100001100011110001
110011011000011000111100011
100110110000110001111000111
001101100001100011110001110
011011000011000111100011100
110110000110001111000111001
101100001100011110001110011
011000011000111100011100110
110000110001111000111001101
100001100011110001110011011
000011000111100011100110111

fitness: 68936 24121 0.77 3264 1.00 Gen: 358
0010000001000012100001101110
0100000010000121000011011100
1000000100001210000110111001
0000001000012100001101110010
0000010000121000011011100100
0000100001210000110111001000
0001000012100001101110010000
0010000121000011011100100000
0100001210000110111001000000
1000012100001101110010000001
0000121000011011100100000010
0001210000110111001000000100
0012100001101110010000001000
0121000011011100100000010000
1210000110111001000000100001
2100001101110010000001000012
1000011011100100000010000121
0000110111001000000100001210
0001101110010000001000012100
0011011100100000010000121000
0110111001000000100001210000
1101110010000001000012100001
1011100100000010000121000011
0111001000000100001210000110
1110010000001000012100001101
1100100000010000121000011011
1001000000100001210000110111
0010000001000012100001101110
000002100011110001110001011
000021000111100011100010110
000210001111000111000101100
002100011110001110001011000
021000111100011100010110000
210001111000111000101100002
100011110001110001011000021
000111100011100010110000210
001111000111000101100002100
011110001110001011000021000
111100011100010110000210001
111000111000101100002100011
110001110001011000021000111
100011100010110000210001111
000111000101100002100011110
001110001011000021000111100
011100010110000210001111000
111000101100002100011110001
110001011000021000111100011
100010110000210001111000111
000101100002100011110001110
001011000021000111100011100
010110000210001111000111000
101100002100011110001110001
011000021000111100011100010
110000210001111000111000101
100002100011110001110001011
000021000111100011100010111

fitness: 68852 21520 0.76 2889 1.00 Gen: 373
2122010001021112001001101221
1220100010211120010011012211
2201000102111200100110122112
2010001021112001001101221122
0100010211120010011012211220
1000102111200100110122112201
0001021112001001101221122010
0010211120010011012211220100
0102111200100110122112201000
1021112001001101221122010001
0211120010011012211220100010
2111200100110122112201000102
1112001001101221122010001021
1120010011012211220100010211
1200100110122112201000102111
2001001101221122010001021112
0010011012211220100010211120
0100110122112201000102111200
1001101221122010001021112001
0011012211220100010211120010
0110122112201000102111200100
1101221122010001021112001001
1012211220100010211120010011
0122112201000102111200100110
1221122010001021112001001101
2211220100010211120010011012
2112201000102111200100110122
1122010001021112001001101221
001001000010110110110012111
010010000101101101100121110
100100001011011011001211101
001000010110110110012111010
010000101101101100121110100
100001011011011001211101001
000010110110110012111010010
000101101101100121110100100
001011011011001211101001000
010110110110012111010010000
101101101100121110100100001
011011011001211101001000010
110110110012111010010000101
101101100121110100100001011
011011001211101001000010110
110110012111010010000101101
101100121110100100001011011
011001211101001000010110110
110012111010010000101101101
100121110100100001011011011
001211101001000010110110110
012111010010000101101101100
121110100100001011011011001
211101001000010110110110012
111010010000101101101100121
110100100001011011011001211
101001000010110110110012111
010010000101101101100121111

fitness: 61262 21221 0.77 3094 1.00 Gen: 380
0010000001000012100001100110
0100000010000121000011001100
1000000100001210000110011001
0000001000012100001100110010
0000010000121000011001100100
0000100001210000110011001000
0001000012100001100110010000
0010000121000011001100100000
0100001210000110011001000000
1000012100001100110010000001
0000121000011001100100000010
0001210000110011001000000100
0012100001100110010000001000
0121000011001100100000010000
1210000110011001000000100001
2100001100110010000001000012
1000011001100100000010000121
0000110011001000000100001210
0001100110010000001000012100
0011001100100000010000121000
0110011001000000100001210000
1100110010000001000012100001
1001100100000010000121000011
0011001000000100001210000110
0110010000001000012100001100
1100100000010000121000011001
1001000000100001210000110011
0010000001000012100001100110
000001100011110101110011011
000011000111101011100110110
000110001111010111001101100
001100011110101110011011000
011000111101011100110110000
110001111010111001101100001
100011110101110011011000011
000111101011100110110000110
001111010111001101100001100
011110101110011011000011000
111101011100110110000110001
111010111001101100001100011
110101110011011000011000111
101011100110110000110001111
010111001101100001100011110
101110011011000011000111101
011100110110000110001111010
111001101100001100011110101
110011011000011000111101011
100110110000110001111010111
001101100001100011110101110
011011000011000111101011100
110110000110001111010111001
101100001100011110101110011
011000011000111101011100110
110000110001111010111001101
100001100011110101110011011
000011000111101011100110111

fitness: 71525 21930 0.76 2993 1.00 Gen: 384
0010000001000012100001101110
0100000010000121000011011100
1000000100001210000110111001
0000001000012100001101110010
0000010000121000011011100100
0000100001210000110111001000
0001000012100001101110010000
0010000121000011011100100000
0100001210000110111001000000
1000012100001101110010000001
0000121000011011100100000010
0001210000110111001000000100
0012100001101110010000001000
0121000011011100100000010000
1210000110111001000000100001
2100001101110010000001000012
1000011011100100000010000121
0000110111001000000100001210
0001101110010000001000012100
0011011100100000010000121000
0110111001000000100001210000
1101110010000001000012100001
1011100100000010000121000011
0111001000000100001210000110
1110010000001000012100001101
1100100000010000121000011011
1001000000100001210000110111
0010000001000012100001101110
000002100011110001110011011
000021000111100011100110110
000210001111000111001101100
002100011110001110011011000
021000111100011100110110000
210001111000111001101100002
100011110001110011011000021
000111100011100110110000210
001111000111001101100002100
011110001110011011000021000
111100011100110110000210001
111000111001101100002100011
110001110011011000021000111
100011100110110000210001111
000111001101100002100011110
001110011011000021000111100
011100110110000210001111000
111001101100002100011110001
110011011000021000111100011
100110110000210001111000111
001101100002100011110001110
011011000021000111100011100
110110000210001111000111001
101100002100011110001110011
011000021000111100011100110
110000210001111000111001101
100002100011110001110011011
000021000111100011100110111

fitness: 63035 22374 0.76 3051 1.00 Gen: 413
0010000001000012100001101110
0100000010000121000011011100
1000000100001210000110111001
0000001000012100001101110010
0000010000121000011011100100
0000100001210000110111001000
0001000012100001101110010000
0010000121000011011100100000
0100001210000110111001000000
1000012100001101110010000001
0000121000011011100100000010
0001210000110111001000000100
0012100001101110010000001000
0121000011011100100000010000
1210000110111001000000100001
2100001101110010000001000012
1000011011100100000010000121
0000110111001000000100001210
0001101110010000001000012100
0011011100100000010000121000
0110111001000000100001210000
1101110010000001000012100001
1011100100000010000121000011
0111001000000100001210000110
1110010000001000012100001101
1100100000010000121000011011
1001000000100001210000110111
0010000001000012100001101110
000002100011110001110011011
000021000111100011100110110
000210001111000111001101100
002100011110001110011011000
021000111100011100110110000
210001111000111001101100002
100011110001110011011000021
000111100011100110110000210
001111000111001101100002100
011110001110011011000021000
111100011100110110000210001
111000111001101100002100011
110001110011011000021000111
100011100110110000210001111
000111001101100002100011110
001110011011000021000111100
011100110110000210001111000
111001101100002100011110001
110011011000021000111100011
100110110000210001111000111
001101100002100011110001110
011011000021000111100011100
110110000210001111000111001
101100002100011110001110011
011000021000111100011100110
110000210001111000111001101
100002100011110001110011011
000021000111100011100110111

fitness: 67648 21622 0.76 2889 1.00 Gen: 423
0010000001000012100001101110
0100000010000121000011011100
1000000100001210000110111001
0000001000012100001101110010
0000010000121000011011100100
0000100001210000110111001000
0001000012100001101110010000
0010000121000011011100100000
0100001210000110111001000000
1000012100001101110010000001
0000121000011011100100000010
0001210000110111001000000100
0012100001101110010000001000
0121000011011100100000010000
1210000110111001000000100001
2100001101110010000001000012
1000011011100100000010000121
0000110111001000000100001210
0001101110010000001000012100
0011011100100000010000121000
0110111001000000100001210000
1101110010000001000012100001
1011100100000010000121000011
0111001000000100001210000110
1110010000001000012100001101
1100100000010000121000011011
1001000000100001210000110111
0010000001000012100001101110
000002100011110001110011011
000021000111100011100110110
000210001111000111001101100
002100011110001110011011000
021000111100011100110110000
210001111000111001101100002
100011110001110011011000021
000111100011100110110000210
001111000111001101100002100
011110001110011011000021000
111100011100110110000210001
111000111001101100002100011
110001110011011000021000111
100011100110110000210001111
000111001101100002100011110
001110011011000021000111100
011100110110000210001111000
111001101100002100011110001
110011011000021000111100011
100110110000210001111000111
001101100002100011110001110
011011000021000111100011100
110110000210001111000111001
101100002100011110001110011
011000021000111100011100110
110000210001111000111001101
100002100011110001110011011
000021000111100011100110111

fitness: 139327 8357 0.47 2868 1.00 Gen: 430
1122000001020012000001111221
1220000010200120000011112211
2200000102001200000111122112
2000001020012000001111221122
0000010200120000011112211220
0000102001200000111122112200
0001020012000001111221122000
0010200120000011112211220000
0102001200000111122112200000
1020012000001111221122000001
0200120000011112211220000010
2001200000111122112200000102
0012000001111221122000001020
0120000011112211220000010200
1200000111122112200000102001
2000001111221122000001020012
0000011112211220000010200120
0000111122112200000102001200
0001111221122000001020012000
0011112211220000010200120000
0111122112200000102001200000
1111221122000001020012000001
1112211220000010200120000011
1122112200000102001200000111
1221122000001020012000001111
2211220000010200120000011112
2112200000102001200000111122
1122000001020012000001111221
001001000000110110110011111
010010000001101101100111110
100100000011011011001111101
001000000110110110011111010
010000001101101100111110100
100000011011011001111101001
000000110110110011111010010
000001101101100111110100100
000011011011001111101001000
000110110110011111010010000
001101101100111110100100000
011011011001111101001000000
110110110011111010010000001
101101100111110100100000011
011011001111101001000000110
110110011111010010000001101
101100111110100100000011011
011001111101001000000110110
110011111010010000001101101
100111110100100000011011011
001111101001000000110110110
011111010010000001101101100
111110100100000011011011001
111101001000000110110110011
111010010000001101101100111
110100100000011011011001111
101001000000110110110011111
010010000001101101100111111

fitness: 66282 22249 0.77 2985 1.00 Gen: 441
0010000001000012100001101110
0100000010000121000011011100
1000000100001210000110111001
0000001000012100001101110010
0000010000121000011011100100
0000100001210000110111001000
0001000012100001101110010000
0010000121000011011100100000
0100001210000110111001000000
1000012100001101110010000001
0000121000011011100100000010
0001210000110111001000000100
0012100001101110010000001000
0121000011011100100000010000
1210000110111001000000100001
2100001101110010000001000012
1000011011100100000010000121
0000110111001000000100001210
0001101110010000001000012100
0011011100100000010000121000
0110111001000000100001210000
1101110010000001000012100001
1011100100000010000121000011
0111001000000100001210000110
1110010000001000012100001101
1100100000010000121000011011
1001000000100001210000110111
0010000001000012100001101110
000002100011110001110011011
000021000111100011100110110
000210001111000111001101100
002100011110001110011011000
021000111100011100110110000
210001111000111001101100002
100011110001110011011000021
000111100011100110110000210
001111000111001101100002100
011110001110011011000021000
111100011100110110000210001
111000111001101100002100011
110001110011011000021000111
100011100110110000210001111
000111001101100002100011110
001110011011000021000111100
011100110110000210001111000
111001101100002100011110001
110011011000021000111100011
100110110000210001111000111
001101100002100011110001110
011011000021000111100011100
110110000210001111000111001
101100002100011110001110011
011000021000111100011100110
110000210001111000111001101
100002100011110001110011011
000021000111100011100110111

fitness: 74499 23297 0.75 3024 1.00 Gen: 443
0010000001000012100001101110
0100000010000121000011011100
1000000100001210000110111001
0000001000012100001101110010
0000010000121000011011100100
0000100001210000110111001000
0001000012100001101110010000
0010000121000011011100100000
0100001210000110111001000000
1000012100001101110010000001
0000121000011011100100000010
0001210000110111001000000100
0012100001101110010000001000
0121000011011100100000010000
1210000110111001000000100001
2100001101110010000001000012
1000011011100100000010000121
0000110111001000000100001210
0001101110010000001000012100
0011011100100000010000121000
0110111001000000100001210000
1101110010000001000012100001
1011100100000010000121000011
0111001000000100001210000110
1110010000001000012100001101
1100100000010000121000011011
1001000000100001210000110111
0010000001000012100001101110
000002100011110001110011011
000021000111100011100110110
000210001111000111001101100
002100011110001110011011000
021000111100011100110110000
210001111000111001101100002
100011110001110011011000021
000111100011100110110000210
001111000111001101100002100
011110001110011011000021000
111100011100110110000210001
111000111001101100002100011
110001110011011000021000111
100011100110110000210001111
000111001101100002100011110
001110011011000021000111100
011100110110000210001111000
111001101100002100011110001
110011011000021000111100011
100110110000210001111000111
001101100002100011110001110
011011000021000111100011100
110110000210001111000111001
101100002100011110001110011
011000021000111100011100110
110000210001111000111001101
100002100011110001110011011
000021000111100011100110111

fitness: 66180 21640 0.76 2959 1.00 Gen: 455
0010000001000012100001101110
0100000010000121000011011100
1000000100001210000110111001
0000001000012100001101110010
0000010000121000011011100100
0000100001210000110111001000
0001000012100001101110010000
0010000121000011011100100000
0100001210000110111001000000
1000012100001101110010000001
0000121000011011100100000010
0001210000110111001000000100
0012100001101110010000001000
0121000011011100100000010000
1210000110111001000000100001
2100001101110010000001000012
1000011011100100000010000121
0000110111001000000100001210
0001101110010000001000012100
0011011100100000010000121000
0110111001000000100001210000
1101110010000001000012100001
1011100100000010000121000011
0111001000000100001210000110
1110010000001000012100001101
1100100000010000121000011011
1001000000100001210000110111
0010000001000012100001101110
000002100011110001110011011
000021000111100011100110110
000210001111000111001101100
002100011110001110011011000
021000111100011100110110000
210001111000111001101100002
100011110001110011011000021
000111100011100110110000210
001111000111001101100002100
011110001110011011000021000
111100011100110110000210001
111000111001101100002100011
110001110011011000021000111
100011100110110000210001111
000111001101100002100011110
001110011011000021000111100
011100110110000210001111000
111001101100002100011110001
110011011000021000111100011
100110110000210001111000111
001101100002100011110001110
011011000021000111100011100
110110000210001111000111001
101100002100011110001110011
011000021000111100011100110
110000210001111000111001101
100002100011110001110011011
000021000111100011100110111

fitness: 68280 21581 0.76 2752 1.00 Gen: 493
0010000001000012100001101110
0100000010000121000011011100
1000000100001210000110111001
0000001000012100001101110010
0000010000121000011011100100
0000100001210000110111001000
0001000012100001101110010000
0010000121000011011100100000
0100001210000110111001000000
1000012100001101110010000001
0000121000011011100100000010
0001210000110111001000000100
0012100001101110010000001000
0121000011011100100000010000
1210000110111001000000100001
2100001101110010000001000012
1000011011100100000010000121
0000110111001000000100001210
0001101110010000001000012100
0011011100100000010000121000
0110111001000000100001210000
1101110010000001000012100001
1011100100000010000121000011
0111001000000100001210000110
1110010000001000012100001101
1100100000010000121000011011
1001000000100001210000110111
0010000001000012100001101110
000002100011110001110001011
000021000111100011100010110
000210001111000111000101100
002100011110001110001011000
021000111100011100010110000
210001111000111000101100002
100011110001110001011000021
000111100011100010110000210
001111000111000101100002100
011110001110001011000021000
111100011100010110000210001
111000111000101100002100011
110001110001011000021000111
100011100010110000210001111
000111000101100002100011110
001110001011000021000111100
011100010110000210001111000
111000101100002100011110001
110001011000021000111100011
100010110000210001111000111
000101100002100011110001110
001011000021000111100011100
010110000210001111000111000
101100002100011110001110001
011000021000111100011100010
110000210001111000111000101
100002100011110001110001011
000021000111100011100010111

fitness: 93091 21995 0.71 3123 1.00 Gen: 508
0010000001000012100001101110
0100000010000121000011011100
1000000100001210000110111001
0000001000012100001101110010
0000010000121000011011100100
0000100001210000110111001000
0001000012100001101110010000
0010000121000011011100100000
0100001210000110111001000000
1000012100001101110010000001
0000121000011011100100000010
0001210000110111001000000100
0012100001101110010000001000
0121000011011100100000010000
1210000110111001000000100001
2100001101110010000001000012
1000011011100100000010000121
0000110111001000000100001210
0001101110010000001000012100
0011011100100000010000121000
0110111001000000100001210000
1101110010000001000012100001
1011100100000010000121000011
0111001000000100001210000110
1110010000001000012100001101
1100100000010000121000011011
1001000000100001210000110111
0010000001000012100001101110
000001100011110001110011011
000011000111100011100110110
000110001111000111001101100
001100011110001110011011000
011000111100011100110110000
110001111000111001101100001
100011110001110011011000011
000111100011100110110000110
001111000111001101100001100
011110001110011011000011000
111100011100110110000110001
111000111001101100001100011
110001110011011000011000111
100011100110110000110001111
000111001101100001100011110
001110011011000011000111100
011100110110000110001111000
111001101100001100011110001
110011011000011000111100011
100110110000110001111000111
001101100001100011110001110
011011000011000111100011100
110110000110001111000111001
101100001100011110001110011
011000011000111100011100110
110000110001111000111001101
100001100011110001110011011
000011000111100011100110111

fitness: 129795 7563 0.39 2883 0.99 Gen: 531
0010000001000012100011101110
0100000010000121000111011100
1000000100001210001110111001
0000001000012100011101110010
0000010000121000111011100100
0000100001210001110111001000
0001000012100011101110010000
0010000121000111011100100000
0100001210001110111001000000
1000012100011101110010000001
0000121000111011100100000010
0001210001110111001000000100
0012100011101110010000001000
0121000111011100100000010000
1210001110111001000000100001
2100011101110010000001000012
1000111011100100000010000121
0001110111001000000100001210
0011101110010000001000012100
0111011100100000010000121000
1110111001000000100001210001
1101110010000001000012100011
1011100100000010000121000111
0111001000000100001210001110
1110010000001000012100011101
1100100000010000121000111011
1001000000100001210001110111
0010000001000012100011101110
000000100011110001110021011
000001000111100011100210110
000010001111000111002101100
000100011110001110021011000
001000111100011100210110000
010001111000111002101100000
100011110001110021011000001
000111100011100210110000010
001111000111002101100000100
011110001110021011000001000
111100011100210110000010001
111000111002101100000100011
110001110021011000001000111
100011100210110000010001111
000111002101100000100011110
001110021011000001000111100
011100210110000010001111000
111002101100000100011110001
110021011000001000111100011
100210110000010001111000111
002101100000100011110001110
021011000001000111100011100
210110000010001111000111002
101100000100011110001110021
011000001000111100011100210
110000010001111000111002101
100000100011110001110021011
000001000111100011100210111

fitness: 70384 21718 0.75 3237 1.00 Gen: 546
0010000001000012100001101110
0100000010000121000011011100
1000000100001210000110111001
0000001000012100001101110010
0000010000121000011011100100
0000100001210000110111001000
0001000012100001101110010000
0010000121000011011100100000
0100001210000110111001000000
1000012100001101110010000001
0000121000011011100100000010
0001210000110111001000000100
0012100001101110010000001000
0121000011011100100000010000
1210000110111001000000100001
2100001101110010000001000012
1000011011100100000010000121
0000110111001000000100001210
0001101110010000001000012100
0011011100100000010000121000
0110111001000000100001210000
1101110010000001000012100001
1011100100000010000121000011
0111001000000100001210000110
1110010000001000012100001101
1100100000010000121000011011
1001000000100001210000110111
0010000001000012100001101110
000002100011110001110011011
000021000111100011100110110
000210001111000111001101100
002100011110001110011011000
021000111100011100110110000
210001111000111001101100002
100011110001110011011000021
000111100011100110110000210
001111000111001101100002100
011110001110011011000021000
111100011100110110000210001
111000111001101100002100011
110001110011011000021000111
100011100110110000210001111
000111001101100002100011110
001110011011000021000111100
011100110110000210001111000
111001101100002100011110001
110011011000021000111100011
100110110000210001111000111
001101100002100011110001110
011011000021000111100011100
110110000210001111000111001
101100002100011110001110011
011000021000111100011100110
110000210001111000111001101
100002100011110001110011011
000021000111100011100110111

fitness: 72486 22478 0.75 3039 1.00 Gen: 607
0010000001000012100001101110
0100000010000121000011011100
1000000100001210000110111001
0000001000012100001101110010
0000010000121000011011100100
0000100001210000110111001000
0001000012100001101110010000
0010000121000011011100100000
0100001210000110111001000000
1000012100001101110010000001
0000121000011011100100000010
0001210000110111001000000100
0012100001101110010000001000
0121000011011100100000010000
1210000110111001000000100001
2100001101110010000001000012
1000011011100100000010000121
0000110111001000000100001210
0001101110010000001000012100
0011011100100000010000121000
0110111001000000100001210000
1101110010000001000012100001
1011100100000010000121000011
0111001000000100001210000110
1110010000001000012100001101
1100100000010000121000011011
1001000000100001210000110111
0010000001000012100001101110
000002100011110001110011011
000021000111100011100110110
000210001111000111001101100
002100011110001110011011000
021000111100011100110110000
210001111000111001101100002
100011110001110011011000021
000111100011100110110000210
001111000111001101100002100
011110001110011011000021000
111100011100110110000210001
111000111001101100002100011
110001110011011000021000111
100011100110110000210001111
000111001101100002100011110
001110011011000021000111100
011100110110000210001111000
111001101100002100011110001
110011011000021000111100011
100110110000210001111000111
001101100002100011110001110
011011000021000111100011100
110110000210001111000111001
101100002100011110001110011
011000021000111100011100110
110000210001111000111001101
100002100011110001110011011
000021000111100011100110111

fitness: 70848 21956 0.75 3120 1.00 Gen: 612
0010000001000012100001101110
0100000010000121000011011100
1000000100001210000110111001
0000001000012100001101110010
0000010000121000011011100100
0000100001210000110111001000
0001000012100001101110010000
0010000121000011011100100000
0100001210000110111001000000
1000012100001101110010000001
0000121000011011100100000010
0001210000110111001000000100
0012100001101110010000001000
0121000011011100100000010000
1210000110111001000000100001
2100001101110010000001000012
1000011011100100000010000121
0000110111001000000100001210
0001101110010000001000012100
0011011100100000010000121000
0110111001000000100001210000
1101110010000001000012100001
1011100100000010000121000011
0111001000000100001210000110
1110010000001000012100001101
1100100000010000121000011011
1001000000100001210000110111
0010000001000012100001101110
000002100011110001110011011
000021000111100011100110110
000210001111000111001101100
002100011110001110011011000
021000111100011100110110000
210001111000111001101100002
100011110001110011011000021
000111100011100110110000210
001111000111001101100002100
011110001110011011000021000
111100011100110110000210001
111000111001101100002100011
110001110011011000021000111
100011100110110000210001111
000111001101100002100011110
001110011011000021000111100
011100110110000210001111000
111001101100002100011110001
110011011000021000111100011
100110110000210001111000111
001101100002100011110001110
011011000021000111100011100
110110000210001111000111001
101100002100011110001110011
011000021000111100011100110
110000210001111000111001101
100002100011110001110011011
000021000111100011100110111

fitness: 67236 21960 0.76 2884 1.00 Gen: 625
0010000001000012100001101110
0100000010000121000011011100
1000000100001210000110111001
0000001000012100001101110010
0000010000121000011011100100
0000100001210000110111001000
0001000012100001101110010000
0010000121000011011100100000
0100001210000110111001000000
1000012100001101110010000001
0000121000011011100100000010
0001210000110111001000000100
0012100001101110010000001000
0121000011011100100000010000
1210000110111001000000100001
2100001101110010000001000012
1000011011100100000010000121
0000110111001000000100001210
0001101110010000001000012100
0011011100100000010000121000
0110111001000000100001210000
1101110010000001000012100001
1011100100000010000121000011
0111001000000100001210000110
1110010000001000012100001101
1100100000010000121000011011
1001000000100001210000110111
0010000001000012100001101110
000002100011110001110011011
000021000111100011100110110
000210001111000111001101100
002100011110001110011011000
021000111100011100110110000
210001111000111001101100002
100011110001110011011000021
000111100011100110110000210
001111000111001101100002100
011110001110011011000021000
111100011100110110000210001
111000111001101100002100011
110001110011011000021000111
100011100110110000210001111
000111001101100002100011110
001110011011000021000111100
011100110110000210001111000
111001101100002100011110001
110011011000021000111100011
100110110000210001111000111
001101100002100011110001110
011011000021000111100011100
110110000210001111000111001
101100002100011110001110011
011000021000111100011100110
110000210001111000111001101
100002100011110001110011011
000021000111100011100110111

fitness: 68084 23977 0.77 3274 1.00 Gen: 635
0010000001000012100001101110
0100000010000121000011011100
1000000100001210000110111001
0000001000012100001101110010
0000010000121000011011100100
0000100001210000110111001000
0001000012100001101110010000
0010000121000011011100100000
0100001210000110111001000000
1000012100001101110010000001
0000121000011011100100000010
0001210000110111001000000100
0012100001101110010000001000
0121000011011100100000010000
1210000110111001000000100001
2100001101110010000001000012
1000011011100100000010000121
0000110111001000000100001210
0001101110010000001000012100
0011011100100000010000121000
0110111001000000100001210000
1101110010000001000012100001
1011100100000010000121000011
0111001000000100001210000110
1110010000001000012100001101
1100100000010000121000011011
1001000000100001210000110111
0010000001000012100001101110
000002100011110001110021011
000021000111100011100210110
000210001111000111002101100
002100011110001110021011000
021000111100011100210110000
210001111000111002101100002
100011110001110021011000021
000111100011100210110000210
001111000111002101100002100
011110001110021011000021000
111100011100210110000210001
111000111002101100002100011
110001110021011000021000111
100011100210110000210001111
000111002101100002100011110
001110021011000021000111100
011100210110000210001111000
111002101100002100011110001
110021011000021000111100011
100210110000210001111000111
002101100002100011110001110
021011000021000111100011100
210110000210001111000111002
101100002100011110001110021
011000021000111100011100210
110000210001111000111002101
100002100011110001110021011
000021000111100011100210111

fitness: 70527 22525 0.75 3125 1.00 Gen: 649
0010000001000012100001101110
0100000010000121000011011100
1000000100001210000110111001
0000001000012100001101110010
0000010000121000011011100100
0000100001210000110111001000
0001000012100001101110010000
0010000121000011011100100000
0100001210000110111001000000
1000012100001101110010000001
0000121000011011100100000010
0001210000110111001000000100
0012100001101110010000001000
0121000011011100100000010000
1210000110111001000000100001
2100001101110010000001000012
1000011011100100000010000121
0000110111001000000100001210
0001101110010000001000012100
0011011100100000010000121000
0110111001000000100001210000
1101110010000001000012100001
1011100100000010000121000011
0111001000000100001210000110
1110010000001000012100001101
1100100000010000121000011011
1001000000100001210000110111
0010000001000012100001101110
000002100011110001110011011
000021000111100011100110110
000210001111000111001101100
002100011110001110011011000
021000111100011100110110000
210001111000111001101100002
100011110001110011011000021
000111100011100110110000210
001111000111001101100002100
011110001110011011000021000
111100011100110110000210001
111000111001101100002100011
110001110011011000021000111
100011100110110000210001111
000111001101100002100011110
001110011011000021000111100
011100110110000210001111000
111001101100002100011110001
110011011000021000111100011
100110110000210001111000111
001101100002100011110001110
011011000021000111100011100
110110000210001111000111001
101100002100011110001110011
011000021000111100011100110
110000210001111000111001101
100002100011110001110011011
000021000111100011100110111

