101101000100000110
011010100000011101
011001000010000011
010110000100011101
110001010100001000
010000000101111110
100011011110010101
110001110001011000
001111101110101010
110100101011011011
001111001111111100
101000001000111111
001001010100101001
100101111010010101
000101001100000000
101111100011110111
000110000101011011
001111101010000000
001000011011110111
111000100101101001
