Generation 699:
001100101101200101
011001011012001011
110010110120010110
100101101200101101
001011012001011010
010110120010110100
101101200101101001
011012001011010010
110120010110100101
101200101101001011
012001011010010110
120010110100101100
200101101001011000
001011010010110000
010110100101100000
101101001011000000
011010010110000000
110100101100000001
01011001112000112
10110011120001121
01100111200011212
11001112000112120
10011120001121201
00111200011212011
01112000112120110
11120001121201100
11200011212011001
12000112120110011
20001121201100110
00011212011001100
00112120110011002
01121201100110020
11212011001100201
12120110011002010
21201100110020101
12011001100201010

001100101101200101
011001011012001011
110010110120010110
100101101200101101
001011012001011010
010110120010110100
101101200101101001
011012001011010010
110120010110100101
101200101101001011
012001011010010110
120010110100101100
200101101001011000
001011010010110000
010110100101100000
101101001011000000
011010010110000000
110100101100000001
01011001112000122
10110011120001222
01100111200012222
11001112000122220
10011120001222201
00111200012222011
01112000122220110
11120001222201100
11200012222011001
12000122220110011
20001222201100110
00012222011001100
00122220110011002
01222201100110020
12222011001100201
22220110011002011
22201100110020111
22011001100201110

001100101101200101
011001011012001011
110010110120010110
100101101200101101
001011012001011010
010110120010110100
101101200101101001
011012001011010010
110120010110100101
101200101101001011
012001011010010110
120010110100101100
200101101001011000
001011010010110000
010110100101100000
101101001011000000
011010010110000000
110100101100000001
01011001112000122
10110011120001221
01100111200012212
11001112000122120
10011120001221201
00111200012212011
01112000122120110
11120001221201100
11200012212011001
12000122120110011
20001221201100110
00012212011001100
00122120110011002
01221201100110020
12212011001100200
22120110011002000
21201100110020001
12011001100200010

001100101101200101
011001011012001011
110010110120010110
100101101200101101
001011012001011010
010110120010110100
101101200101101001
011012001011010010
110120010110100101
101200101101001011
012001011010010110
120010110100101100
200101101001011000
001011010010110000
010110100101100000
101101001011000000
011010010110000000
110100101100000001
01011001112000122
10110011120001221
01100111200012212
11001112000122120
10011120001221201
00111200012212011
01112000122120110
11120001221201100
11200012212011001
12000122120110011
20001221201100110
00012212011001100
00122120110011002
01221201100110020
12212011001100200
22120110011002000
21201100110020001
12011001100200010

001100101101200101
011001011012001011
110010110120010110
100101101200101101
001011012001011010
010110120010110100
101101200101101002
011012001011010020
110120010110100201
101200101101002011
012001011010020110
120010110100201100
200101101002011000
001011010020110000
010110100201100000
101101002011000000
011010020110000000
110100201100000001
01011001112000122
10110011120001222
01100111200012222
11001112000122220
10011120001222201
00111200012222011
01112000122220110
11120001222201100
11200012222011001
12000122220110011
20001222201100110
00012222011001100
00122220110011002
01222201100110020
12222011001100201
22220110011002011
22201100110020111
22011001100201110

001100101101200101
011001011012001011
110010110120010110
100101101200101101
001011012001011010
010110120010110100
101101200101101002
011012001011010020
110120010110100201
101200101101002011
012001011010020110
120010110100201100
200101101002011000
001011010020110000
010110100201100000
101101002011000000
011010020110000000
110100201100000001
01011001112000112
10110011120001122
01100111200011222
11001112000112220
10011120001122201
00111200011222011
01112000112220110
11120001122201100
11200011222011001
12000112220110011
20001122201100110
00011222011001100
00112220110011002
01122201100110020
11222011001100200
12220110011002001
22201100110020011
22011001100200110

001100001101200101
011000011012001011
110000110120010110
100001101200101101
000011012001011010
000110120010110100
001101200101101000
011012001011010000
110120010110100001
101200101101000011
012001011010000110
120010110100001100
200101101000011000
001011010000110000
010110100001100000
101101000011000000
011010000110000000
110100001100000001
01011001112000122
10110011120001222
01100111200012222
11001112000122220
10011120001222201
00111200012222011
01112000122220110
11120001222201100
11200012222011001
12000122220110011
20001222201100110
00012222011001100
00122220110011002
01222201100110020
12222011001100201
22220110011002011
22201100110020111
22011001100201110

001100101101100101
011001011011001011
110010110110010110
100101101100101101
001011011001011010
010110110010110100
101101100101101001
011011001011010010
110110010110100101
101100101101001011
011001011010010110
110010110100101100
100101101001011000
001011010010110000
010110100101100000
101101001011000000
011010010110000000
110100101100000001
11011001112000122
10110011120001221
01100111200012212
11001112000122120
10011120001221201
00111200012212011
01112000122120110
11120001221201100
11200012212011001
12000122120110011
20001221201100110
00012212011001100
00122120110011002
01221201100110020
12212011001100201
22120110011002010
21201100110020101
12011001100201010

001100001101200101
011000011012001011
110000110120010110
100001101200101101
000011012001011010
000110120010110100
001101200101101001
011012001011010010
110120010110100101
101200101101001011
012001011010010110
120010110100101100
200101101001011000
001011010010110000
010110100101100000
101101001011000000
011010010110000000
110100101100000001
01011001112000122
10110011120001221
01100111200012212
11001112000122120
10011120001221201
00111200012212011
01112000122120110
11120001221201100
11200012212011001
12000122120110011
20001221201100110
00012212011001100
00122120110011002
01221201100110020
12212011001100201
22120110011002010
21201100110020101
12011001100201010

001100101101100101
011001011011001011
110010110110010110
100101101100101101
001011011001011010
010110110010110100
101101100101101001
011011001011010010
110110010110100101
101100101101001011
011001011010010110
110010110100101100
100101101001011000
001011010010110000
010110100101100000
101101001011000000
011010010110000000
110100101100000001
11011001112000122
10110011120001221
01100111200012212
11001112000122120
10011120001221201
00111200012212011
01112000122120110
11120001221201100
11200012212011001
12000122120110011
20001221201100110
00012212011001100
00122120110011002
01221201100110020
12212011001100201
22120110011002011
21201100110020111
12011001100201110

001100101101200101
011001011012001011
110010110120010110
100101101200101101
001011012001011010
010110120010110100
101101200101101001
011012001011010010
110120010110100101
101200101101001011
012001011010010110
120010110100101100
200101101001011000
001011010010110000
010110100101100000
101101001011000000
011010010110000000
110100101100000001
01011001112000122
10110011120001221
01100111200012212
11001112000122120
10011120001221201
00111200012212011
01112000122120110
11120001221201100
11200012212011001
12000122120110011
20001221201100110
00012212011001100
00122120110011002
01221201100110020
12212011001100201
22120110011002010
21201100110020101
12011001100201010

001100101101200101
011001011012001011
110010110120010110
100101101200101101
001011012001011010
010110120010110100
101101200101101002
011012001011010020
110120010110100201
101200101101002011
012001011010020110
120010110100201100
200101101002011000
001011010020110000
010110100201100000
101101002011000000
011010020110000000
110100201100000001
01011001112000112
10110011120001122
01100111200011222
11001112000112220
10011120001122201
00111200011222011
01112000112220110
11120001122201100
11200011222011001
12000112220110011
20001122201100110
00011222011001100
00112220110011002
01122201100110020
11222011001100200
12220110011002000
22201100110020001
22011001100200010

001100101101200101
011001011012001011
110010110120010110
100101101200101101
001011012001011010
010110120010110100
101101200101101001
011012001011010010
110120010110100101
101200101101001011
012001011010010110
120010110100101100
200101101001011000
001011010010110000
010110100101100000
101101001011000000
011010010110000000
110100101100000001
01011001112000112
10110011120001121
01100111200011212
11001112000112120
10011120001121201
00111200011212011
01112000112120110
11120001121201100
11200011212011001
12000112120110011
20001121201100110
00011212011001100
00112120110011002
01121201100110020
11212011001100201
12120110011002010
21201100110020101
12011001100201010

001100201101200101
011002011012001011
110020110120010110
100201101200101101
002011012001011010
020110120010110100
201101200101101001
011012001011010010
110120010110100101
101200101101001011
012001011010010110
120010110100101100
200101101001011000
001011010010110000
010110100101100000
101101001011000000
011010010110000000
110100101100000001
01011001112000122
10110011120001222
01100111200012222
11001112000122220
10011120001222201
00111200012222011
01112000122220110
11120001222201100
11200012222011001
12000122220110011
20001222201100110
00012222011001100
00122220110011002
01222201100110020
12222011001100201
22220110011002011
22201100110020111
22011001100201110

001100101101200101
011001011012001011
110010110120010110
100101101200101101
001011012001011010
010110120010110100
101101200101101001
011012001011010010
110120010110100101
101200101101001011
012001011010010110
120010110100101100
200101101001011000
001011010010110000
010110100101100000
101101001011000000
011010010110000000
110100101100000001
01011001112000122
10110011120001221
01100111200012212
11001112000122120
10011120001221201
00111200012212011
01112000122120110
11120001221201100
11200012212011001
12000122120110011
20001221201100110
00012212011001100
00122120110011002
01221201100110020
12212011001100201
22120110011002010
21201100110020101
12011001100201010

001100001101200101
011000011012001011
110000110120010110
100001101200101101
000011012001011010
000110120010110100
001101200101101002
011012001011010020
110120010110100201
101200101101002011
012001011010020110
120010110100201100
200101101002011000
001011010020110000
010110100201100000
101101002011000000
011010020110000000
110100201100000001
01011001112000122
10110011120001222
01100111200012222
11001112000122220
10011120001222201
00111200012222011
01112000122220110
11120001222201100
11200012222011001
12000122220110011
20001222201100110
00012222011001100
00122220110011002
01222201100110020
12222011001100201
22220110011002011
22201100110020111
22011001100201110

001100201101200101
011002011012001011
110020110120010110
100201101200101101
002011012001011010
020110120010110100
201101200101101002
011012001011010020
110120010110100201
101200101101002011
012001011010020110
120010110100201100
200101101002011000
001011010020110000
010110100201100000
101101002011000000
011010020110000000
110100201100000001
01011001112000122
10110011120001222
01100111200012222
11001112000122220
10011120001222201
00111200012222011
01112000122220110
11120001222201100
11200012222011001
12000122220110011
20001222201100110
00012222011001100
00122220110011002
01222201100110020
12222011001100201
22220110011002011
22201100110020111
22011001100201110

001100101101200101
011001011012001011
110010110120010110
100101101200101101
001011012001011010
010110120010110100
101101200101101002
011012001011010020
110120010110100201
101200101101002011
012001011010020110
120010110100201100
200101101002011000
001011010020110000
010110100201100000
101101002011000000
011010020110000000
110100201100000001
01011001112000112
10110011120001122
01100111200011222
11001112000112220
10011120001122201
00111200011222011
01112000112220110
11120001122201100
11200011222011001
12000112220110011
20001122201100110
00011222011001100
00112220110011002
01122201100110020
11222011001100200
12220110011002000
22201100110020001
22011001100200010

001100101101200101
011001011012001011
110010110120010110
100101101200101101
001011012001011010
010110120010110100
101101200101101001
011012001011010010
110120010110100101
101200101101001011
012001011010010110
120010110100101100
200101101001011000
001011010010110000
010110100101100000
101101001011000000
011010010110000000
110100101100000001
01011001112000122
10110011120001222
01100111200012222
11001112000122220
10011120001222201
00111200012222011
01112000122220110
11120001222201100
11200012222011001
12000122220110011
20001222201100110
00012222011001100
00122220110011002
01222201100110020
12222011001100201
22220110011002011
22201100110020111
22011001100201110

101100101101000101
011001011010001011
110010110100010111
100101101000101111
001011010001011110
010110100010111100
101101000101111000
011010001011110000
110100010111100001
101000101111000011
010001011110000110
100010111100001100
000101111000011000
001011110000110002
010111100001100020
101111000011000200
011110000110002000
111100001100020001
01011001112000122
10110011120001221
01100111200012212
11001112000122120
10011120001221200
00111200012212001
01112000122120011
11120001221200110
11200012212001101
12000122120011011
20001221200110111
00012212001101110
00122120011011102
01221200110111020
12212001101110201
22120011011102010
21200110111020101
12001101110201010

001100001101200101
011000011012001011
110000110120010110
100001101200101101
000011012001011010
000110120010110100
001101200101101000
011012001011010000
110120010110100001
101200101101000011
012001011010000110
120010110100001100
200101101000011000
001011010000110000
010110100001100000
101101000011000000
011010000110000000
110100001100000001
01011001112000122
10110011120001222
01100111200012222
11001112000122220
10011120001222201
00111200012222011
01112000122220110
11120001222201100
11200012222011001
12000122220110011
20001222201100110
00012222011001100
00122220110011002
01222201100110020
12222011001100201
22220110011002010
22201100110020101
22011001100201010

001100101101100101
011001011011001011
110010110110010110
100101101100101101
001011011001011010
010110110010110100
101101100101101002
011011001011010020
110110010110100201
101100101101002011
011001011010020110
110010110100201100
100101101002011000
001011010020110000
010110100201100000
101101002011000000
011010020110000000
110100201100000001
01011001112000112
10110011120001120
01100111200011202
11001112000112020
10011120001120201
00111200011202011
01112000112020110
11120001120201100
11200011202011001
12000112020110011
20001120201100110
00011202011001100
00112020110011002
01120201100110020
11202011001100201
12020110011002011
20201100110020111
02011001100201110

001100101101200101
011001011012001011
110010110120010110
100101101200101101
001011012001011010
010110120010110100
101101200101101001
011012001011010010
110120010110100101
101200101101001011
012001011010010110
120010110100101100
200101101001011000
001011010010110000
010110100101100000
101101001011000000
011010010110000000
110100101100000001
01011001112000122
10110011120001221
01100111200012212
11001112000122120
10011120001221201
00111200012212011
01112000122120110
11120001221201100
11200012212011001
12000122120110011
20001221201100110
00012212011001100
00122120110011002
01221201100110020
12212011001100200
22120110011002000
21201100110020001
12011001100200010

001100101101200101
011001011012001011
110010110120010110
100101101200101101
001011012001011010
010110120010110100
101101200101101001
011012001011010010
110120010110100101
101200101101001011
012001011010010110
120010110100101100
200101101001011000
001011010010110000
010110100101100000
101101001011000000
011010010110000000
110100101100000001
01011001112000122
10110011120001221
01100111200012212
11001112000122120
10011120001221201
00111200012212011
01112000122120110
11120001221201100
11200012212011001
12000122120110011
20001221201100110
00012212011001100
00122120110011002
01221201100110020
12212011001100200
22120110011002000
21201100110020001
12011001100200010

001100101101100101
011001011011001011
110010110110010110
100101101100101101
001011011001011010
010110110010110100
101101100101101001
011011001011010010
110110010110100101
101100101101001011
011001011010010110
110010110100101100
100101101001011000
001011010010110000
010110100101100000
101101001011000000
011010010110000000
110100101100000001
11011001112000122
10110011120001220
01100111200012202
11001112000122020
10011120001220201
00111200012202011
01112000122020110
11120001220201100
11200012202011001
12000122020110011
20001220201100110
00012202011001100
00122020110011002
01220201100110020
12202011001100201
22020110011002011
20201100110020111
02011001100201110

001100101101200101
011001011012001011
110010110120010110
100101101200101101
001011012001011010
010110120010110100
101101200101101001
011012001011010010
110120010110100101
101200101101001011
012001011010010110
120010110100101100
200101101001011000
001011010010110000
010110100101100000
101101001011000000
011010010110000000
110100101100000001
01011001112000122
10110011120001222
01100111200012222
11001112000122220
10011120001222201
00111200012222011
01112000122220110
11120001222201100
11200012222011001
12000122220110011
20001222201100110
00012222011001100
00122220110011002
01222201100110020
12222011001100200
22220110011002001
22201100110020011
22011001100200110

001100001101200101
011000011012001011
110000110120010110
100001101200101101
000011012001011010
000110120010110100
001101200101101000
011012001011010000
110120010110100001
101200101101000011
012001011010000110
120010110100001100
200101101000011000
001011010000110000
010110100001100000
101101000011000000
011010000110000000
110100001100000001
01011001112000112
10110011120001122
01100111200011222
11001112000112220
10011120001122201
00111200011222011
01112000112220110
11120001122201100
11200011222011001
12000112220110011
20001122201100110
00011222011001100
00112220110011002
01122201100110020
11222011001100201
12220110011002010
22201100110020101
22011001100201010

001100101101200101
011001011012001011
110010110120010110
100101101200101101
001011012001011010
010110120010110100
101101200101101001
011012001011010010
110120010110100101
101200101101001011
012001011010010110
120010110100101100
200101101001011000
001011010010110000
010110100101100000
101101001011000000
011010010110000000
110100101100000001
01011001112000112
10110011120001122
01100111200011222
11001112000112220
10011120001122201
00111200011222011
01112000112220110
11120001122201101
11200011222011011
12000112220110111
20001122201101110
00011222011011100
00112220110111002
01122201101110020
11222011011100200
12220110111002000
22201101110020001
22011011100200010

001100101101100101
011001011011001011
110010110110010110
100101101100101101
001011011001011010
010110110010110100
101101100101101001
011011001011010010
110110010110100101
101100101101001011
011001011010010110
110010110100101100
100101101001011000
001011010010110000
010110100101100000
101101001011000000
011010010110000000
110100101100000001
11011001112000122
10110011120001221
01100111200012212
11001112000122120
10011120001221201
00111200012212011
01112000122120110
11120001221201100
11200012212011001
12000122120110011
20001221201100110
00012212011001100
00122120110011002
01221201100110020
12212011001100201
22120110011002010
21201100110020101
12011001100201010

001100101101200101
011001011012001011
110010110120010110
100101101200101101
001011012001011010
010110120010110100
101101200101101001
011012001011010010
110120010110100101
101200101101001011
012001011010010110
120010110100101100
200101101001011000
001011010010110000
010110100101100000
101101001011000000
011010010110000000
110100101100000001
01011001112000122
10110011120001221
01100111200012212
11001112000122120
10011120001221201
00111200012212011
01112000122120110
11120001221201100
11200012212011001
12000122120110011
20001221201100110
00012212011001100
00122120110011002
01221201100110020
12212011001100201
22120110011002011
21201100110020111
12011001100201110

001100101101200101
011001011012001011
110010110120010110
100101101200101101
001011012001011010
010110120010110100
101101200101101001
011012001011010010
110120010110100101
101200101101001011
012001011010010110
120010110100101100
200101101001011000
001011010010110000
010110100101100000
101101001011000000
011010010110000000
110100101100000001
01011001112000122
10110011120001221
01100111200012212
11001112000122120
10011120001221201
00111200012212011
01112000122120110
11120001221201100
11200012212011001
12000122120110011
20001221201100110
00012212011001100
00122120110011002
01221201100110020
12212011001100201
22120110011002010
21201100110020101
12011001100201010

001100101101200101
011001011012001011
110010110120010110
100101101200101101
001011012001011010
010110120010110100
101101200101101002
011012001011010020
110120010110100201
101200101101002011
012001011010020110
120010110100201100
200101101002011000
001011010020110000
010110100201100000
101101002011000000
011010020110000000
110100201100000001
01011001112000102
10110011120001022
01100111200010222
11001112000102220
10011120001022201
00111200010222011
01112000102220110
11120001022201100
11200010222011001
12000102220110011
20001022201100110
00010222011001100
00102220110011002
01022201100110020
10222011001100201
02220110011002010
22201100110020101
22011001100201010

001100101101000101
011001011010001011
110010110100010110
100101101000101101
001011010001011010
010110100010110100
101101000101101000
011010001011010000
110100010110100001
101000101101000011
010001011010000110
100010110100001100
000101101000011000
001011010000110001
010110100001100010
101101000011000100
011010000110001000
110100001100010001
01011001112100122
10110011121001221
01100111210012212
11001112100122120
10011121001221200
00111210012212001
01112100122120011
11121001221200110
11210012212001101
12100122120011011
21001221200110111
10012212001101110
00122120011011102
01221200110111020
12212001101110201
22120011011102010
21200110111020101
12001101110201010

001100101101000101
011001011010001011
110010110100010110
100101101000101101
001011010001011010
010110100010110100
101101000101101001
011010001011010010
110100010110100101
101000101101001011
010001011010010110
100010110100101100
000101101001011000
001011010010110000
010110100101100000
101101001011000000
011010010110000000
110100101100000001
01011001112000122
10110011120001221
01100111200012212
11001112000122120
10011120001221201
00111200012212011
01112000122120110
11120001221201100
11200012212011001
12000122120110011
20001221201100110
00012212011001100
00122120110011002
01221201100110020
12212011001100200
22120110011002000
21201100110020001
12011001100200010

001100201101200101
011002011012001011
110020110120010110
100201101200101101
002011012001011010
020110120010110100
201101200101101002
011012001011010020
110120010110100201
101200101101002011
012001011010020110
120010110100201100
200101101002011000
001011010020110000
010110100201100000
101101002011000000
011010020110000000
110100201100000001
01011001112000122
10110011120001222
01100111200012222
11001112000122220
10011120001222201
00111200012222011
01112000122220110
11120001222201100
11200012222011001
12000122220110011
20001222201100110
00012222011001100
00122220110011002
01222201100110020
12222011001100201
22220110011002011
22201100110020111
22011001100201110

001100201101200101
011002011012001011
110020110120010110
100201101200101101
002011012001011010
020110120010110100
201101200101101002
011012001011010020
110120010110100201
101200101101002011
012001011010020110
120010110100201100
200101101002011000
001011010020110000
010110100201100000
101101002011000000
011010020110000000
110100201100000001
01011001112000122
10110011120001222
01100111200012222
11001112000122220
10011120001222201
00111200012222011
01112000122220110
11120001222201100
11200012222011001
12000122220110011
20001222201100110
00012222011001100
00122220110011002
01222201100110020
12222011001100201
22220110011002011
22201100110020111
22011001100201110

001100101101200101
011001011012001011
110010110120010110
100101101200101101
001011012001011010
010110120010110100
101101200101101001
011012001011010010
110120010110100101
101200101101001011
012001011010010110
120010110100101100
200101101001011000
001011010010110000
010110100101100000
101101001011000000
011010010110000000
110100101100000001
01011001112000112
10110011120001122
01100111200011222
11001112000112220
10011120001122201
00111200011222011
01112000112220110
11120001122201100
11200011222011001
12000112220110011
20001122201100110
00011222011001100
00112220110011002
01122201100110020
11222011001100201
12220110011002010
22201100110020101
22011001100201010

001100101101200101
011001011012001011
110010110120010110
100101101200101101
001011012001011010
010110120010110100
101101200101101001
011012001011010010
110120010110100101
101200101101001011
012001011010010110
120010110100101100
200101101001011000
001011010010110000
010110100101100000
101101001011000000
011010010110000000
110100101100000001
01011001112000112
10110011120001122
01100111200011222
11001112000112220
10011120001122201
00111200011222011
01112000112220110
11120001122201100
11200011222011001
12000112220110011
20001122201100110
00011222011001100
00112220110011002
01122201100110020
11222011001100200
12220110011002001
22201100110020011
22011001100200110

001100101101200101
011001011012001011
110010110120010110
100101101200101101
001011012001011010
010110120010110100
101101200101101001
011012001011010010
110120010110100101
101200101101001011
012001011010010110
120010110100101100
200101101001011000
001011010010110000
010110100101100000
101101001011000000
011010010110000000
110100101100000001
01011001112000122
10110011120001222
01100111200012222
11001112000122220
10011120001222201
00111200012222011
01112000122220110
11120001222201100
11200012222011001
12000122220110011
20001222201100110
00012222011001100
00122220110011002
01222201100110020
12222011001100200
22220110011002000
22201100110020001
22011001100200010

001100101101200101
011001011012001011
110010110120010110
100101101200101101
001011012001011010
010110120010110100
101101200101101001
011012001011010010
110120010110100101
101200101101001011
012001011010010110
120010110100101100
200101101001011000
001011010010110000
010110100101100000
101101001011000000
011010010110000000
110100101100000001
01011001112000122
10110011120001221
01100111200012212
11001112000122120
10011120001221201
00111200012212011
01112000122120110
11120001221201100
11200012212011001
12000122120110011
20001221201100110
00012212011001100
00122120110011002
01221201100110020
12212011001100200
22120110011002000
21201100110020001
12011001100200010

