fitness: 33513 20462 0.88 3315 1.00 Gen: 60
12211100100101220112
22111001001012201122
21110010010122011222
11100100101220112221
11001001012201122211
10010010122011222111
00100101220112221110
01001012201122211100
10010122011222111001
00101220112221110010
01012201122211100100
10122011222111001001
01220112221110010010
12201122211100100101
22011222111001001012
20112221110010010122
01122211100100101220
11222111001001012201
12221110010010122011
22211100100101220112
1021001112110222210
0210011121102222100
2100111211022221002
1001112110222210021
0011121102222100210
0111211022221002100
1112110222210021001
1121102222100210011
1211022221002100111
2110222210021001112
1102222100210011121
1022221002100111211
0222210021001112110
2222100210011121102
2221002100111211022
2210021001112110222
2100210011121102222
1002100111211022221
0021001112110222210
0210011121102222102

fitness: 40267 20977 0.84 3172 1.00 Gen: 70
22222200100112110110
22222001001121101102
22220010011211011022
22200100112110110222
22001001121101102222
20010011211011022222
00100112110110222220
01001121101102222200
10011211011022222001
00112110110222220010
01121101102222200100
11211011022222001001
12110110222220010011
21101102222200100112
11011022222001001121
10110222220010011211
01102222200100112110
11022222001001121101
10222220010011211011
02222200100112110110
0021012212112220220
0210122121122202200
2101221211222022002
1012212112220220021
0122121122202200210
1221211222022002101
2212112220220021012
2121122202200210122
1211222022002101221
2112220220021012212
1122202200210122121
1222022002101221211
2220220021012212112
2202200210122121122
2022002101221211222
0220021012212112220
2200210122121122202
2002101221211222022
0021012212112220220
0210122121122202201

fitness: 34805 20645 0.87 3057 1.00 Gen: 95
11201112112001022220
12011121120010222201
20111211200102222012
01112112001022220120
11121120010222201201
11211200102222012011
12112001022220120111
21120010222201201112
11200102222012011121
12001022220120111211
20010222201201112112
00102222012011121120
01022220120111211200
10222201201112112001
02222012011121120010
22220120111211200102
22201201112112001022
22012011121120010222
20120111211200102222
01201112112001022220
2111011210100112222
1110112101001122221
1101121010011222211
1011210100112222111
0112101001122221110
1121010011222211101
1210100112222111011
2101001122221110112
1010011222211101121
0100112222111011210
1001122221110112101
0011222211101121010
0112222111011210100
1122221110112101001
1222211101121010011
2222111011210100112
2221110112101001122
2211101121010011222
2111011210100112222
1110112101001122222

fitness: 73040 22313 0.75 2869 1.00 Gen: 128
01221220102001122120
12212201020011221201
22122010200112212012
21220102001122120122
12201020011221201221
22010200112212012212
20102001122120122122
01020011221201221220
10200112212012212201
02001122120122122010
20011221201221220102
00112212012212201020
01122120122122010200
11221201221220102001
12212012212201020011
22120122122010200112
21201221220102001122
12012212201020011221
20122122010200112212
01221220102001122120
2001011110110210220
0010111101102102200
0101111011021022000
1011110110210220001
0111101102102200010
1111011021022000101
1110110210220001011
1101102102200010111
1011021022000101111
0110210220001011110
1102102200010111101
1021022000101111011
0210220001011110110
2102200010111101102
1022000101111011021
0220001011110110210
2200010111101102102
2000101111011021022
0001011110110210220
0010111101102102202

fitness: 35161 22486 0.90 2957 1.00 Gen: 148
21101202101012022000
11012021010120220001
10120210101202200011
01202101012022000110
12021010120220001101
20210101202200011012
02101012022000110120
21010120220001101202
10101202200011012021
01012022000110120210
10120220001101202101
01202200011012021010
12022000110120210101
20220001101202101012
02200011012021010120
22000110120210101202
20001101202101012022
00011012021010120220
00110120210101202200
01101202101012022000
0212121220102222122
2121212201022221222
1212122010222212221
2121220102222122212
1212201022221222121
2122010222212221212
1220102222122212121
2201022221222121212
2010222212221212122
0102222122212121220
1022221222121212201
0222212221212122010
2222122212121220102
2221222121212201022
2212221212122010222
2122212121220102222
1222121212201022221
2221212122010222212
2212121220102222122
2121212201022221222

fitness: 39812 20873 0.86 2746 1.00 Gen: 154
12201000101001112110
22010001010011121102
20100010100111211022
01000101001112110220
10001010011121102201
00010100111211022010
00101001112110220100
01010011121102201000
10100111211022010001
01001112110220100010
10011121102201000101
00111211022010001010
01112110220100010100
11121102201000101001
11211022010001010011
12110220100010100111
21102201000101001112
11022010001010011121
10220100010100111211
02201000101001112110
1011012110110210222
0110121101102102220
1101211011021022201
1012110110210222011
0121101102102220110
1211011021022201101
2110110210222011012
1101102102220110121
1011021022201101211
0110210222011012110
1102102220110121101
1021022201101211011
0210222011012110110
2102220110121101102
1022201101211011021
0222011012110110210
2220110121101102102
2201101211011021022
2011012110110210222
0110121101102102222

fitness: 33532 21981 0.90 3072 1.00 Gen: 160
12211100112102220110
22111001121022201102
21110011210222011022
11100112102220110221
11001121022201102211
10011210222011022111
00112102220110221110
01121022201102211100
11210222011022111001
12102220110221110011
21022201102211100112
10222011022111001121
02220110221110011210
22201102211100112102
22011022111001121022
20110221110011210222
01102211100112102220
11022111001121022201
10221110011210222011
02211100112102220110
2121001112110220220
1210011121102202201
2100111211022022012
1001112110220220121
0011121102202201210
0111211022022012100
1112110220220121001
1121102202201210011
1211022022012100111
2110220220121001112
1102202201210011121
1022022012100111211
0220220121001112110
2202201210011121102
2022012100111211022
0220121001112110220
2201210011121102202
2012100111211022022
0121001112110220220
1210011121102202201

fitness: 42575 21328 0.85 2838 1.00 Gen: 196
11211200102101112100
12112001021011121001
21120010210111210012
11200102101112100121
12001021011121001211
20010210111210012112
00102101112100121120
01021011121001211200
10210111210012112001
02101112100121120010
21011121001211200102
10111210012112001021
01112100121120010210
11121001211200102101
11210012112001021011
12100121120010210111
21001211200102101112
10012112001021011121
00121120010210111210
01211200102101112100
1012021110110212122
0120211101102121220
1202111011021212201
2021110110212122012
0211101102121220120
2111011021212201202
1110110212122012021
1101102121220120211
1011021212201202111
0110212122012021110
1102121220120211101
1021212201202111011
0212122012021110110
2121220120211101102
1212201202111011021
2122012021110110212
1220120211101102121
2201202111011021212
2012021110110212122
0120211101102121222

fitness: 31193 21599 0.91 3040 1.00 Gen: 200
12201102112002022220
22011021120020222202
20110211200202222022
01102112002022220220
11021120020222202201
10211200202222022011
02112002022220220110
21120020222202201102
11200202222022011021
12002022220220110211
20020222202201102112
00202222022011021120
02022220220110211200
20222202201102112002
02222022011021120020
22220220110211200202
22202201102112002022
22022011021120020222
20220110211200202222
02201102112002022220
2121011212100212220
1210112121002122201
2101121210021222012
1011212100212220121
0112121002122201210
1121210021222012101
1212100212220121011
2121002122201210112
1210021222012101121
2100212220121011212
1002122201210112121
0021222012101121210
0212220121011212100
2122201210112121002
1222012101121210021
2220121011212100212
2201210112121002122
2012101121210021222
0121011212100212220
1210112121002122202

fitness: 49292 21730 0.82 3213 1.00 Gen: 204
12221100102101210112
22211001021012101122
22110010210121011222
21100102101210112222
11001021012101122221
10010210121011222211
00102101210112222110
01021012101122221100
10210121011222211001
02101210112222110010
21012101122221100102
10121011222211001021
01210112222110010210
12101122221100102101
21011222211001021012
10112222110010210121
01122221100102101210
11222211001021012101
12222110010210121011
22221100102101210112
2121011110110212220
1210111101102122201
2101111011021222012
1011110110212220121
0111101102122201210
1111011021222012101
1110110212220121011
1101102122201210111
1011021222012101111
0110212220121011110
1102122201210111101
1021222012101111011
0212220121011110110
2122201210111101102
1222012101111011021
2220121011110110212
2201210111101102122
2012101111011021222
0121011110110212220
1210111101102122202

fitness: 31894 19783 0.89 2804 1.00 Gen: 228
20100111222002012020
01001112220020120200
10011122200201202001
00111222002012020010
01112220020120200100
11122200201202001001
11222002012020010011
12220020120200100111
22200201202001001112
22002012020010011122
20020120200100111222
00201202001001112220
02012020010011122200
20120200100111222002
01202001001112220020
12020010011122200201
20200100111222002012
02001001112220020120
20010011122200201202
00100111222002012020
2111111112212122021
1111111122121220211
1111111221212202111
1111112212122021111
1111122121220211111
1111221212202111111
1112212122021111111
1122121220211111111
1221212202111111111
2212122021111111112
2121220211111111122
1212202111111111221
2122021111111112212
1220211111111122121
2202111111111221212
2021111111112212122
0211111111122121220
2111111111221212202
1111111112212122021
1111111122121220211

fitness: 30629 21788 0.92 3257 1.00 Gen: 231
12211102102001220112
22111021020012201122
21110210200122011222
11102102001220112221
11021020012201122211
10210200122011222111
02102001220112221110
21020012201122211102
10200122011222111021
02001220112221110210
20012201122211102102
00122011222111021020
01220112221110210200
12201122211102102001
22011222111021020012
20112221110210200122
01122211102102001220
11222111021020012201
12221110210200122011
22211102102001220112
2121011212110222220
1210112121102222201
2101121211022222012
1011212110222220121
0112121102222201210
1121211022222012101
1212110222220121011
2121102222201210112
1211022222012101121
2110222220121011212
1102222201210112121
1022222012101121211
0222220121011212110
2222201210112121102
2222012101121211022
2220121011212110222
2201210112121102222
2012101121211022222
0121011212110222220
1210112121102222202

fitness: 32652 21547 0.90 2946 1.00 Gen: 269
22211100100112010001
22111001001120100012
21110010011201000122
11100100112010001221
11001001120100012211
10010011201000122111
00100112010001221110
01001120100012211100
10011201000122111001
00112010001221110010
01120100012211100100
11201000122111001001
12010001221110010011
20100012211100100112
01000122111001001120
10001221110010011201
00012211100100112010
00122111001001120100
01221110010011201000
12211100100112010001
0212021220212222122
2120212202122221222
1202122021222212221
2021220212222122212
0212202122221222120
2122021222212221202
1220212222122212021
2202122221222120212
2021222212221202122
0212222122212021220
2122221222120212202
1222212221202122021
2222122212021220212
2221222120212202122
2212221202122021222
2122212021220212222
1222120212202122221
2221202122021222212
2212021220212222122
2120212202122221221

fitness: 37733 20138 0.86 2967 1.00 Gen: 303
12201200102101122110
22012001021011221102
20120010210112211022
01200102101122110220
12001021011221102201
20010210112211022012
00102101122110220120
01021011221102201200
10210112211022012001
02101122110220120010
21011221102201200102
10112211022012001021
01122110220120010210
11221102201200102101
12211022012001021011
22110220120010210112
21102201200102101122
11022012001021011221
10220120010210112211
02201200102101122110
1011011110110210222
0110111101102102220
1101111011021022201
1011110110210222011
0111101102102220110
1111011021022201101
1110110210222011011
1101102102220110111
1011021022201101111
0110210222011011110
1102102220110111101
1021022201101111011
0210222011011110110
2102220110111101102
1022201101111011021
0222011011110110210
2220110111101102102
2201101111011021022
2011011110110210222
0110111101102102222

fitness: 36135 19585 0.85 3138 1.00 Gen: 306
01120212012001122211
11202120120011222111
12021201200112221111
20212012001122211112
02120120011222111120
21201200112221111202
12012001122211112021
20120011222111120212
01200112221111202120
12001122211112021201
20011222111120212012
00112221111202120120
01122211112021201200
11222111120212012001
12221111202120120011
22211112021201200112
22111120212012001122
21111202120120011222
11112021201200112221
11120212012001122211
2211111112110222112
2111111121102221122
1111111211022211221
1111112110222112211
1111121102221122111
1111211022211221111
1112110222112211111
1121102221122111111
1211022211221111111
2110222112211111112
1102221122111111121
1022211221111111211
0222112211111112110
2221122111111121102
2211221111111211022
2112211111112110222
1122111111121102221
1221111111211022211
2211111112110222112
2111111121102221121

fitness: 30110 20468 0.91 3159 1.00 Gen: 373
11120212112001022221
11202121120010222211
12021211200102222111
20212112001022221112
02121120010222211120
21211200102222111202
12112001022221112021
21120010222211120212
11200102222111202121
12001022221112021211
20010222211120212112
00102222111202121120
01022221112021211200
10222211120212112001
02222111202121120010
22221112021211200102
22211120212112001022
22111202121120010222
21112021211200102222
11120212112001022221
1211011212110220212
2110112121102202122
1101121211022021221
1011212110220212211
0112121102202122110
1121211022021221101
1212110220212211011
2121102202122110112
1211022021221101121
2110220212211011212
1102202122110112121
1022021221101121211
0220212211011212110
2202122110112121102
2021221101121211022
0212211011212110220
2122110112121102202
1221101121211022021
2211011212110220212
2110112121102202121

fitness: 34872 20014 0.87 2747 1.00 Gen: 402
12201000101001112110
22010001010011121102
20100010100111211022
01000101001112110220
10001010011121102201
00010100111211022010
00101001112110220100
01010011121102201000
10100111211022010001
01001112110220100010
10011121102201000101
00111211022010001010
01112110220100010100
11121102201000101001
11211022010001010011
12110220100010100111
21102201000101001112
11022010001010011121
10220100010100111211
02201000101001112110
1011012110110210222
0110121101102102220
1101211011021022201
1012110110210222011
0121101102102220110
1211011021022201101
2110110210222011012
1101102102220110121
1011021022201101211
0110210222011012110
1102102220110121101
1021022201101211011
0210222011012110110
2102220110121101102
1022201101211011021
0222011012110110210
2220110121101102102
2201101211011021022
2011012110110210222
0110121101102102222

fitness: 35749 19282 0.84 3025 1.00 Gen: 461
01120212012001122211
11202120120011222111
12021201200112221111
20212012001122211112
02120120011222111120
21201200112221111202
12012001122211112021
20120011222111120212
01200112221111202120
12001122211112021201
20011222111120212012
00112221111202120120
01122211112021201200
11222111120212012001
12221111202120120011
22211112021201200112
22111120212012001122
21111202120120011222
11112021201200112221
11120212012001122211
2211111112110222112
2111111121102221122
1111111211022211221
1111112110222112211
1111121102221122111
1111211022211221111
1112110222112211111
1121102221122111111
1211022211221111111
2110222112211111112
1102221122111111121
1022211221111111211
0222112211111112110
2221122111111121102
2211221111111211022
2112211111112110222
1122111111121102221
1221111111211022211
2211111112110222112
2111111121102221121

fitness: 37915 21792 0.88 2845 1.00 Gen: 511
22201200100102110110
22012001001021101102
20120010010211011022
01200100102110110220
12001001021101102201
20010010211011022012
00100102110110220120
01001021101102201200
10010211011022012001
00102110110220120010
01021101102201200100
10211011022012001001
02110110220120010010
21101102201200100102
11011022012001001021
10110220120010010211
01102201200100102110
11022012001001021101
10220120010010211011
02201200100102110110
0021012212112220222
0210122121122202220
2101221211222022202
1012212112220222021
0122121122202220210
1221211222022202101
2212112220222021012
2121122202220210122
1211222022202101221
2112220222021012212
1122202220210122121
1222022202101221211
2220222021012212112
2202220210122121122
2022202101221211222
0222021012212112220
2220210122121122202
2202101221211222022
2021012212112220222
0210122121122202221

fitness: 34701 20761 0.88 2980 1.00 Gen: 516
12211100102002220112
22111001020022201122
21110010200222011222
11100102002220112221
11001020022201122211
10010200222011222111
00102002220112221110
01020022201122211100
10200222011222111001
02002220112221110010
20022201122211100102
00222011222111001020
02220112221110010200
22201122211100102002
22011222111001020022
20112221110010200222
01122211100102002220
11222111001020022201
12221110010200222011
22211100102002220112
1011001112110212210
0110011121102122100
1100111211021221001
1001112110212210011
0011121102122100110
0111211021221001100
1112110212210011001
1121102122100110011
1211021221001100111
2110212210011001112
1102122100110011121
1021221001100111211
0212210011001112110
2122100110011121102
1221001100111211021
2210011001112110212
2100110011121102122
1001100111211021221
0011001112110212210
0110011121102122102

fitness: 28156 20516 0.93 2984 1.00 Gen: 531
12201102112002022220
22011021120020222202
20110211200202222022
01102112002022220220
11021120020222202201
10211200202222022011
02112002022220220110
21120020222202201102
11200202222022011021
12002022220220110211
20020222202201102112
00202222022011021120
02022220220110211200
20222202201102112002
02222022011021120020
22220220110211200202
22202201102112002022
22022011021120020222
20220110211200202222
02201102112002022220
2121011212100212220
1210112121002122201
2101121210021222012
1011212100212220121
0112121002122201210
1121210021222012101
1212100212220121011
2121002122201210112
1210021222012101121
2100212220121011212
1002122201210112121
0021222012101121210
0212220121011212100
2122201210112121002
1222012101121210021
2220121011212100212
2201210112121002122
2012101121210021222
0121011212100212220
1210112121002122202

fitness: 32701 19288 0.86 2907 1.00 Gen: 557
11221100102102220112
12211001021022201121
22110010210222011212
21100102102220112122
11001021022201121221
10010210222011212211
00102102220112122110
01021022201121221100
10210222011212211001
02102220112122110010
21022201121221100102
10222011212211001021
02220112122110010210
22201121221100102102
22011212211001021022
20112122110010210222
01121221100102102220
11212211001021022201
12122110010210222011
21221100102102220112
2211011110110212222
2110111101102122222
1101111011021222221
1011110110212222211
0111101102122222110
1111011021222221101
1110110212222211011
1101102122222110111
1011021222221101111
0110212222211011110
1102122222110111101
1021222221101111011
0212222211011110110
2122222110111101102
1222221101111011021
2222211011110110212
2222110111101102122
2221101111011021222
2211011110110212222
2110111101102122222

fitness: 39786 21609 0.86 3294 1.00 Gen: 616
12211100102002120122
22111001020021201222
21110010200212012222
11100102002120122221
11001020021201222211
10010200212012222111
00102002120122221110
01020021201222211100
10200212012222111001
02002120122221110010
20021201222211100102
00212012222111001020
02120122221110010200
21201222211100102002
12012222111001020021
20122221110010200212
01222211100102002120
12222111001020021201
22221110010200212012
22211100102002120122
1011001110110212210
0110011101102122100
1100111011021221001
1001110110212210011
0011101102122100110
0111011021221001100
1110110212210011001
1101102122100110011
1011021221001100111
0110212210011001110
1102122100110011101
1021221001100111011
0212210011001110110
2122100110011101102
1221001100111011021
2210011001110110212
2100110011101102122
1001100111011021221
0011001110110212210
0110011101102122102

fitness: 31153 20241 0.89 3192 1.00 Gen: 665
20100111222002012020
01001112220020120200
10011122200201202001
00111222002012020010
01112220020120200100
11122200201202001001
11222002012020010011
12220020120200100111
22200201202001001112
22002012020010011122
20020120200100111222
00201202001001112220
02012020010011122200
20120200100111222002
01202001001112220020
12020010011122200201
20200100111222002012
02001001112220020120
20010011122200201202
00100111222002012020
2111111112212122021
1111111122121220211
1111111221212202111
1111112212122021111
1111122121220211111
1111221212202111111
1112212122021111111
1122121220211111111
1221212202111111111
2212122021111111112
2121220211111111122
1212202111111111221
2122021111111112212
1220211111111122121
2202111111111221212
2021111111112212122
0211111111122121220
2111111111221212202
1111111112212122021
1111111122121220211

fitness: 35242 21522 0.88 3023 1.00 Gen: 695
11211202102101112100
12112021021011121001
21120210210111210012
11202102101112100121
12021021011121001211
20210210111210012112
02102101112100121120
21021011121001211202
10210111210012112021
02101112100121120210
21011121001211202102
10111210012112021021
01112100121120210210
11121001211202102101
11210012112021021011
12100121120210210111
21001211202102101112
10012112021021011121
00121120210210111210
01211202102101112100
1012021110110212122
0120211101102121220
1202111011021212201
2021110110212122012
0211101102121220120
2111011021212201202
1110110212122012021
1101102121220120211
1011021212201202111
0110212122012021110
1102121220120211101
1021212201202111011
0212122012021110110
2121220120211101102
1212201202111011021
2122012021110110212
1220120211101102121
2201202111011021212
2012021110110212122
0120211101102121222

