1110010100101100111001
0001100100110000010100
0100101000110100000110
0100111100001011000001
1011000000010111110010
0000000000101001010110
0001010000010110111001
0100111100000011111001
1011001000111110101110
1110010001101101100110
1010101101100111001101
1110010111011100110110
1000011011101101000110
0010001010110110101100
0011111110111101010101
1111101100011111010010
1111110100110000101011
0000111111111101010001
1111100110011101111110
0101110010111100110100
